<?xml version="1.0" encoding="utf-8"?>
<svg version="1.1" xmlns="http://www.w3.org/2000/svg" width="134.1" height="161.847">
<defs>
<clipPath id = "shield">
<path d="M67.1,1.1c35.8,18.8,66,2.9,66,2.9s.8,52.4-1.7,69.7c0,0-6.8,57.7-64.3,87.2c-57.5-29.5-64.3-87.2-64.3-87.2C.3,56.3,1.1,3.9,1.1,3.9S31.3,19.8,67.1,1.1z"/>
</clipPath>
</defs>
<g clip-path="url(#shield)">
<path d="M0,0H134.1V160.8H0z" fill="#04f"/>
<path d="M0,73.6H134.1V0H67.1V160.8H0z" fill="#007800"/>
</g>
<path fill="#FFF" stroke="#FDD301" stroke-width="2" d="M34.665,17.841L39.176,25.711L47.02,21.152L46.991,30.224L56.063,30.197L51.897,38.265L58.981,42.326L51.505,47.065L56.063,54.906L46.991,54.879L47.02,63.952L39.176,59.39L34.665,67.261L30.153,59.39L22.31,63.952L22.337,54.879L13.265,54.906L17.825,47.065L9.954,42.551L17.825,38.04L13.265,30.197L22.337,30.224L22.31,21.152L30.153,25.711z"/>
<circle fill="#FFF" stroke="#FDD301" stroke-width="1.862" cx="34.875" cy="42.562" r="15.378"/>
<path d="M2.8,73.6H131.3M67.1,1.1V160.8" fill="none" stroke="#fdd301" stroke-width="1.862"/>
<path fill="#D21E48" stroke="#FDD301" stroke-width="1.862" stroke-miterlimit="10" d="M94.05,26.926L59.05,63.426L68.675,63.426L43.05,86.801H52.55L33.55,107.676L74.675,80.468H64.759L96.091,54.634H82.591L109.8,26.926z"/>
<path fill="#FFF" stroke="#FDD301" stroke-width="2" d="M73.239,95.426H88.122L92.714,82.443L97.228,95.426H112.031L99.444,103.581L104.827,117.989L92.636,109.042L80.839,117.592L86.144,103.66z"/>
<path fill="none" stroke="#FDD301" stroke-width="1.862" d="M67.1,1.1c35.8,18.8,66,2.9,66,2.9s.8,52.4-1.7,69.7c0,0-6.8,57.7-64.3,87.2c-57.5-29.5-64.3-87.2-64.3-87.2C.3,56.3,1.1,3.9,1.1,3.9S31.3,19.8,67.1,1.1z"/>
</svg>
