<svg width="102" height="102" viewBox="0 0 102 102" fill="none" xmlns="http://www.w3.org/2000/svg">
<path d="M77.6671 71.9016H54.6671L58.6671 62.5377H73.6671L60.3338 33.4426L36.0004 87.2852H25.6671L33.0004 102L81.0004 79.259L77.6671 71.9016Z" fill="#165895"/>
<path d="M59.6667 12.0393H61L90.6667 74.5771L102 69.2262L69 0L0 33.1082L24.6667 85.2787L59.6667 12.0393Z" fill="#165895"/>
</svg>
