<?xml version="1.0" encoding="utf-8"?>
<!-- Generator: Adobe Illustrator 24.3.0, SVG Export Plug-In . SVG Version: 6.00 Build 0)  -->
<svg version="1.1" id="Layer_1" xmlns="http://www.w3.org/2000/svg" xmlns:xlink="http://www.w3.org/1999/xlink" x="0px" y="0px"
	 viewBox="0 0 291.79 136.5" style="enable-background:new 0 0 291.79 136.5;" xml:space="preserve">
<style type="text/css">
	.st0{fill:#1D8649;}
	.st1{fill:#4E5859;}
	.st2{fill:#54575A;}
</style>
<g>
	<g>
		<path class="st0" d="M132.88,80.36h-11.5l-2.75,7.88h-5.54l11.04-29.67h6.33l11.04,29.67h-5.83L132.88,80.36z M122.87,75.85h8.5
			l-4.25-12.09L122.87,75.85z"/>
		<path class="st0" d="M157.43,85.9c-0.56,0.45-1.26,0.81-2.13,1.08c-0.86,0.28-2.02,0.42-3.46,0.42c-1.81,0-3.31-0.21-4.52-0.63
			c-1.21-0.42-2.18-1.05-2.92-1.9c-0.74-0.85-1.26-1.91-1.58-3.19c-0.32-1.28-0.48-2.76-0.48-4.46v-1.17c0-1.64,0.15-3.09,0.44-4.35
			c0.29-1.26,0.83-2.33,1.6-3.19c0.78-0.86,1.83-1.51,3.15-1.96c1.32-0.44,3.01-0.67,5.06-0.67c2.08,0,3.79,0.23,5.13,0.69
			c1.33,0.46,2.38,1.1,3.15,1.94c0.76,0.83,1.28,1.84,1.56,3.02c0.28,1.18,0.42,2.49,0.42,3.94v10.75c0,1.67-0.19,3.1-0.56,4.29
			c-0.38,1.19-0.98,2.17-1.81,2.92c-0.83,0.75-1.9,1.3-3.21,1.65c-1.31,0.35-2.89,0.52-4.75,0.52c-0.58,0-1.14,0-1.67,0
			s-1.1,0-1.71,0c-0.61,0-1.29-0.01-2.02-0.02c-0.74-0.01-1.6-0.03-2.6-0.06l0.87-4.34c0.78,0.03,1.48,0.05,2.1,0.06
			c0.63,0.01,1.21,0.02,1.75,0.02c0.54,0,1.06,0,1.54,0c0.49,0,0.98,0,1.48,0c0.94,0,1.74-0.08,2.4-0.23
			c0.65-0.15,1.19-0.42,1.6-0.79c0.42-0.38,0.72-0.9,0.9-1.56c0.18-0.67,0.27-1.5,0.27-2.5V85.9z M152.64,83.06
			c1,0,1.81-0.08,2.42-0.23c0.61-0.15,1.1-0.41,1.46-0.77c0.36-0.36,0.6-0.85,0.73-1.46c0.13-0.61,0.19-1.39,0.19-2.33v-2.04
			c0-1.22-0.04-2.22-0.12-3c-0.08-0.78-0.29-1.39-0.63-1.83c-0.33-0.44-0.82-0.75-1.46-0.92c-0.64-0.17-1.5-0.25-2.58-0.25
			c-1.08,0-1.94,0.08-2.58,0.25s-1.13,0.47-1.46,0.92c-0.33,0.44-0.54,1.06-0.63,1.83c-0.08,0.78-0.12,1.78-0.12,3v0.83
			c0,1.22,0.05,2.22,0.14,3c0.1,0.78,0.31,1.39,0.63,1.83c0.32,0.44,0.8,0.75,1.44,0.92S151.56,83.06,152.64,83.06z"/>
		<path class="st1" d="M188.77,58.56l-0.96,4.79h-14.5v7.29h14.25l-0.92,4.79h-13.34v8h15.5l-0.92,4.79h-20.13V58.56H188.77z"/>
		<path class="st1" d="M211.27,84.31c0,1.47-0.33,2.49-1,3.06c-0.67,0.57-1.82,0.85-3.46,0.85h-6.79c-2.97,0-5.08-0.56-6.31-1.67
			c-1.24-1.11-1.85-2.71-1.85-4.79v-0.92c0-2.31,0.68-3.98,2.04-5.02c1.36-1.04,3.49-1.56,6.38-1.56c1.44,0,2.65,0.12,3.61,0.35
			c0.96,0.24,1.67,0.51,2.15,0.81v-0.75c0-0.75-0.08-1.38-0.23-1.88c-0.15-0.5-0.41-0.9-0.77-1.19c-0.36-0.29-0.85-0.49-1.48-0.6
			c-0.63-0.11-1.41-0.17-2.35-0.17c-0.53,0-1.11,0-1.75,0c-0.64,0-1.29,0.01-1.94,0.02c-0.65,0.01-1.3,0.03-1.94,0.04
			c-0.64,0.01-1.22,0.02-1.75,0.02l0.87-4.38c0.78-0.03,1.75-0.05,2.92-0.06c1.17-0.01,2.44-0.02,3.83-0.02
			c3.39,0,5.88,0.6,7.46,1.79c1.58,1.19,2.38,3.07,2.38,5.63V84.31z M206.02,84.31v-3.38c0-0.5-0.05-0.92-0.15-1.27
			c-0.1-0.35-0.3-0.63-0.6-0.85c-0.31-0.22-0.74-0.38-1.29-0.48c-0.56-0.1-1.29-0.15-2.21-0.15h-0.63c-1.58,0-2.65,0.19-3.21,0.58
			c-0.56,0.39-0.83,1.1-0.83,2.13v0.79c0,0.89,0.26,1.55,0.77,1.98c0.51,0.43,1.47,0.65,2.85,0.65H206.02z"/>
		<path class="st1" d="M230.36,85.9c-0.56,0.45-1.26,0.81-2.13,1.08c-0.86,0.28-2.02,0.42-3.46,0.42c-1.81,0-3.31-0.21-4.52-0.63
			c-1.21-0.42-2.18-1.05-2.92-1.9c-0.74-0.85-1.26-1.91-1.58-3.19c-0.32-1.28-0.48-2.76-0.48-4.46v-1.17c0-1.64,0.15-3.09,0.44-4.35
			c0.29-1.26,0.83-2.33,1.6-3.19c0.78-0.86,1.83-1.51,3.15-1.96c1.32-0.44,3.01-0.67,5.06-0.67c2.08,0,3.79,0.23,5.13,0.69
			c1.33,0.46,2.38,1.1,3.15,1.94c0.76,0.83,1.28,1.84,1.56,3.02c0.28,1.18,0.42,2.49,0.42,3.94v10.75c0,1.67-0.19,3.1-0.56,4.29
			c-0.38,1.19-0.98,2.17-1.81,2.92c-0.83,0.75-1.9,1.3-3.21,1.65c-1.31,0.35-2.89,0.52-4.75,0.52c-0.58,0-1.14,0-1.67,0
			s-1.1,0-1.71,0c-0.61,0-1.29-0.01-2.02-0.02c-0.74-0.01-1.6-0.03-2.6-0.06l0.87-4.34c0.78,0.03,1.48,0.05,2.1,0.06
			c0.63,0.01,1.21,0.02,1.75,0.02c0.54,0,1.06,0,1.54,0c0.49,0,0.98,0,1.48,0c0.94,0,1.74-0.08,2.4-0.23
			c0.65-0.15,1.19-0.42,1.6-0.79c0.42-0.38,0.72-0.9,0.9-1.56c0.18-0.67,0.27-1.5,0.27-2.5V85.9z M225.57,83.06
			c1,0,1.81-0.08,2.42-0.23c0.61-0.15,1.1-0.41,1.46-0.77c0.36-0.36,0.6-0.85,0.73-1.46c0.13-0.61,0.19-1.39,0.19-2.33v-2.04
			c0-1.22-0.04-2.22-0.12-3c-0.08-0.78-0.29-1.39-0.63-1.83c-0.33-0.44-0.82-0.75-1.46-0.92c-0.64-0.17-1.5-0.25-2.58-0.25
			c-1.08,0-1.94,0.08-2.58,0.25c-0.64,0.17-1.13,0.47-1.46,0.92c-0.33,0.44-0.54,1.06-0.63,1.83c-0.08,0.78-0.12,1.78-0.12,3v0.83
			c0,1.22,0.05,2.22,0.14,3c0.1,0.78,0.31,1.39,0.63,1.83c0.32,0.44,0.8,0.75,1.44,0.92C223.62,82.98,224.49,83.06,225.57,83.06z"/>
		<path class="st1" d="M240.2,57.27h5.42v30.96h-5.42V57.27z"/>
		<path class="st1" d="M255.03,79.23c0,1,0.06,1.82,0.17,2.46c0.11,0.64,0.34,1.14,0.69,1.5c0.35,0.36,0.83,0.61,1.44,0.75
			c0.61,0.14,1.42,0.21,2.42,0.21c0.97,0,2.08,0,3.33,0s2.79-0.03,4.63-0.08l-0.83,4.17c-0.78,0.03-1.47,0.05-2.08,0.06
			s-1.2,0.02-1.77,0.02c-0.57,0-1.13,0-1.69,0s-1.17,0-1.83,0c-1.97,0-3.6-0.22-4.88-0.67c-1.28-0.44-2.29-1.08-3.02-1.92
			c-0.74-0.83-1.25-1.85-1.54-3.06c-0.29-1.21-0.44-2.59-0.44-4.15v-2.33c0-1.67,0.15-3.14,0.46-4.42c0.3-1.28,0.84-2.35,1.6-3.23
			c0.76-0.88,1.79-1.53,3.08-1.98c1.29-0.44,2.92-0.67,4.9-0.67c1.83,0,3.35,0.2,4.56,0.6c1.21,0.4,2.18,0.97,2.92,1.69
			c0.74,0.72,1.26,1.58,1.56,2.56c0.31,0.99,0.46,2.06,0.46,3.23v0.71c0,0.94-0.06,1.72-0.17,2.31c-0.11,0.6-0.3,1.06-0.56,1.4
			c-0.26,0.33-0.6,0.56-1.02,0.67c-0.42,0.11-0.93,0.17-1.54,0.17H255.03z M259.53,69.98c-0.94,0-1.71,0.08-2.29,0.23
			c-0.58,0.15-1.04,0.43-1.38,0.83c-0.33,0.4-0.56,0.94-0.67,1.63c-0.11,0.68-0.17,1.55-0.17,2.6h8.96v-0.96
			c0-0.81-0.07-1.49-0.21-2.04c-0.14-0.56-0.38-1-0.71-1.33s-0.79-0.58-1.37-0.73C261.12,70.06,260.39,69.98,259.53,69.98z"/>
	</g>
	<g>
		<path class="st0" d="M54.99,122.63c0,0,6.14-7.57,2.57-13.41c-2.65-4.34-11.13-3.42-15.79-4.73
			c-9.39-2.65-18.32-12.31-16.52-20.76c0,0,13.58,18.2,31.58,11.47c-2.13,0.41-13.41-4.13-21.16-11.41
			c-9.3-8.74-16.77-19.03-11.03-36.47c0,0,0.6,29.63,32.83,36.73c0,0-40.97-19.86-25.73-58.89c0,0,2.22,21.67,9.49,27.76
			c0,0-12.88-19.18,0.43-39.04c0,0-4,26.6,10.75,38.94c11.36,9.51,18.92,10.42,26.4,21.49c5.79,8.56,6.5,18.42-3.7,30.08
			c0,0,3.12-22.4-19.1-34.77C56.01,69.61,86.25,101.55,54.99,122.63z"/>
		<path class="st2" d="M88.26,55.76c-1.13,0.81-1.85,1.76-1.59,2.12c0.26,0.36,1.39-0.01,2.52-0.82s1.85-1.76,1.59-2.12
			S89.4,54.95,88.26,55.76z M104.1,55.65c-1.33,0.61-2.53,1.29-3.62,2.03c-1.06,0.66-1.94,1.33-2.78,2.14
			c-0.15,0.14-0.28,0.29-0.42,0.44c-6.38,6.15-8,15.1-10.69,22.9c0-0.01-0.01-0.02-0.01-0.03c-0.34-3.82-1.83-7.41-4.12-10.8
			c-2.26-3.34-4.53-5.75-6.91-7.76c-0.07-0.07-0.15-0.15-0.22-0.22c0.9-1.21,2.43-3.2,3.73-4.57c1.56-1.64,5.43-4.95,6.07-5.48
			c0.64-0.52,3.96-2.59,6.72-1.24c1.88-1.33,5.37-2.97,7.35-2.08C101.15,51.85,102.65,53.12,104.1,55.65z"/>
	</g>
</g>
</svg>
