<?xml version="1.0" encoding="utf-8"?>
<!-- Generator: Adobe Illustrator 22.0.1, SVG Export Plug-In . SVG Version: 6.00 Build 0)  -->
<svg version="1.1" id="Layer_1" xmlns="http://www.w3.org/2000/svg" xmlns:xlink="http://www.w3.org/1999/xlink" x="0px" y="0px"
	 width="300px" height="95.56px" viewBox="0 0 300 95.56" style="enable-background:new 0 0 300 95.56;" xml:space="preserve">
<path style="fill:#46166A;" d="M200.4,50.97l1.4,1.77c-1.14,1.6-2.4,3-3.79,4.18c-1.39,1.19-2.83,2.11-4.34,2.77
	c-1.51,0.65-3.01,0.98-4.52,0.99c-2.52-0.03-4.77-0.47-6.74-1.32c-1.97-0.86-3.64-2.02-5.01-3.51c-1.37-1.47-2.42-3.14-3.13-5
	s-1.08-3.81-1.08-5.83c0-1.8,0.29-3.55,0.88-5.26c0.58-1.7,1.42-3.31,2.53-4.81c1.1-1.49,2.45-2.82,4.02-3.98
	c1.61-1.17,3.19-2.08,4.73-2.76c1.53-0.66,2.96-1.13,4.29-1.41c1.32-0.27,2.46-0.4,3.41-0.39h0.07c1.35,0.01,2.57,0.18,3.69,0.53
	c1.11,0.34,1.99,0.78,2.63,1.31c0.5,0.37,0.86,0.77,1.04,1.21c0.2,0.44,0.29,0.92,0.28,1.43c-0.01,0.72-0.19,1.39-0.54,2
	c-0.34,0.61-0.76,1.1-1.25,1.47c-0.48,0.37-0.94,0.56-1.37,0.58c-0.26,0-0.5-0.06-0.76-0.18c-0.25-0.12-0.54-0.33-0.86-0.63
	c-1.53-1.32-2.9-2.29-4.11-2.91c-1.2-0.63-2.3-0.93-3.32-0.92c-0.75-0.01-1.48,0.18-2.21,0.56c-0.72,0.37-1.38,0.98-1.99,1.81
	c-0.6,0.83-1.08,1.94-1.43,3.3c-0.36,1.36-0.54,3.03-0.55,4.99c0.01,1.95,0.27,3.65,0.75,5.11c0.49,1.46,1.13,2.68,1.91,3.7
	c0.78,1,1.64,1.83,2.55,2.44c0.92,0.63,1.8,1.07,2.67,1.35c0.86,0.28,1.62,0.42,2.27,0.42c1.02,0,1.96-0.09,2.82-0.27
	c0.87-0.2,1.7-0.5,2.52-0.96C198.69,52.31,199.54,51.73,200.4,50.97z M207.18,57.2c-1.37-1.07-2.52-2.3-3.43-3.7
	c-0.92-1.39-1.59-2.87-2.05-4.45c-0.45-1.57-0.69-3.16-0.69-4.78c0.01-2.37,0.36-4.5,1.04-6.41c0.67-1.9,1.59-3.57,2.77-5
	c1.16-1.42,2.5-2.62,4.01-3.58c1.5-0.96,3.08-1.68,4.73-2.16c1.66-0.48,3.31-0.72,4.95-0.72h0.07c2.56,0.01,4.86,0.47,6.92,1.35
	c2.05,0.87,3.8,2.08,5.26,3.62c1.46,1.53,2.56,3.3,3.34,5.27c0.77,1.98,1.15,4.09,1.17,6.31c-0.01,2.37-0.33,4.5-0.95,6.38
	c-0.62,1.9-1.48,3.55-2.59,4.96c-1.09,1.42-2.37,2.6-3.81,3.54s-2.99,1.66-4.65,2.12c-1.65,0.48-3.34,0.71-5.07,0.71
	c-2.3-0.01-4.39-0.32-6.23-0.93C210.15,59.13,208.55,58.28,207.18,57.2z M211.53,41.63c0,2.28,0.17,4.39,0.52,6.35
	c0.36,1.95,0.85,3.66,1.5,5.14c0.65,1.47,1.45,2.61,2.37,3.44c0.92,0.82,1.96,1.24,3.12,1.25c0.71,0.03,1.4-0.13,2.07-0.45
	c0.69-0.32,1.3-0.93,1.85-1.81c0.55-0.89,0.98-2.17,1.31-3.85c0.33-1.67,0.49-3.85,0.5-6.53c0-3.42-0.28-6.3-0.83-8.66
	c-0.56-2.35-1.37-4.15-2.44-5.37c-1.08-1.23-2.39-1.85-3.93-1.85h-0.07c-1.02,0-1.99,0.44-2.88,1.32c-0.91,0.88-1.64,2.24-2.21,4.07
	C211.83,36.49,211.54,38.81,211.53,41.63z M262.23,33.39c0.28-0.65,0.43-1.36,0.47-2.12c0.67,0.13,1.23,0.26,1.67,0.4
	c0.53,0.18,0.93,0.44,1.19,0.78c0.27,0.34,0.44,0.83,0.53,1.48c0.08,0.65,0.12,1.52,0.11,2.61v15.22c0.01,1.21-0.04,2.17-0.12,2.87
	c-0.1,0.7-0.3,1.21-0.63,1.57c-0.33,0.34-0.82,0.59-1.48,0.76c-0.66,0.16-1.57,0.32-2.7,0.46v2.35h17.72v-2.35
	c-0.75-0.11-1.35-0.24-1.81-0.4c-0.45-0.15-0.81-0.39-1.04-0.72c-0.25-0.33-0.4-0.83-0.49-1.48c-0.07-0.66-0.11-1.56-0.11-2.68
	V34.35c0.94-0.74,1.86-1.3,2.75-1.69c0.88-0.39,1.79-0.59,2.7-0.59c0.89-0.01,1.73,0.2,2.49,0.61c0.77,0.43,1.38,1.14,1.86,2.16
	c0.47,1,0.71,2.39,0.72,4.14v12.5c0.01,1.29-0.03,2.32-0.1,3.06c-0.09,0.75-0.23,1.31-0.47,1.68c-0.23,0.37-0.59,0.64-1.05,0.8
	c-0.45,0.16-1.07,0.31-1.84,0.42v2.35h17.13v-2.35c-0.94-0.13-1.7-0.28-2.28-0.43c-0.58-0.16-1-0.4-1.29-0.74
	c-0.28-0.33-0.48-0.83-0.56-1.49c-0.1-0.66-0.15-1.57-0.13-2.71v-13.9c-0.01-2.46-0.4-4.57-1.18-6.32
	c-0.77-1.75-1.87-3.09-3.31-4.02c-1.43-0.94-3.15-1.41-5.15-1.42c-0.7,0-1.35,0.07-1.95,0.22c-0.59,0.15-1.19,0.38-1.79,0.69
	c-0.6,0.31-1.27,0.69-2,1.15c-0.81,0.52-1.58,1.05-2.33,1.62c-0.76,0.55-1.5,1.09-2.23,1.62v-5.44c-1.46,0.42-2.93,0.81-4.45,1.16
	c-1.51,0.36-3.02,0.67-4.51,0.96c-1.47,0.27-2.9,0.5-4.29,0.67c-0.06-0.13-0.12-0.25-0.19-0.37c-0.4-0.69-0.98-1.24-1.72-1.64
	c-0.73-0.4-1.6-0.61-2.59-0.63c-0.91,0.01-1.82,0.34-2.76,0.99c-0.93,0.65-1.85,1.54-2.77,2.7c-0.92,1.16-1.83,2.5-2.71,4.03h-0.22
	v-7.8c-2.27,0.69-4.51,1.26-6.7,1.7c-2.21,0.44-4.4,0.81-6.61,1.09v2.06c0.85,0.2,1.52,0.38,2.05,0.58
	c0.53,0.18,0.93,0.44,1.21,0.75c0.27,0.31,0.47,0.75,0.56,1.3c0.11,0.56,0.16,1.3,0.15,2.23v16.03c0.01,1.13-0.05,2.03-0.17,2.7
	c-0.14,0.67-0.36,1.19-0.69,1.53c-0.34,0.34-0.82,0.6-1.43,0.76c-0.63,0.16-1.42,0.28-2.41,0.38v2.35h20.15v-2.35
	c-1.41-0.11-2.51-0.26-3.35-0.42c-0.82-0.16-1.43-0.4-1.83-0.75c-0.41-0.34-0.66-0.85-0.77-1.51c-0.12-0.67-0.17-1.57-0.16-2.7
	V38.39c0.63-1.41,1.3-2.41,2-2.99c0.71-0.58,1.41-0.86,2.12-0.83c0.61,0,1.18,0.14,1.69,0.39c0.52,0.26,1.08,0.64,1.69,1.15
	c0.26,0.23,0.58,0.38,0.94,0.45c0.38,0.07,0.82,0.01,1.34-0.16c0.67-0.24,1.27-0.64,1.81-1.15
	C261.47,34.74,261.92,34.12,262.23,33.39z M173.47,59.79H155.8h-1.38h-19.65v-2.57c1.43-0.21,2.46-0.48,3.1-0.81
	c0.64-0.34,0.98-0.82,1-1.45c0.02-0.61-0.17-1.46-0.58-2.52c-0.38-1.13-0.82-2.4-1.34-3.85c-0.51-1.45-1.04-2.93-1.6-4.46h-14.12
	c-0.41,1.14-0.85,2.37-1.3,3.69c-0.45,1.31-0.91,2.71-1.35,4.18c-0.27,0.88-0.43,1.62-0.49,2.21c-0.06,0.6,0.05,1.09,0.33,1.48
	c0.28,0.38,0.8,0.7,1.53,0.93c0.75,0.24,1.78,0.44,3.11,0.6v2.57h-16.47l0.07-2.57c1.2-0.13,2.19-0.32,2.98-0.56
	c0.8-0.25,1.46-0.61,2.01-1.13c0.55-0.52,1.07-1.24,1.56-2.18c0.49-0.93,1.03-2.17,1.62-3.7l15.07-37.79l3.75-0.96
	c2.34,6.43,4.68,12.84,7,19.24c2.32,6.38,4.67,12.74,7.05,19.07c0.61,1.6,1.16,2.9,1.67,3.9c0.5,0.99,1.03,1.77,1.58,2.32
	s1.21,0.96,1.97,1.21c0.77,0.26,1.72,0.45,2.85,0.59c0.46-0.09,0.87-0.19,1.21-0.29c0.65-0.18,1.13-0.47,1.45-0.83
	c0.32-0.37,0.53-0.91,0.63-1.59c0.1-0.7,0.15-1.63,0.14-2.79V18.05c0.01-1.09-0.04-1.96-0.12-2.6c-0.09-0.64-0.28-1.11-0.56-1.44
	c-0.29-0.33-0.74-0.56-1.32-0.71c-0.6-0.16-1.4-0.29-2.4-0.4v-2.13c1.41-0.17,2.92-0.39,4.51-0.65c1.59-0.27,3.19-0.56,4.78-0.91
	c1.58-0.33,3.08-0.7,4.46-1.09v43.6c-0.01,1.23,0.04,2.18,0.13,2.91c0.11,0.71,0.32,1.25,0.65,1.62c0.32,0.37,0.82,0.63,1.48,0.8
	c0.66,0.16,1.54,0.31,2.66,0.42C173.47,57.47,173.47,59.79,173.47,59.79z M133.97,40.23l-5.44-15.88h-0.22
	c-1.03,2.68-2.01,5.34-2.97,7.99c-0.94,2.66-1.9,5.28-2.84,7.89H133.97z M189.95,78.61c-0.19,0.05-0.38,0.07-0.57,0.07
	c-0.12,0-0.26-0.01-0.41-0.06c-0.14-0.04-0.29-0.13-0.42-0.26c-0.14-0.14-0.25-0.33-0.33-0.6c-0.09-0.26-0.13-0.62-0.14-1.06v-5.62
	h2.09c0.12-0.07,0.21-0.17,0.26-0.31c0.05-0.14,0.06-0.28,0.05-0.43c-0.02-0.14-0.08-0.27-0.17-0.35h-2.23v-3.3l-0.32-0.14
	l-2.57,1.78v1.66h-0.91l-0.64,0.82l0.11,0.27h1.44v6.37c0,0.68,0.11,1.23,0.33,1.65c0.22,0.42,0.53,0.73,0.95,0.93
	c0.41,0.19,0.91,0.29,1.5,0.29c0.08,0,0.21-0.02,0.37-0.06c0.17-0.04,0.35-0.1,0.56-0.19l1.84-0.87l-0.23-0.79
	C190.33,78.5,190.14,78.56,189.95,78.61z M274.23,74.41c-0.46-0.29-1-0.57-1.62-0.83c-0.58-0.26-1-0.53-1.28-0.81
	c-0.27-0.28-0.41-0.59-0.4-0.94c0-0.25,0.06-0.46,0.17-0.64c0.11-0.18,0.25-0.33,0.42-0.43c0.18-0.1,0.36-0.16,0.56-0.16
	c0.36,0,0.68,0.1,0.96,0.29c0.29,0.19,0.55,0.46,0.79,0.81c0.24,0.35,0.46,0.75,0.66,1.22l0.68-0.21c-0.01-0.12-0.04-0.29-0.07-0.52
	c-0.04-0.23-0.08-0.48-0.13-0.75c-0.05-0.27-0.11-0.52-0.17-0.76s-0.12-0.42-0.17-0.56c-0.17-0.08-0.36-0.15-0.56-0.21
	c-0.2-0.06-0.44-0.11-0.71-0.15c-0.26-0.04-0.56-0.05-0.91-0.05c-0.6,0-1.13,0.09-1.6,0.26s-0.87,0.4-1.2,0.69
	c-0.33,0.29-0.58,0.64-0.75,1.03c-0.17,0.39-0.26,0.81-0.26,1.25c0,0.39,0.07,0.74,0.2,1.05c0.13,0.31,0.3,0.59,0.52,0.83
	c0.21,0.24,0.45,0.46,0.71,0.64c0.25,0.19,0.51,0.35,0.77,0.49c0.25,0.14,0.49,0.26,0.7,0.36c0.47,0.22,0.82,0.43,1.08,0.64
	c0.25,0.2,0.43,0.41,0.52,0.61s0.14,0.42,0.13,0.64c0,0.23-0.05,0.44-0.16,0.62c-0.11,0.18-0.25,0.33-0.44,0.44
	s-0.41,0.17-0.66,0.17c-0.35,0-0.67-0.09-0.98-0.27c-0.3-0.17-0.58-0.41-0.83-0.69c-0.25-0.29-0.47-0.61-0.66-0.97
	c-0.19-0.35-0.35-0.71-0.47-1.07l-0.68,0.07c0.01,0.28,0.02,0.57,0.05,0.89c0.02,0.31,0.05,0.62,0.09,0.91
	c0.03,0.29,0.07,0.55,0.11,0.77s0.07,0.38,0.11,0.48c0.16,0.12,0.38,0.24,0.68,0.35c0.29,0.12,0.63,0.22,1.01,0.3
	c0.38,0.08,0.77,0.12,1.18,0.13c0.49,0,0.97-0.07,1.44-0.21c0.48-0.14,0.92-0.35,1.31-0.63c0.39-0.28,0.71-0.63,0.95-1.05
	c0.24-0.42,0.36-0.91,0.37-1.47c0-0.59-0.13-1.08-0.39-1.49C275.05,75.06,274.69,74.71,274.23,74.41z M195.12,74.49
	c-0.47,0.03-0.93,0.05-1.38,0.07c0.05,0.81,0.2,1.49,0.49,2.03c0.28,0.54,0.64,0.95,1.09,1.22c0.45,0.27,0.95,0.41,1.49,0.41
	c0.44,0,0.87-0.08,1.3-0.23c0.42-0.16,0.83-0.4,1.23-0.75l0.41,0.55c-0.35,0.52-0.71,0.94-1.1,1.27c-0.38,0.33-0.75,0.59-1.12,0.77
	c-0.37,0.18-0.72,0.31-1.04,0.38s-0.6,0.11-0.84,0.1c-0.76,0-1.43-0.14-2.01-0.4c-0.58-0.25-1.08-0.61-1.48-1.06
	c-0.4-0.45-0.7-0.97-0.91-1.55c-0.2-0.58-0.31-1.21-0.31-1.87c0-0.58,0.08-1.12,0.22-1.63c0.15-0.51,0.35-0.97,0.6-1.39
	s0.54-0.78,0.86-1.1c0.5-0.51,1.06-0.9,1.66-1.19c0.6-0.28,1.21-0.43,1.82-0.43h0.02c0.53,0,1.01,0.11,1.46,0.31
	s0.84,0.47,1.17,0.82s0.6,0.74,0.78,1.17s0.28,0.89,0.27,1.36c0,0.23-0.04,0.41-0.13,0.55s-0.27,0.23-0.53,0.27
	c-0.09,0.01-0.25,0.03-0.51,0.05c-0.25,0.02-0.56,0.05-0.94,0.08c-0.37,0.03-0.78,0.06-1.22,0.09
	C196.05,74.43,195.59,74.46,195.12,74.49z M193.85,73.49c0.46-0.01,0.91-0.02,1.35-0.03s0.89-0.02,1.35-0.03
	c0.11,0,0.2-0.02,0.27-0.04s0.12-0.06,0.15-0.13c0.03-0.06,0.05-0.16,0.06-0.29c0-0.29-0.03-0.58-0.09-0.86s-0.15-0.53-0.27-0.75
	s-0.27-0.4-0.44-0.53c-0.17-0.13-0.37-0.2-0.59-0.2h-0.02c-0.28,0-0.55,0.11-0.8,0.34c-0.25,0.22-0.46,0.55-0.64,0.98
	C194.01,72.36,193.9,72.88,193.85,73.49z M183.8,78.29l0.23,0.73l-2.48,1.3c-0.31,0-0.58-0.05-0.81-0.14
	c-0.23-0.09-0.43-0.2-0.58-0.34c-0.16-0.14-0.28-0.28-0.37-0.42c-0.09-0.15-0.17-0.29-0.22-0.42c-0.29,0.19-0.6,0.4-0.9,0.6
	c-0.31,0.2-0.59,0.37-0.85,0.51c-0.26,0.14-0.47,0.21-0.62,0.22c-0.49,0-0.92-0.09-1.3-0.26c-0.38-0.17-0.7-0.39-0.97-0.67
	s-0.47-0.59-0.6-0.93c-0.14-0.34-0.21-0.69-0.21-1.05c0-0.39,0.06-0.72,0.19-1c0.13-0.27,0.31-0.51,0.57-0.69
	c0.26-0.19,0.58-0.36,0.97-0.5c0.34-0.13,0.69-0.25,1.06-0.38c0.36-0.13,0.72-0.26,1.06-0.39c0.34-0.12,0.64-0.25,0.91-0.38
	c0.26-0.13,0.46-0.24,0.6-0.36v-0.68c0-0.72-0.13-1.27-0.38-1.65s-0.58-0.57-1.01-0.58c-0.3,0-0.55,0.14-0.75,0.41
	c-0.14,0.16-0.26,0.37-0.37,0.64c-0.1,0.27-0.2,0.58-0.29,0.93c-0.08,0.29-0.2,0.49-0.36,0.61c-0.16,0.12-0.36,0.17-0.6,0.17
	c-0.15,0-0.31-0.04-0.47-0.09c-0.16-0.06-0.32-0.15-0.46-0.26c-0.14-0.11-0.26-0.23-0.35-0.36c-0.09-0.14-0.13-0.28-0.14-0.43
	c0-0.2,0.07-0.39,0.2-0.55c0.14-0.17,0.33-0.35,0.6-0.54c0.22-0.15,0.48-0.31,0.77-0.47c0.29-0.16,0.62-0.32,0.95-0.47
	c0.34-0.15,0.69-0.29,1.04-0.4c0.35-0.12,0.69-0.2,1.02-0.27c0.46,0,0.87,0.05,1.24,0.16c0.36,0.11,0.69,0.27,0.99,0.5
	c0.32,0.25,0.57,0.53,0.74,0.83c0.17,0.3,0.29,0.63,0.35,0.99s0.09,0.75,0.09,1.18v3.76c0,0.35,0.04,0.62,0.11,0.81
	c0.07,0.2,0.16,0.33,0.27,0.41c0.11,0.08,0.22,0.12,0.35,0.12c0.14,0,0.27-0.02,0.39-0.06C183.55,78.38,183.67,78.34,183.8,78.29z
	 M179.47,74.6c-0.2,0.1-0.41,0.22-0.61,0.33c-0.2,0.12-0.42,0.25-0.64,0.37c-0.23,0.12-0.43,0.25-0.59,0.39
	c-0.16,0.14-0.28,0.31-0.36,0.49s-0.12,0.41-0.12,0.66c0,0.32,0.05,0.59,0.14,0.81s0.21,0.4,0.35,0.54s0.29,0.24,0.45,0.3
	c0.16,0.06,0.3,0.09,0.43,0.09c0.16,0.01,0.31-0.02,0.45-0.08c0.15-0.05,0.31-0.15,0.51-0.29L179.47,74.6L179.47,74.6z
	 M172.86,78.61c-0.19,0.05-0.38,0.07-0.57,0.07c-0.12,0-0.26-0.01-0.4-0.06c-0.15-0.04-0.29-0.13-0.42-0.26
	c-0.14-0.14-0.25-0.33-0.33-0.6c-0.09-0.26-0.13-0.62-0.14-1.06v-5.62h2.09c0.12-0.07,0.21-0.17,0.26-0.31
	c0.05-0.14,0.06-0.28,0.04-0.43c-0.02-0.14-0.07-0.27-0.17-0.35h-2.23v-3.3l-0.32-0.14l-2.57,1.78v1.66h-0.91l-0.64,0.82l0.11,0.27
	h1.43v6.37c0,0.68,0.11,1.23,0.33,1.65c0.22,0.42,0.53,0.73,0.95,0.93c0.41,0.19,0.91,0.29,1.5,0.29c0.08,0,0.21-0.02,0.37-0.06
	c0.17-0.04,0.35-0.1,0.56-0.19l1.84-0.87l-0.23-0.79C173.24,78.5,173.05,78.56,172.86,78.61z M164.17,72.31
	c-0.6-0.44-1.3-0.85-2.11-1.23c-0.66-0.33-1.21-0.64-1.62-0.94s-0.72-0.61-0.91-0.93c-0.19-0.33-0.29-0.69-0.29-1.11
	c0-0.44,0.1-0.82,0.29-1.16c0.19-0.34,0.45-0.6,0.78-0.8c0.33-0.19,0.71-0.29,1.14-0.29c0.47,0,0.87,0.1,1.22,0.28
	c0.35,0.19,0.64,0.43,0.89,0.74c0.25,0.31,0.46,0.64,0.64,1c0.18,0.36,0.32,0.73,0.44,1.09l0.77-0.18c-0.09-0.7-0.18-1.31-0.25-1.84
	s-0.14-1-0.18-1.41c-0.14-0.06-0.37-0.14-0.68-0.23c-0.31-0.09-0.68-0.18-1.11-0.26c-0.43-0.08-0.89-0.12-1.38-0.13
	c-0.81,0-1.54,0.12-2.18,0.35c-0.64,0.23-1.19,0.54-1.64,0.94c-0.45,0.41-0.8,0.88-1.03,1.42c-0.24,0.54-0.36,1.12-0.36,1.75
	c0.01,0.72,0.17,1.35,0.51,1.9c0.33,0.54,0.8,1.03,1.39,1.46s1.28,0.84,2.07,1.23c0.57,0.3,1.06,0.6,1.46,0.91
	c0.4,0.3,0.71,0.63,0.93,0.99c0.21,0.36,0.32,0.76,0.32,1.2c0,0.48-0.09,0.9-0.28,1.26c-0.18,0.36-0.45,0.64-0.79,0.84
	c-0.34,0.2-0.74,0.29-1.21,0.3c-0.43,0-0.84-0.1-1.21-0.28c-0.37-0.18-0.71-0.42-1-0.71c-0.3-0.29-0.57-0.62-0.8-0.97
	c-0.23-0.36-0.43-0.71-0.59-1.07c-0.16-0.35-0.29-0.68-0.38-0.97l-0.8,0.25c0.04,0.35,0.09,0.72,0.14,1.11
	c0.06,0.39,0.11,0.76,0.17,1.13c0.06,0.37,0.12,0.69,0.18,0.98c0.06,0.28,0.11,0.5,0.17,0.65c0.16,0.07,0.35,0.15,0.58,0.23
	c0.22,0.08,0.5,0.17,0.81,0.27c0.34,0.1,0.71,0.18,1.1,0.24s0.79,0.08,1.2,0.08c0.84,0,1.59-0.12,2.26-0.36
	c0.68-0.23,1.26-0.56,1.75-0.98c0.49-0.42,0.86-0.91,1.12-1.46c0.26-0.56,0.39-1.17,0.4-1.82c0-0.75-0.18-1.4-0.51-1.96
	C165.24,73.25,164.77,72.75,164.17,72.31z M280.91,78.9c-0.09-0.12-0.16-0.29-0.19-0.52c-0.03-0.23-0.04-0.54-0.04-0.93v-7.74
	c-0.43,0.12-0.87,0.24-1.33,0.34c-0.47,0.11-0.93,0.2-1.41,0.28c-0.48,0.08-0.94,0.15-1.4,0.2v0.66c0.27,0.04,0.49,0.09,0.66,0.14
	c0.17,0.05,0.29,0.13,0.38,0.24s0.15,0.27,0.17,0.49c0.03,0.22,0.05,0.51,0.04,0.88v4.51c0,0.4-0.01,0.72-0.04,0.95
	c-0.03,0.23-0.09,0.41-0.19,0.53c-0.1,0.12-0.25,0.2-0.44,0.25c-0.2,0.05-0.46,0.1-0.79,0.13v0.73h5.83v-0.73
	c-0.34-0.04-0.61-0.09-0.81-0.15C281.16,79.11,281,79.02,280.91,78.9z M267.17,69.91c-0.23-0.13-0.5-0.19-0.8-0.19
	c-0.28,0-0.56,0.11-0.85,0.31s-0.57,0.48-0.86,0.83c-0.28,0.36-0.56,0.77-0.84,1.25h-0.07V69.7c-0.7,0.21-1.4,0.39-2.07,0.53
	c-0.68,0.14-1.36,0.25-2.04,0.34v0.64c0.26,0.06,0.47,0.12,0.63,0.18s0.29,0.14,0.38,0.23c0.08,0.09,0.14,0.23,0.17,0.4
	c0.03,0.17,0.05,0.4,0.05,0.69v4.96c0,0.35-0.02,0.63-0.05,0.84c-0.04,0.21-0.11,0.37-0.21,0.47c-0.11,0.11-0.25,0.18-0.44,0.24
	c-0.19,0.05-0.44,0.09-0.75,0.12v0.73h6.24v-0.73c-0.44-0.03-0.78-0.08-1.04-0.13c-0.25-0.05-0.44-0.13-0.56-0.23
	c-0.13-0.11-0.2-0.26-0.24-0.47c-0.04-0.21-0.05-0.49-0.05-0.84v-4.23c0.19-0.44,0.4-0.75,0.62-0.93c0.22-0.18,0.44-0.27,0.66-0.26
	c0.19,0,0.37,0.04,0.52,0.12c0.16,0.08,0.33,0.2,0.52,0.36c0.08,0.07,0.18,0.12,0.29,0.14c0.12,0.02,0.26,0,0.41-0.05
	c0.21-0.08,0.39-0.2,0.56-0.36c0.17-0.16,0.3-0.35,0.4-0.58s0.15-0.48,0.15-0.75c0-0.26-0.07-0.5-0.19-0.71
	C267.58,70.2,267.4,70.03,267.17,69.91z M250.3,69.99h-4.1v0.73c0.41,0.06,0.7,0.15,0.88,0.25c0.18,0.1,0.28,0.23,0.3,0.39
	c0.02,0.16-0.01,0.36-0.09,0.61c-0.13,0.4-0.27,0.81-0.42,1.25c-0.15,0.44-0.3,0.87-0.46,1.29c-0.15,0.42-0.29,0.82-0.44,1.2
	c-0.14,0.37-0.26,0.69-0.37,0.95c-0.09-0.24-0.2-0.54-0.33-0.91c-0.14-0.37-0.28-0.77-0.44-1.22c-0.16-0.44-0.33-0.89-0.49-1.34
	c-0.16-0.45-0.32-0.88-0.46-1.28c-0.1-0.26-0.15-0.47-0.14-0.61c0.01-0.14,0.09-0.26,0.25-0.34s0.41-0.16,0.75-0.23V70h-5.62v0.73
	c0.36,0.08,0.64,0.17,0.86,0.28s0.39,0.25,0.53,0.45c0.14,0.19,0.28,0.45,0.41,0.78c0.55,1.3,1.1,2.62,1.63,3.96
	c0.53,1.33,1.08,2.71,1.65,4.12h0.89c0.68-1.73,1.3-3.27,1.86-4.62c0.55-1.34,1.04-2.48,1.46-3.41c0.12-0.27,0.23-0.49,0.34-0.66
	c0.11-0.18,0.23-0.32,0.36-0.43c0.13-0.11,0.29-0.2,0.48-0.27c0.19-0.07,0.43-0.13,0.71-0.18C250.3,70.75,250.3,69.99,250.3,69.99z
	 M279.89,65.3c-0.24-0.14-0.52-0.2-0.82-0.21c-0.29,0-0.56,0.07-0.8,0.21s-0.44,0.33-0.58,0.56c-0.15,0.24-0.22,0.51-0.23,0.82
	c0,0.29,0.08,0.56,0.23,0.8c0.14,0.24,0.34,0.43,0.58,0.58c0.24,0.14,0.5,0.22,0.79,0.22c0.31,0,0.6-0.08,0.84-0.22
	c0.25-0.14,0.44-0.34,0.59-0.58c0.14-0.24,0.21-0.51,0.21-0.8c0-0.31-0.07-0.58-0.21-0.82C280.33,65.63,280.13,65.44,279.89,65.3z
	 M254.22,74.49c-0.47,0.03-0.93,0.05-1.38,0.07c0.05,0.81,0.2,1.49,0.49,2.03c0.28,0.54,0.64,0.95,1.09,1.22
	c0.45,0.27,0.95,0.41,1.49,0.41c0.44,0,0.88-0.08,1.3-0.23c0.42-0.16,0.83-0.4,1.23-0.75l0.41,0.55c-0.35,0.52-0.71,0.94-1.1,1.27
	c-0.38,0.33-0.75,0.59-1.12,0.77c-0.37,0.18-0.72,0.31-1.04,0.38c-0.32,0.07-0.6,0.11-0.84,0.1c-0.76,0-1.43-0.14-2.01-0.4
	c-0.58-0.25-1.08-0.61-1.48-1.06c-0.4-0.45-0.7-0.97-0.91-1.55c-0.2-0.58-0.31-1.21-0.31-1.87c0-0.58,0.08-1.12,0.22-1.63
	c0.15-0.51,0.34-0.97,0.6-1.39c0.25-0.42,0.54-0.78,0.86-1.1c0.5-0.51,1.06-0.9,1.66-1.19c0.6-0.28,1.21-0.43,1.82-0.43h0.02
	c0.52,0,1.01,0.11,1.46,0.31c0.45,0.2,0.84,0.47,1.17,0.82c0.33,0.35,0.6,0.74,0.78,1.17s0.28,0.89,0.27,1.36
	c0,0.23-0.04,0.41-0.13,0.55s-0.27,0.23-0.53,0.27c-0.09,0.01-0.25,0.03-0.51,0.05c-0.25,0.02-0.56,0.05-0.94,0.08
	c-0.37,0.03-0.78,0.06-1.22,0.09C255.15,74.43,254.69,74.46,254.22,74.49z M252.95,73.49c0.46-0.01,0.91-0.02,1.35-0.03
	s0.89-0.02,1.35-0.03c0.11,0,0.21-0.02,0.27-0.04c0.07-0.02,0.12-0.06,0.15-0.13c0.03-0.06,0.05-0.16,0.06-0.29
	c0-0.29-0.03-0.58-0.09-0.86s-0.15-0.53-0.27-0.75s-0.27-0.4-0.44-0.53c-0.17-0.13-0.37-0.2-0.59-0.2h-0.02
	c-0.29,0-0.55,0.11-0.8,0.34c-0.25,0.22-0.46,0.55-0.64,0.98C253.11,72.36,253,72.88,252.95,73.49z M221.62,65.25h-5.71v0.8
	c0.51,0.03,0.93,0.1,1.24,0.21s0.54,0.26,0.69,0.45c0.15,0.19,0.24,0.42,0.28,0.68c0.04,0.22,0.08,0.48,0.11,0.76
	c0.04,0.29,0.06,0.63,0.08,1.01c0.02,0.39,0.03,0.85,0.03,1.39v2.43c0,1.27-0.13,2.34-0.41,3.21c-0.27,0.87-0.7,1.52-1.27,1.97
	c-0.57,0.45-1.31,0.67-2.21,0.67c-0.82,0-1.5-0.22-2.05-0.64c-0.55-0.42-0.96-1.03-1.23-1.84c-0.27-0.8-0.41-1.77-0.41-2.92v-4.94
	c0-0.53,0.02-0.95,0.06-1.26c0.05-0.31,0.13-0.55,0.26-0.71c0.13-0.16,0.32-0.27,0.57-0.34c0.25-0.06,0.58-0.11,1-0.15v-0.8h-6.85
	v0.8c0.42,0.03,0.75,0.08,1.01,0.15c0.25,0.07,0.45,0.18,0.58,0.34s0.22,0.4,0.26,0.71c0.04,0.31,0.06,0.73,0.06,1.26v5.35
	c0,1.32,0.15,2.42,0.46,3.3c0.31,0.87,0.78,1.56,1.43,2.05c0.55,0.43,1.17,0.73,1.86,0.91c0.69,0.19,1.41,0.27,2.17,0.27
	c0.54,0,1.07-0.06,1.58-0.19c0.51-0.13,0.99-0.31,1.44-0.55c0.45-0.25,0.85-0.55,1.2-0.92c0.42-0.46,0.75-0.97,0.99-1.55
	c0.24-0.57,0.41-1.21,0.51-1.9c0.1-0.69,0.15-1.44,0.14-2.25v-2.48c0-0.53,0.01-0.99,0.03-1.38c0.02-0.39,0.05-0.73,0.08-1.01
	s0.06-0.54,0.1-0.77c0.05-0.4,0.23-0.72,0.54-0.94c0.31-0.23,0.77-0.37,1.39-0.4L221.62,65.25L221.62,65.25z M235.04,67.48
	c0.14,0.24,0.34,0.43,0.58,0.58c0.24,0.14,0.5,0.22,0.79,0.22c0.31,0,0.6-0.08,0.84-0.22c0.25-0.14,0.44-0.34,0.58-0.58
	s0.21-0.51,0.21-0.8c0-0.31-0.07-0.58-0.21-0.82c-0.14-0.24-0.33-0.42-0.58-0.56c-0.24-0.14-0.52-0.2-0.82-0.21
	c-0.29,0-0.56,0.07-0.8,0.21s-0.44,0.33-0.58,0.56c-0.15,0.24-0.22,0.51-0.23,0.82C234.82,66.98,234.9,67.24,235.04,67.48z
	 M238.28,78.9c-0.1-0.12-0.16-0.29-0.19-0.52s-0.04-0.54-0.04-0.93v-7.74c-0.43,0.12-0.87,0.24-1.33,0.34
	c-0.47,0.11-0.93,0.2-1.41,0.28s-0.94,0.15-1.4,0.2v0.66c0.27,0.04,0.49,0.09,0.66,0.14c0.17,0.05,0.29,0.13,0.38,0.24
	s0.14,0.27,0.17,0.49s0.05,0.51,0.04,0.88v4.51c0,0.4-0.01,0.72-0.04,0.95c-0.03,0.23-0.09,0.41-0.19,0.53
	c-0.1,0.12-0.25,0.2-0.44,0.25c-0.2,0.05-0.46,0.1-0.78,0.13v0.73h5.83v-0.73c-0.34-0.04-0.61-0.09-0.81-0.15
	C238.52,79.11,238.37,79.02,238.28,78.9z M232,78.95c-0.09-0.1-0.15-0.26-0.17-0.46c-0.03-0.2-0.05-0.49-0.04-0.84v-4.3
	c0-0.76-0.13-1.42-0.36-1.96c-0.24-0.54-0.58-0.96-1.02-1.24c-0.44-0.29-0.98-0.44-1.59-0.44c-0.22,0-0.42,0.02-0.6,0.07
	s-0.37,0.12-0.55,0.21c-0.18,0.1-0.4,0.21-0.62,0.36c-0.25,0.16-0.49,0.33-0.72,0.5c-0.24,0.17-0.46,0.34-0.69,0.5v-1.68
	c-0.45,0.13-0.91,0.25-1.38,0.36s-0.93,0.21-1.4,0.29c-0.46,0.08-0.91,0.16-1.35,0.21v0.66c0.28,0.05,0.5,0.1,0.66,0.15
	c0.17,0.06,0.29,0.14,0.37,0.24c0.08,0.11,0.14,0.26,0.16,0.46c0.03,0.2,0.04,0.47,0.04,0.81v4.71c0,0.38-0.01,0.67-0.04,0.89
	c-0.03,0.21-0.1,0.38-0.19,0.48c-0.1,0.11-0.25,0.18-0.46,0.24c-0.21,0.05-0.49,0.1-0.84,0.14v0.73h5.49v-0.73
	c-0.23-0.03-0.42-0.07-0.56-0.12c-0.14-0.05-0.25-0.12-0.32-0.22c-0.07-0.1-0.12-0.26-0.15-0.46c-0.02-0.21-0.03-0.48-0.03-0.83
	v-5.51c0.29-0.23,0.58-0.4,0.85-0.53c0.27-0.12,0.55-0.18,0.83-0.18c0.28,0,0.54,0.06,0.77,0.19c0.24,0.13,0.43,0.35,0.58,0.67
	c0.14,0.31,0.22,0.74,0.22,1.28v3.87c0,0.4-0.01,0.72-0.03,0.95c-0.03,0.23-0.07,0.41-0.14,0.52c-0.07,0.11-0.18,0.2-0.33,0.25
	c-0.14,0.05-0.33,0.09-0.57,0.13v0.73h5.3v-0.73c-0.29-0.04-0.53-0.09-0.71-0.13C232.22,79.13,232.08,79.06,232,78.95z
	 M295.91,69.98v0.73c0.37,0.06,0.65,0.15,0.83,0.25c0.18,0.1,0.3,0.23,0.33,0.39c0.03,0.16,0.01,0.36-0.08,0.61
	c-0.1,0.33-0.22,0.71-0.36,1.13c-0.14,0.42-0.29,0.85-0.45,1.31c-0.16,0.45-0.31,0.88-0.47,1.3c-0.15,0.42-0.29,0.79-0.43,1.11
	l-1.7-5.05c-0.09-0.24-0.12-0.42-0.09-0.55c0.02-0.13,0.11-0.23,0.27-0.3c0.16-0.07,0.41-0.13,0.73-0.19v-0.73h-5.64l0,0h-2.19v-3.3
	l-0.32-0.14l-2.57,1.78v1.66h-0.91l-0.64,0.82l0.11,0.27h1.44v6.37c0,0.68,0.11,1.23,0.33,1.65c0.22,0.42,0.53,0.73,0.95,0.93
	c0.41,0.19,0.91,0.29,1.5,0.29c0.08,0,0.21-0.02,0.37-0.06c0.17-0.04,0.35-0.1,0.56-0.19l1.84-0.87l-0.23-0.79
	c-0.19,0.09-0.38,0.16-0.57,0.2c-0.19,0.05-0.38,0.07-0.57,0.07c-0.12,0-0.26-0.01-0.4-0.06c-0.14-0.04-0.29-0.13-0.42-0.26
	c-0.14-0.14-0.25-0.33-0.33-0.6c-0.09-0.26-0.13-0.62-0.14-1.06v-5.62h2.09c0.12-0.07,0.21-0.17,0.26-0.31c0-0.01,0-0.02,0.01-0.03
	c0.27,0.05,0.5,0.11,0.67,0.19c0.21,0.09,0.38,0.24,0.52,0.42c0.14,0.19,0.27,0.44,0.4,0.77c0.11,0.25,0.27,0.63,0.46,1.13
	c0.2,0.5,0.43,1.09,0.69,1.77c0.26,0.68,0.53,1.41,0.83,2.2c0.29,0.79,0.59,1.6,0.89,2.43c0.07,0.18,0.12,0.36,0.14,0.54
	c0.02,0.17,0,0.35-0.05,0.53c-0.04,0.12-0.1,0.26-0.17,0.41c-0.07,0.15-0.17,0.33-0.29,0.53c-0.14,0.24-0.29,0.46-0.46,0.64
	c-0.17,0.19-0.37,0.36-0.6,0.52c-0.23,0.16-0.49,0.32-0.78,0.47c-0.22,0.14-0.38,0.28-0.48,0.41c-0.09,0.13-0.14,0.29-0.14,0.48
	c0,0.2,0.06,0.39,0.16,0.57c0.1,0.17,0.23,0.33,0.4,0.46c0.16,0.13,0.33,0.23,0.52,0.3c0.18,0.07,0.35,0.11,0.52,0.11
	c0.19,0,0.36-0.03,0.5-0.12c0.15-0.08,0.26-0.25,0.34-0.49c0.1-0.31,0.21-0.65,0.33-1.02c0.12-0.37,0.27-0.79,0.45-1.28
	c0.17-0.48,0.39-1.06,0.65-1.72c0.26-0.67,0.58-1.46,0.96-2.38c0.44-1.05,0.82-1.97,1.15-2.76c0.33-0.79,0.61-1.47,0.85-2.04
	c0.24-0.57,0.46-1.06,0.64-1.45c0.14-0.3,0.27-0.55,0.38-0.75c0.11-0.19,0.24-0.35,0.36-0.46c0.13-0.11,0.29-0.2,0.47-0.27
	c0.18-0.06,0.4-0.12,0.67-0.16v-0.73L295.91,69.98L295.91,69.98z"/>
<g>
	<path style="fill:#46166A;" d="M47.78,0c26.38,0,47.77,21.39,47.77,47.78c0,26.38-21.39,47.78-47.77,47.78S0,74.17,0,47.78
		C0,21.4,21.39,0,47.78,0"/>
	<path style="fill:#FFFFFF;" d="M47.78,16c17.55,0,31.78,14.23,31.78,31.78S65.33,79.56,47.78,79.56S16,65.33,16,47.78
		C16,30.23,30.23,16,47.78,16"/>
	<g>
		<path style="fill:#46166A;" d="M15.49,56.22c2.88,0,1.78-3.54,2.9-4.78c0.38-0.42,0.69-0.58,0.96-0.58
			c1.2,0.03,1.04,1.56,1.04,2.96c0,0.56,1.18,0.62,0.84-0.5c-0.33-1.09-0.64-1.57-0.36-1.57c0.71-0.02,0.45,1.46,1.1,1.41
			c0.8-0.06-1.18-2.34,0.26-2.34c0.41,0,0.59,0.43,0.99,0.3c0.67-0.22,0.88-0.94-0.73-1.56c-1.3-0.5-2.6,0.7-3.33-0.6
			c-0.22-0.39,0.23-1.38,0.23-1.91c0-0.66-1.09,0.26-1.23,0.09c-0.31-0.38-0.25-1.09,0.13-1.54c0.47-0.56,1.34-0.78,1.59-0.06
			c0.14,0.42,1.08,0.8,1.55,1.27c0.42,0.42,0.37,0.95,0.87,1.16c1.07,0.44,2.13,0.11,2.36-0.06c0.21-0.16-0.82-0.52-2.19-1.47
			c-1.72-1.18-2.59-0.91-1.81-2.31c0.54-0.98,1.71,0.17,2.49-0.03c0.66-0.17,1.27-0.85,1-1.36c-0.64-1.21-0.29,1.98-1.41,0.16
			c-0.18-0.29,0.04-0.77-0.09-1.04c-0.45-0.99-1.41-0.72-0.75-1.82c0.6-0.99,0.55,0.54,1.65,0.93c0.61,0.22,0.95,0.8,0.95,1.08
			c0,0.14,0.63,0.62,0.66,0.38c0.06-0.44-0.2-1.1,0.05-1.48c0.14-0.22,0.64,0.66,0.96,0.58c0.46-0.12,0.36-1.2,1.48-0.95
			c1.52,0.34,0.55-0.5-0.72-0.84c-0.86-0.23-1.58-0.81-2.04-0.39c-2.01,1.82-4.5-1.82-3.41-2.35c0.95-0.46,4.52,1.33,3.31-0.03
			c-0.29-0.33-1.31-0.54-1.23-1.01c0.25-1.35,1.52,0.99,2.37-0.64c0.53-1.04,1.1-0.82,1.48-0.59c0.69,0.41,0.46,3.29,1.13,2.91
			c0.25-0.15-0.58-1.89-0.12-2.12c0.4-0.21,0.09,1.66,0.85,1.51c0.4-0.08,0.14-2.03,0.39-1.98c1.37,0.29,0.27,2.59,0.99,2.79
			c1.01,0.28-0.15-2.38,0.72-2.64c0.89-0.27,1.82,1.42,1.82-0.32c0-1.15,3.26-0.52,0.8-1.29c-1.44-0.45-2.09,1.29-2.85,0.83
			c-0.78-0.48-2.44-0.66-3.65-0.18c-0.75-0.26-1.43-0.23-1.8,0c-0.58,0.36-1.32-0.1-1.82-0.5c-0.37-0.29-1.28,0.23-1.41-0.05
			c-0.15-0.32,0.08-1.41,0.53-1.37c0.24,0.03,2.4,2.24,1.64-0.19c-0.09-0.28-0.52-0.6-0.67-1.39c-0.07-0.4,0.5-0.73,0.48-1.16
			c-0.01-0.32-0.5-0.8-0.52-1.09c-0.07-0.86,0.35-1.43,1.03-0.88c0.74,0.59-0.13,2.54,1.18,1.1c0.17-0.19,0.87,1.28,0.97,0.9
			c0.1-0.36-0.7-1.24-0.88-2.13c-0.18-0.88,1.06-0.64-0.03-2.21c-0.52-0.75-1.09-1.27-1.75-1.5C18.37,26.09,10.22,45.68,15.49,56.22
			z"/>
		<path style="fill:#46166A;" d="M29.26,31.44c0.59-0.14-0.79-3.47-0.37-3.67c1.87-0.44,1.26,2.92,1.89,4.39
			c0.59-0.22,0.27-5.07,1.68-5.13c0.51,0.09,0.82,0.5,1.09,0.99c0.21,0.8-0.77,0.72-0.98,1.26c0.36,0.67,1.15,0.08,1.77-1.59
			c1.06-0.63,0.07,1.87,0.76,1.79c0.37,0,0.42-1.65,0.06-2.52c0.28-0.48,1.44,0,2.03-0.14c-0.98-0.75-2.16-1.33-3.43-0.05
			c-1.07-0.37-2.27-0.85-3.26-0.13c-0.6-0.5-1.29-0.91-2.01-0.45C26.86,27.23,28.89,30.22,29.26,31.44L29.26,31.44z"/>
	</g>
	<path style="fill:#46166A;" d="M72.84,37.38c-0.67,0.02-1.44-0.18-1.56-0.95c-0.08-0.62,0.56-1.13,1.11-1.2
		c0.46-0.04,0.89,0.13,1.3,0.3c0.34,0.14,0.68,0.28,0.95,0.24c0.4-0.06,0.74-0.32,1.09-0.58c0.15-0.11,0.3-0.22,0.47-0.33l0.34,0.52
		c-0.14,0.09-0.29,0.2-0.43,0.31c-0.41,0.31-0.81,0.61-1.37,0.7c-0.44,0.07-0.85-0.1-1.28-0.27c-0.34-0.14-0.7-0.29-1-0.26
		c-0.19,0.03-0.58,0.24-0.56,0.48c0.05,0.41,0.62,0.43,0.93,0.43 M75.03,42.9c0.09,0.16,0.28,0.31,0.51,0.42l0,0
		c0.24,0.11,0.51,0.18,0.74,0.16c0.16-0.01,0.33-0.2,0.5-0.4c0.26-0.29,0.52-0.58,0.94-0.6c0.54-0.02,0.95,0.27,1.37,0.57
		c0.18,0.13,0.35,0.25,0.52,0.33l-0.28,0.56c-0.22-0.11-0.41-0.25-0.61-0.39c-0.33-0.23-0.66-0.47-0.98-0.45
		c-0.16,0.01-0.33,0.2-0.5,0.39c-0.25,0.29-0.51,0.57-0.91,0.61c-0.34,0.03-0.73-0.06-1.06-0.22c-0.34-0.17-0.64-0.41-0.79-0.69
		L75.03,42.9z M74.77,41.86c-0.5-0.07-0.75,0.23-1,0.54c-0.46,0.57-0.95,1.17-2.41,0.66l0.2-0.59c1.05,0.37,1.39-0.06,1.72-0.46
		c0.36-0.45,0.72-0.88,1.57-0.76L74.77,41.86z M68.68,37.2c-0.45,0.05-0.7,0.42-0.89,0.79c-0.4-0.13-0.77-0.25-1.16,0.01
		c-0.21,0.14-0.38,0.36-0.47,0.66c-0.03,0.08-0.05,0.17-0.06,0.25l-0.06,0.35l-0.34-0.11c-0.51-0.17-0.95-0.21-1.29-0.15
		c-0.19,0.03-0.36,0.1-0.48,0.19c-0.11,0.08-0.19,0.19-0.23,0.32s-0.05,0.28-0.02,0.44c0.02,0.12,0.05,0.22,0.08,0.31
		c0.11,0.28,0.31,0.46,0.58,0.56c0.31,0.11,0.72,0.12,1.21,0.04c0.47-0.08,1-0.24,1.6-0.48l0.23-0.09l0.14,0.2
		c0.4,0.58,0.83,1,1.29,1.14c0.44,0.14,0.95,0.02,1.55-0.43l0.38,0.5c-0.78,0.59-1.48,0.73-2.11,0.53
		c-0.55-0.17-1.04-0.59-1.48-1.18c-0.55,0.21-1.06,0.35-1.51,0.43c-0.6,0.1-1.12,0.08-1.53-0.07c-0.45-0.16-0.77-0.47-0.95-0.92
		c-0.05-0.14-0.09-0.29-0.12-0.44c-0.04-0.27-0.03-0.52,0.04-0.74c0.08-0.25,0.23-0.47,0.45-0.63c0.2-0.15,0.46-0.26,0.75-0.31
		c0.36-0.06,0.78-0.04,1.26,0.08v-0.01c0.14-0.43,0.4-0.77,0.73-0.98c0.33-0.22,0.74-0.31,1.17-0.23l0.04,0.01
		c0.11-0.14,0.25-0.27,0.39-0.37c0.22-0.16,0.48-0.27,0.72-0.29L68.68,37.2z M59.69,29.61c0.61-0.03,1.09,0.09,1.45,0.36l0,0
		c0.28,0.2,0.48,0.49,0.6,0.85l0.11-0.05c1.21-0.52,2.17-0.63,2.91-0.45s1.26,0.63,1.59,1.26c1.09-0.29,2.17-0.48,3.03-0.4
		c1.26,0.12,2.02,0.96,1.91,2.21c-0.05,0.55-0.29,0.96-0.66,1.25c-0.35,0.28-0.82,0.43-1.33,0.5c-0.33,0.04-0.69,0.05-1.06,0.02
		c-0.75,0.54-1.51,0.88-2.31,1.06c-0.77,0.17-1.57,0.19-2.43,0.1c-0.57,0.66-1.2,1.11-1.91,1.3c-0.76,0.2-1.6,0.09-2.52-0.38
		l0.28-0.55c0.77,0.4,1.46,0.49,2.08,0.33c0.62-0.16,1.18-0.58,1.7-1.22l0.11-0.13l0.17,0.02c0.86,0.1,1.65,0.09,2.39-0.07
		c0.74-0.16,1.45-0.49,2.17-1.02l0.21-0.06c0.36,0.03,0.72,0.03,1.04-0.01c0.41-0.05,0.77-0.17,1.03-0.37
		c0.24-0.18,0.39-0.45,0.42-0.81c0.08-0.89-0.45-1.45-1.34-1.54c-0.83-0.08-1.93,0.13-3.05,0.44l-0.26,0.07l-0.11-0.25
		c-0.02-0.04-0.03-0.08-0.05-0.12c-0.25-0.52-0.65-0.89-1.22-1.03c-0.62-0.15-1.45-0.04-2.52,0.42c-0.14,0.06-0.29,0.13-0.43,0.2
		l-0.38,0.18l-0.07-0.41c-0.06-0.39-0.21-0.67-0.45-0.84l0,0c-0.25-0.18-0.6-0.26-1.06-0.23L59.69,29.61z M69.77,38.15
		c0.48,0.31,0.88,0.39,1.23,0.29c0.37-0.1,0.7-0.4,1.01-0.81l0.5,0.38c-0.4,0.51-0.83,0.88-1.34,1.03c-0.52,0.15-1.1,0.06-1.75-0.37
		L69.77,38.15z"/>
	<g>
		<path style="fill:#46166A;" d="M51.74,77.38h-0.32v-2.05c-0.08,0.07-0.18,0.15-0.31,0.22c-0.13,0.07-0.24,0.13-0.34,0.17v-0.31
			c0.18-0.08,0.34-0.19,0.47-0.31c0.14-0.12,0.23-0.24,0.29-0.35h0.21 M48.5,75.09v-0.31h1.7v0.25c-0.17,0.18-0.33,0.41-0.5,0.71
			c-0.17,0.29-0.29,0.6-0.38,0.91c-0.06,0.22-0.1,0.46-0.12,0.72h-0.33c0-0.21,0.04-0.46,0.12-0.75s0.19-0.57,0.33-0.85
			c0.14-0.27,0.3-0.5,0.46-0.69L48.5,75.09L48.5,75.09z M46.77,76.62c0,0.09,0.02,0.18,0.06,0.27s0.11,0.15,0.19,0.2
			c0.09,0.05,0.18,0.07,0.28,0.07c0.16,0,0.28-0.05,0.38-0.15c0.1-0.1,0.15-0.22,0.15-0.38s-0.05-0.28-0.16-0.39
			c-0.1-0.1-0.23-0.15-0.39-0.15c-0.15,0-0.28,0.05-0.38,0.15C46.82,76.34,46.77,76.47,46.77,76.62 M46.87,75.41
			c0,0.12,0.04,0.22,0.12,0.3c0.08,0.08,0.18,0.12,0.31,0.12s0.23-0.04,0.31-0.12s0.12-0.18,0.12-0.29c0-0.12-0.04-0.22-0.12-0.3
			S47.43,75,47.31,75c-0.12,0-0.23,0.04-0.31,0.12C46.91,75.2,46.87,75.3,46.87,75.41 M46.94,75.95c-0.13-0.05-0.23-0.12-0.3-0.21
			c-0.06-0.09-0.1-0.2-0.1-0.33c0-0.19,0.07-0.35,0.21-0.48c0.14-0.13,0.32-0.19,0.55-0.19s0.41,0.06,0.55,0.2
			c0.14,0.13,0.21,0.29,0.21,0.49c0,0.12-0.03,0.23-0.1,0.32c-0.06,0.09-0.16,0.16-0.29,0.21c0.16,0.05,0.29,0.14,0.37,0.25
			c0.08,0.12,0.13,0.26,0.13,0.42c0,0.23-0.08,0.41-0.24,0.57c-0.16,0.15-0.37,0.23-0.63,0.23c-0.26,0-0.47-0.08-0.63-0.23
			c-0.16-0.15-0.24-0.34-0.24-0.57c0-0.17,0.04-0.31,0.13-0.43C46.66,76.07,46.78,75.99,46.94,75.95 M45.62,77.38H45.3v-2.05
			c-0.08,0.07-0.18,0.15-0.3,0.22c-0.13,0.07-0.24,0.13-0.34,0.17v-0.31c0.18-0.08,0.34-0.19,0.47-0.31
			c0.13-0.12,0.23-0.24,0.29-0.35h0.21L45.62,77.38L45.62,77.38z M55.38,73.38h0.56c0.17,0,0.31-0.02,0.41-0.05s0.18-0.08,0.24-0.14
			c0.08-0.08,0.15-0.19,0.19-0.33c0.05-0.14,0.07-0.31,0.07-0.51c0-0.28-0.05-0.49-0.14-0.63c-0.09-0.15-0.2-0.25-0.33-0.3
			c-0.09-0.04-0.24-0.05-0.45-0.05h-0.55L55.38,73.38L55.38,73.38z M55.03,73.69v-2.63h0.9c0.2,0,0.36,0.01,0.47,0.04
			c0.15,0.03,0.28,0.1,0.39,0.19c0.14,0.12,0.24,0.27,0.31,0.45c0.07,0.18,0.1,0.39,0.1,0.63c0,0.2-0.02,0.38-0.07,0.53
			c-0.05,0.16-0.1,0.28-0.18,0.38c-0.07,0.1-0.15,0.18-0.24,0.24c-0.09,0.06-0.19,0.1-0.31,0.13c-0.12,0.03-0.26,0.05-0.42,0.05
			L55.03,73.69L55.03,73.69z M52.59,73.69v-2.63h1.9v0.31h-1.55v0.8h1.45v0.31h-1.45v0.89h1.61v0.31h-1.96V73.69z M50.28,73.38h0.56
			c0.17,0,0.31-0.02,0.41-0.05s0.18-0.08,0.24-0.14c0.08-0.08,0.15-0.19,0.19-0.33c0.05-0.14,0.07-0.31,0.07-0.51
			c0-0.28-0.05-0.49-0.14-0.63c-0.09-0.15-0.2-0.25-0.33-0.3c-0.09-0.04-0.24-0.05-0.45-0.05h-0.55L50.28,73.38L50.28,73.38z
			 M49.94,73.69v-2.63h0.9c0.2,0,0.36,0.01,0.47,0.04c0.15,0.03,0.28,0.1,0.39,0.19c0.14,0.12,0.24,0.27,0.31,0.45
			c0.07,0.18,0.1,0.39,0.1,0.63c0,0.2-0.02,0.38-0.07,0.53c-0.05,0.16-0.1,0.28-0.18,0.38c-0.07,0.1-0.15,0.18-0.24,0.24
			c-0.09,0.06-0.19,0.1-0.31,0.13c-0.12,0.03-0.26,0.05-0.42,0.05L49.94,73.69L49.94,73.69z M47.28,73.69v-2.63h0.36l1.38,2.06
			v-2.06h0.33v2.63h-0.36l-1.38-2.06v2.06H47.28z M46.36,71.06h0.35v1.52c0,0.26-0.03,0.47-0.09,0.63s-0.17,0.28-0.32,0.38
			c-0.16,0.1-0.36,0.15-0.61,0.15s-0.45-0.04-0.6-0.13c-0.16-0.08-0.27-0.21-0.33-0.37c-0.07-0.16-0.1-0.38-0.1-0.66v-1.52h0.35
			v1.52c0,0.23,0.02,0.4,0.06,0.51c0.04,0.11,0.11,0.19,0.22,0.25c0.1,0.06,0.23,0.09,0.38,0.09c0.25,0,0.44-0.06,0.55-0.17
			c0.11-0.12,0.16-0.34,0.16-0.67v-1.53H46.36z M42.04,72.41c0,0.32,0.08,0.57,0.26,0.75c0.17,0.18,0.38,0.27,0.64,0.27
			s0.48-0.09,0.64-0.28c0.17-0.18,0.25-0.44,0.25-0.78c0-0.21-0.04-0.4-0.11-0.56s-0.18-0.28-0.32-0.37
			c-0.14-0.09-0.29-0.13-0.47-0.13c-0.25,0-0.46,0.08-0.64,0.25C42.13,71.74,42.04,72.02,42.04,72.41 M41.68,72.41
			c0-0.43,0.12-0.78,0.35-1.02c0.23-0.25,0.54-0.37,0.91-0.37c0.24,0,0.46,0.06,0.65,0.17c0.19,0.12,0.34,0.28,0.44,0.49
			c0.1,0.21,0.15,0.44,0.15,0.7c0,0.27-0.05,0.51-0.16,0.71c-0.11,0.21-0.26,0.37-0.46,0.48c-0.2,0.11-0.41,0.16-0.64,0.16
			c-0.25,0-0.47-0.06-0.66-0.18s-0.34-0.28-0.44-0.49C41.73,72.86,41.68,72.64,41.68,72.41 M39.56,73.69v-2.63h1.77v0.31h-1.42v0.81
			h1.23v0.31h-1.23v1.19h-0.35V73.69z"/>
		<path style="fill:#46166A;" d="M54.9,20.85l0.48-1.78l0.24,0.06l-0.48,1.78 M53.61,19.57l0.47,0.1c0.15,0.03,0.27,0.03,0.35-0.02
			c0.08-0.05,0.13-0.12,0.15-0.22c0.02-0.07,0.01-0.14-0.02-0.2s-0.07-0.11-0.13-0.14c-0.04-0.02-0.11-0.04-0.22-0.06l-0.46-0.1
			L53.61,19.57z M53.17,20.47l0.39-1.8l0.68,0.14c0.12,0.03,0.21,0.05,0.27,0.08c0.08,0.03,0.15,0.08,0.2,0.13
			c0.05,0.05,0.09,0.12,0.11,0.2c0.02,0.08,0.02,0.17,0,0.26c-0.03,0.15-0.11,0.27-0.23,0.36c-0.12,0.09-0.31,0.1-0.56,0.05
			l-0.46-0.1l-0.16,0.74L53.17,20.47z M51.88,19.26l0.47,0.08c0.16,0.03,0.27,0.02,0.35-0.03c0.08-0.04,0.12-0.12,0.14-0.23
			c0.01-0.08,0.01-0.14-0.02-0.2s-0.07-0.1-0.13-0.13c-0.04-0.02-0.11-0.04-0.22-0.06L52,18.61L51.88,19.26z M51.48,20.18l0.32-1.82
			l0.69,0.12c0.12,0.02,0.21,0.05,0.27,0.07c0.09,0.03,0.16,0.07,0.21,0.13c0.05,0.05,0.09,0.12,0.11,0.2
			c0.02,0.08,0.03,0.17,0.01,0.26c-0.03,0.15-0.1,0.27-0.22,0.37c-0.12,0.09-0.3,0.11-0.56,0.07l-0.47-0.08l-0.13,0.74L51.48,20.18z
			 M50.8,20.09l0.22-1.83l0.24,0.03l-0.22,1.83L50.8,20.09z M49,19.38h0.23c0.01,0.09,0.03,0.17,0.06,0.23
			c0.04,0.06,0.09,0.12,0.17,0.16s0.17,0.07,0.28,0.07c0.09,0.01,0.17,0,0.25-0.02c0.07-0.03,0.13-0.06,0.17-0.1
			c0.04-0.05,0.06-0.1,0.06-0.15c0-0.06-0.01-0.11-0.04-0.16s-0.08-0.09-0.16-0.12c-0.05-0.03-0.16-0.06-0.32-0.11
			c-0.17-0.06-0.28-0.1-0.35-0.14c-0.08-0.05-0.15-0.12-0.18-0.19c-0.04-0.07-0.06-0.15-0.05-0.23c0.01-0.09,0.04-0.18,0.1-0.26
			c0.06-0.08,0.14-0.13,0.24-0.17s0.22-0.05,0.34-0.04c0.14,0.01,0.26,0.04,0.36,0.09c0.1,0.05,0.18,0.12,0.23,0.21
			s0.07,0.19,0.07,0.29h-0.24c-0.01-0.12-0.04-0.21-0.11-0.28c-0.07-0.06-0.17-0.1-0.31-0.11c-0.15-0.01-0.26,0.01-0.33,0.06
			c-0.07,0.05-0.11,0.11-0.12,0.19c0,0.07,0.02,0.12,0.06,0.17c0.04,0.05,0.16,0.1,0.36,0.16c0.19,0.06,0.33,0.11,0.4,0.15
			c0.1,0.06,0.18,0.12,0.22,0.2c0.05,0.08,0.06,0.17,0.06,0.27c-0.01,0.1-0.04,0.19-0.1,0.27c-0.06,0.08-0.15,0.15-0.26,0.18
			c-0.11,0.04-0.23,0.06-0.36,0.05c-0.17-0.01-0.3-0.04-0.41-0.1s-0.19-0.13-0.25-0.24C49.02,19.61,48.99,19.5,49,19.38
			 M47.25,19.34l0.23-0.02c0.01,0.09,0.03,0.17,0.07,0.23c0.04,0.06,0.1,0.11,0.18,0.15c0.08,0.04,0.18,0.06,0.28,0.06
			c0.09,0,0.17-0.01,0.25-0.04c0.07-0.03,0.13-0.06,0.16-0.11c0.04-0.05,0.06-0.1,0.06-0.16c0-0.06-0.01-0.11-0.05-0.15
			s-0.09-0.08-0.17-0.11c-0.05-0.02-0.16-0.05-0.33-0.1c-0.17-0.04-0.29-0.08-0.36-0.12c-0.09-0.05-0.15-0.11-0.19-0.18
			c-0.04-0.07-0.06-0.15-0.06-0.23c0-0.09,0.03-0.18,0.08-0.26s0.13-0.14,0.23-0.18c0.1-0.04,0.22-0.06,0.34-0.06
			c0.14,0,0.26,0.03,0.36,0.07c0.1,0.05,0.18,0.11,0.24,0.2c0.05,0.09,0.08,0.18,0.08,0.29l-0.23,0.01
			c-0.01-0.12-0.05-0.21-0.12-0.27c-0.07-0.06-0.18-0.09-0.32-0.1c-0.15,0-0.26,0.02-0.32,0.08c-0.07,0.05-0.1,0.12-0.1,0.19
			s0.02,0.12,0.07,0.17c0.05,0.04,0.17,0.09,0.37,0.14s0.33,0.09,0.41,0.12c0.11,0.05,0.18,0.12,0.23,0.19
			c0.05,0.08,0.07,0.17,0.07,0.27s-0.03,0.19-0.09,0.27c-0.06,0.09-0.14,0.15-0.25,0.2c-0.11,0.05-0.22,0.07-0.36,0.06
			c-0.17,0-0.31-0.03-0.42-0.08s-0.2-0.12-0.26-0.22C47.28,19.58,47.25,19.47,47.25,19.34 M46.65,19.95l-0.03-1.84h0.24l0.03,1.84
			H46.65z M44.76,19.49l0.23-0.04c0.02,0.09,0.05,0.17,0.09,0.22c0.05,0.06,0.11,0.1,0.2,0.13c0.08,0.03,0.18,0.04,0.29,0.04
			c0.09-0.01,0.17-0.03,0.24-0.06c0.07-0.04,0.12-0.08,0.15-0.13c0.03-0.05,0.05-0.1,0.04-0.16c0-0.06-0.02-0.11-0.06-0.15
			s-0.09-0.07-0.17-0.1c-0.05-0.02-0.16-0.04-0.33-0.07s-0.29-0.06-0.36-0.09c-0.09-0.04-0.16-0.09-0.21-0.16
			c-0.05-0.07-0.07-0.14-0.08-0.23c-0.01-0.09,0.01-0.18,0.06-0.27s0.12-0.15,0.22-0.2c0.1-0.05,0.21-0.08,0.33-0.09
			c0.14-0.01,0.26,0,0.37,0.04s0.19,0.09,0.26,0.17c0.06,0.08,0.1,0.18,0.11,0.29l-0.23,0.04c-0.02-0.12-0.07-0.2-0.15-0.26
			c-0.08-0.06-0.18-0.08-0.33-0.07c-0.15,0.01-0.25,0.05-0.32,0.1c-0.06,0.06-0.09,0.13-0.09,0.2c0.01,0.07,0.03,0.12,0.08,0.16
			s0.17,0.08,0.38,0.11c0.2,0.03,0.34,0.06,0.42,0.09c0.11,0.04,0.19,0.1,0.25,0.17s0.09,0.16,0.09,0.26
			c0.01,0.1-0.01,0.19-0.06,0.28s-0.13,0.16-0.23,0.22c-0.1,0.06-0.22,0.09-0.35,0.1c-0.17,0.01-0.31,0-0.42-0.05
			c-0.12-0.04-0.21-0.1-0.28-0.2C44.81,19.72,44.77,19.61,44.76,19.49 M43.03,19.72l0.23-0.05c0.02,0.09,0.06,0.16,0.1,0.21
			c0.05,0.06,0.11,0.1,0.2,0.12c0.09,0.03,0.18,0.03,0.29,0.02c0.09-0.01,0.17-0.03,0.24-0.07s0.12-0.08,0.14-0.13
			c0.03-0.05,0.04-0.11,0.03-0.17s-0.03-0.11-0.07-0.14c-0.04-0.04-0.1-0.07-0.18-0.09c-0.05-0.02-0.17-0.03-0.34-0.05
			c-0.17-0.02-0.29-0.04-0.37-0.07c-0.09-0.03-0.17-0.08-0.22-0.15c-0.05-0.06-0.08-0.14-0.09-0.22c-0.01-0.09,0-0.18,0.05-0.27
			c0.04-0.09,0.11-0.16,0.21-0.21c0.1-0.06,0.21-0.09,0.33-0.1c0.14-0.02,0.26-0.01,0.37,0.02s0.2,0.08,0.26,0.16
			c0.07,0.08,0.11,0.17,0.13,0.28l-0.23,0.05c-0.03-0.11-0.08-0.2-0.16-0.25s-0.19-0.07-0.33-0.05c-0.15,0.02-0.25,0.06-0.31,0.12
			c-0.06,0.06-0.09,0.13-0.08,0.21c0.01,0.07,0.04,0.12,0.09,0.15c0.05,0.04,0.18,0.07,0.38,0.09c0.2,0.02,0.34,0.04,0.42,0.07
			c0.11,0.04,0.2,0.09,0.26,0.16c0.06,0.07,0.1,0.15,0.11,0.25s-0.01,0.19-0.05,0.29c-0.05,0.09-0.12,0.17-0.21,0.23
			c-0.1,0.06-0.21,0.1-0.34,0.11c-0.17,0.02-0.31,0.01-0.43-0.02s-0.21-0.1-0.29-0.18C43.1,19.95,43.05,19.84,43.03,19.72
			 M42.54,20.43l-0.32-1.82l0.24-0.04l0.32,1.82L42.54,20.43z M40.39,20.9l-0.38-1.8l0.36-0.08l0.7,1.19
			c0.06,0.11,0.11,0.19,0.14,0.25c0.01-0.07,0.02-0.17,0.04-0.31l0.17-1.35l0.32-0.07l0.38,1.81l-0.23,0.05l-0.32-1.51l-0.2,1.62
			l-0.21,0.05l-0.85-1.43l0.33,1.54L40.39,20.9z"/>
	</g>
	<g>
		<rect x="44.2" y="60.28" style="fill:#46166A;" width="7.87" height="0.44"/>
		<rect x="41.31" y="66.41" style="fill:#46166A;" width="13.65" height="0.44"/>
		<rect x="42" y="63.59" style="fill:#46166A;" width="12.27" height="0.44"/>
		<rect x="47.36" y="51.31" style="fill:#46166A;" width="2.2" height="5.78"/>
		<rect x="41.31" y="67.54" style="fill:#46166A;" width="13.65" height="0.44"/>
		<rect x="41.31" y="68.63" style="fill:#46166A;" width="13.65" height="0.44"/>
		<rect x="41.31" y="64.68" style="fill:#46166A;" width="13.65" height="0.44"/>
		<rect x="43.45" y="61.44" style="fill:#46166A;" width="9.35" height="0.44"/>
		<rect x="42.74" y="62.53" style="fill:#46166A;" width="10.78" height="0.44"/>
		<rect x="45.6" y="58.18" style="fill:#46166A;" width="5.05" height="0.44"/>
		<rect x="47.36" y="49.13" style="fill:#46166A;" width="2.2" height="1.06"/>
		<rect x="44.89" y="59.19" style="fill:#46166A;" width="6.49" height="0.44"/>
		<polygon style="fill:#46166A;" points="50.14,30.07 48.93,30.07 48.93,28.85 48.71,28.85 48.71,30.29 50.14,30.29 		"/>
		<path style="fill:#46166A;" d="M66.86,63.72V48.58h0.37v-3.61L69,43.83l-14.06-5.62v-3.07L58,32.15h-3.23v-4.23l1.47-1.47H53.4
			v-1.72l0.85-0.85h-2.34v-2.92h-0.87v0.46h-5.26V21h-0.87v2.83h-2.23l0.7,0.87v1.66h-2.36l1.56,1.56v4.21h-3.34l2.87,2.89v3.16
			l-14.77,5.54l0.5,1.26h0.75v1.58h0.42v1.93l0.41,0.11v15.08h-0.75v1.43h-2.18v1h12.54v2.91h0.73v-4.56l4.44-6.62L30,57.85v-0.78
			h15.88v-5.82h-1.06v-1.08h1.06v-1.08H45.2v-0.38h0.68v-0.62h5.11v0.62h0.68v0.38h-0.68v1.08h1.06v1.08h-1.06v5.82h15.15v0.77
			H52.19l4.11,6.62v4.56h1.1v-2.91h10.87v-0.48h4.63L66.86,63.72z M35.65,58.16h2.94v0.71h-2.94V58.16z M35.65,59.23h2.94v1.09
			h-2.94V59.23z M35.65,60.69h2.94v0.71h-2.94V60.69z M35.65,61.76h2.94v1.09h-2.94V61.76z M35.65,63.22h2.94v0.71h-2.94V63.22z
			 M35.65,64.66h2.94v0.7h-2.94V64.66z M30.04,58.16h2.94v0.71h-2.94V58.16z M30.04,59.24h2.94v0.71h-2.94V59.24z M30.04,60.33h2.94
			v0.71h-2.94V60.33z M30.04,61.76h2.94v0.71h-2.94V61.76z M30.04,62.86h2.94v0.71h-2.94V62.86z M30.04,64.66h2.94v0.7h-2.94V64.66z
			 M49.91,22.02H51v1.78h-1.09V22.02z M48.49,22.02h1.09v1.78h-1.09V22.02z M47.06,22.02h1.09v1.78h-1.09V22.02z M45.59,22.02h1.09
			v1.78h-1.09V22.02z M44.14,24.52h7.98v1.49h-7.98V24.52z M43.12,26.72h11.14v1.04H43.12V26.72z M53.88,28.17v3.61h-1.09v-3.61
			H53.88z M52.1,28.17v3.61h-1.09v-3.61H52.1z M47.05,30.15c0-0.96,0.77-1.73,1.73-1.73c0.95,0,1.72,0.77,1.72,1.73
			c0,0.95-0.77,1.72-1.72,1.72C47.82,31.87,47.05,31.1,47.05,30.15z M47.68,31.78h-0.64v-0.7C47.19,31.37,47.41,31.61,47.68,31.78z
			 M47.04,29.21v-1.03h1.09v0.11C47.66,28.44,47.27,28.78,47.04,29.21z M50.65,30.75v1.03h-0.78
			C50.24,31.54,50.51,31.18,50.65,30.75z M49.56,28.34v-0.16h1.09v1.37C50.48,29,50.07,28.56,49.56,28.34z M46.33,28.17v3.61h-1.09
			v-3.61H46.33z M44.52,28.17v3.61h-1.09v-3.61H44.52z M42.32,32.71h12.74v0.66H42.32V32.71z M42.97,34.63v-0.66h11.44v0.66H42.97z
			 M54.41,35.01v1.83H52.8v-1.09h-8.19l-0.01,1.09h-1.63v-1.83H54.41z M29.33,48.02v-1.39h3.19v1.39H29.33z M31.83,56.69h-1.09V55.6
			h1.09V56.69z M31.87,55.22h-1.51v1.48h-0.38v-8.25h1.88L31.87,55.22L31.87,55.22z M33.43,56.69h-1.09V55.6h1.09V56.69z M35,56.69
			h-1.09V55.6H35V56.69z M36.55,56.69h-1.09V55.6h1.09V56.69z M35.17,48.02v-1.39h3.19v1.39H35.17z M37.71,56.7h-0.77v-1.48h-1.11
			v-6.77h1.88V56.7z M39.06,56.69h-1.09V55.6h1.09V56.69z M40.89,56.69H39.8V55.6h1.09V56.69z M43.78,56.7H41.9v-8.25h1.88V56.7z
			 M44.43,48.02h-3.19v-1.39h3.19V48.02z M28.92,46.22v-1.66h-0.81l-0.27-0.66l20.52-7.8l19.94,7.84l-1.49,0.87v1.41
			C66.81,46.22,28.92,46.22,28.92,46.22z M53.6,56.7h-0.59v-8.25h1.88v6.77H53.6L53.6,56.7L53.6,56.7z M55.06,56.69h-1.09V55.6h1.09
			V56.69z M55.54,48.02h-3.19v-1.39h3.19V48.02z M57.19,56.69H56.1V55.6h1.09V56.69z M57.98,46.62h3.19v1.39h-3.19V46.62z
			 M59.3,56.69h-1.09V55.6h1.09V56.69z M60.52,56.7h-0.83v-1.48h-1.05v-6.77h1.88V56.7z M61.88,56.69h-1.09V55.6h1.09V56.69z
			 M63.66,56.69h-1.09V55.6h1.09V56.69z M64.31,56.7v-8.25h1.88v8.25H64.31z M60.02,65.36h-2.94v-0.7h2.94V65.36z M60.02,63.93
			h-2.94v-0.71h2.94V63.93z M60.02,62.85h-2.94v-1.09h2.94V62.85z M60.02,61.4h-2.94v-0.71h2.94V61.4z M60.02,60.31h-2.94v-1.09
			h2.94V60.31z M60.02,58.87h-2.94v-0.71h2.94V58.87z M66.25,65.36h-2.94v-0.7h2.94V65.36z M66.25,63.57h-2.94v-0.71h2.94V63.57z
			 M66.25,62.47h-2.94v-0.71h2.94V62.47z M66.25,61.04h-2.94v-0.71h2.94V61.04z M66.25,59.95h-2.94v-0.71h2.94V59.95z M66.25,58.87
			h-2.94v-0.71h2.94V58.87z M66.84,48.02h-3.19v-1.39h3.19V48.02z"/>
		<path style="fill:#46166A;" d="M29.41,44.64H66.4l-18.07-7.26L29.41,44.64z M31.44,44.27l15.52-5.89l12.46,5.89H31.44z"/>
	</g>
	<g>
		<path style="fill:#46166A;" d="M35.9,68.79c-0.27-0.01-0.53,0.52-0.64,0.69c-0.1,0.17-0.05,0.29,0.19,0.29
			c0.12,0,0.2-0.26,0.32-0.32c0.27-0.14,0.46,0.1,0.62-0.15c0.02-0.03,0.1-0.27,0.08-0.29C36.29,68.78,36.23,68.8,35.9,68.79
			 M33.7,67.57l-0.07-0.07c-0.47-0.29-2.1-0.73-2.68-0.73c-0.32,0-0.09-0.23,0.12-0.27c0.71-0.14,4.96,0.3,5.37,0.73
			c0.14,0.15,0.59,0.15,0.59,0.39c0,0.99-1.76-0.27-2.46,0.02c-0.17,0.07,1.46,0.76,0.29,0.76c-0.45,0-0.94-0.17-1.38-0.08
			c-0.48,0.09-0.5,0.25-1.01,0.13c-0.53-0.12-0.91-0.11-1.36,0.19c-0.4,0.27-0.03-0.14,0.12-0.27C31.77,67.87,33.7,68.11,33.7,67.57
			"/>
		<path style="fill:#46166A;" d="M64.17,67.3c-0.94-0.78-1.64,0.38-2.62,0.24c-0.32-0.05-0.6-0.06-0.92-0.06
			c-0.68,0,1.19-0.45,1.3-0.49c2.42-0.96,4.32,0.18,6.79,0.55c0.18,0.03,0.53,0.37,0.53,0.56c0,0.05-0.22-0.04-0.27-0.06
			c-1.03-0.34-2.65,0-3.79,0c-0.46,0-3.08,0.54-2.25-0.14C63.18,67.71,64.14,67.41,64.17,67.3"/>
	</g>
	<path style="fill:#46166A;" d="M72.72,60.95h1.47v0.48h-1.47V60.95z M74.53,59.45h1.26v0.48h-1.26V59.45z M71.61,59.14h1.84v0.48
		h-1.84V59.14z M69.38,58.37h6.25v0.48h-6.25V58.37z M70.16,57.16h6.54v0.48h-6.54V57.16z M69.83,55.96h7.22v0.39h-7.22V55.96z"/>
	<path style="fill:#E9A713;" d="M47.78,2.54C22.79,2.54,2.53,22.8,2.53,47.79c0,24.98,20.27,45.24,45.25,45.24
		c24.98,0,45.24-20.26,45.24-45.24C93.02,22.8,72.76,2.54,47.78,2.54z M47.78,81.26c-18.49,0-33.48-14.99-33.48-33.48
		C14.29,29.29,29.29,14.3,47.78,14.3s33.48,14.99,33.48,33.48C81.26,66.27,66.27,81.26,47.78,81.26z"/>
	<path style="fill:#46166A;" d="M17.25,76.56c-6.69-7.42-10.83-17.27-11-28.11l3.47,3.19l1.79-3.68
		c0.05,10.39,4.46,19.74,11.51,26.33l-0.54,0.6c-0.6-0.57-1.18-1.16-1.75-1.79L17.25,76.56z M74.82,73.08l3.48,3.48
		c6.6-7.31,10.72-16.99,10.99-27.66l-3.32,2.24l-1.93-3.34c0,10.44-4.42,19.84-11.48,26.46l0.54,0.59
		C73.69,74.29,74.26,73.7,74.82,73.08z M70.58,76.97l-0.5-0.59c-6.15,4.81-13.89,7.67-22.3,7.67c-8.4,0-16.13-2.86-22.28-7.65L25,77
		c0.54,0.4,1.09,0.79,1.66,1.17l-3.24,3.99c6.84,5.08,15.26,8.08,24.36,8.08s17.51-3,24.36-8.08l-3.25-4
		C69.47,77.78,70.03,77.38,70.58,76.97z M69.5,78.26l3.37,4.15c2.23-1.47,4.11-3.17,5.64-5.05l-3.67-3.67
		C73.34,75.37,71.55,76.89,69.5,78.26z M20.71,73.68l-3.67,3.67c1.53,1.89,3.41,3.59,5.64,5.05l3.37-4.15
		C24,76.89,22.21,75.37,20.71,73.68z"/>
	<path style="fill:#46166A;" d="M34.03,12.77c0.11,0.26,0.16,0.51,0.15,0.77c-0.01,0.26-0.07,0.51-0.19,0.75s-0.29,0.47-0.52,0.67
		c-0.22,0.2-0.5,0.37-0.82,0.51c-0.16,0.07-0.32,0.12-0.48,0.17c-0.16,0.04-0.32,0.07-0.47,0.09c-0.14,0.02-0.26,0.03-0.36,0.03
		s-0.19,0-0.26,0c-0.05-0.05-0.1-0.12-0.17-0.22c-0.07-0.1-0.15-0.22-0.23-0.35s-0.17-0.27-0.26-0.41
		c-0.08-0.14-0.16-0.28-0.24-0.41l0.27-0.23c0.08,0.1,0.19,0.21,0.31,0.32s0.26,0.22,0.41,0.32c0.15,0.1,0.31,0.18,0.47,0.25
		c0.17,0.07,0.34,0.1,0.51,0.11s0.35-0.02,0.52-0.09c0.18-0.08,0.32-0.18,0.42-0.31c0.1-0.13,0.16-0.29,0.17-0.46
		s-0.02-0.35-0.1-0.54c-0.07-0.17-0.18-0.31-0.32-0.41c-0.14-0.1-0.32-0.18-0.52-0.23c-0.21-0.05-0.45-0.09-0.72-0.11
		c-0.37-0.02-0.71-0.07-1.01-0.14c-0.3-0.07-0.56-0.18-0.78-0.34c-0.22-0.16-0.39-0.38-0.51-0.66c-0.1-0.25-0.16-0.49-0.15-0.74
		c0.01-0.25,0.06-0.49,0.17-0.72s0.27-0.44,0.48-0.64c0.21-0.19,0.48-0.36,0.79-0.5c0.19-0.08,0.38-0.14,0.56-0.18
		S31.49,9,31.62,8.99c0.14-0.01,0.24-0.02,0.3-0.02c0.09,0.16,0.19,0.33,0.3,0.52c0.12,0.19,0.25,0.42,0.4,0.67l-0.27,0.2
		c-0.11-0.12-0.22-0.24-0.35-0.35s-0.27-0.21-0.41-0.29c-0.15-0.08-0.3-0.12-0.47-0.14s-0.34,0.01-0.52,0.09
		c-0.17,0.07-0.3,0.17-0.39,0.3c-0.1,0.13-0.16,0.28-0.17,0.44c-0.02,0.16,0.01,0.33,0.08,0.5c0.07,0.16,0.17,0.29,0.29,0.38
		c0.13,0.09,0.3,0.17,0.51,0.21c0.21,0.05,0.48,0.08,0.79,0.1c0.38,0.02,0.72,0.06,1.02,0.13c0.31,0.07,0.57,0.19,0.8,0.35
		C33.73,12.25,33.91,12.48,34.03,12.77z M26.39,15.09c-0.07-0.12-0.13-0.22-0.18-0.31s-0.09-0.16-0.12-0.22
		c-0.05-0.09-0.07-0.17-0.07-0.24s0.02-0.14,0.07-0.2c0.05-0.06,0.12-0.13,0.22-0.2l-0.13-0.2l-1.36,0.92l0.13,0.19
		c0.14-0.08,0.26-0.14,0.35-0.17s0.18-0.03,0.25,0s0.13,0.07,0.19,0.15c0.04,0.05,0.09,0.11,0.15,0.19
		c0.06,0.07,0.13,0.17,0.22,0.28c0.08,0.11,0.18,0.25,0.29,0.41l0.66,0.98l-0.02,0.01l-3.78-1.01l-1.03,0.7l0.13,0.19
		c0.08-0.05,0.16-0.08,0.22-0.1c0.07-0.03,0.13-0.04,0.19-0.04s0.12,0.01,0.18,0.03c0.05,0.01,0.09,0.03,0.13,0.05
		c0.04,0.02,0.07,0.05,0.11,0.09c0.04,0.04,0.08,0.09,0.12,0.15c0.05,0.06,0.1,0.14,0.16,0.23l0.79,1.16
		c0.11,0.16,0.2,0.3,0.27,0.42c0.07,0.12,0.13,0.22,0.17,0.31c0.05,0.08,0.08,0.16,0.12,0.23c0.05,0.08,0.07,0.16,0.07,0.23
		s-0.02,0.14-0.07,0.21c-0.05,0.07-0.12,0.14-0.22,0.22l0.13,0.2l1.37-0.92l-0.13-0.19c-0.1,0.06-0.2,0.11-0.27,0.14
		c-0.08,0.03-0.15,0.04-0.2,0.04c-0.06,0-0.11-0.02-0.16-0.05c-0.05-0.03-0.1-0.08-0.14-0.13c-0.04-0.05-0.09-0.11-0.15-0.19
		c-0.06-0.07-0.13-0.17-0.21-0.28s-0.18-0.25-0.29-0.41l-0.85-1.25l0.02-0.01l4.19,1.21l0.27-0.18l-1.49-2.21
		C26.55,15.35,26.46,15.21,26.39,15.09z M37.41,9.38c0.09-0.01,0.16-0.01,0.22-0.01c0.06,0.01,0.11,0.03,0.16,0.06
		c0.07,0.04,0.15,0.11,0.23,0.21s0.16,0.22,0.24,0.38l0.23-0.07c-0.04-0.1-0.07-0.21-0.11-0.33s-0.08-0.23-0.11-0.34
		c-0.04-0.11-0.07-0.22-0.1-0.32s-0.06-0.18-0.08-0.25l-0.16,0.04c-0.03,0.05-0.05,0.09-0.08,0.13c-0.03,0.03-0.06,0.06-0.1,0.08
		C37.71,8.98,37.66,9,37.6,9.02l-2.61,0.7c-0.06,0.02-0.11,0.03-0.16,0.03c-0.04,0.01-0.09,0-0.13-0.01
		c-0.04-0.02-0.08-0.04-0.13-0.08L34.41,9.7c0.03,0.11,0.05,0.24,0.08,0.38s0.06,0.29,0.09,0.44c0.03,0.16,0.06,0.32,0.1,0.48
		l0.23-0.06c0-0.17,0-0.32,0.02-0.44c0.01-0.12,0.04-0.22,0.08-0.29c0.02-0.03,0.04-0.06,0.06-0.09c0.03-0.03,0.06-0.06,0.11-0.09
		s0.11-0.06,0.2-0.09c0.08-0.03,0.19-0.07,0.32-0.1l0.22-0.06l0.82,3.07c0.04,0.14,0.06,0.25,0.07,0.33c0.01,0.08,0,0.15-0.03,0.2
		c-0.03,0.05-0.08,0.1-0.16,0.14s-0.18,0.08-0.31,0.13l0.06,0.23l2.12-0.57l-0.06-0.23c-0.15,0.03-0.26,0.04-0.35,0.05
		c-0.09,0.01-0.16-0.01-0.21-0.04c-0.06-0.03-0.1-0.08-0.13-0.16c-0.04-0.08-0.07-0.18-0.11-0.32l-0.82-3.07l0.3-0.08
		C37.22,9.42,37.33,9.39,37.41,9.38z M19.98,23.36c0.05,0.23,0.07,0.46,0.05,0.69c-0.02,0.23-0.08,0.46-0.18,0.68
		s-0.22,0.43-0.39,0.62c-0.22,0.26-0.46,0.45-0.73,0.59c-0.27,0.14-0.54,0.22-0.83,0.24c-0.29,0.02-0.57-0.01-0.86-0.11
		c-0.28-0.09-0.55-0.24-0.8-0.45c-0.18-0.15-0.33-0.32-0.46-0.51s-0.23-0.4-0.29-0.62s-0.09-0.45-0.08-0.69
		c0.01-0.24,0.06-0.48,0.16-0.73c0.1-0.24,0.24-0.49,0.44-0.72v-0.01c0.16-0.19,0.33-0.34,0.53-0.47c0.19-0.12,0.4-0.22,0.62-0.27
		c0.22-0.06,0.44-0.08,0.67-0.07s0.45,0.06,0.68,0.15c0.22,0.09,0.44,0.22,0.64,0.39c0.22,0.19,0.4,0.39,0.54,0.6
		C19.83,22.91,19.93,23.13,19.98,23.36z M19.5,24.15c-0.05-0.18-0.15-0.37-0.29-0.56c-0.14-0.19-0.33-0.39-0.56-0.59
		c-0.26-0.21-0.51-0.38-0.75-0.5s-0.47-0.2-0.69-0.23c-0.22-0.03-0.41-0.01-0.59,0.05c-0.18,0.06-0.33,0.17-0.45,0.31l-0.01,0.01
		c-0.11,0.13-0.17,0.28-0.2,0.44c-0.03,0.17-0.01,0.34,0.04,0.53c0.06,0.19,0.15,0.38,0.29,0.58c0.14,0.19,0.32,0.39,0.54,0.58
		c0.18,0.15,0.36,0.28,0.55,0.38c0.19,0.11,0.37,0.18,0.56,0.24c0.18,0.06,0.36,0.08,0.54,0.08c0.17,0,0.33-0.03,0.48-0.1
		c0.15-0.06,0.28-0.16,0.39-0.29c0.1-0.12,0.17-0.26,0.2-0.42C19.56,24.5,19.55,24.33,19.5,24.15z M14.74,31.63
		c-0.07-0.06-0.14-0.11-0.22-0.17c-0.07-0.06-0.14-0.11-0.21-0.16c-0.06-0.05-0.12-0.09-0.17-0.13l-0.17,0.18
		c0.12,0.13,0.22,0.25,0.29,0.35s0.13,0.2,0.16,0.29c0.04,0.11,0.06,0.23,0.03,0.35c-0.02,0.12-0.06,0.24-0.13,0.37
		c-0.05,0.09-0.09,0.18-0.14,0.25c-0.05,0.07-0.09,0.13-0.14,0.17c-0.04,0.04-0.08,0.05-0.12,0.06c-0.05,0.01-0.1,0-0.16-0.03
		c-0.06-0.02-0.14-0.06-0.23-0.1l-2.36-1.15c-0.13-0.06-0.23-0.12-0.3-0.17c-0.07-0.05-0.12-0.1-0.14-0.15
		c-0.02-0.05-0.02-0.12-0.01-0.19c0.02-0.08,0.05-0.18,0.1-0.3L10.61,31l-0.9,1.85l0.21,0.1c0.06-0.11,0.12-0.19,0.17-0.26
		c0.05-0.06,0.1-0.1,0.16-0.12c0.06-0.02,0.13-0.01,0.21,0.01c0.08,0.03,0.19,0.07,0.31,0.13l2.31,1.13
		c0.13,0.06,0.22,0.12,0.29,0.17c0.07,0.05,0.11,0.1,0.13,0.16c0.02,0.06,0.02,0.13,0,0.22c-0.02,0.09-0.06,0.2-0.11,0.33l0.21,0.1
		l1.44-2.94c-0.03-0.03-0.07-0.06-0.13-0.11C14.88,31.74,14.81,31.69,14.74,31.63z M13.07,35.33l0.33,0.08l-0.67,2.67L12.4,38
		c0.02-0.19,0.02-0.33-0.01-0.42c-0.02-0.09-0.07-0.15-0.15-0.17s-0.19-0.02-0.34-0.01c-0.16,0.01-0.33,0.03-0.53,0.05
		c-0.2,0.02-0.4,0.04-0.62,0.06L10.3,39.3c0.13,0.09,0.27,0.18,0.43,0.28c0.15,0.1,0.32,0.2,0.49,0.3c0.1,0.06,0.19,0.11,0.26,0.13
		c0.07,0.03,0.14,0.03,0.2,0.01s0.11-0.08,0.17-0.17c0.06-0.09,0.11-0.21,0.17-0.38l0.33,0.08l-0.52,2.09l-0.32-0.09
		c0.02-0.16,0.03-0.29,0.02-0.4s-0.03-0.2-0.08-0.29c-0.05-0.09-0.12-0.18-0.23-0.27c-0.1-0.09-0.24-0.2-0.42-0.32l-4.33-3.11v-0.51
		c0.89-0.09,1.78-0.19,2.67-0.28c0.88-0.09,1.77-0.19,2.65-0.29c0.22-0.03,0.41-0.06,0.55-0.09c0.14-0.03,0.26-0.07,0.34-0.13
		c0.09-0.05,0.16-0.12,0.22-0.21C12.96,35.58,13.02,35.47,13.07,35.33z M10.22,37.56l-2.19,0.19l-0.01,0.03
		C8.33,38,8.64,38.2,8.94,38.41c0.31,0.2,0.61,0.41,0.91,0.61L10.22,37.56z M16.96,27.47c-0.07-0.08-0.14-0.16-0.2-0.24
		c-0.07-0.08-0.13-0.15-0.19-0.21l-0.21,0.15c0.2,0.32,0.32,0.62,0.36,0.89c0.04,0.27-0.01,0.53-0.16,0.77
		c-0.12,0.2-0.27,0.35-0.45,0.47c-0.18,0.12-0.39,0.19-0.61,0.22c-0.23,0.03-0.47,0.01-0.72-0.05c-0.26-0.06-0.52-0.17-0.78-0.33
		c-0.17-0.1-0.32-0.22-0.46-0.35c-0.14-0.13-0.26-0.28-0.35-0.43s-0.16-0.31-0.2-0.48c-0.04-0.17-0.05-0.34-0.03-0.51
		c0.03-0.17,0.09-0.34,0.18-0.51c0.07-0.11,0.15-0.21,0.24-0.3c0.09-0.09,0.2-0.16,0.33-0.22c0.12-0.06,0.27-0.09,0.43-0.09
		c0.16-0.01,0.34,0.02,0.54,0.07l0.09-0.24c-0.13-0.06-0.25-0.11-0.36-0.16s-0.22-0.09-0.33-0.14s-0.22-0.09-0.33-0.14
		c-0.05,0.05-0.11,0.11-0.2,0.2c-0.09,0.09-0.18,0.2-0.29,0.33c-0.1,0.13-0.21,0.27-0.3,0.42c-0.21,0.35-0.35,0.69-0.42,1.03
		s-0.08,0.66-0.02,0.97s0.17,0.59,0.36,0.85c0.18,0.25,0.42,0.47,0.71,0.65c0.18,0.11,0.38,0.19,0.6,0.25
		c0.21,0.06,0.43,0.08,0.66,0.07s0.46-0.06,0.69-0.16c0.23-0.1,0.45-0.24,0.67-0.43c0.21-0.19,0.41-0.44,0.6-0.75
		c0.06-0.1,0.11-0.21,0.17-0.32c0.05-0.12,0.1-0.23,0.14-0.34c0.05-0.11,0.08-0.21,0.11-0.3c0.03-0.09,0.05-0.16,0.07-0.2
		c-0.04-0.06-0.08-0.12-0.14-0.19C17.09,27.63,17.02,27.55,16.96,27.47z M24.33,20.13l0.11,0.19c-0.02,0.01-0.04,0.03-0.06,0.05
		c-0.03,0.02-0.06,0.05-0.09,0.07c-0.16,0.13-0.31,0.24-0.44,0.31c-0.13,0.08-0.25,0.13-0.36,0.16c-0.11,0.03-0.22,0.04-0.33,0.03
		s-0.22-0.03-0.34-0.06c-0.11-0.03-0.22-0.06-0.33-0.1c-0.12-0.04-0.24-0.08-0.36-0.13c-0.12-0.05-0.25-0.09-0.38-0.13
		c-0.11-0.04-0.2-0.06-0.29-0.05c-0.08,0.01-0.16,0.06-0.24,0.12l-0.1,0.08l0.66,0.73c0.09,0.1,0.17,0.18,0.23,0.23
		c0.07,0.06,0.13,0.08,0.19,0.09c0.06,0.01,0.12-0.01,0.19-0.04c0.07-0.04,0.16-0.09,0.26-0.17l0.16,0.17l-1.51,1.36l-0.16-0.18
		c0.09-0.09,0.15-0.17,0.19-0.24c0.04-0.06,0.06-0.13,0.06-0.19c0-0.06-0.02-0.13-0.07-0.2c-0.05-0.07-0.11-0.16-0.21-0.26
		l-1.73-1.92c-0.09-0.1-0.16-0.18-0.23-0.23c-0.06-0.05-0.12-0.08-0.18-0.09c-0.06-0.01-0.12,0-0.19,0.04
		c-0.07,0.03-0.15,0.09-0.25,0.16l-0.16-0.17l1.4-1.26c0.14-0.13,0.28-0.24,0.4-0.32s0.23-0.15,0.34-0.2
		c0.11-0.05,0.21-0.08,0.32-0.09c0.11-0.02,0.21-0.02,0.32,0c0.11,0.02,0.21,0.06,0.32,0.12c0.1,0.06,0.2,0.14,0.3,0.24
		c0.1,0.11,0.17,0.22,0.21,0.34c0.05,0.12,0.07,0.23,0.07,0.35c0,0.12-0.01,0.23-0.05,0.35c-0.03,0.12-0.07,0.23-0.13,0.34
		c0.05,0.02,0.12,0.05,0.2,0.07c0.08,0.03,0.17,0.06,0.27,0.09c0.1,0.03,0.19,0.06,0.29,0.09s0.19,0.06,0.28,0.08
		c0.14,0.04,0.27,0.07,0.37,0.1c0.11,0.03,0.2,0.05,0.28,0.06c0.08,0.02,0.15,0.03,0.22,0.03c0.1,0.01,0.19,0.01,0.27,0
		C24.19,20.18,24.26,20.16,24.33,20.13z M21.42,19.38c-0.05-0.13-0.14-0.26-0.25-0.39c-0.12-0.13-0.24-0.23-0.35-0.29
		c-0.12-0.06-0.23-0.1-0.34-0.1c-0.11-0.01-0.21,0.01-0.3,0.05s-0.17,0.09-0.24,0.15c-0.06,0.06-0.11,0.11-0.14,0.15
		c-0.03,0.04-0.04,0.08-0.04,0.1c0,0.03,0,0.06,0.02,0.1c0.02,0.03,0.05,0.08,0.1,0.13l1.1,1.22l0.13-0.12
		c0.11-0.09,0.19-0.19,0.26-0.29c0.06-0.1,0.1-0.19,0.11-0.29C21.48,19.65,21.47,19.51,21.42,19.38z M44,12.04l0.04,0.23l-1.9,0.3
		l-0.04-0.23c0.13-0.04,0.22-0.08,0.27-0.12s0.08-0.09,0.07-0.15c-0.01-0.06-0.04-0.13-0.09-0.22c-0.05-0.1-0.11-0.2-0.17-0.33
		c-0.07-0.12-0.14-0.25-0.21-0.38l-1.28,0.2c-0.02,0.11-0.04,0.23-0.06,0.35c-0.02,0.13-0.04,0.26-0.06,0.4
		c-0.01,0.08-0.02,0.15-0.01,0.21c0,0.06,0.02,0.1,0.05,0.13s0.08,0.05,0.15,0.06c0.07,0.01,0.17,0.02,0.29,0.01l0.04,0.23
		l-1.49,0.23l-0.03-0.23c0.11-0.03,0.19-0.06,0.26-0.09c0.07-0.03,0.12-0.08,0.17-0.13c0.04-0.06,0.08-0.13,0.11-0.22
		c0.03-0.09,0.06-0.21,0.09-0.36l0.82-3.63l0.33-0.14c0.3,0.55,0.61,1.09,0.91,1.64c0.3,0.54,0.6,1.08,0.91,1.62
		c0.08,0.14,0.15,0.25,0.21,0.33c0.06,0.08,0.12,0.14,0.18,0.19c0.06,0.04,0.12,0.07,0.19,0.08C43.81,12.04,43.9,12.05,44,12.04z
		 M41.79,10.82l-0.72-1.36h-0.02c-0.06,0.26-0.1,0.51-0.15,0.76c-0.05,0.25-0.1,0.51-0.14,0.75L41.79,10.82z M66.35,13.36
		c0.06-0.13,0.12-0.23,0.16-0.32c0.05-0.09,0.09-0.16,0.12-0.22c0.05-0.09,0.1-0.15,0.16-0.19s0.13-0.06,0.21-0.05
		c0.08,0.01,0.18,0.03,0.29,0.07l0.09-0.22l-1.51-0.64l-0.09,0.22c0.15,0.07,0.26,0.14,0.33,0.2s0.12,0.13,0.13,0.2
		c0.02,0.07,0.01,0.16-0.02,0.25c-0.02,0.06-0.05,0.14-0.07,0.23c-0.03,0.09-0.07,0.2-0.12,0.34c-0.05,0.13-0.11,0.29-0.19,0.47
		l-0.46,1.09l-0.02-0.01l-1.21-3.72l-1.14-0.49l-0.09,0.22c0.08,0.05,0.15,0.09,0.21,0.13c0.06,0.04,0.1,0.09,0.14,0.14
		c0.03,0.05,0.06,0.11,0.07,0.17c0.01,0.05,0.02,0.09,0.02,0.14c0,0.04,0,0.09-0.01,0.14s-0.03,0.11-0.06,0.18s-0.06,0.16-0.1,0.26
		l-0.55,1.29c-0.08,0.18-0.15,0.33-0.21,0.46c-0.06,0.13-0.12,0.23-0.16,0.32c-0.05,0.08-0.09,0.16-0.13,0.22
		c-0.05,0.08-0.1,0.15-0.16,0.18c-0.06,0.04-0.13,0.06-0.22,0.05c-0.08,0-0.18-0.02-0.3-0.07l-0.09,0.22l1.52,0.64l0.09-0.22
		c-0.11-0.05-0.2-0.1-0.27-0.15s-0.12-0.1-0.14-0.15c-0.03-0.05-0.05-0.1-0.05-0.16c0-0.06,0.01-0.12,0.04-0.19
		c0.02-0.06,0.04-0.14,0.07-0.23c0.03-0.09,0.07-0.2,0.12-0.33c0.05-0.13,0.11-0.28,0.19-0.46l0.59-1.39l0.02,0.01l1.27,4.17
		l0.3,0.13l1.04-2.46C66.22,13.64,66.29,13.48,66.35,13.36z M68.32,13.15l-0.12,0.2c0.1,0.07,0.18,0.14,0.23,0.19
		c0.06,0.05,0.09,0.11,0.1,0.17c0.01,0.06,0,0.13-0.04,0.2c-0.03,0.08-0.09,0.18-0.16,0.3L67,16.42c-0.07,0.12-0.13,0.21-0.19,0.28
		c-0.05,0.06-0.11,0.1-0.16,0.12c-0.05,0.02-0.12,0.02-0.19-0.01c-0.07-0.02-0.17-0.06-0.28-0.12l-0.12,0.2l1.73,1.04l0.12-0.2
		c-0.1-0.07-0.18-0.14-0.23-0.19c-0.06-0.06-0.09-0.11-0.1-0.17c-0.01-0.05,0-0.12,0.03-0.2c0.03-0.08,0.08-0.17,0.16-0.29
		l1.33-2.21c0.07-0.12,0.13-0.21,0.19-0.28c0.05-0.06,0.11-0.11,0.16-0.12c0.06-0.02,0.12-0.02,0.19,0.01
		c0.07,0.02,0.17,0.06,0.28,0.12l0.12-0.2L68.32,13.15z M48.38,8.18c-0.01-0.12-0.02-0.23-0.02-0.33c-0.01-0.1-0.01-0.19-0.01-0.26
		h-0.16c-0.04,0.04-0.07,0.08-0.11,0.1C48.04,7.72,48,7.74,47.96,7.75c-0.04,0.01-0.1,0.02-0.16,0.02l-2.7,0.05
		c-0.06,0-0.11,0-0.16-0.01c-0.04-0.01-0.08-0.02-0.12-0.05c-0.04-0.02-0.07-0.06-0.11-0.11h-0.16c0,0.11-0.01,0.24-0.01,0.39
		c-0.01,0.14-0.02,0.29-0.02,0.45c-0.01,0.16-0.02,0.32-0.02,0.49h0.24c0.04-0.17,0.08-0.31,0.13-0.42c0.04-0.12,0.09-0.2,0.14-0.26
		c0.03-0.03,0.05-0.05,0.08-0.07s0.08-0.04,0.13-0.06s0.13-0.03,0.21-0.04c0.09-0.01,0.2-0.02,0.34-0.02H46l0.06,3.18
		c0,0.14,0,0.25-0.01,0.34c-0.01,0.08-0.04,0.15-0.08,0.19c-0.04,0.04-0.11,0.07-0.19,0.09s-0.2,0.04-0.34,0.05v0.24l2.19-0.04
		v-0.24c-0.15-0.01-0.26-0.02-0.35-0.04c-0.09-0.02-0.16-0.05-0.2-0.08c-0.05-0.04-0.08-0.1-0.09-0.19
		c-0.02-0.08-0.03-0.19-0.03-0.34L46.9,8.09l0.31-0.01c0.13,0,0.24,0,0.32,0.01c0.09,0.01,0.16,0.02,0.22,0.05
		c0.06,0.02,0.1,0.05,0.14,0.09c0.06,0.06,0.12,0.15,0.17,0.26s0.1,0.26,0.14,0.43l0.24-0.02c-0.01-0.11-0.02-0.22-0.03-0.35
		C48.4,8.42,48.39,8.3,48.38,8.18z M61.65,9.28c0.04-0.11,0.08-0.21,0.13-0.3c0.06-0.16,0.17-0.27,0.32-0.33
		c0.15-0.06,0.36-0.06,0.61-0.01l0.09-0.33l-2.33-0.63l-0.09,0.33c0.2,0.07,0.37,0.14,0.48,0.22s0.19,0.17,0.23,0.26
		c0.04,0.09,0.05,0.2,0.04,0.31c-0.01,0.1-0.02,0.2-0.04,0.32c-0.02,0.12-0.04,0.26-0.08,0.42c-0.03,0.16-0.08,0.35-0.14,0.57
		L60.6,11.1c-0.14,0.52-0.31,0.94-0.52,1.27c-0.21,0.32-0.45,0.55-0.74,0.67c-0.28,0.12-0.61,0.13-0.98,0.03
		c-0.33-0.09-0.59-0.25-0.77-0.49c-0.18-0.23-0.28-0.53-0.3-0.88c-0.02-0.36,0.03-0.77,0.15-1.24l0.54-2.02
		c0.06-0.22,0.11-0.39,0.16-0.51s0.11-0.21,0.18-0.26c0.07-0.05,0.16-0.07,0.27-0.07s0.25,0.02,0.42,0.05l0.09-0.32l-2.8-0.75
		l-0.09,0.33c0.17,0.06,0.3,0.12,0.4,0.17c0.1,0.05,0.16,0.12,0.2,0.2c0.04,0.08,0.05,0.18,0.03,0.32
		c-0.02,0.13-0.05,0.31-0.11,0.52l-0.59,2.19c-0.15,0.54-0.2,1.01-0.17,1.4s0.15,0.72,0.36,0.99c0.18,0.24,0.4,0.43,0.66,0.58
		c0.26,0.15,0.55,0.27,0.86,0.35c0.22,0.06,0.44,0.09,0.66,0.09s0.44-0.02,0.65-0.07c0.21-0.05,0.41-0.13,0.59-0.24
		c0.22-0.14,0.41-0.31,0.57-0.53c0.16-0.21,0.3-0.45,0.42-0.72c0.12-0.27,0.22-0.57,0.3-0.9l0.27-1.01c0.06-0.22,0.11-0.4,0.16-0.56
		C61.56,9.53,61.61,9.39,61.65,9.28z M52.41,11.59c-0.07,0.1-0.14,0.19-0.21,0.26c-0.09,0.08-0.19,0.13-0.32,0.15
		c-0.13,0.02-0.27,0.03-0.44,0.01c-0.13-0.01-0.25-0.02-0.35-0.04c-0.1-0.02-0.19-0.04-0.25-0.07c-0.06-0.04-0.1-0.1-0.12-0.19
		c-0.02-0.09-0.02-0.21,0-0.37l0.08-1.16l0.45,0.03c0.14,0.01,0.26,0.02,0.34,0.04c0.09,0.01,0.16,0.04,0.2,0.08
		c0.05,0.04,0.08,0.09,0.11,0.16c0.03,0.07,0.04,0.17,0.06,0.29l0.24,0.02l0.09-1.35l-0.24-0.02c-0.03,0.12-0.06,0.21-0.09,0.27
		c-0.03,0.07-0.08,0.11-0.13,0.14c-0.06,0.03-0.13,0.05-0.21,0.05c-0.09,0-0.2,0-0.34-0.01l-0.45-0.03l0.1-1.42
		c0-0.07,0.01-0.13,0.03-0.16c0.02-0.03,0.04-0.05,0.08-0.06c0.04-0.01,0.1,0,0.18,0l0.32,0.02c0.12,0.01,0.23,0.02,0.31,0.04
		c0.09,0.02,0.16,0.04,0.21,0.07c0.06,0.03,0.1,0.06,0.14,0.11c0.06,0.06,0.1,0.15,0.14,0.26c0.04,0.1,0.07,0.22,0.09,0.34
		l0.24-0.02c0-0.1,0-0.21,0-0.32s0-0.21,0-0.3c0-0.09,0-0.17,0-0.24s0-0.12,0-0.15L49.51,7.8l-0.02,0.23
		c0.12,0.02,0.21,0.04,0.28,0.06c0.07,0.02,0.12,0.06,0.16,0.1c0.04,0.04,0.06,0.11,0.06,0.19c0.01,0.08,0,0.2-0.01,0.34L49.8,11.3
		c-0.01,0.14-0.02,0.25-0.04,0.33c-0.02,0.08-0.05,0.14-0.1,0.18s-0.11,0.06-0.2,0.08c-0.09,0.01-0.2,0.02-0.34,0.02l-0.02,0.24
		l3.42,0.24c0.01-0.04,0.03-0.09,0.05-0.16c0.02-0.07,0.04-0.14,0.07-0.22c0.02-0.08,0.05-0.17,0.07-0.25
		c0.03-0.08,0.05-0.17,0.07-0.25s0.04-0.15,0.05-0.21l-0.23-0.06C52.55,11.36,52.48,11.48,52.41,11.59z M87.61,39.18l-0.23,0.06
		c0.01,0.12,0.02,0.22,0.02,0.29c-0.01,0.07-0.02,0.12-0.04,0.15c-0.03,0.03-0.06,0.05-0.11,0.05s-0.11,0-0.18-0.01
		c-0.11-0.02-0.23-0.04-0.37-0.06c-0.14-0.03-0.27-0.06-0.41-0.09s-0.28-0.06-0.41-0.1c-0.13-0.03-0.25-0.06-0.36-0.09
		c0.21-0.19,0.42-0.38,0.62-0.56c0.21-0.18,0.41-0.36,0.61-0.53c0.05-0.05,0.1-0.08,0.14-0.1s0.07-0.03,0.11-0.02
		c0.03,0.01,0.06,0.04,0.1,0.09c0.04,0.05,0.07,0.13,0.11,0.23l0.23-0.06l-0.47-1.87l-0.23,0.06c0.01,0.09,0.01,0.17,0.01,0.24
		s-0.02,0.13-0.05,0.19c-0.03,0.06-0.07,0.12-0.12,0.19c-0.06,0.07-0.13,0.14-0.22,0.23c-0.19,0.19-0.37,0.35-0.52,0.5
		c-0.15,0.15-0.29,0.27-0.41,0.38c-0.12,0.11-0.24,0.21-0.34,0.3c-0.04,0.03-0.07,0.05-0.1,0.07s-0.06,0.04-0.1,0.06
		c-0.04,0.01-0.08,0.03-0.13,0.04L84.04,39c-0.15,0.04-0.26,0.06-0.35,0.07c-0.09,0.01-0.16,0-0.22-0.03
		c-0.05-0.03-0.1-0.08-0.14-0.16s-0.08-0.18-0.12-0.32l-0.22,0.06l0.53,2.12l0.22-0.06c-0.02-0.15-0.04-0.27-0.04-0.36
		c0-0.09,0.01-0.16,0.04-0.21c0.03-0.05,0.09-0.1,0.17-0.13c0.08-0.04,0.2-0.07,0.34-0.1l0.83-0.21c0.07-0.02,0.12-0.03,0.17-0.03
		s0.09,0,0.14,0c0.05,0.01,0.1,0.02,0.17,0.03c0.17,0.04,0.32,0.08,0.46,0.11s0.26,0.07,0.37,0.1s0.22,0.06,0.32,0.09
		s0.21,0.07,0.32,0.1s0.2,0.07,0.28,0.1s0.15,0.07,0.2,0.12c0.06,0.05,0.1,0.1,0.14,0.17s0.08,0.15,0.12,0.25L88,40.65L87.61,39.18z
		 M84.1,30.63c0.08-0.03,0.15-0.03,0.2-0.02c0.06,0.02,0.11,0.05,0.16,0.11s0.11,0.14,0.17,0.25l0.21-0.1l-0.88-1.81l-0.21,0.1
		c0.05,0.12,0.07,0.21,0.09,0.29c0.02,0.07,0.01,0.14-0.01,0.19c-0.02,0.05-0.07,0.1-0.14,0.15c-0.07,0.05-0.17,0.1-0.3,0.16
		l-2.31,1.13c-0.13,0.06-0.23,0.11-0.31,0.13s-0.15,0.03-0.2,0.01c-0.06-0.02-0.11-0.05-0.16-0.11s-0.11-0.14-0.17-0.25l-0.21,0.1
		l0.88,1.81l0.21-0.1c-0.05-0.11-0.07-0.21-0.09-0.29c-0.02-0.08-0.01-0.14,0.01-0.19c0.02-0.05,0.07-0.1,0.14-0.15
		c0.07-0.05,0.17-0.1,0.29-0.16l2.31-1.13C83.92,30.7,84.02,30.66,84.1,30.63z M86.03,34.52c0.05,0.12,0.08,0.22,0.1,0.31
		s0.03,0.16,0.03,0.22s-0.02,0.12-0.04,0.16c-0.04,0.08-0.1,0.16-0.19,0.24c-0.09,0.08-0.21,0.18-0.36,0.27l0.09,0.22
		c0.1-0.05,0.2-0.09,0.32-0.14c0.11-0.05,0.22-0.1,0.33-0.15s0.21-0.09,0.31-0.13c0.09-0.04,0.18-0.07,0.24-0.1l-0.06-0.15
		c-0.05-0.02-0.1-0.04-0.13-0.07c-0.04-0.03-0.07-0.06-0.09-0.1c-0.03-0.04-0.05-0.08-0.07-0.14l-0.92-2.54
		c-0.02-0.06-0.04-0.11-0.05-0.15c-0.01-0.04-0.01-0.09,0-0.13s0.03-0.09,0.07-0.14l-0.06-0.15c-0.11,0.04-0.23,0.07-0.37,0.11
		s-0.28,0.08-0.43,0.13c-0.15,0.04-0.31,0.09-0.47,0.14l0.08,0.23c0.17-0.02,0.32-0.02,0.44-0.02s0.22,0.02,0.29,0.05
		c0.03,0.01,0.06,0.03,0.1,0.06c0.03,0.02,0.06,0.06,0.1,0.1c0.04,0.05,0.07,0.11,0.11,0.19s0.08,0.19,0.13,0.31l0.08,0.22
		l-2.99,1.09c-0.13,0.05-0.24,0.08-0.32,0.1s-0.15,0.01-0.21-0.01c-0.05-0.03-0.1-0.08-0.15-0.15c-0.05-0.07-0.1-0.17-0.16-0.3
		l-0.22,0.08l0.75,2.06l0.22-0.08c-0.04-0.14-0.07-0.26-0.08-0.35s-0.01-0.16,0.02-0.22c0.02-0.06,0.07-0.1,0.15-0.15
		c0.07-0.04,0.18-0.09,0.31-0.13l2.99-1.09L86.03,34.52z M78.53,25.46c-0.04,0.1-0.07,0.19-0.1,0.29c-0.04,0.1-0.07,0.19-0.09,0.28
		c-0.04,0.14-0.08,0.26-0.11,0.37c-0.03,0.1-0.05,0.2-0.07,0.28s-0.03,0.15-0.04,0.22c-0.01,0.1-0.02,0.19-0.01,0.27
		c0.01,0.08,0.02,0.15,0.05,0.23l-0.19,0.11c-0.01-0.02-0.03-0.04-0.05-0.07s-0.05-0.06-0.07-0.09c-0.13-0.17-0.23-0.32-0.3-0.45
		s-0.12-0.25-0.15-0.36s-0.03-0.22-0.02-0.33s0.04-0.22,0.08-0.34c0.03-0.1,0.07-0.21,0.12-0.33c0.04-0.11,0.09-0.23,0.14-0.36
		c0.05-0.12,0.1-0.25,0.15-0.37c0.05-0.11,0.06-0.2,0.06-0.28c-0.01-0.08-0.05-0.17-0.11-0.25l-0.08-0.1l-0.75,0.63
		c-0.11,0.09-0.19,0.16-0.24,0.22c-0.06,0.06-0.09,0.13-0.1,0.18c-0.01,0.06,0,0.12,0.04,0.19c0.03,0.07,0.09,0.16,0.16,0.26
		l-0.18,0.15l-1.31-1.56l0.18-0.15c0.09,0.09,0.17,0.16,0.23,0.2c0.06,0.05,0.13,0.07,0.19,0.07s0.13-0.02,0.2-0.06
		c0.07-0.04,0.16-0.11,0.27-0.2l1.98-1.66c0.1-0.08,0.18-0.16,0.24-0.22c0.06-0.06,0.09-0.12,0.1-0.18c0.01-0.06,0-0.12-0.03-0.19
		s-0.08-0.15-0.15-0.25l0.18-0.15l1.21,1.45c0.13,0.15,0.23,0.28,0.31,0.41c0.08,0.12,0.14,0.24,0.19,0.35
		c0.04,0.11,0.07,0.22,0.08,0.32c0.01,0.11,0.01,0.21-0.01,0.32c-0.02,0.11-0.06,0.21-0.13,0.31c-0.06,0.1-0.15,0.2-0.25,0.29
		c-0.11,0.09-0.23,0.16-0.35,0.2c-0.12,0.04-0.23,0.06-0.35,0.06c-0.12,0-0.23-0.02-0.35-0.06c-0.12-0.04-0.23-0.08-0.33-0.14
		c-0.02,0.05-0.05,0.11-0.08,0.19C78.6,25.27,78.56,25.36,78.53,25.46z M78.58,24.53c0.15,0.03,0.29,0.02,0.42-0.03
		c0.14-0.05,0.27-0.13,0.4-0.24c0.14-0.12,0.24-0.23,0.3-0.35c0.06-0.12,0.1-0.23,0.11-0.34c0.01-0.11,0-0.21-0.04-0.3
		c-0.03-0.09-0.08-0.18-0.14-0.25c-0.06-0.06-0.1-0.11-0.14-0.14s-0.08-0.05-0.1-0.05c-0.03-0.01-0.06,0-0.1,0.02
		c-0.03,0.02-0.08,0.05-0.13,0.09l-1.26,1.05l0.11,0.13c0.09,0.11,0.18,0.2,0.28,0.27C78.39,24.48,78.48,24.52,78.58,24.53z
		 M73,17.99c0.16-0.1,0.29-0.18,0.39-0.24c0.15-0.09,0.27-0.16,0.37-0.2c0.1-0.05,0.19-0.07,0.27-0.08s0.15,0,0.23,0.03
		c0.07,0.03,0.16,0.06,0.25,0.12l0.14-0.2l-1.27-0.92l-0.14,0.19c0.1,0.09,0.17,0.17,0.22,0.24c0.05,0.06,0.06,0.12,0.06,0.17
		c-0.01,0.05-0.04,0.1-0.09,0.15c-0.06,0.05-0.13,0.12-0.23,0.19c-0.25,0.18-0.54,0.39-0.89,0.62c-0.34,0.23-0.73,0.49-1.17,0.78
		l-0.02-0.01c0.03-0.11,0.06-0.24,0.1-0.38c0.04-0.15,0.08-0.3,0.12-0.47c0.05-0.17,0.09-0.33,0.13-0.5
		c0.05-0.17,0.09-0.33,0.13-0.49c0.04-0.16,0.08-0.3,0.12-0.44c0.04-0.13,0.07-0.25,0.1-0.34c0.02-0.07,0.04-0.13,0.06-0.17
		s0.05-0.07,0.09-0.08s0.09-0.01,0.16,0.01c0.07,0.02,0.16,0.06,0.26,0.12l0.14-0.2l-1.62-1.18l-0.14,0.2
		c0.08,0.07,0.14,0.13,0.18,0.19c0.04,0.06,0.07,0.12,0.09,0.19c0.01,0.07,0.02,0.15,0,0.24c-0.01,0.09-0.04,0.21-0.07,0.34
		c-0.04,0.15-0.08,0.33-0.14,0.54s-0.12,0.45-0.18,0.7c-0.07,0.26-0.14,0.52-0.21,0.8c-0.07,0.28-0.15,0.55-0.22,0.83
		s-0.15,0.54-0.22,0.8l0.27,0.2c0.25-0.16,0.5-0.33,0.75-0.49c0.25-0.16,0.5-0.32,0.74-0.47s0.46-0.29,0.67-0.42
		C72.65,18.21,72.84,18.09,73,17.99z M75.59,23.19c0.07-0.05,0.13-0.09,0.17-0.13l-0.13-0.2c-0.15,0.06-0.29,0.11-0.41,0.14
		c-0.12,0.03-0.23,0.05-0.33,0.06c-0.12,0-0.23-0.03-0.34-0.09c-0.11-0.07-0.22-0.16-0.34-0.28c-0.09-0.09-0.17-0.18-0.24-0.26
		s-0.11-0.15-0.14-0.22c-0.02-0.07-0.01-0.14,0.04-0.22c0.05-0.08,0.13-0.17,0.24-0.28l0.82-0.82l0.32,0.32
		c0.1,0.1,0.18,0.18,0.23,0.25c0.06,0.07,0.09,0.13,0.1,0.19c0.01,0.06,0,0.12-0.03,0.19s-0.08,0.15-0.15,0.26l0.17,0.17l0.96-0.96
		l-0.17-0.17c-0.1,0.07-0.18,0.11-0.25,0.14s-0.13,0.04-0.19,0.02c-0.06-0.01-0.12-0.05-0.19-0.1c-0.07-0.06-0.15-0.13-0.25-0.23
		l-0.32-0.32l1.01-1.01c0.05-0.05,0.09-0.09,0.13-0.1c0.03-0.02,0.06-0.01,0.1,0.01c0.03,0.02,0.08,0.06,0.14,0.12l0.23,0.23
		c0.09,0.09,0.16,0.17,0.21,0.24s0.09,0.13,0.11,0.19c0.02,0.06,0.03,0.12,0.03,0.17c0,0.09-0.02,0.18-0.06,0.29
		c-0.04,0.1-0.09,0.21-0.15,0.32l0.19,0.15c0.07-0.08,0.14-0.16,0.21-0.24c0.07-0.08,0.14-0.16,0.2-0.23s0.12-0.13,0.16-0.18
		c0.05-0.05,0.08-0.09,0.1-0.11l-2.24-2.24l-0.17,0.17c0.08,0.09,0.14,0.17,0.18,0.23c0.04,0.06,0.06,0.12,0.05,0.18
		c0,0.06-0.03,0.12-0.08,0.19s-0.13,0.16-0.23,0.26l-1.83,1.83c-0.1,0.1-0.18,0.17-0.25,0.22s-0.13,0.07-0.19,0.07
		s-0.13-0.02-0.2-0.07c-0.07-0.05-0.16-0.12-0.27-0.21l-0.17,0.17l2.42,2.43c0.04-0.02,0.09-0.05,0.15-0.09
		c0.06-0.04,0.13-0.08,0.2-0.12c0.07-0.05,0.15-0.09,0.22-0.14C75.45,23.28,75.52,23.23,75.59,23.19z M80.79,29.79
		c0.19-0.12,0.33-0.26,0.42-0.43s0.15-0.37,0.17-0.59c0.02-0.22,0.02-0.46-0.01-0.72c-0.02-0.22-0.02-0.4-0.01-0.55
		c0.01-0.15,0.05-0.27,0.1-0.37c0.05-0.1,0.13-0.18,0.24-0.24s0.22-0.1,0.34-0.1c0.11,0,0.22,0.02,0.32,0.07s0.18,0.14,0.25,0.24
		c0.07,0.12,0.11,0.24,0.11,0.35c0,0.12-0.01,0.23-0.05,0.34c-0.04,0.11-0.09,0.21-0.16,0.31c-0.06,0.1-0.14,0.19-0.21,0.28
		l0.16,0.17c0.16-0.13,0.31-0.24,0.43-0.34s0.23-0.19,0.33-0.26c-0.01-0.05-0.02-0.11-0.05-0.21c-0.02-0.09-0.06-0.2-0.1-0.32
		c-0.05-0.12-0.1-0.24-0.18-0.37c-0.12-0.2-0.26-0.37-0.42-0.5s-0.32-0.22-0.49-0.27c-0.17-0.05-0.34-0.07-0.52-0.05
		c-0.17,0.02-0.34,0.08-0.5,0.17c-0.18,0.11-0.32,0.25-0.41,0.42s-0.14,0.36-0.16,0.57s-0.02,0.45,0,0.71
		c0.01,0.19,0.01,0.36-0.01,0.51c-0.02,0.15-0.05,0.28-0.11,0.38c-0.06,0.11-0.14,0.2-0.25,0.27c-0.12,0.07-0.24,0.11-0.36,0.12
		s-0.23-0.02-0.33-0.07c-0.1-0.06-0.19-0.14-0.26-0.26c-0.06-0.11-0.1-0.23-0.11-0.35c-0.01-0.12,0-0.24,0.03-0.36
		s0.07-0.24,0.13-0.35s0.11-0.22,0.18-0.31c0.06-0.09,0.13-0.18,0.19-0.24l-0.18-0.16c-0.08,0.06-0.17,0.13-0.26,0.2
		s-0.18,0.14-0.26,0.21s-0.16,0.14-0.22,0.19c-0.06,0.06-0.11,0.11-0.14,0.14c0.01,0.05,0.02,0.11,0.03,0.18s0.03,0.15,0.06,0.25
		s0.06,0.21,0.11,0.31c0.05,0.11,0.1,0.21,0.16,0.32c0.13,0.21,0.27,0.38,0.44,0.52c0.16,0.14,0.33,0.23,0.51,0.29
		s0.36,0.08,0.54,0.06C80.45,29.95,80.63,29.89,80.79,29.79z"/>
	<path style="fill:#E9A713;" d="M64.21,84.07l0.57,1.23l-0.71,0.33l-1.61-3.45l1.53-0.72c0.36-0.17,0.68-0.2,0.96-0.1
		c0.27,0.1,0.5,0.33,0.67,0.7c0.17,0.36,0.2,0.67,0.11,0.95s-0.31,0.5-0.65,0.65 M63.92,83.45l0.69-0.32
		c0.18-0.09,0.3-0.19,0.35-0.31c0.05-0.12,0.03-0.27-0.05-0.44c-0.08-0.16-0.18-0.27-0.3-0.31c-0.12-0.05-0.27-0.03-0.43,0.05
		l-0.72,0.34L63.92,83.45z M62.48,86.33l-1.43-3.53l0.73-0.29l1.43,3.53L62.48,86.33z M58.68,87.73l-1.3-3.58l0.74-0.27l0.49,1.33
		l1.48-0.54l-0.49-1.33l0.74-0.27l1.3,3.58l-0.74,0.27l-0.58-1.59l-1.48,0.54l0.58,1.59L58.68,87.73z M54.66,87.41l0.75-0.19
		c0.08,0.19,0.2,0.32,0.36,0.39c0.16,0.06,0.37,0.06,0.63,0c0.22-0.06,0.38-0.14,0.47-0.24c0.09-0.11,0.12-0.24,0.08-0.39
		c-0.06-0.23-0.42-0.33-1.1-0.32c-0.01,0-0.02,0-0.02,0c-0.02,0-0.05,0-0.08,0c-0.37,0.01-0.63-0.01-0.8-0.07
		c-0.15-0.05-0.28-0.14-0.38-0.26c-0.1-0.12-0.18-0.28-0.23-0.47c-0.09-0.36-0.04-0.67,0.16-0.92s0.52-0.44,0.99-0.55
		c0.43-0.11,0.79-0.09,1.09,0.05c0.29,0.14,0.5,0.4,0.6,0.77l-0.73,0.18c-0.06-0.17-0.16-0.29-0.31-0.36
		c-0.15-0.06-0.34-0.06-0.57-0.01c-0.2,0.05-0.34,0.13-0.43,0.23s-0.12,0.23-0.08,0.37c0.05,0.2,0.29,0.29,0.74,0.28
		c0.12,0,0.21,0,0.28,0c0.29,0,0.49,0.01,0.61,0.02c0.12,0.01,0.23,0.03,0.33,0.06c0.17,0.05,0.31,0.13,0.42,0.25
		c0.11,0.12,0.19,0.27,0.24,0.47c0.1,0.39,0.04,0.72-0.17,0.99c-0.21,0.28-0.55,0.47-1.02,0.59c-0.46,0.12-0.86,0.1-1.17-0.05
		C54.99,88.08,54.78,87.81,54.66,87.41 M51.28,89.03l-0.53-3.77L52.58,85c0.41-0.06,0.73-0.01,0.95,0.14
		c0.22,0.15,0.36,0.4,0.41,0.76c0.03,0.23,0.01,0.43-0.06,0.6c-0.07,0.17-0.2,0.29-0.37,0.37c0.17,0.04,0.3,0.11,0.39,0.22
		s0.15,0.29,0.2,0.54l0.08,0.44c0,0,0,0.01,0,0.02c0.04,0.22,0.1,0.35,0.2,0.39l0.02,0.12l-0.85,0.12
		c-0.04-0.05-0.06-0.11-0.09-0.19c-0.03-0.08-0.05-0.17-0.06-0.28l-0.07-0.4c-0.04-0.23-0.11-0.38-0.2-0.45s-0.24-0.09-0.45-0.06
		l-0.82,0.12l0.21,1.47L51.28,89.03z M51.76,86.8l0.91-0.13c0.2-0.03,0.34-0.09,0.42-0.18s0.11-0.23,0.09-0.4s-0.09-0.28-0.19-0.35
		s-0.24-0.1-0.42-0.07l-0.95,0.13L51.76,86.8z M48.38,85.34l0.9-0.03l1.51,3.76l-0.82,0.03l-0.29-0.77l-1.47,0.05l-0.22,0.79
		l-0.83,0.03L48.38,85.34z M48.86,86.08l-0.47,1.64l1.06-0.04L48.86,86.08z M44.37,88.96l0.33-3.79l0.78,0.07l-0.27,3.09l1.85,0.16
		L47,89.19L44.37,88.96z M40.24,86.54c0.09-0.61,0.32-1.07,0.7-1.38c0.38-0.31,0.86-0.43,1.42-0.35s0.99,0.32,1.27,0.73
		c0.28,0.4,0.38,0.91,0.3,1.52s-0.32,1.07-0.7,1.38c-0.39,0.31-0.86,0.43-1.42,0.35s-0.99-0.32-1.27-0.73
		C40.25,87.66,40.15,87.15,40.24,86.54 M41.03,86.66c-0.06,0.41-0.01,0.75,0.14,1.01c0.15,0.26,0.4,0.41,0.73,0.45
		c0.33,0.05,0.61-0.03,0.83-0.23c0.22-0.2,0.36-0.51,0.41-0.93c0.06-0.41,0.01-0.75-0.14-1.01s-0.4-0.41-0.73-0.45
		c-0.33-0.05-0.61,0.03-0.82,0.23C41.22,85.93,41.09,86.24,41.03,86.66 M36.19,87.49l0.92-3.7l0.76,0.19l-0.34,1.38l1.52,0.38
		l0.34-1.38l0.76,0.19l-0.92,3.7l-0.76-0.19l0.41-1.64l-1.53-0.38l-0.41,1.64L36.19,87.49z M35.96,86.08
		c-0.19,0.39-0.47,0.64-0.85,0.77c-0.38,0.12-0.79,0.09-1.25-0.09c-0.52-0.21-0.87-0.54-1.02-0.98c-0.16-0.44-0.12-0.96,0.12-1.55
		c0.24-0.6,0.58-1,1-1.2s0.91-0.19,1.47,0.04c0.45,0.18,0.76,0.44,0.94,0.76c0.17,0.32,0.19,0.69,0.06,1.1l-0.72-0.29
		c0.05-0.21,0.03-0.4-0.06-0.56s-0.25-0.28-0.47-0.37c-0.32-0.13-0.6-0.12-0.85,0.01c-0.25,0.14-0.45,0.41-0.62,0.8
		c-0.16,0.38-0.19,0.71-0.11,0.99s0.27,0.48,0.58,0.6c0.22,0.09,0.42,0.11,0.61,0.05c0.19-0.06,0.34-0.18,0.47-0.38L35.96,86.08z
		 M29.4,83.4l0.7,0.33c-0.06,0.2-0.05,0.38,0.04,0.53c0.08,0.15,0.25,0.28,0.49,0.4c0.21,0.1,0.38,0.13,0.52,0.11
		c0.14-0.02,0.24-0.11,0.31-0.25c0.1-0.21-0.12-0.52-0.66-0.94c-0.01-0.01-0.01-0.01-0.02-0.02c-0.01-0.01-0.04-0.03-0.06-0.05
		c-0.29-0.22-0.48-0.41-0.58-0.56c-0.09-0.13-0.13-0.28-0.13-0.45c0-0.16,0.04-0.33,0.12-0.51c0.16-0.34,0.39-0.54,0.7-0.61
		c0.31-0.07,0.68-0.01,1.11,0.19c0.4,0.19,0.67,0.43,0.81,0.73c0.14,0.3,0.13,0.62-0.02,0.97l-0.68-0.32
		c0.06-0.17,0.06-0.33-0.01-0.47c-0.07-0.14-0.22-0.26-0.43-0.36c-0.19-0.09-0.35-0.12-0.48-0.09c-0.14,0.03-0.23,0.11-0.29,0.24
		c-0.09,0.18,0.05,0.41,0.4,0.69c0.1,0.07,0.17,0.13,0.22,0.17c0.22,0.18,0.38,0.31,0.47,0.4s0.16,0.17,0.22,0.25
		c0.1,0.14,0.16,0.29,0.17,0.46c0.01,0.16-0.03,0.33-0.11,0.51c-0.17,0.36-0.42,0.58-0.75,0.67c-0.33,0.08-0.72,0.02-1.16-0.18
		c-0.43-0.2-0.73-0.46-0.88-0.78C29.25,84.13,29.25,83.78,29.4,83.4"/>
	<path style="fill:#E9A713;" d="M13.62,70.03l2.58-1.74l1.27,1.88l-0.45,0.3l-0.91-1.35l-0.55,0.37l0.83,1.24l-0.44,0.3l-0.83-1.24
		l-0.66,0.45l0.95,1.42l-0.48,0.32 M14.31,69.09c-0.32,0.15-0.63,0.17-0.94,0.05c-0.3-0.12-0.55-0.35-0.75-0.7
		c-0.22-0.4-0.27-0.79-0.14-1.15c0.13-0.36,0.42-0.67,0.87-0.92c0.46-0.26,0.88-0.34,1.25-0.25s0.68,0.35,0.92,0.78
		c0.19,0.35,0.26,0.67,0.2,0.97c-0.06,0.29-0.24,0.54-0.53,0.73l-0.31-0.55c0.14-0.11,0.22-0.24,0.25-0.38
		c0.02-0.15-0.01-0.31-0.11-0.48c-0.14-0.25-0.32-0.39-0.55-0.43c-0.23-0.04-0.5,0.02-0.8,0.19s-0.49,0.36-0.58,0.57
		c-0.09,0.22-0.07,0.44,0.06,0.68c0.09,0.17,0.22,0.29,0.36,0.35c0.15,0.06,0.31,0.06,0.49,0L14.31,69.09z M11.46,66.05l2.8-1.36
		l0.28,0.58l-2.8,1.37L11.46,66.05z M10.66,64.24l2.45-2.21l0.28,0.65L11.5,64.2l2.41-0.29l0.28,0.65l-3.28,0.24L10.66,64.24z
		 M9.34,60.67l2.96-0.96l0.47,1.44c0.1,0.32,0.11,0.59,0.03,0.79c-0.09,0.2-0.27,0.35-0.56,0.44c-0.18,0.06-0.34,0.07-0.49,0.03
		s-0.26-0.12-0.35-0.25c0,0.15-0.04,0.26-0.12,0.34c-0.08,0.09-0.21,0.16-0.41,0.24l-0.35,0.13c0,0-0.01,0-0.01,0.01
		c-0.17,0.06-0.27,0.13-0.28,0.22l-0.09,0.03l-0.22-0.67c0.04-0.04,0.08-0.07,0.14-0.1s0.13-0.06,0.21-0.09l0.31-0.11
		c0.18-0.07,0.29-0.14,0.34-0.22c0.04-0.08,0.04-0.21-0.01-0.37l-0.21-0.64L9.55,61.3L9.34,60.67z M11.2,60.74l0.23,0.72
		c0.05,0.16,0.12,0.26,0.21,0.31s0.2,0.06,0.33,0.01c0.13-0.04,0.21-0.11,0.26-0.2c0.04-0.09,0.04-0.21,0-0.35l-0.24-0.75
		L11.2,60.74z M8.53,57.95l3.01-0.81l0.59,2.19l-0.52,0.14l-0.42-1.57l-0.64,0.17l0.39,1.44l-0.52,0.14l-0.39-1.44l-0.77,0.21
		l0.44,1.65l-0.55,0.15L8.53,57.95z M8.83,54.79l0.13,0.62c-0.16,0.06-0.27,0.15-0.33,0.28s-0.06,0.3-0.02,0.52
		c0.04,0.18,0.1,0.31,0.18,0.39s0.19,0.1,0.32,0.08c0.18-0.04,0.28-0.34,0.29-0.89c0-0.01,0-0.01,0-0.02c0-0.01,0-0.04,0-0.07
		c0-0.3,0.03-0.52,0.08-0.65c0.05-0.12,0.12-0.22,0.23-0.31c0.1-0.08,0.23-0.14,0.39-0.17c0.3-0.06,0.55-0.01,0.75,0.16
		c0.2,0.17,0.34,0.44,0.42,0.82c0.08,0.36,0.05,0.65-0.07,0.89c-0.13,0.24-0.34,0.39-0.64,0.47l-0.13-0.6
		c0.15-0.04,0.25-0.12,0.3-0.24c0.06-0.12,0.06-0.27,0.02-0.46c-0.04-0.17-0.09-0.28-0.18-0.36c-0.08-0.07-0.18-0.1-0.3-0.07
		c-0.16,0.03-0.25,0.23-0.25,0.6c0,0.1,0,0.18-0.01,0.23c-0.01,0.23-0.02,0.4-0.03,0.5s-0.03,0.19-0.05,0.27
		c-0.04,0.14-0.11,0.25-0.22,0.34c-0.1,0.09-0.23,0.15-0.39,0.18C9,57.37,8.73,57.31,8.51,57.14c-0.22-0.18-0.37-0.46-0.45-0.85
		c-0.08-0.38-0.06-0.7,0.08-0.96C8.28,55.05,8.51,54.88,8.83,54.79"/>
	<path style="fill:#E9A713;" d="M87.25,56.82l-0.13,0.63l-1.14-0.24l-2.15,0.7l0.16-0.77l1.45-0.37l-1.19-0.88l0.15-0.72l1.7,1.41
		 M86.39,60.25l-2.47-0.66l-0.24,0.89l-0.54-0.14l0.64-2.4l0.54,0.15l-0.24,0.89l2.47,0.66L86.39,60.25z M85.74,62.12l-2.96-0.96
		l0.2-0.61l2.96,0.96L85.74,62.12z M84.54,65.09l-2.87-1.22l0.26-0.62l2.47-0.33l-1.97-0.84l0.25-0.58l2.87,1.22l-0.26,0.61
		l-2.47,0.33l1.97,0.84L84.54,65.09z M83.7,65.96c0.09,0.17,0.14,0.34,0.14,0.51c0,0.16-0.04,0.34-0.13,0.52
		c-0.19,0.39-0.48,0.64-0.87,0.75s-0.81,0.06-1.25-0.16c-0.45-0.22-0.75-0.51-0.89-0.89c-0.15-0.37-0.13-0.76,0.07-1.16
		c0.17-0.35,0.4-0.6,0.67-0.74c0.28-0.14,0.57-0.16,0.88-0.06l-0.29,0.59c-0.16-0.04-0.31-0.02-0.44,0.06
		c-0.13,0.07-0.24,0.2-0.32,0.37c-0.11,0.24-0.12,0.46-0.01,0.68s0.31,0.4,0.62,0.55c0.3,0.15,0.58,0.19,0.82,0.14
		s0.42-0.2,0.54-0.45c0.09-0.18,0.11-0.36,0.06-0.54c-0.05-0.17-0.16-0.32-0.33-0.44l-0.31,0.64l-0.48-0.23l0.56-1.16l1.52,0.74
		l-0.19,0.39L83.7,65.96z M82.39,69.25l-2.72-1.51l0.31-0.56l2.72,1.51L82.39,69.25z M80.68,71.92l-2.64-1.65l0.65-1.04
		c0.25-0.4,0.55-0.64,0.9-0.7c0.34-0.06,0.74,0.05,1.18,0.32c0.24,0.15,0.43,0.32,0.57,0.51c0.14,0.19,0.22,0.39,0.24,0.6
		c0.02,0.16,0,0.31-0.04,0.47c-0.05,0.16-0.15,0.36-0.3,0.6L80.68,71.92z M80.53,71.09l0.27-0.44c0.16-0.25,0.2-0.48,0.14-0.67
		c-0.06-0.19-0.24-0.39-0.54-0.57c-0.3-0.18-0.55-0.27-0.75-0.25c-0.2,0.02-0.38,0.14-0.52,0.36l-0.31,0.5L80.53,71.09z"/>
</g>
</svg>
