<svg xmlns="http://www.w3.org/2000/svg" viewBox="0 0 75.1 84.3" height="113">
    <path fill="#4FB3CE" d="M27.7 38.7c-3.3 0-5-9.5-5-9.5s-1.8 9.5-5.4 9.5H0L22.4 0l22.4 38.7H27.7"> </path>
    <path fill="#A1A2A4" d="M47.4 0c3.3 0 5 9.5 5 9.5S54.2 0 57.7 0H75L52.7 38.7 30.3 0h17.1M12.6 63.7l-1.2-3.6H4.2L3 63.7H.1l6.6-18h2.2l6.6 18h-2.9M7.9 49.8l-2.8 8h5.5l-2.7-8zM18.1 63.7v-18h2.7v15.6h8.7v2.4H18.1M43.2 62c-1.2 1.2-2.8 1.9-4.8 1.9-1.9 0-3.5-.7-4.7-1.9-1.8-1.8-1.8-3.8-1.8-7.2 0-3.5 0-5.5 1.8-7.2 1.2-1.2 2.8-1.9 4.7-1.9 1.9 0 3.5.7 4.8 1.9 1.8 1.8 1.7 3.8 1.7 7.2 0 3.4.1 5.4-1.7 7.2m-2.1-12.9c-.6-.7-1.6-1.1-2.7-1.1s-2 .4-2.7 1.1c-.9 1-1.1 2-1.1 5.6 0 3.6.2 4.6 1.1 5.6.6.7 1.6 1.1 2.7 1.1s2.1-.4 2.7-1.1c.9-1 1.1-2 1.1-5.6 0-3.6-.2-4.6-1.1-5.6zM51.7 48.2v5.5h7.5v2.4h-7.5v7.6H49v-18h11.5v2.5h-8.8M69.9 48.2v15.5h-2.7V48.2h-5v-2.5h12.7v2.5h-5M4 73.8v7.8H2.6v-7.8H.1v-1.3h6.4v1.3H4M8.9 78.7c0 1.1.6 1.8 1.6 1.8.7 0 1.1-.2 1.6-.7l.8.8c-.7.7-1.3 1-2.4 1-1.6 0-2.9-.9-2.9-3.3 0-2.1 1.1-3.3 2.7-3.3 1.7 0 2.7 1.3 2.7 3.1v.6H8.9m2.7-1.7c-.2-.5-.7-.8-1.3-.8-.6 0-1.1.3-1.3.8-.1.3-.2.5-.2.9h2.9c.1-.5 0-.7-.1-.9zM17.3 81.7c-1.4 0-2.9-.9-2.9-3.3s1.4-3.3 2.9-3.3c.9 0 1.5.3 2.1.9l-.9.9c-.4-.4-.7-.6-1.2-.6s-.9.2-1.2.6c-.3.4-.4.8-.4 1.6s.1 1.2.4 1.6c.3.4.7.6 1.2.6s.8-.2 1.2-.6l.9.9c-.6.4-1.2.7-2.1.7M24.9 81.6v-4c0-1-.6-1.4-1.3-1.4-.7 0-1.3.4-1.3 1.4v4H21v-9.1h1.3v3.3c.4-.5 1-.7 1.7-.7 1.4 0 2.2 1 2.2 2.4v4.2h-1.3M32.1 81.6v-3.9c0-1-.6-1.4-1.3-1.4-.7 0-1.3.4-1.3 1.4v3.9h-1.3v-6.5h1.3v.6c.4-.5 1.1-.7 1.7-.7.7 0 1.2.2 1.6.6.5.5.6 1.1.6 1.8v4.1h-1.3M39.7 80.9c-.4.4-1.1.8-1.9.8-.9 0-1.5-.3-1.9-.8-.6-.6-.8-1.5-.8-2.5 0-1.1.2-1.9.8-2.5.4-.4 1-.8 1.9-.8.9 0 1.5.3 1.9.8.6.6.8 1.5.8 2.5s-.1 1.9-.8 2.5m-.9-4.3c-.2-.2-.6-.4-1-.4s-.7.1-.9.4c-.4.4-.4 1.1-.4 1.8s0 1.4.4 1.8c.2.2.6.4.9.4.4 0 .7-.1 1-.4.4-.4.4-1.1.4-1.8s0-1.4-.4-1.8zM44 81.6c-1.2 0-1.8-.8-1.8-1.8v-7.3h1.3v7.2c0 .5.2.8.7.8h.6v1.1H44M50.6 80.9c-.4.4-1.1.8-1.9.8-.9 0-1.5-.3-1.9-.8-.6-.6-.8-1.5-.8-2.5 0-1.1.2-1.9.8-2.5.4-.4 1-.8 1.9-.8.9 0 1.5.3 1.9.8.6.6.8 1.5.8 2.5-.1 1-.2 1.9-.8 2.5m-1-4.3c-.2-.2-.6-.4-1-.4s-.7.1-.9.4c-.4.4-.4 1.1-.4 1.8s0 1.4.4 1.8c.2.2.6.4.9.4.4 0 .7-.1 1-.4.4-.4.4-1.1.4-1.8s0-1.4-.4-1.8zM55.3 84.3c-1 0-1.6-.2-2.3-.9l.8-.8c.4.4.8.6 1.4.6 1.1 0 1.5-.8 1.5-1.6v-.8c-.5.6-1 .7-1.7.7-.6 0-1.2-.2-1.5-.6-.6-.6-.7-1.5-.7-2.6s.1-2 .7-2.6c.4-.4.9-.6 1.6-.6.7 0 1.2.2 1.7.8v-.7H58v6.4c0 1.5-1 2.7-2.7 2.7m.1-8.1c-1.2 0-1.3 1-1.3 2s.2 2 1.3 2c1.2 0 1.3-1 1.3-2s-.1-2-1.3-2zM61.4 73.9H60v-1.4h1.4v1.4zm0 7.7h-1.3v-6.5h1.3v6.5zM64.4 78.7c0 1.1.6 1.8 1.6 1.8.7 0 1.1-.2 1.6-.7l.8.8c-.7.7-1.3 1-2.4 1-1.6 0-2.9-.9-2.9-3.3 0-2.1 1.1-3.3 2.7-3.3 1.7 0 2.7 1.3 2.7 3.1v.6h-4.1m2.7-1.7c-.2-.5-.7-.8-1.3-.8-.6 0-1.1.3-1.3.8-.1.3-.2.5-.2.9h2.9c.1-.5.1-.7-.1-.9zM72.4 81.7c-1.1 0-2-.2-2.7-.9l.9-.9c.5.5 1.2.7 1.9.7.8 0 1.4-.3 1.4-.9 0-.4-.2-.7-.9-.8l-1-.1c-1.3-.1-2-.6-2-1.8 0-1.3 1.1-2 2.4-2 1 0 1.8.2 2.4.7l-.8.9c-.4-.3-1-.5-1.6-.5-.8 0-1.2.3-1.2.8 0 .4.2.7.9.7l1 .1c1.2.1 1.9.7 1.9 1.8.1 1.5-1 2.2-2.6 2.2M0 67.4h74.9v1.3H0zM60.2 35.1v3.4h-.6v-3.4h-1.1v-.5h2.8v.5h-1.1M64.8 38.5v-2.6l-.9 1.9h-.4l-1-1.9v2.6h-.6v-3.9h.6l1.2 2.4 1.1-2.4h.6v3.9h-.6"> </path>
</svg>
