<?xml version="1.0" encoding="utf-8"?>
<!-- Generator: Adobe Illustrator 26.1.0, SVG Export Plug-In . SVG Version: 6.00 Build 0)  -->
<svg version="1.1" id="Layer_1" xmlns="http://www.w3.org/2000/svg" xmlns:xlink="http://www.w3.org/1999/xlink" x="0px" y="0px"
	 viewBox="0 0 300 200" style="enable-background:new 0 0 300 200;" xml:space="preserve">
<style type="text/css">
	.st0{fill:#414042;}
</style>
<path class="st0" d="M18.33,156.96c3.88,0,6.94-1.64,8.91-4.15v3.39h7.27v-27.64h-7.27v3.33c-1.97-2.51-5.03-4.1-8.91-4.1
	c-7.65,0-13.66,6.17-13.66,14.59C4.68,150.73,10.69,156.96,18.33,156.96L18.33,156.96z M19.59,150.51c-4.53,0-7.76-3.39-7.76-8.19
	c0-4.75,3.22-8.09,7.76-8.09c4.37,0,7.87,3.33,7.87,8.09C27.46,147.13,23.96,150.51,19.59,150.51L19.59,150.51z M41.06,156.2h7.21
	v-39.88h-7.21V156.2L41.06,156.2z M70.99,127.79c-3.93,0-6.94,1.58-8.96,4.1v-3.33h-7.21v39.11h7.21v-14.86
	c2.02,2.51,5.03,4.15,8.96,4.15c7.65,0,13.6-6.23,13.6-14.59C84.6,133.96,78.64,127.79,70.99,127.79L70.99,127.79z M69.74,150.51
	c-4.37,0-7.87-3.39-7.87-8.19c0-4.75,3.5-8.09,7.87-8.09c4.53,0,7.76,3.33,7.76,8.09C77.49,147.13,74.27,150.51,69.74,150.51
	L69.74,150.51z M102.84,156.96c7.27,0,11.74-4.26,13.33-7.87l-6.5-1.91c-1.09,2.08-3.22,3.66-6.72,3.66c-5.03,0-7.54-2.73-8.03-6.28
	h21.47c0.16-0.87,0.16-1.69,0.16-2.57c0-7.92-5.19-14.2-14.26-14.2c-8.69,0-14.48,6.34-14.48,14.59
	C87.82,151.11,93.99,156.96,102.84,156.96L102.84,156.96z M94.92,140.02c0.38-3.17,3.11-6.12,7.32-6.12c4.32,0,6.94,2.73,7.27,6.12
	H94.92L94.92,140.02z M128.68,132.65v-4.1h-7.21v27.64h7.21v-12.02c0-7.43,3.22-10.16,9.12-9.23v-6.77
	C133.49,127.57,130.32,129.43,128.68,132.65L128.68,132.65z M153.54,156.96c8.52,0,14.75-6.34,14.75-14.59
	c0-8.3-6.23-14.59-14.75-14.59c-8.52,0-14.8,6.28-14.8,14.59C138.73,150.62,145.01,156.96,153.54,156.96L153.54,156.96z
	 M153.54,150.4c-4.64,0-7.76-3.44-7.76-8.03c0-4.59,3.11-8.03,7.76-8.03c4.59,0,7.76,3.44,7.76,8.03
	C161.29,146.96,158.13,150.4,153.54,150.4L153.54,150.4z M191.61,128.55l-7.59,19.67l-7.59-19.67h-7.92l11.42,27.64h8.14
	l11.42-27.64H191.61L191.61,128.55z M206.36,124.67c2.4,0,4.32-1.86,4.32-4.26c0-2.29-1.91-4.15-4.32-4.15
	c-2.4,0-4.32,1.86-4.32,4.15C202.05,122.82,203.96,124.67,206.36,124.67L206.36,124.67z M202.65,156.2h7.27v-27.64h-7.27V156.2
	L202.65,156.2z M232.37,149.48c-1.09,0.55-2.02,0.77-3.28,0.77c-2.29,0-3.39-1.26-3.39-3.5v-11.85h8.09v-6.34h-8.09v-8.96h-7.27
	v8.96h-4.64v6.34h4.64v11.85c0,5.95,2.9,9.89,9.23,9.89c2.29,0,4.26-0.44,6.45-1.31L232.37,149.48L232.37,149.48z M250.23,156.96
	c7.59,0,12.35-4.81,13.44-9.01l-6.72-1.86c-0.6,2.29-3.17,4.42-6.77,4.42c-4.59,0-7.54-3.88-7.54-8.19c0-4.37,2.95-8.14,7.54-8.14
	c3.61,0,6.17,2.29,6.77,4.59l6.72-1.91c-1.09-4.15-5.85-9.07-13.49-9.07c-8.41,0-14.64,6.28-14.64,14.53
	C235.53,150.62,241.76,156.96,250.23,156.96L250.23,156.96z M284.21,127.79c-3.99,0-6.99,1.8-8.9,4.26v-15.73h-7.21v39.88h7.21
	v-13.66c0-4.86,2.62-8.03,6.66-8.03c3.99,0,5.9,2.68,5.9,6.88v14.8h7.21v-16.17C295.08,132.65,291.42,127.79,284.21,127.79
	L284.21,127.79z"/>
<path class="st0" d="M84.33,189.51h2.38v-11.98h-2.38V189.51L84.33,189.51z M102.7,177.54v7.77l-6.02-7.77h-1.93v11.98h2.34v-7.79
	l6.02,7.79h1.93v-11.98H102.7L102.7,177.54z M117.98,189.75c2.87,0,4.79-1.66,4.79-3.71c0-1.95-1.39-2.72-3.22-3.29l-2.98-0.96
	c-0.79-0.24-1.15-0.6-1.15-1.13c0-0.7,0.75-1.3,1.93-1.3c1.35,0,2.46,0.67,2.96,1.64l2.17-0.63c-0.65-1.66-2.57-3.08-5.15-3.08
	c-2.5,0-4.31,1.57-4.29,3.44c-0.02,1.54,1.13,2.55,2.7,3.05l3.06,0.96c1.15,0.38,1.57,0.8,1.57,1.44c0,0.79-0.87,1.51-2.28,1.51
	c-1.73,0-2.94-0.99-3.42-2.24l-2.24,0.68C113.12,187.99,115.06,189.75,117.98,189.75L117.98,189.75z M139.12,177.54h-10.39v2.12
	h4.02v9.86h2.34v-9.86h4.02V177.54L139.12,177.54z M146.3,189.51h2.38v-11.98h-2.38V189.51L146.3,189.51z M166.25,177.54h-10.39
	v2.12h4.02v9.86h2.34v-9.86h4.02V177.54L166.25,177.54z M181.34,177.54v7.03c0,1.76-0.94,3.03-2.82,3.03
	c-1.87,0-2.81-1.27-2.81-3.03v-7.03h-2.38v7.07c0,3.05,1.83,5.15,5.18,5.15c3.34,0,5.18-2.1,5.18-5.15v-7.07H181.34L181.34,177.54z
	 M201.18,177.54h-10.39v2.12h4.02v9.86h2.34v-9.86h4.02V177.54L201.18,177.54z M217.19,179.66v-2.12h-8.83v11.98h8.81v-2.12h-6.52
	v-2.94h5.66v-2.05h-5.66v-2.74H217.19L217.19,179.66z"/>
<path class="st0" d="M118.69,84.16c0,0,30.24-34.34,8.63-78.16C127.33,6,171.01,26.24,118.69,84.16L118.69,84.16z M145.49,11.21
	c22.03,53.88-51.2,97.32-51.2,97.32C228.85,37.41,145.49,11.21,145.49,11.21L145.49,11.21z M117.21,99.33
	c0,0,55.37-30.91,60.14-60.09c0,0,18.31,24.96,16.15,52.05C189.41,142.59,197.13,56.96,117.21,99.33L117.21,99.33z"/>
</svg>
