<?xml version="1.0" encoding="utf-8"?>
<!-- Generator: Adobe Illustrator 21.1.0, SVG Export Plug-In . SVG Version: 6.00 Build 0)  -->
<svg version="1.1" id="Layer_1" xmlns="http://www.w3.org/2000/svg" xmlns:xlink="http://www.w3.org/1999/xlink" x="0px" y="0px"
	 viewBox="0 0 1179.9 564.1" style="enable-background:new 0 0 1179.9 564.1;" xml:space="preserve">
<style type="text/css">
	.st0{clip-path:url(#SVGID_2_);fill:#00AEEF;}
	.st1{clip-path:url(#SVGID_2_);fill:#0072BC;}
	.st2{clip-path:url(#SVGID_2_);fill:#150958;}
</style>
<g>
	<defs>
		<rect id="SVGID_1_" width="1179.9" height="564.1"/>
	</defs>
	<clipPath id="SVGID_2_">
		<use xlink:href="#SVGID_1_"  style="overflow:visible;"/>
	</clipPath>
	<path class="st0" d="M911.9,19c125.6-30.4,157.9,94.5,268,1.7C1033.7,80.4,1043.9-45.6,911.9,19"/>
	<path class="st1" d="M878.4,67.7c141.3-34.3,177.6,106.3,301.5,1.9C1015.5,136.8,1026.9-5,878.4,67.7"/>
	<path class="st2" d="M846.9,119.7c157-38.1,195.3,118.1,332.9,2.1C997.2,196.5,1012,38.9,846.9,119.7"/>
	<path class="st2" d="M789.8,153v49.4c-24.4-20.2-49.7-30.3-75.8-30.3c-28.8,0-53,10.2-72.8,30.7c-19.8,20.3-29.8,45.2-29.8,74.7
		c0,29.1,9.9,53.6,29.8,73.6c19.8,20,44.1,30,72.9,30c14.9,0,27.5-2.4,37.9-7.2c5.8-2.4,11.8-5.6,18.1-9.7c6.2-4.1,12.8-9,19.7-14.7
		v50.4c-24.2,13.5-49.6,20.3-76.2,20.3c-40,0-74.2-13.8-102.5-41.4c-28.2-27.9-42.3-61.5-42.3-100.8c0-35.3,11.8-66.7,35.4-94.3
		c29-33.8,66.6-50.8,112.7-50.8C742,132.9,766.3,139.6,789.8,153"/>
	<path class="st2" d="M141.9,217.2l41.6,94.1H98.3L141.9,217.2z M137,135.4L4,417.7h45.5l31.2-67.2h119.9l29.4,67.2h46.3L148,135.4
		H137z"/>
	<polygon class="st2" points="527.4,135.4 517.7,135.4 425.1,335.3 335.6,135.4 325.9,135.4 269.9,417.7 313.7,417.7 343.8,250.5 
		418.3,417.1 430.5,417.1 507.3,250.7 534.3,417.7 577.7,417.7 	"/>
	<path class="st2" d="M49.6,472.2L49.6,472.2l-20.3,51.9h40.7L49.6,472.2z M100,557.7c0.5,1.2,0.7,2.1,0.8,2.9
		c0,0.7-0.2,1.3-0.7,1.6c-0.5,0.4-1.3,0.6-2.4,0.7c-1.1,0.1-2.6,0.2-4.5,0.2c-1.9,0-3.4,0-4.5-0.1c-1.1-0.1-2-0.2-2.5-0.4
		c-0.6-0.2-1-0.4-1.3-0.8c-0.3-0.3-0.5-0.7-0.8-1.2l-10-25.4H25.5l-9.6,25c-0.2,0.5-0.4,0.9-0.7,1.2c-0.3,0.4-0.7,0.6-1.3,0.9
		c-0.6,0.2-1.4,0.4-2.4,0.5C10.3,563,9,563,7.3,563c-1.8,0-3.2-0.1-4.3-0.2c-1.1-0.1-1.9-0.4-2.4-0.8c-0.5-0.4-0.7-0.9-0.6-1.6
		c0-0.7,0.3-1.7,0.8-2.9L40,460.8c0.2-0.6,0.6-1.1,1-1.4c0.4-0.4,1-0.7,1.7-0.9c0.8-0.2,1.7-0.4,2.9-0.4c1.2-0.1,2.7-0.1,4.5-0.1
		c1.9,0,3.5,0,4.8,0.1c1.3,0.1,2.3,0.2,3.1,0.4c0.8,0.2,1.4,0.5,1.8,0.9c0.4,0.4,0.8,0.9,1,1.5L100,557.7z"/>
	<path class="st2" d="M245,560.5c0,0.4-0.1,0.8-0.4,1.1c-0.3,0.3-0.7,0.6-1.3,0.8c-0.6,0.2-1.4,0.3-2.4,0.5c-1,0.1-2.2,0.2-3.8,0.2
		c-1.4,0-2.7-0.1-3.7-0.2c-1-0.1-1.8-0.3-2.4-0.5c-0.6-0.2-1-0.4-1.3-0.8c-0.2-0.3-0.4-0.7-0.4-1.1v-90.7h-0.2L188,560.9
		c-0.2,0.4-0.4,0.7-0.8,1c-0.3,0.3-0.8,0.5-1.4,0.7c-0.6,0.2-1.4,0.3-2.3,0.4c-0.9,0.1-1.9,0.1-3.1,0.1c-1.3,0-2.4-0.1-3.3-0.2
		c-0.9-0.1-1.7-0.3-2.3-0.4c-0.6-0.2-1.1-0.4-1.4-0.7c-0.3-0.3-0.6-0.6-0.7-0.9l-39.4-91.1h-0.1v90.7c0,0.4-0.1,0.8-0.4,1.1
		c-0.2,0.3-0.7,0.6-1.3,0.8c-0.6,0.2-1.4,0.3-2.4,0.5c-1,0.1-2.3,0.2-3.8,0.2c-1.5,0-2.7-0.1-3.7-0.2c-1-0.1-1.8-0.3-2.4-0.5
		c-0.6-0.2-1-0.4-1.2-0.8c-0.2-0.3-0.3-0.7-0.3-1.1v-95.8c0-2.3,0.7-3.9,2-4.8c1.3-1,2.8-1.4,4.5-1.4h9.6c2,0,3.7,0.2,5.1,0.5
		c1.5,0.3,2.8,0.8,3.9,1.5c1.1,0.7,2,1.6,2.8,2.7c0.7,1.1,1.4,2.3,1.9,3.8l33.5,75.4h0.5l34.8-75.2c0.7-1.6,1.4-3,2.2-4.1
		c0.8-1.1,1.7-2,2.6-2.7c0.9-0.7,2-1.2,3.2-1.4c1.2-0.3,2.5-0.4,4-0.4h10c0.9,0,1.8,0.1,2.6,0.4c0.8,0.2,1.5,0.6,2.1,1.1
		c0.6,0.5,1.1,1.2,1.4,1.9c0.4,0.8,0.6,1.7,0.6,2.9V560.5z"/>
	<path class="st2" d="M348.7,547.8c0,0.9,0,1.6-0.1,2.3c-0.1,0.6-0.2,1.2-0.3,1.7c-0.2,0.5-0.3,0.9-0.6,1.3
		c-0.2,0.4-0.7,0.8-1.3,1.4c-0.6,0.5-1.9,1.4-3.8,2.5c-1.9,1.1-4.3,2.2-7.2,3.2c-2.9,1-6.2,1.9-9.9,2.7c-3.7,0.7-7.8,1.1-12.2,1.1
		c-7.6,0-14.5-1.1-20.6-3.4c-6.1-2.3-11.3-5.6-15.6-10c-4.3-4.4-7.6-9.8-10-16.3c-2.3-6.5-3.5-13.9-3.5-22.3
		c0-8.6,1.3-16.3,3.8-23.1c2.5-6.8,6-12.5,10.5-17.2c4.5-4.7,9.9-8.3,16.2-10.7c6.3-2.5,13.3-3.7,20.9-3.7c3.4,0,6.7,0.3,9.9,0.8
		c3.2,0.6,6.2,1.3,8.9,2.1c2.7,0.9,5.1,1.9,7.2,3c2.1,1.1,3.6,2.1,4.4,2.8c0.8,0.7,1.3,1.3,1.6,1.7c0.2,0.4,0.4,0.8,0.6,1.3
		c0.1,0.5,0.3,1.1,0.4,1.8c0.1,0.7,0.1,1.5,0.1,2.5c0,1.1-0.1,2-0.2,2.7c-0.1,0.8-0.3,1.4-0.5,1.9c-0.2,0.5-0.5,0.9-0.9,1.1
		c-0.3,0.2-0.7,0.4-1.2,0.4c-0.8,0-2-0.5-3.5-1.6c-1.5-1-3.5-2.2-5.9-3.5c-2.4-1.3-5.3-2.4-8.7-3.5c-3.4-1-7.5-1.6-12.3-1.6
		c-5.2,0-10,0.9-14.2,2.8c-4.3,1.8-7.9,4.6-11,8.2c-3,3.6-5.4,8-7,13.2c-1.7,5.2-2.5,11.1-2.5,17.8c0,6.6,0.8,12.4,2.4,17.5
		c1.6,5.1,3.9,9.3,6.9,12.7c3,3.4,6.7,6,11,7.7c4.4,1.7,9.3,2.6,14.8,2.6c4.7,0,8.7-0.5,12.2-1.5c3.5-1,6.5-2.2,8.9-3.4
		c2.5-1.3,4.5-2.4,6-3.4c1.6-1,2.8-1.5,3.7-1.5c0.4,0,0.8,0.1,1.1,0.2c0.3,0.2,0.5,0.5,0.7,0.9c0.2,0.5,0.3,1.1,0.4,1.9
		S348.7,546.6,348.7,547.8"/>
	<path class="st0" d="M474.1,533.3c0,4.9-1,9.2-3,13c-2,3.8-4.8,7-8.4,9.7c-3.6,2.7-7.8,4.7-12.7,6c-4.9,1.3-10.1,2-15.7,2
		c-3.9,0-7.6-0.3-10.9-0.9c-3.3-0.6-6.3-1.3-9-2.2c-2.6-0.9-4.8-1.7-6.6-2.7c-1.8-0.9-3-1.7-3.7-2.3c-0.7-0.6-1.2-1.5-1.5-2.5
		c-0.3-1-0.5-2.3-0.5-4c0-1.2,0.1-2.2,0.2-2.9c0.1-0.8,0.3-1.4,0.5-1.9c0.2-0.5,0.5-0.8,0.9-1c0.4-0.2,0.8-0.3,1.3-0.3
		c0.8,0,2,0.5,3.6,1.4c1.5,0.9,3.5,1.9,5.9,3c2.4,1.1,5.3,2.1,8.7,3c3.4,0.9,7.3,1.4,11.8,1.4c3.4,0,6.5-0.4,9.3-1.2
		c2.8-0.8,5.2-1.9,7.2-3.4c2-1.5,3.6-3.3,4.7-5.4c1.1-2.1,1.6-4.6,1.6-7.3c0-3-0.8-5.5-2.3-7.6c-1.5-2.1-3.5-3.9-6-5.5
		c-2.5-1.6-5.3-3-8.5-4.3c-3.2-1.3-6.4-2.7-9.7-4c-3.3-1.4-6.5-2.9-9.7-4.5c-3.1-1.7-5.9-3.6-8.4-5.9c-2.5-2.3-4.5-4.9-6-7.9
		c-1.5-3-2.3-6.7-2.3-10.9c0-4.3,0.9-8.2,2.7-11.6c1.8-3.4,4.3-6.3,7.4-8.6c3.2-2.3,6.9-4.1,11.3-5.3c4.4-1.2,9.1-1.8,14.2-1.8
		c2.6,0,5.2,0.2,7.8,0.6c2.6,0.4,5.1,0.9,7.4,1.6c2.3,0.7,4.4,1.4,6.2,2.3c1.8,0.8,3,1.5,3.6,2c0.6,0.5,0.9,0.9,1.1,1.2
		c0.2,0.3,0.3,0.7,0.5,1.1c0.1,0.5,0.2,1,0.3,1.7c0.1,0.6,0.1,1.5,0.1,2.5c0,1,0,1.8-0.1,2.6c-0.1,0.8-0.2,1.4-0.4,1.9
		c-0.2,0.5-0.4,0.9-0.8,1.1c-0.3,0.2-0.7,0.4-1.1,0.4c-0.7,0-1.7-0.4-3.1-1.1c-1.4-0.8-3.2-1.6-5.2-2.5c-2.1-0.9-4.5-1.8-7.3-2.6
		c-2.8-0.8-6-1.2-9.5-1.2c-3.3,0-6.1,0.4-8.5,1.2c-2.4,0.8-4.4,1.8-6,3.1c-1.6,1.3-2.7,2.8-3.5,4.6c-0.8,1.8-1.2,3.7-1.2,5.6
		c0,2.9,0.8,5.4,2.3,7.5c1.5,2.1,3.5,3.9,6,5.6c2.5,1.6,5.4,3.1,8.5,4.4c3.2,1.3,6.5,2.7,9.8,4.1c3.3,1.4,6.6,2.9,9.8,4.5
		c3.2,1.6,6,3.6,8.5,5.8c2.5,2.2,4.5,4.9,6.1,7.9C473.3,525.6,474.1,529.2,474.1,533.3"/>
	<path class="st0" d="M557.7,556.8c0,1-0.1,1.8-0.2,2.5c-0.1,0.7-0.3,1.3-0.6,1.8c-0.3,0.5-0.7,0.8-1,1c-0.4,0.2-0.8,0.3-1.3,0.3
		h-56.2c-1.4,0-2.7-0.4-3.9-1.2c-1.2-0.8-1.9-2.3-1.9-4.4V464c0-2.1,0.6-3.6,1.9-4.4c1.2-0.8,2.5-1.2,3.9-1.2h55.5
		c0.5,0,0.9,0.1,1.3,0.3c0.4,0.2,0.7,0.6,1,1c0.2,0.5,0.4,1.1,0.6,1.8c0.1,0.7,0.2,1.6,0.2,2.7c0,1-0.1,1.8-0.2,2.5
		c-0.2,0.7-0.3,1.3-0.6,1.8c-0.2,0.5-0.6,0.8-1,1c-0.4,0.2-0.8,0.3-1.3,0.3h-45.8v32.7h39.3c0.5,0,0.9,0.1,1.3,0.4
		c0.4,0.2,0.7,0.6,1,1c0.3,0.4,0.5,1,0.6,1.8c0.1,0.8,0.2,1.6,0.2,2.7c0,1-0.1,1.8-0.2,2.5c-0.1,0.7-0.3,1.3-0.6,1.7
		c-0.3,0.4-0.6,0.7-1,0.9c-0.4,0.2-0.8,0.3-1.3,0.3h-39.3v37.3h46.4c0.5,0,0.9,0.1,1.3,0.3c0.4,0.2,0.7,0.6,1,1
		c0.3,0.5,0.5,1,0.6,1.8C557.7,554.9,557.7,555.8,557.7,556.8"/>
	<path class="st0" d="M616.6,472.2L616.6,472.2l-20.3,51.9h40.7L616.6,472.2z M667,557.7c0.5,1.2,0.7,2.1,0.8,2.9
		c0,0.7-0.2,1.3-0.7,1.6c-0.5,0.4-1.3,0.6-2.4,0.7c-1.1,0.1-2.6,0.2-4.5,0.2c-1.9,0-3.4,0-4.5-0.1c-1.1-0.1-2-0.2-2.5-0.4
		c-0.6-0.2-1-0.4-1.3-0.8c-0.3-0.3-0.5-0.7-0.8-1.2l-10-25.4h-48.7l-9.6,25c-0.2,0.5-0.4,0.9-0.7,1.2c-0.3,0.4-0.7,0.6-1.3,0.9
		c-0.6,0.2-1.4,0.4-2.4,0.5c-1.1,0.1-2.4,0.2-4.1,0.2c-1.7,0-3.2-0.1-4.3-0.2c-1.1-0.1-1.9-0.4-2.4-0.8c-0.5-0.4-0.7-0.9-0.6-1.6
		c0-0.7,0.3-1.7,0.8-2.9l39.3-96.8c0.2-0.6,0.6-1.1,1-1.4c0.4-0.4,1-0.7,1.7-0.9c0.8-0.2,1.7-0.4,2.9-0.4c1.2-0.1,2.7-0.1,4.5-0.1
		c1.9,0,3.5,0,4.8,0.1c1.3,0.1,2.3,0.2,3.1,0.4c0.8,0.2,1.4,0.5,1.8,0.9c0.4,0.4,0.8,0.9,1,1.5L667,557.7z"/>
	<path class="st0" d="M737.5,487.3c0-4.1-1-7.5-3.1-10.3c-2.1-2.8-5.5-4.8-10.3-6.1c-1.5-0.4-3.2-0.6-5.1-0.8
		c-1.9-0.2-4.4-0.2-7.5-0.2h-13.1v35.1h15.2c4.1,0,7.6-0.4,10.6-1.3c3-0.9,5.5-2.1,7.5-3.7c2-1.6,3.4-3.4,4.4-5.6
		C737,492.2,737.5,489.8,737.5,487.3 M760.9,560.5c0,0.4-0.1,0.8-0.3,1.1c-0.2,0.3-0.6,0.6-1.2,0.8c-0.6,0.2-1.5,0.4-2.5,0.5
		c-1.1,0.1-2.5,0.2-4.3,0.2c-1.6,0-2.8-0.1-3.8-0.2c-1-0.1-1.8-0.3-2.4-0.5c-0.6-0.2-1.1-0.6-1.4-1c-0.3-0.4-0.6-1-0.9-1.6
		l-10.8-24.6c-1.3-2.8-2.6-5.4-3.9-7.7c-1.4-2.3-3-4.3-4.8-6c-1.9-1.7-4.1-3-6.6-3.9c-2.5-0.9-5.6-1.4-9.1-1.4h-10.4v44.4
		c0,0.4-0.1,0.8-0.4,1.1c-0.3,0.3-0.7,0.6-1.3,0.8c-0.6,0.2-1.4,0.3-2.4,0.5c-1,0.1-2.2,0.2-3.8,0.2c-1.5,0-2.8-0.1-3.8-0.2
		c-1-0.1-1.8-0.3-2.4-0.5c-0.6-0.2-1-0.4-1.3-0.8c-0.2-0.3-0.4-0.7-0.4-1.1V464c0-2.1,0.6-3.6,1.9-4.4c1.2-0.8,2.5-1.2,3.9-1.2h24.9
		c3,0,5.4,0.1,7.4,0.2c2,0.1,3.7,0.3,5.3,0.4c4.5,0.7,8.5,1.8,12,3.3c3.5,1.5,6.4,3.4,8.7,5.7c2.4,2.3,4.1,4.9,5.3,7.9
		c1.2,3,1.8,6.3,1.8,9.9c0,3.5-0.5,6.6-1.6,9.4c-1.1,2.8-2.6,5.2-4.6,7.3c-2,2.1-4.4,4-7.1,5.5c-2.8,1.6-5.9,2.9-9.3,3.9
		c1.9,0.8,3.7,1.7,5.2,2.9c1.6,1.2,3,2.5,4.4,4.1c1.4,1.6,2.6,3.5,3.8,5.6c1.2,2.1,2.4,4.5,3.6,7.1l10.5,22.9
		c0.8,1.9,1.4,3.3,1.6,4.1C760.8,559.4,760.9,560,760.9,560.5"/>
	<path class="st0" d="M856.2,547.8c0,0.9,0,1.6-0.1,2.3c-0.1,0.6-0.2,1.2-0.3,1.7c-0.2,0.5-0.3,0.9-0.6,1.3
		c-0.2,0.4-0.7,0.8-1.3,1.4c-0.6,0.5-1.9,1.4-3.8,2.5c-1.9,1.1-4.3,2.2-7.2,3.2c-2.9,1-6.1,1.9-9.9,2.7c-3.7,0.7-7.8,1.1-12.2,1.1
		c-7.6,0-14.5-1.1-20.6-3.4c-6.1-2.3-11.3-5.6-15.6-10c-4.3-4.4-7.6-9.8-10-16.3c-2.3-6.5-3.5-13.9-3.5-22.3
		c0-8.6,1.3-16.3,3.8-23.1c2.5-6.8,6-12.5,10.5-17.2c4.5-4.7,9.9-8.3,16.2-10.7c6.3-2.5,13.3-3.7,20.9-3.7c3.4,0,6.7,0.3,9.9,0.8
		c3.2,0.6,6.2,1.3,8.9,2.1c2.7,0.9,5.1,1.9,7.2,3c2.1,1.1,3.6,2.1,4.4,2.8c0.8,0.7,1.3,1.3,1.6,1.7c0.2,0.4,0.4,0.8,0.6,1.3
		c0.1,0.5,0.3,1.1,0.4,1.8c0.1,0.7,0.1,1.5,0.1,2.5c0,1.1-0.1,2-0.2,2.7c-0.1,0.8-0.3,1.4-0.5,1.9c-0.2,0.5-0.5,0.9-0.9,1.1
		c-0.3,0.2-0.7,0.4-1.2,0.4c-0.8,0-2-0.5-3.5-1.6c-1.5-1-3.5-2.2-5.9-3.5c-2.4-1.3-5.3-2.4-8.7-3.5c-3.4-1-7.5-1.6-12.3-1.6
		c-5.2,0-10,0.9-14.2,2.8c-4.3,1.8-7.9,4.6-11,8.2c-3,3.6-5.4,8-7,13.2c-1.7,5.2-2.5,11.1-2.5,17.8c0,6.6,0.8,12.4,2.4,17.5
		c1.6,5.1,3.9,9.3,6.9,12.7c3,3.4,6.7,6,11,7.7c4.4,1.7,9.3,2.6,14.8,2.6c4.7,0,8.7-0.5,12.2-1.5c3.5-1,6.5-2.2,8.9-3.4
		c2.5-1.3,4.5-2.4,6-3.4c1.6-1,2.8-1.5,3.7-1.5c0.4,0,0.8,0.1,1.1,0.2c0.3,0.2,0.5,0.5,0.7,0.9c0.2,0.5,0.3,1.1,0.4,1.9
		C856.1,545.6,856.2,546.6,856.2,547.8"/>
	<path class="st0" d="M961.1,560.5c0,0.4-0.1,0.8-0.4,1.1c-0.2,0.3-0.7,0.6-1.3,0.8c-0.6,0.2-1.4,0.3-2.4,0.5
		c-1,0.1-2.2,0.2-3.7,0.2c-1.6,0-2.8-0.1-3.8-0.2c-1-0.1-1.8-0.3-2.4-0.5c-0.6-0.2-1-0.4-1.3-0.8c-0.2-0.3-0.4-0.7-0.4-1.1v-46.2
		h-53.3v46.2c0,0.4-0.1,0.8-0.4,1.1c-0.2,0.3-0.7,0.6-1.3,0.8c-0.6,0.2-1.4,0.3-2.4,0.5c-1,0.1-2.2,0.2-3.8,0.2
		c-1.4,0-2.7-0.1-3.7-0.2c-1-0.1-1.8-0.3-2.4-0.5c-0.6-0.2-1-0.4-1.3-0.8c-0.2-0.3-0.4-0.7-0.4-1.1v-100c0-0.4,0.1-0.8,0.4-1.1
		c0.2-0.3,0.7-0.6,1.3-0.8c0.6-0.2,1.4-0.3,2.4-0.5c1-0.1,2.3-0.2,3.7-0.2c1.5,0,2.8,0.1,3.8,0.2c1,0.1,1.8,0.3,2.4,0.5
		c0.6,0.2,1,0.4,1.3,0.8c0.2,0.3,0.4,0.7,0.4,1.1v41.7h53.3v-41.7c0-0.4,0.1-0.8,0.4-1.1c0.2-0.3,0.7-0.6,1.3-0.8
		c0.6-0.2,1.4-0.3,2.4-0.5c1-0.1,2.2-0.2,3.8-0.2c1.4,0,2.7,0.1,3.7,0.2c1,0.1,1.8,0.3,2.4,0.5c0.6,0.2,1,0.4,1.3,0.8
		c0.2,0.3,0.4,0.7,0.4,1.1V560.5z"/>
	<path class="st0" d="M811.5,373.4c16.8,10.4,41,18.4,66.8,18.4c38.4,0,60.8-19.6,60.8-48c0-25.9-15.5-41.3-54.8-55.5
		c-47.4-16.7-76.7-40.9-76.7-80.1c0-43.8,37.5-76.4,94-76.4c29.3,0,51.3,6.7,63.8,13.8l-10.3,29.6c-9.1-5.4-28.5-13.4-54.8-13.4
		c-39.7,0-54.8,23-54.8,42.2c0,26.3,17.7,39.2,57.8,54.3c49.1,18.4,73.7,41.3,73.7,82.6c0,43.4-32.8,81.4-101.3,81.4
		c-28,0-58.6-8.3-74.2-18.4L811.5,373.4z"/>
</g>
</svg>
