<svg width="227px" height="60px" viewBox="0 0 227 60" version="1.1" xmlns="http://www.w3.org/2000/svg" xmlns:xlink="http://www.w3.org/1999/xlink">
                        <!-- Generator: Sketch 47.1 (45422) - http://www.bohemiancoding.com/sketch -->
                            <title>Area 1 Security</title>
                            <defs>
                                <polygon id="path-1" points="0.339819277 0.23982 3.69939759 0.23982 3.69939759 3.58302 0.339819277 3.58302"/>
                                <polygon id="path-3" points="7.4814 0 0.5352 12.078 28.1022 60 42 60"/>
                                <polygon id="path-5" points="0 0.1926 41.0191793 0.1926 41.0191793 36 0 36"/>
                                <polygon id="path-7" points="0.169005435 0.07878 34.5768859 0.07878 34.5768859 48 0.169005435 48"/>
                            </defs>
                            <g id="Symbols" stroke="none" stroke-width="1" fill="none" fill-rule="evenodd">
                                <g id="footer" transform="translate(-83.000000, -54.000000)">
                                    <g id="Page-1" transform="translate(83.000000, 54.000000)">
                                        <g id="Group-18" transform="translate(27.000000, 0.000000)">
                                            <g id="Group-3" transform="translate(195.783133, 41.400000)">
                                                <mask id="mask-2" fill="white">
                                                    <use xlink:href="#path-1"/>
                                                </mask>
                                                <g id="Clip-2"/>
                                                <path d="M3.03198795,2.91822 C2.75307229,3.19602 2.41572289,3.33402 2.01873494,3.33402 C1.62475904,3.33402 1.28861446,3.19602 1.0103012,2.91822 C0.731385542,2.64102 0.592228916,2.30622 0.592228916,1.91382 C0.592228916,1.51842 0.731385542,1.18182 1.0103012,0.90462 C1.28861446,0.62742 1.62475904,0.48882 2.01873494,0.48882 C2.41572289,0.48882 2.75307229,0.62742 3.03198795,0.90462 C3.3103012,1.18182 3.44945783,1.51842 3.44945783,1.91382 C3.44945783,2.30622 3.3103012,2.64102 3.03198795,2.91822 M3.20789157,0.72882 C2.88078313,0.40302 2.48439759,0.23982 2.01873494,0.23982 C1.55608434,0.23982 1.1603012,0.40302 0.832590361,0.72882 C0.504277108,1.05522 0.339819277,1.45002 0.339819277,1.91382 C0.339819277,2.37462 0.504277108,2.76822 0.832590361,3.09462 C1.1603012,3.42042 1.55608434,3.58302 2.01873494,3.58302 C2.48439759,3.58302 2.88078313,3.42042 3.20789157,3.09462 C3.53560241,2.76822 3.69945783,2.37462 3.69945783,1.91382 C3.69945783,1.45002 3.53560241,1.05522 3.20789157,0.72882" id="Fill-1" fill="#231F20" mask="url(#mask-2)"/>
                                            </g>
                                            <path d="M197.873614,43.28052 L197.497108,43.28052 L197.497108,42.67812 L197.873614,42.67812 C197.988675,42.67812 198.080241,42.69912 198.147711,42.74112 C198.214578,42.78372 198.248313,42.86352 198.248313,42.98052 C198.248313,43.09752 198.214578,43.17672 198.147711,43.21812 C198.080241,43.25952 197.988675,43.28052 197.873614,43.28052 M198.591687,42.97152 C198.591687,42.77592 198.529639,42.62472 198.405542,42.51852 C198.281446,42.41292 198.108554,42.35952 197.885663,42.35952 L197.150723,42.35952 L197.150723,44.26392 L197.497108,44.26392 L197.497108,43.59372 L197.806747,43.59372 L198.257952,44.26392 L198.676024,44.26392 L198.174217,43.53372 C198.45253,43.45272 198.591687,43.26552 198.591687,42.97152" id="Fill-4" fill="#231F20"/>
                                            <path d="M55.3010241,32.81046 L64.2974096,32.81046 L59.8209036,21.03846 L55.3010241,32.81046 Z M44.871506,44.91126 L56.8443976,14.91126 L62.798012,14.91126 L74.771506,44.91126 L68.9498193,44.91126 L66.1937952,37.66386 L53.4486145,37.66386 L50.6925904,44.91126 L44.871506,44.91126 Z" id="Fill-6" fill="#231F20"/>
                                            <path d="M85.046506,29.38416 L91.0446988,29.38416 C92.8814458,29.38416 94.3224096,29.05716 95.3657831,28.40256 C96.409759,27.74856 96.9314458,26.51256 96.9314458,24.69516 C96.9314458,22.84896 96.409759,21.60636 95.3657831,20.96616 C94.3224096,20.32656 92.8814458,20.00676 91.0446988,20.00676 L85.046506,20.00676 L85.046506,29.38416 Z M79.6224096,44.91096 L79.6224096,14.91096 L91.1880723,14.91096 C94.7193976,14.91096 97.4633735,15.74556 99.42,17.41296 C101.377229,19.08096 102.356145,21.46416 102.356145,24.56436 C102.356145,29.13516 100.150723,32.09016 95.7410843,33.42936 L103.657952,44.91096 L97.1085542,44.91096 L89.9193976,34.32576 L85.046506,34.32576 L85.046506,44.91096 L79.6224096,44.91096 Z" id="Fill-8" fill="#231F20"/>
                                            <polygon id="Fill-10" fill="#231F20" points="109.645 44.9112 109.645 14.9112 129.688373 14.9112 129.688373 19.7646 115.069096 19.7646 115.069096 27.3636 127.748012 27.3636 127.748012 32.4588 115.069096 32.4588 115.069096 40.0578 129.688373 40.0578 129.688373 44.9112"/>
                                            <path d="M144.428855,32.81046 L153.425241,32.81046 L148.949337,21.03846 L144.428855,32.81046 Z M133.999337,44.91126 L145.972831,14.91126 L151.925843,14.91126 L163.899337,44.91126 L158.078253,44.91126 L155.321627,37.66386 L142.576446,37.66386 L139.820422,44.91126 L133.999337,44.91126 Z" id="Fill-12" fill="#231F20"/>
                                            <polygon id="Fill-14" fill="#231F20" points="182.633916 24.35508 182.633916 18.60108 188.479096 14.91108 193.416446 14.91108 193.416446 44.91108 187.992349 44.91108 187.992349 21.08268"/>
                                            <polygon id="Fill-16" fill="#2B96ED" points="7.51186747 0 0.537168675 12.0786 28.2154819 60 42.168494 60"/>
                                        </g>
                                        <g id="Group-21" transform="translate(27.000000, 0.000000)">
                                            <mask id="mask-4" fill="white">
                                                <use xlink:href="#path-3"/>
                                            </mask>
                                            <g id="Clip-20"/>
                                            <polygon id="Fill-19" mask="url(#mask-4)" points="7.4814 0 0.5352 12.078 28.1022 60 42 60"/>
                                        </g>
                                        <g id="Group-28" transform="translate(0.000000, 12.000000)">
                                            <g id="Group-24" transform="translate(0.000000, 12.000000)">
                                                <mask id="mask-6" fill="white">
                                                    <use xlink:href="#path-5"/>
                                                </mask>
                                                <g id="Clip-23"/>
                                                <polygon id="Fill-22" fill="#1DE9B6" mask="url(#mask-6)" points="-5.97826087e-05 36 41.0191793 36 20.495212 0.1926"/>
                                            </g>
                                            <g id="Group-27" transform="translate(20.326087, 0.000000)">
                                                <mask id="mask-8" fill="white">
                                                    <use xlink:href="#path-7"/>
                                                </mask>
                                                <g id="Clip-26"/>
                                                <polygon id="Fill-25" fill="#1EC5DA" mask="url(#mask-8)" points="0.169005435 12.19278 20.6935707 48.00018 34.5768859 48.00018 7.10916848 0.07878"/>
                                            </g>
                                        </g>
                                    </g>
                                </g>
                            </g>
                        </svg>