<?xml version="1.0" encoding="UTF-8" standalone="no"?>
<!-- Created with Inkscape (http://www.inkscape.org/) -->
<svg
   xmlns:svg="http://www.w3.org/2000/svg"
   xmlns="http://www.w3.org/2000/svg"
   version="1.0"
   width="200"
   height="54.91433"
   id="svg2515">
  <defs
     id="defs2517">
    <clipPath
       id="clipPath9948">
      <path
         d="M 28.823,124.04 L 128.633,124.04 L 128.633,141.637 L 28.823,141.637 L 28.823,124.04 z"
         id="path9950" />
    </clipPath>
    <linearGradient
       x1="0"
       y1="0"
       x2="1"
       y2="0"
       id="linearGradient9442"
       gradientUnits="userSpaceOnUse"
       gradientTransform="matrix(0,-19.2666,-4.3981,0,103.0856,741.2892)"
       spreadMethod="pad">
      <stop
         id="stop9444"
         style="stop-color:#00c0f3;stop-opacity:1"
         offset="0" />
      <stop
         id="stop9446"
         style="stop-color:#0066b3;stop-opacity:1"
         offset="1" />
    </linearGradient>
    <linearGradient
       x1="0"
       y1="0"
       x2="1"
       y2="0"
       id="linearGradient9424"
       gradientUnits="userSpaceOnUse"
       gradientTransform="matrix(0,-19.2547,-13.0409,0,97.0944,741.2772)"
       spreadMethod="pad">
      <stop
         id="stop9426"
         style="stop-color:#00c0f3;stop-opacity:1"
         offset="0" />
      <stop
         id="stop9428"
         style="stop-color:#0066b3;stop-opacity:1"
         offset="1" />
    </linearGradient>
    <linearGradient
       x1="0"
       y1="0"
       x2="1"
       y2="0"
       id="linearGradient9406"
       gradientUnits="userSpaceOnUse"
       gradientTransform="matrix(0,-15.1231,-12.6446,0,82.4239,736.8457)"
       spreadMethod="pad">
      <stop
         id="stop9408"
         style="stop-color:#00c0f3;stop-opacity:1"
         offset="0" />
      <stop
         id="stop9410"
         style="stop-color:#0066b3;stop-opacity:1"
         offset="1" />
    </linearGradient>
    <linearGradient
       x1="0"
       y1="0"
       x2="1"
       y2="0"
       id="linearGradient9388"
       gradientUnits="userSpaceOnUse"
       gradientTransform="matrix(0,-15.1231,-9.7833,0,69.5159,736.8457)"
       spreadMethod="pad">
      <stop
         id="stop9390"
         style="stop-color:#00c0f3;stop-opacity:1"
         offset="0" />
      <stop
         id="stop9392"
         style="stop-color:#0066b3;stop-opacity:1"
         offset="1" />
    </linearGradient>
    <linearGradient
       x1="0"
       y1="0"
       x2="1"
       y2="0"
       id="linearGradient9370"
       gradientUnits="userSpaceOnUse"
       gradientTransform="matrix(0,-19.2343,-19.2322,0,60.3227,741.257)"
       spreadMethod="pad">
      <stop
         id="stop9372"
         style="stop-color:#00c0f3;stop-opacity:1"
         offset="0" />
      <stop
         id="stop9374"
         style="stop-color:#0066b3;stop-opacity:1"
         offset="1" />
    </linearGradient>
    <linearGradient
       x1="0"
       y1="0"
       x2="1"
       y2="0"
       id="linearGradient9352"
       gradientUnits="userSpaceOnUse"
       gradientTransform="matrix(0,-19.2343,-6.4071,0,176.0597,741.257)"
       spreadMethod="pad">
      <stop
         id="stop9354"
         style="stop-color:#00c0f3;stop-opacity:1"
         offset="0" />
      <stop
         id="stop9356"
         style="stop-color:#0066b3;stop-opacity:1"
         offset="1" />
    </linearGradient>
    <linearGradient
       x1="0"
       y1="0"
       x2="1"
       y2="0"
       id="linearGradient9334"
       gradientUnits="userSpaceOnUse"
       gradientTransform="matrix(0,-19.2343,-14.3486,0,169.0168,741.257)"
       spreadMethod="pad">
      <stop
         id="stop9336"
         style="stop-color:#00c0f3;stop-opacity:1"
         offset="0" />
      <stop
         id="stop9338"
         style="stop-color:#0066b3;stop-opacity:1"
         offset="1" />
    </linearGradient>
    <linearGradient
       x1="0"
       y1="0"
       x2="1"
       y2="0"
       id="linearGradient9316"
       gradientUnits="userSpaceOnUse"
       gradientTransform="matrix(0,-19.8327,-14.8209,0,154.4292,741.5554)"
       spreadMethod="pad">
      <stop
         id="stop9318"
         style="stop-color:#00c0f3;stop-opacity:1"
         offset="0" />
      <stop
         id="stop9320"
         style="stop-color:#0066b3;stop-opacity:1"
         offset="1" />
    </linearGradient>
    <linearGradient
       x1="0"
       y1="0"
       x2="1"
       y2="0"
       id="linearGradient9298"
       gradientUnits="userSpaceOnUse"
       gradientTransform="matrix(0,-19.2343,-20.8362,0,141.2684,741.257)"
       spreadMethod="pad">
      <stop
         id="stop9300"
         style="stop-color:#00c0f3;stop-opacity:1"
         offset="0" />
      <stop
         id="stop9302"
         style="stop-color:#0066b3;stop-opacity:1"
         offset="1" />
    </linearGradient>
    <linearGradient
       x1="0"
       y1="0"
       x2="1"
       y2="0"
       id="linearGradient9280"
       gradientUnits="userSpaceOnUse"
       gradientTransform="matrix(0,-19.2343,-17.8263,0,123.6772,741.257)"
       spreadMethod="pad">
      <stop
         id="stop9282"
         style="stop-color:#00c0f3;stop-opacity:1"
         offset="0" />
      <stop
         id="stop9284"
         style="stop-color:#0066b3;stop-opacity:1"
         offset="1" />
    </linearGradient>
    <clipPath
       id="clipPath4031">
      <path
         d="M 0.03,841.95 L 595.29,841.95 L 595.29,0.03 L 0.03,0.03 L 0.03,841.95 z"
         id="path4033" />
    </clipPath>
    <clipPath
       id="clipPath4023">
      <path
         d="M 0,841 L 595.276,841 L 595.276,-0.89 L 0,-0.89 L 0,841 z"
         id="path4025" />
    </clipPath>
    <clipPath
       id="clipPath2877">
      <path
         d="M 0.06,793.02 L 615.06,793.02 L 615.06,0.06 L 0.06,0.06 L 0.06,793.02 z"
         id="path2879" />
    </clipPath>
    <clipPath
       id="clipPath2871">
      <path
         d="M 0,793 L 615,793 L 615,0 L 0,0 L 0,793 z"
         id="path2873" />
    </clipPath>
    <clipPath
       id="clipPath2865">
      <path
         d="M 399.6,438.67 L 566.93,438.67 L 566.93,370.64 L 399.6,370.64 L 399.6,438.67 z"
         id="path2867" />
    </clipPath>
    <clipPath
       id="clipPath119">
      <path
         d="M 0,842.04 L 594.96,842.04 L 594.96,0 L 0,0 L 0,842.04 z"
         id="path121" />
    </clipPath>
    <clipPath
       id="clipPath113">
      <path
         d="M 0,842 L 595,842 L 595,0 L 0,0 L 0,842 z"
         id="path115" />
    </clipPath>
    <clipPath
       id="clipPath107">
      <path
         d="M 1.4,840.44 L 595.28,840.44 L 595.28,777.84 L 1.4,777.84 L 1.4,840.44 z"
         id="path109" />
    </clipPath>
  </defs>
  <g
     transform="translate(-60.850266,140.62286)"
     id="layer1">
    <g
       transform="matrix(1.25,0,0,-1.25,-498.19608,406.80244)"
       clip-path="url(#clipPath2871)"
       id="g2869" />
  </g>
  <g
     transform="matrix(1.1362617,0,0,1.1362617,-59.940217,60.141226)"
     id="g18180">
    <path
       d="M 135.23502,-20.64895 C 135.23502,-22.1252 136.38002,-23.4577 138.26752,-23.4577 C 140.59627,-23.4577 141.11377,-22.4952 141.55502,-21.46145 L 142.11252,-20.1302 L 142.51877,-20.1302 L 142.73877,-24.01145 C 142.00002,-24.1977 139.78002,-24.45645 138.89377,-24.45645 C 134.30877,-24.45645 132.42502,-21.60645 132.42502,-19.57395 C 132.42502,-14.3252 140.66877,-15.1002 140.66877,-10.48145 C 140.66877,-8.3351997 138.89377,-7.4126997 137.04752,-7.4126997 C 136.01002,-7.4126997 135.15877,-7.7439497 134.67877,-8.1539497 C 134.38377,-8.3726997 133.68127,-9.7401997 133.38502,-11.0702 L 132.98002,-11.0702 L 132.75752,-6.7476997 C 133.71877,-6.6326997 134.75252,-6.4126997 136.12127,-6.4126997 C 142.00002,-6.4126997 143.47877,-9.2951997 143.47877,-11.5152 C 143.47877,-17.43145 135.23502,-16.2477 135.23502,-20.64895"
       id="path12753"
       style="fill:#939598;fill-opacity:1;fill-rule:nonzero;stroke:none" />
    <path
       d="M 155.89752,-9.4451997 C 155.27002,-8.8164497 154.23627,-8.0039497 153.16502,-8.0039497 C 152.46127,-8.0039497 151.31502,-8.6314497 151.31502,-10.3327 L 151.31502,-22.82645 L 155.56627,-22.82645 L 155.56627,-23.8252 L 151.31502,-23.8252 L 151.31502,-28.1527 L 150.79752,-28.1527 C 150.05877,-25.8977 147.58377,-23.97395 145.54752,-23.49145 L 145.54752,-22.82645 L 148.50627,-22.82645 L 148.50627,-16.61645 C 148.50627,-14.5477 148.39377,-11.4427 148.39377,-9.7764497 C 148.39377,-6.7839497 150.31877,-6.3414497 151.27752,-6.3414497 C 152.94252,-6.3414497 154.12377,-6.8939497 156.45627,-8.7426997 L 155.89752,-9.4451997"
       id="path12755"
       style="fill:#939598;fill-opacity:1;fill-rule:nonzero;stroke:none" />
    <path
       d="M 172.09127,-17.61645 C 172.90752,-17.6502 173.16627,-17.8727 173.16627,-18.7627 C 173.16627,-21.9752 171.09502,-24.45645 166.73252,-24.45645 C 161.03752,-24.45645 158.22877,-19.7227 158.22877,-15.2477 C 158.22877,-10.03645 161.37127,-6.4126997 166.06502,-6.4126997 C 168.61877,-6.4126997 170.91002,-7.1526997 172.61127,-9.0739497 L 172.09127,-9.7401997 C 171.02127,-8.6314497 169.54127,-8.0751997 167.91502,-8.0751997 C 163.55252,-8.0751997 161.55502,-12.2577 161.55502,-16.3602 C 161.55502,-16.76395 161.59377,-17.2102 161.62627,-17.61645 L 172.09127,-17.61645 z M 166.10127,-23.6777 C 168.72752,-23.6777 169.83877,-21.9027 169.83877,-19.4252 L 169.83877,-18.7627 C 169.28252,-18.72645 168.76752,-18.72645 167.58127,-18.68895 L 161.70502,-18.5402 C 162.22002,-21.60645 163.84752,-23.6777 166.10127,-23.6777"
       id="path12757"
       style="fill:#939598;fill-opacity:1;fill-rule:nonzero;stroke:none" />
    <path
       d="M 180.07627,-10.69895 L 180.07627,-25.34145 C 180.07627,-27.8552 180.22502,-30.3677 180.29877,-32.88395 C 178.30252,-32.6627 176.27002,-32.58895 174.23752,-32.58895 L 174.23752,-32.0702 L 176.41752,-31.36895 C 176.67752,-31.2952 176.93627,-31.14645 177.00877,-30.96145 C 177.12127,-30.70145 177.27002,-29.37145 177.27002,-27.8177 L 177.27002,-10.69895 C 177.27002,-8.8914497 177.12127,-8.2601997 175.97502,-7.8939497 L 174.23752,-7.3014497 L 174.23752,-6.7839497 C 175.60502,-6.9301997 177.08502,-7.0776997 178.56252,-7.0776997 C 180.07627,-7.0776997 181.63002,-6.9301997 183.10877,-6.7839497 L 183.10877,-7.3014497 L 181.29877,-7.8939497 C 180.15377,-8.2601997 180.07627,-8.8914497 180.07627,-10.69895"
       id="path12759"
       style="fill:#939598;fill-opacity:1;fill-rule:nonzero;stroke:none" />
    <path
       d="M 191.57502,-7.8939497 C 190.43002,-8.2601997 190.35502,-8.8914497 190.35502,-10.69895 L 190.35502,-25.34145 C 190.35502,-27.8552 190.50377,-30.3677 190.57752,-32.88395 C 188.58002,-32.6627 186.54877,-32.58895 184.51252,-32.58895 L 184.51252,-32.0702 L 186.69752,-31.36895 C 186.95252,-31.2952 187.21252,-31.14645 187.29002,-30.96145 C 187.39877,-30.70145 187.54502,-29.37145 187.54502,-27.8177 L 187.54502,-10.69895 C 187.54502,-8.8914497 187.39877,-8.2601997 186.25252,-7.8939497 L 184.51252,-7.3014497 L 184.51252,-6.7839497 C 185.88252,-6.9301997 187.36002,-7.0776997 188.83877,-7.0776997 C 190.35502,-7.0776997 191.90877,-6.9301997 193.38752,-6.7839497 L 193.38752,-7.3014497 L 191.57502,-7.8939497"
       id="path12761"
       style="fill:#939598;fill-opacity:1;fill-rule:nonzero;stroke:none" />
    <path
       d="M 208.43377,-9.7064497 L 208.43377,-20.0152 C 208.43377,-23.4577 205.84627,-24.45645 202.88877,-24.45645 C 200.00377,-24.45645 197.86002,-22.97395 196.12377,-20.20395 L 197.04627,-19.6852 C 198.15752,-21.34895 199.93002,-22.53145 201.96627,-22.53145 C 204.07002,-22.53145 205.69752,-21.7577 205.69752,-19.0227 L 205.69752,-17.0602 L 205.43877,-17.0602 C 199.34127,-17.0602 195.05127,-15.17395 195.05127,-10.95895 C 195.05127,-7.7839497 197.23127,-6.4126997 199.93002,-6.4126997 C 202.62877,-6.4126997 204.21877,-8.0039497 205.66002,-9.9264497 L 205.73502,-9.9264497 L 205.62502,-6.7839497 C 206.51002,-6.9301997 207.43752,-7.0776997 208.32252,-7.0776997 C 209.24752,-7.0776997 210.20627,-6.9301997 211.16877,-6.7839497 L 211.16877,-7.3014497 C 208.84127,-7.7439497 208.43377,-7.9289497 208.43377,-9.7064497 z M 205.62502,-12.99395 C 205.62502,-10.03645 203.66377,-8.3351997 201.29752,-8.3351997 C 199.19002,-8.3351997 198.15752,-9.5914497 198.15752,-11.5527 C 198.15752,-15.54395 202.62877,-16.06395 205.62502,-16.06395 L 205.62502,-12.99395"
       id="path12763"
       style="fill:#939598;fill-opacity:1;fill-rule:nonzero;stroke:none" />
    <path
       d="M 127.59627,-9.7064497 L 127.59627,-20.0152 C 127.59627,-23.4577 125.00627,-24.45645 122.04752,-24.45645 C 119.16377,-24.45645 117.02127,-22.97395 115.28377,-20.20395 L 116.20627,-19.6852 C 117.31627,-21.34895 119.09377,-22.53145 121.12377,-22.53145 C 123.23252,-22.53145 124.85627,-21.7577 124.85627,-19.0227 L 124.85627,-17.0602 L 124.60002,-17.0602 C 118.50002,-17.0602 114.21127,-15.17395 114.21127,-10.95895 C 114.21127,-7.7839497 116.39377,-6.4126997 119.09377,-6.4126997 C 121.79002,-6.4126997 123.37752,-8.0039497 124.82002,-9.9264497 L 124.89377,-9.9264497 L 124.78252,-6.7839497 C 125.67252,-6.9301997 126.59502,-7.0776997 127.48377,-7.0776997 C 128.40877,-7.0776997 129.36877,-6.9301997 130.33002,-6.7839497 L 130.33002,-7.3014497 C 128.00127,-7.7439497 127.59627,-7.9289497 127.59627,-9.7064497 z M 124.78252,-12.99395 C 124.78252,-10.03645 122.82627,-8.3351997 120.45877,-8.3351997 C 118.35127,-8.3351997 117.31627,-9.5914497 117.31627,-11.5527 C 117.31627,-15.54395 121.79002,-16.06395 124.78252,-16.06395 L 124.78252,-12.99395"
       id="path12765"
       style="fill:#939598;fill-opacity:1;fill-rule:nonzero;stroke:none" />
    <path
       d="M 216.12252,-20.64895 C 216.12252,-22.1252 217.27127,-23.4577 219.15252,-23.4577 C 221.48377,-23.4577 222.00002,-22.4952 222.44502,-21.46145 L 223.00002,-20.1302 L 223.40502,-20.1302 L 223.62877,-24.01145 C 222.88752,-24.1977 220.66877,-24.45645 219.78377,-24.45645 C 215.19752,-24.45645 213.31502,-21.60645 213.31502,-19.57395 C 213.31502,-14.3252 221.55752,-15.1002 221.55752,-10.48145 C 221.55752,-8.3351997 219.78377,-7.4126997 217.93377,-7.4126997 C 216.90002,-7.4126997 216.04877,-7.7439497 215.56752,-8.1539497 C 215.27252,-8.3726997 214.57002,-9.7401997 214.27377,-11.0702 L 213.86752,-11.0702 L 213.64502,-6.7476997 C 214.60627,-6.6326997 215.64377,-6.4126997 217.01127,-6.4126997 C 222.88752,-6.4126997 224.36752,-9.2951997 224.36752,-11.5152 C 224.36752,-17.43145 216.12252,-16.2477 216.12252,-20.64895"
       id="path12767"
       style="fill:#939598;fill-opacity:1;fill-rule:nonzero;stroke:none" />
    <path
       d="M 107.01752,-33.4277 C 103.06252,-29.9677 97.432518,-26.7627 91.855018,-23.49645 C 90.446268,-16.7702 88.792518,-10.34395 85.958768,-5.9201997 C 92.175018,-8.9614497 98.256268,-17.0527 101.43627,-23.9927 C 104.53002,-23.2902 107.61877,-21.4077 109.49127,-19.6852 C 109.97752,-25.0452 108.70502,-29.4527 107.01752,-33.4277"
       id="path12769"
       style="fill:#a7a9ac;fill-opacity:1;fill-rule:nonzero;stroke:none" />
    <path
       d="M 101.34127,-51.8327 C 98.853768,-49.6102 97.156268,-45.8627 95.817518,-41.37145 C 98.851268,-40.56645 101.67877,-39.88145 104.18752,-39.4602 C 102.24002,-43.54395 100.66502,-47.42895 101.34127,-51.8327"
       id="path12771"
       style="fill:#a7a9ac;fill-opacity:1;fill-rule:nonzero;stroke:none" />
    <path
       d="M 57.152518,-47.1827 C 68.803768,-45.6177 78.976268,-39.41895 86.115018,-30.81895 C 81.687518,-26.03395 75.722518,-17.8827 74.332518,-9.9114497 C 77.622518,-14.9927 84.691268,-19.2977 91.855018,-23.49645 C 93.141268,-29.63895 94.223768,-36.0327 95.817518,-41.37145 C 83.831268,-44.5477 68.631268,-49.54645 57.152518,-47.1827"
       id="path12773"
       style="fill:#d91e48;fill-opacity:1;fill-rule:nonzero;stroke:none" />
    <path
       d="M 104.18752,-39.4602 C 105.11377,-37.5202 106.12377,-35.5352 107.01752,-33.4277 C 109.17627,-35.3152 110.83502,-37.2777 111.70752,-39.3652 C 109.80252,-38.83145 107.22752,-38.94895 104.18752,-39.4602"
       id="path12775"
       style="fill:#d91e48;fill-opacity:1;fill-rule:nonzero;stroke:none" />
    <path
       d="M 104.18752,-39.4602 C 101.67877,-39.88145 98.851268,-40.56645 95.817518,-41.37145 C 94.223768,-36.0327 93.141268,-29.63895 91.855018,-23.49645 C 97.432518,-26.7627 103.06252,-29.9677 107.01752,-33.4277 C 106.12377,-35.5352 105.11377,-37.5202 104.18752,-39.4602"
       id="path12777"
       style="fill:#a62b4d;fill-opacity:1;fill-rule:nonzero;stroke:none" />
  </g>
</svg>
