<?xml version="1.0" encoding="UTF-8" standalone="no"?>
<!-- Created with Inkscape (http://www.inkscape.org/) -->
<svg version="1.1" xmlns="http://www.w3.org/2000/svg" xmlns:svg="http://www.w3.org/2000/svg" x="0" y="0" width="450" height="159" viewBox="0 0 119.0625 42.068751">
	<g transform="translate(-66.203423,-124.31351)">
		<rect width="40.038342" height="32.149391" x="145.22758" y="134.23286" fill="#346EAA" stroke="none" stroke-width="0.122" stroke-miterlimit="4" stroke-dasharray="none"/>
		<rect width="89.942314" height="32.907063" x="66.203423" y="124.31351" fill="#E13940" stroke="none" stroke-width="0.122" stroke-miterlimit="4" stroke-dasharray="none"/>
		<path d="m 145.22758,166.38226 v -9.16169 h 10.91816 z" fill="#0A1622" srtoke="none" stroke-width="0.25485706px" stroke-linecap="butt" stroke-linejoin="miter"/>
		<g transform="matrix(0.26458333,0,0,0.26458333,12.343681,203.50819)">
			<g transform="matrix(0.4786661,0,0,0.4786661,224.88435,-289.33041)" fill="#FFF">
				<path  d="m 570.4,71.2 c -3.6,1.2 -7.1,2.8 -10.3,4.9 -3.2,2.1 -6.1,4.7 -8.6,7.7 -2.5,3 -4.5,6.2 -5.9,9.8 h -0.4 v -21 h -29.6 v 113.3 h 31.1 v -51.1 c 0,-5.1 0.5,-9.9 1.5,-14.2 1,-4.4 2.7,-8.2 5.2,-11.5 2.4,-3.3 5.6,-5.9 9.5,-7.8 3.9,-1.9 8.8,-2.8 14.5,-2.8 1.9,0 3.9,0.1 5.9,0.3 2,0.2 3.8,0.5 5.3,0.8 V 70.5 c -2.5,-0.7 -4.8,-1.1 -6.8,-1.1 -4,0 -7.8,0.6 -11.4,1.8 z"/>
				<polygon points="143.2,185.8 143.2,156.9 66.9,156.9 66.9,29.3 32.5,29.3 32.5,185.8"/>
				<path d="m 256.5,160.6 v -59 c 0,-6.9 -1.5,-12.4 -4.6,-16.6 -3.1,-4.2 -7,-7.4 -11.8,-9.7 -4.8,-2.3 -10.2,-3.9 -16,-4.7 -5.8,-0.8 -11.6,-1.2 -17.3,-1.2 -6.3,0 -12.5,0.6 -18.7,1.9 -6.2,1.3 -11.8,3.3 -16.8,6.3 -5,2.9 -9.1,6.8 -12.3,11.6 -3.2,4.8 -5,10.9 -5.5,18.2 h 31.1 c 0.6,-6.1 2.6,-10.5 6.1,-13.1 3.5,-2.6 8.3,-3.9 14.5,-3.9 2.8,0 5.4,0.2 7.8,0.6 2.4,0.4 4.5,1.1 6.4,2.2 1.8,1.1 3.3,2.6 4.4,4.6 1.1,2 1.6,4.6 1.6,8 0.1,3.2 -0.8,5.7 -2.9,7.3 -2,1.7 -4.8,3 -8.3,3.8 -3.5,0.9 -7.5,1.5 -12,2 -4.5,0.4 -9.1,1 -13.8,1.7 -4.7,0.7 -9.3,1.7 -13.9,3 -4.6,1.2 -8.7,3.1 -12.3,5.6 -3.6,2.5 -6.5,5.8 -8.8,10 -2.3,4.2 -3.4,9.5 -3.4,15.9 0,5.8 1,10.9 3,15.1 1.9,4.2 4.7,7.7 8.2,10.5 3.5,2.8 7.6,4.8 12.3,6.1 4.7,1.3 9.7,2 15.1,2 7,0 13.9,-1 20.6,-3.1 6.7,-2.1 12.6,-5.6 17.5,-10.7 0.1,1.9 0.4,3.8 0.8,5.6 0.4,1.8 0.8,3.6 1.4,5.4 h 31.6 c -1.5,-2.3 -2.5,-5.8 -3.1,-10.5 -0.6,-4.9 -0.9,-9.8 -0.9,-14.9 z M 225.4,142 c 0,1.8 -0.2,4.1 -0.6,7 -0.4,2.9 -1.3,5.8 -3,8.7 -1.6,2.8 -4.1,5.3 -7.5,7.3 -3.4,2 -8.1,3.1 -14.2,3.1 -2.5,0 -4.9,-0.2 -7.2,-0.7 -2.3,-0.4 -4.4,-1.2 -6.1,-2.3 -1.8,-1.1 -3.1,-2.6 -4.2,-4.5 -1,-1.9 -1.5,-4.2 -1.5,-7 0,-2.9 0.5,-5.3 1.5,-7.2 1,-1.9 2.4,-3.5 4.1,-4.7 1.7,-1.2 3.6,-2.2 5.9,-3 2.3,-0.7 4.6,-1.3 6.9,-1.8 2.5,-0.4 5,-0.8 7.4,-1.1 2.5,-0.3 4.9,-0.7 7.1,-1.1 2.3,-0.4 4.4,-1 6.4,-1.6 2,-0.7 3.6,-1.6 4.9,-2.7 V 142 Z"/>
				<path d="m 490.4,85.7 c -5.1,-5.2 -11.3,-9.2 -18.5,-12 -7.2,-2.8 -15.3,-4.3 -24.2,-4.3 -8.9,0 -17,1.4 -24.1,4.3 -7.2,2.8 -13.3,6.9 -18.4,12 -5.1,5.2 -9.1,11.5 -11.8,18.9 -2.8,7.4 -4.2,15.6 -4.2,24.7 0,9.1 1.4,17.2 4.2,24.6 2.8,7.3 6.7,13.6 11.8,18.7 5.1,5.2 11.3,9.2 18.4,11.9 7.2,2.8 15.2,4.2 24.1,4.2 8.9,0 17,-1.4 24.2,-4.2 7.2,-2.8 13.4,-6.8 18.5,-11.9 5.1,-5.2 9.1,-11.4 11.8,-18.7 2.8,-7.3 4.2,-15.5 4.2,-24.6 0,-9 -1.4,-17.3 -4.2,-24.7 -2.7,-7.4 -6.7,-13.7 -11.8,-18.9 z m -16.5,56.8 c -0.9,4.3 -2.4,8.2 -4.5,11.6 -2.1,3.4 -5,6.2 -8.6,8.2 -3.6,2.1 -8,3.1 -13.3,3.1 -5.3,0 -9.6,-1 -13.2,-3.1 -3.5,-2 -6.3,-4.8 -8.4,-8.2 -2.1,-3.4 -3.6,-7.3 -4.5,-11.6 -0.9,-4.3 -1.3,-8.7 -1.3,-13.3 0,-4.5 0.4,-9 1.3,-13.4 0.9,-4.4 2.4,-8.3 4.5,-11.6 2.1,-3.4 4.9,-6.1 8.4,-8.2 3.5,-2.1 7.9,-3.2 13.2,-3.2 5.3,0 9.7,1.1 13.3,3.2 3.6,2.1 6.4,4.9 8.6,8.2 2.1,3.4 3.6,7.2 4.5,11.6 0.9,4.4 1.3,8.8 1.3,13.4 0.1,4.6 -0.4,9 -1.3,13.3 z"/>
				<path d="m 366.7,83.7 c -4.5,-4.8 -9.5,-8.4 -15,-10.7 -5.6,-2.3 -11.2,-3.5 -16.9,-3.5 -7,0 -13.8,1.4 -20.3,4 -6.5,2.7 -11.7,7 -15.5,12.8 h -0.4 v -57 h -31.1 v 156.5 h 29.6 v -14.5 h 0.4 c 3.4,6.3 8.3,10.7 14.9,13.4 6.6,2.6 14,4 22.4,4 5.7,0 11.3,-1.2 16.9,-3.5 5.6,-2.3 10.6,-5.9 15,-10.7 4.5,-4.8 8.1,-11 10.8,-18.5 2.8,-7.5 4.2,-16.5 4.2,-26.9 0,-10.4 -1.4,-19.3 -4.2,-26.8 -2.8,-7.6 -6.4,-13.8 -10.8,-18.6 z M 349,142.8 c -1,4.4 -2.6,8.3 -4.8,11.6 -2.2,3.4 -4.9,6 -8.2,8 -3.3,2 -7.3,3 -11.9,3 -4.5,0 -8.5,-1 -11.8,-3 -3.4,-2 -6.1,-4.6 -8.3,-8 -2.2,-3.4 -3.8,-7.2 -4.8,-11.6 -1,-4.4 -1.5,-8.9 -1.5,-13.6 0,-4.8 0.5,-9.4 1.5,-13.8 1,-4.4 2.6,-8.2 4.8,-11.6 2.2,-3.4 5,-6 8.3,-8 3.4,-2 7.3,-3 11.8,-3 4.7,0 8.7,1 11.9,3 3.3,2 6,4.6 8.2,8 2.2,3.4 3.8,7.2 4.8,11.6 1,4.4 1.5,9 1.5,13.8 0.1,4.7 -0.5,9.3 -1.5,13.6 z"/>
			</g>
		</g>
		<path fill="#FFF" d="m 168.14935,140.55613 1.8736,0.57649 0.72062,-1.83757 0.72061,1.83757 1.89161,-0.57649 -0.99085,1.71146 1.62139,1.11696 -1.94566,0.30626 0.14412,1.96367 -1.44122,-1.33314 -1.44124,1.33314 0.14413,-1.96367 -1.94567,-0.32428 1.62139,-1.11696 z m -3.35087,12.16038 -1.44123,-1.33314 -1.44123,1.33314 0.14413,-1.96369 -1.94566,-0.28823 1.62139,-1.11696 -0.99085,-1.71146 1.8916,0.57649 0.72062,-1.83757 0.72062,1.83757 1.89162,-0.57649 -0.99085,1.71146 1.62139,1.11696 -1.94567,0.28823 z m 7.40432,8.62935 -1.44123,-1.33313 -1.44122,1.33313 0.14412,-1.96366 -1.94567,-0.28825 1.62139,-1.11695 -0.99084,-1.71147 1.89162,0.5765 0.7206,-1.83757 0.72062,1.83757 1.89162,-0.5765 -0.99085,1.71147 1.62138,1.11695 -1.94566,0.28825 z m 2.6843,-8.34111 -1.17101,-0.84672 -1.17099,0.84672 0.45038,-1.36917 -1.15298,-0.84672 h 1.42321 l 0.45038,-1.36917 0.45039,1.36917 h 1.42322 l -1.15299,0.84672 z m 4.72003,-2.12581 -1.44123,-1.33314 -1.44123,1.33314 0.14412,-1.96368 -1.94567,-0.30626 1.62139,-1.11695 -0.97283,-1.71146 1.87361,0.57648 0.72061,-1.83756 0.72061,1.83756 1.89162,-0.57648 -0.97284,1.71146 1.62139,1.11695 -1.94566,0.30626 z" stroke-width="0.18015374"/>
	</g>
</svg>