<svg xmlns="http://www.w3.org/2000/svg" width="270" height="59.443" viewBox="0 0 270 59.443">
  <g id="Group_441" data-name="Group 441" transform="translate(-155.079 -109.707)">
    <path id="Path_17300" data-name="Path 17300" d="M259.132,148.911H266.9a6.043,6.043,0,0,1,4.377,1.483,3.845,3.845,0,0,1,1.149,2.846v.048a3.894,3.894,0,0,1-2.2,3.611c1.938.741,3.134,1.866,3.134,4.114v.047c0,3.061-2.487,4.592-6.267,4.592h-7.963Zm9.638,4.951c0-1.1-.861-1.722-2.415-1.722h-3.636v3.539h3.4c1.627,0,2.655-.527,2.655-1.77Zm-1.794,4.879h-4.257v3.683h4.376c1.626,0,2.607-.573,2.607-1.818v-.047c0-1.123-.836-1.818-2.725-1.818" transform="translate(-48.074 -18.112)" fill="#104c89"/>
    <path id="Path_17301" data-name="Path 17301" d="M302.885,148.689h3.4l7.175,16.861H309.6l-1.53-3.754h-7.08l-1.53,3.754h-3.756Zm3.875,9.853-2.226-5.429-2.224,5.429Z" transform="translate(-64.973 -18.01)" fill="#104c89"/>
    <path id="Path_17302" data-name="Path 17302" d="M340.605,148.911h7.772a6.046,6.046,0,0,1,4.378,1.483,3.844,3.844,0,0,1,1.148,2.846v.048a3.893,3.893,0,0,1-2.2,3.611c1.937.741,3.134,1.866,3.134,4.114v.047c0,3.061-2.488,4.592-6.268,4.592h-7.963Zm9.638,4.951c0-1.1-.861-1.722-2.415-1.722h-3.636v3.539h3.4c1.627,0,2.655-.527,2.655-1.77Zm-1.794,4.879h-4.257v3.683h4.376c1.626,0,2.607-.573,2.607-1.818v-.047c0-1.123-.836-1.818-2.725-1.818" transform="translate(-85.715 -18.112)" fill="#104c89"/>
    <path id="Path_17303" data-name="Path 17303" d="M378.918,148.91h12.628v3.276h-8.968v3.4h7.892v3.276h-7.892v3.516h9.088v3.276H378.918Z" transform="translate(-103.416 -18.112)" fill="#104c89"/>
    <path id="Path_17304" data-name="Path 17304" d="M414.921,148.91H418.6V162.3h8.347v3.348H414.921Z" transform="translate(-120.05 -18.112)" fill="#104c89"/>
    <path id="Path_17305" data-name="Path 17305" d="M449.947,163.008l1.171-1.387a7.972,7.972,0,0,0,5.74,2.368c2.248,0,3.732-1.2,3.732-2.846v-.048c0-1.554-.838-2.438-4.353-3.18-3.85-.837-5.621-2.081-5.621-4.831v-.049c0-2.63,2.321-4.567,5.5-4.567A8.732,8.732,0,0,1,462,150.523l-1.1,1.46a7.352,7.352,0,0,0-4.831-1.818c-2.176,0-3.564,1.195-3.564,2.7v.047c0,1.58.86,2.464,4.544,3.254,3.731.813,5.454,2.176,5.454,4.735v.047c0,2.871-2.391,4.735-5.717,4.735a9.793,9.793,0,0,1-6.839-2.678" transform="translate(-136.232 -17.907)" fill="#104c89"/>
    <path id="Path_17306" data-name="Path 17306" d="M490.95,150.657H485.33v-1.746h13.152v1.746h-5.62v15H490.95Z" transform="translate(-152.58 -18.112)" fill="#104c89"/>
    <path id="Path_17307" data-name="Path 17307" d="M522.576,148.911h7.2a6.6,6.6,0,0,1,4.759,1.674,4.628,4.628,0,0,1,1.291,3.3v.048c0,2.774-1.912,4.4-4.543,4.879l5.142,6.84H534.1l-4.855-6.505h-4.783v6.505h-1.89Zm7.032,8.538c2.511,0,4.306-1.291,4.306-3.444v-.048c0-2.056-1.579-3.3-4.283-3.3h-5.165v6.792Z" transform="translate(-169.787 -18.112)" fill="#104c89"/>
    <path id="Path_17308" data-name="Path 17308" d="M561.824,148.91h12.1v1.723H563.713v5.717h9.137v1.721h-9.137v5.86h10.332v1.722H561.824Z" transform="translate(-187.92 -18.112)" fill="#104c89"/>
    <path id="Path_17309" data-name="Path 17309" d="M596.94,148.91h12.1v1.723H598.829v5.717h9.136v1.721h-9.136v5.86H609.16v1.722H596.94Z" transform="translate(-204.144 -18.112)" fill="#104c89"/>
    <path id="Path_17310" data-name="Path 17310" d="M638.12,150.657H632.5v-1.746h13.152v1.746h-5.619v15H638.12Z" transform="translate(-220.573 -18.112)" fill="#104c89"/>
    <path id="Path_17311" data-name="Path 17311" d="M197.1,175.669l8.988-7.623h12.242V123.818h-21.18l-.968,4.709h17.409v34.778H200.022Z" transform="translate(-18.988 -6.519)" fill="#104c89"/>
    <path id="Path_17312" data-name="Path 17312" d="M175.354,109.707l-8.908,7.553H155.079v44.26h20.281l.968-4.734H159.833V122.008h12.623Z" transform="translate(0 0)" fill="#104c89"/>
    <path id="Path_17313" data-name="Path 17313" d="M174.123,162.159h19.419V142.693H178.851V137.95h19.438v28.959H169.368v-28.97h4.754Z" transform="translate(-6.602 -13.043)" fill="#2580bc"/>
    <rect id="Rectangle_663" data-name="Rectangle 663" width="9.966" height="9.967" transform="translate(172.257 134.4)" fill="#104c89"/>
  </g>
</svg>
