<svg width="63" height="58" viewBox="0 0 63 58" fill="none" xmlns="http://www.w3.org/2000/svg">
<path d="M59.0096 10.3374C58.7511 10.3359 58.5021 10.2407 58.3093 10.0697C58.1165 9.89872 57.9933 9.66374 57.9628 9.40892C57.9323 9.1541 57.9966 8.897 58.1436 8.68594C58.2906 8.47488 58.5103 8.32439 58.7612 8.26277L61.6602 7.57178C61.7973 7.53436 61.9405 7.52472 62.0814 7.54343C62.2223 7.56213 62.358 7.60881 62.4803 7.68066C62.6026 7.75252 62.7091 7.84808 62.7935 7.96167C62.8778 8.07525 62.9383 8.20453 62.9712 8.34179C63.0041 8.47904 63.0088 8.62148 62.9851 8.7606C62.9614 8.89972 62.9097 9.03267 62.8331 9.15154C62.7565 9.2704 62.6566 9.37275 62.5393 9.45247C62.4221 9.53219 62.2898 9.58766 62.1505 9.61557L59.2531 10.3066C59.172 10.3271 59.0885 10.3374 59.0047 10.3374" fill="#1942D8"/>
<path d="M55.9605 6.68125C55.7647 6.67957 55.5734 6.62337 55.4082 6.51905C55.2895 6.44707 55.1863 6.35258 55.1044 6.24099C55.0225 6.1294 54.9635 6.00288 54.9309 5.86867C54.8983 5.73446 54.8926 5.59518 54.9142 5.4588C54.9358 5.32241 54.9843 5.19159 55.0568 5.0738L56.2106 3.2052C56.2768 3.07563 56.3694 2.96111 56.4825 2.86886C56.5955 2.7766 56.7267 2.70862 56.8676 2.66921C57.0084 2.62979 57.156 2.6198 57.301 2.63985C57.446 2.65991 57.5852 2.70959 57.7098 2.78574C57.8345 2.86189 57.9419 2.96287 58.0253 3.08231C58.1086 3.20174 58.1661 3.33703 58.1942 3.47963C58.2222 3.62223 58.2201 3.76906 58.1881 3.91083C58.1561 4.05261 58.0948 4.18625 58.0081 4.30333L56.8642 6.17193C56.7698 6.32577 56.6371 6.45287 56.4788 6.54095C56.3205 6.62903 56.142 6.67512 55.9605 6.67477" fill="#1942D8"/>
<path d="M59.8433 16.1151C59.6476 16.113 59.4564 16.0569 59.291 15.9529L57.4101 14.8175C57.2788 14.7523 57.1627 14.6606 57.069 14.5485C56.9753 14.4363 56.9061 14.306 56.8658 14.1659C56.8256 14.0257 56.8151 13.8788 56.8351 13.7345C56.8551 13.5901 56.9051 13.4514 56.982 13.3273C57.0589 13.2032 57.1609 13.0962 57.2816 13.0133C57.4023 12.9304 57.5391 12.8733 57.6832 12.8456C57.8274 12.818 57.9757 12.8204 58.1189 12.8527C58.262 12.885 58.3968 12.9465 58.5148 13.0332L60.3973 14.1687C60.5937 14.2885 60.7453 14.4687 60.8291 14.6819C60.9129 14.8951 60.9244 15.1296 60.8617 15.3498C60.799 15.57 60.6657 15.7639 60.4819 15.902C60.2981 16.0402 60.0739 16.115 59.8433 16.1151Z" fill="#1942D8"/>
<path d="M6.67313 57.0136C6.71535 57.248 6.83938 57.4602 7.02344 57.6129C7.2075 57.7657 7.43985 57.8492 7.67977 57.8489H24.585L25.2746 55.3834C25.3356 55.1656 25.309 54.9328 25.2005 54.734C25.092 54.5352 24.91 54.386 24.6928 54.3177L18.4912 52.381L30.7244 45.4338C30.8031 45.3925 30.8901 45.3692 30.979 45.3658C31.068 45.3623 31.1565 45.3787 31.2382 45.4137C31.3199 45.4487 31.3927 45.5015 31.4511 45.5681C31.5095 45.6348 31.5522 45.7136 31.5758 45.7987L34.7036 57.1044C34.763 57.3176 34.8909 57.5056 35.0679 57.64C35.2449 57.7744 35.4612 57.8478 35.6841 57.8489H44.5084L45.2127 55.3299C45.2706 55.1218 45.2489 54.8998 45.1518 54.7066C45.0546 54.5134 44.8889 54.3628 44.6865 54.2837L41.5817 53.0752C41.1911 52.9238 40.8474 52.6733 40.5847 52.3489C40.3221 52.0244 40.1497 51.6373 40.0848 51.2261C39.7367 49.0055 39.4311 43.6673 40.9738 32.0113C41.7042 26.4655 43.6407 23.8897 46.5691 21.3057C48.0504 19.9641 49.7372 18.8647 51.5663 18.0486C51.6639 18.0033 51.7464 17.9314 51.8043 17.8412C51.8622 17.751 51.893 17.6463 51.8931 17.5393V16.3828C51.8933 16.2909 51.8752 16.1999 51.8399 16.115C51.8046 16.0301 51.7527 15.9529 51.6873 15.888C51.6218 15.823 51.5441 15.7715 51.4586 15.7365C51.373 15.7014 51.2813 15.6835 51.1888 15.6837L46.3305 15.9821C46.2614 15.9891 46.192 15.9732 46.1331 15.9369C46.0742 15.9005 46.029 15.8458 46.0048 15.7813C45.9805 15.7168 45.9784 15.6461 45.9989 15.5803C46.0194 15.5145 46.0613 15.4573 46.118 15.4177C48.6264 13.6918 50.7753 11.1273 52.2216 8.97812C52.3193 8.84606 52.3701 8.68551 52.3659 8.52169C52.3618 8.35787 52.303 8.20006 52.1987 8.07302L50.4256 5.90433C50.325 5.78263 50.1869 5.69694 50.0326 5.66033C49.8783 5.62372 49.7162 5.63821 49.571 5.70158C46.8648 6.82728 44.1571 7.1079 41.1813 7.1079C37.7022 7.1079 35.135 6.32769 32.6364 5.19388L34.4061 0.622932C34.4237 0.576951 34.4286 0.527135 34.4203 0.47865C34.412 0.430164 34.3907 0.384773 34.3588 0.347183L34.1823 0.128206C34.1259 0.0628802 34.0483 0.0192896 33.9628 0.00505707C33.8774 -0.00917551 33.7896 0.00685573 33.7149 0.0503473L27.1996 3.83946C26.4037 4.30207 25.7839 5.01252 25.4363 5.86054L23.1306 11.4793C22.8805 12.087 22.8431 12.7604 23.0243 13.3917L26.5459 21.708C26.6426 22.045 26.6181 22.4048 26.4768 22.7259C26.3355 23.047 26.0861 23.3093 25.7713 23.4679L8.35303 33.2002C7.96351 33.3968 7.63697 33.6973 7.41013 34.068L7.1127 34.5546C7.06618 34.6299 6.99748 34.689 6.9159 34.7241C6.83432 34.7592 6.74383 34.7686 6.65673 34.7508C6.56963 34.7331 6.49014 34.6892 6.42905 34.6251C6.36795 34.561 6.32821 34.4798 6.31524 34.3924L4.66804 24.3714C4.6341 24.1618 4.52788 23.9704 4.36754 23.8298C4.2072 23.6893 4.00269 23.6084 3.78893 23.6009C3.57516 23.5935 3.36541 23.6599 3.19551 23.7889C3.02562 23.9179 2.90612 24.1014 2.85741 24.3081L0.443783 34.5514C-0.488326 38.5093 0.0586677 42.6684 1.98314 46.2561L6.67313 57.0136Z" fill="#1942D8"/>
</svg>
