<?xml version="1.0" encoding="UTF-8" standalone="no"?>
<!DOCTYPE svg PUBLIC "-//W3C//DTD SVG 1.1//EN" "http://www.w3.org/Graphics/SVG/1.1/DTD/svg11.dtd">
<!-- Created with Inkscape (http://www.inkscape.org/) by Marsupilami -->
<svg
   xmlns:svg="http://www.w3.org/2000/svg"
   xmlns="http://www.w3.org/2000/svg"
   id="svg6804"
   version="1.1"
   width="361.99759"
   height="56.018448">
  <defs
     id="defs6801" />
  <path
     style="fill:#a39161;stroke-width:0.46643171"
     class="st0"
     d="m 346.6987,56.018448 c 3.2183,-1.306008 11.6141,-6.110255 15.2989,-7.183048 -3.6848,0 -1.8657,0.04664 -5.5505,0.04664 C 237.6003,49.535048 118.8001,50.561197 0,52.473567 c 115.5817,1.91237 231.1169,2.891877 346.6987,3.544881"
     id="path62170" />
  <path
     d="m 312.8824,1.02615 h 10.0282 v 17.864334 h 0.4665 L 346.6987,1.02615 h 13.5265 l -26.3534,19.496845 28.1258,22.668581 h -14.0862 l -24.441,-20.709568 h -0.5598 v 20.709568 h -10.0282 z m -20.2432,9.888352 C 288.488,7.64948 284.6632,6.76326 280.7919,6.76326 c -11.6142,0 -19.3103,6.669973 -19.3103,15.065744 0,9.002132 7.6961,15.672105 19.3103,15.672105 4.5243,0 8.9088,-1.539224 12.6403,-5.130748 l 8.2558,4.431101 c -5.0841,5.224035 -12.7336,7.50955 -20.9894,7.50955 -17.3513,0 -29.7584,-8.815559 -29.7584,-21.968933 C 250.9402,8.815559 263.3473,0 280.6986,0 c 7.6494,0 14.1795,1.865727 19.73,6.669973 z M 227.0589,1.02615 h 10.0283 v 42.165426 h -10.0283 z m -54.3859,0 h 19.5901 c 10.8212,0 20.9894,2.612017 20.9894,12.080581 0,6.063612 -4.7109,10.541357 -13.06,11.427577 l 14.9724,18.657268 H 203.0843 L 190.0242,25.327242 h -7.3229 V 43.191576 H 172.673 Z m 17.8177,17.864334 c 5.6438,0 12.2671,-0.373145 12.2671,-5.830396 0,-4.99082 -6.2035,-5.597181 -11.3809,-5.597181 h -8.6756 V 18.890484 Z M 118.0072,1.02615 h 19.5901 c 10.8212,0 20.9894,2.612017 20.9894,12.080581 0,6.063612 -4.7109,10.541357 -13.06,11.427577 l 14.9724,18.657268 H 148.4185 L 135.3584,25.327242 h -7.3229 v 17.864334 h -10.0283 z m 17.8177,17.864334 c 5.6438,0 12.2671,-0.373145 12.2671,-5.830396 0,-4.99082 -6.2035,-5.597181 -11.3809,-5.597181 h -8.6756 V 18.890484 Z M 74.2559,1.02615 h 8.6756 L 107.186,43.191576 H 95.7117 L 90.4411,33.53644 H 66 l -5.0374,9.655136 H 49.7682 Z M 86.9895,27.099682 78.3138,9.934995 69.4983,27.099682 Z M 0.0466,1.02615 h 21.9223 c 8.4891,0 17.258,2.938519 17.258,10.588 0,4.757603 -3.9647,7.929339 -9.7951,9.235347 v 0.13993 c 7.0898,0.606361 12.1739,4.757603 12.1739,10.168211 0,9.188705 -10.6813,12.033938 -21.316,12.033938 H 0.0466 Z m 10.0283,17.118044 h 9.142 c 6.67,0 10.0283,-2.145586 10.0283,-5.317322 0,-3.638167 -3.3583,-5.410608 -10.9145,-5.410608 h -8.2558 z m 0,18.610625 h 9.2353 c 5.1774,0 12.3138,-0.653005 12.3138,-6.203542 0,-4.431101 -3.8247,-5.970326 -11.9406,-5.970326 h -9.6085 z"
     style="fill:#005581;stroke-width:0.46643171"
     id="path62184" />
</svg>
