<svg viewBox="0 0 300 48" xmlns="http://www.w3.org/2000/svg" xmlns:xlink="http://www.w3.org/1999/xlink">
  <title>
    BH LOGO MASTER
  </title>
  <defs>
    <path id="a" d="M0 .716h45.748v46.222H0z"/>
    <path id="c" d="M0 47.284h299.127V.89H0z"/>
    <path id="e" d="M0 .889h45.748V47.11H0z"/>
  </defs>
  <g fill="none" fill-rule="evenodd">
    <path d="M295.77 12.041h-.5v1.13h.471c.426 0 .692-.178.692-.564 0-.373-.237-.566-.663-.566zm1.002 3.288l-1.134-1.637h-.368v1.578h-.65v-3.824h1.15c.795 0 1.325.401 1.325 1.115 0 .551-.294.908-.765 1.057l1.09 1.563-.648.148zm-.987-4.91c-1.59 0-2.857 1.101-2.857 3.065 0 1.95 1.267 3.05 2.857 3.05 1.605 0 2.871-1.1 2.871-3.05 0-1.964-1.28-3.065-2.87-3.065zm0 6.516c-1.974 0-3.343-1.383-3.343-3.451 0-2.053 1.4-3.467 3.343-3.467 1.974 0 3.342 1.4 3.342 3.467 0 2.053-1.398 3.451-3.342 3.451z" fill="#1C70C4"/>
    <path d="M209.751 38.857h-.347v.78h.327c.295 0 .478-.122.478-.39 0-.257-.163-.39-.458-.39zm.69 2.27l-.781-1.13h-.256v1.089h-.446v-2.64h.793c.548 0 .914.278.914.77 0 .38-.202.627-.529.73l.753 1.078-.447.102zm-.68-3.389c-1.097 0-1.972.76-1.972 2.116 0 1.344.875 2.104 1.973 2.104 1.107 0 1.982-.76 1.982-2.104 0-1.356-.885-2.116-1.982-2.116zm0 4.498c-1.362 0-2.307-.955-2.307-2.382 0-1.418.965-2.393 2.308-2.393 1.361 0 2.306.965 2.306 2.393 0 1.416-.966 2.382-2.306 2.382z" fill="#043769"/>
    <g transform="translate(0 .173)">
      <mask id="b" fill="#fff">
        <use xlink:href="#a"/>
      </mask>
      <path d="M24.51 38.047c-1.159 0-3.5-.116-6.695-.116-1.828 0-3.748.04-4.833.116v-.789c2.645-.115 3.159-.519 3.159-3.383V14.346c0-2.864-.514-3.267-3.159-3.383v-.787c1.085.076 3.044.115 4.757.115 2.454 0 4.946-.077 5.878-.077 5.46 0 8.219 2.556 8.219 6.19 0 2.787-1.56 5.496-5.917 6.842v.077c6.163.826 7.952 3.902 7.952 7.093 0 4.479-3.52 7.63-9.36 7.63zM0 46.937h45.748V.716H0v46.223z" fill="#043769" mask="url(#b)"/>
    </g>
    <path d="M28.107 17c0-3.864-1.56-5.864-5.46-5.864-2.378 0-2.892.673-2.892 3.384v8.216h2.625c4.585 0 5.727-2.315 5.727-5.736M23.028 24.284h-3.273v9.765c0 2.749.514 3.267 2.93 3.267 5.098 0 7.287-2.479 7.287-6.9 0-3.998-1.998-6.132-6.944-6.132" fill="#043769"/>
    <path d="M113.339 21.543h-2.254v7.181h2.341c2.896 0 4.564-1.182 4.564-3.546s-1.64-3.635-4.651-3.635m-.118-8.483h-2.136v6.206h1.932c2.662 0 4.095-1.182 4.095-3.19 0-1.863-1.141-3.016-3.89-3.016m0 18.029h-4.827V10.697h4.885c4.446 0 6.523 2.157 6.523 5.29 0 2.068-1.083 3.458-2.895 4.226 2.251.68 3.773 2.216 3.773 4.906 0 4.078-2.81 5.97-7.46 5.97M125.8 31.089V10.697h10.88v2.541h-8.131v5.91h6.318l.409 2.543h-6.727v6.857h8.424v2.541zM149.58 13.918l-3.217 8.6h6.464l-3.246-8.6zm6.552 17.378l-2.369-6.325h-8.337l-2.28 6.118h-2.78l7.899-20.481h2.749l7.78 20.097-2.662.59zM171.255 31.474c-5.674 0-9.33-4.256-9.33-10.552 0-6.324 3.714-10.61 9.388-10.61 2.4 0 4.184.621 5.735 1.685l-.411 2.837c-1.462-1.123-3.188-1.98-5.353-1.98-4.094 0-6.522 3.132-6.522 8.04 0 4.905 2.457 8.008 6.522 8.008 2.165 0 4.066-.857 5.675-2.04l.41 2.63c-1.55 1.153-3.803 1.982-6.114 1.982M190.531 12.854c-4.007 0-6.464 3.132-6.464 8.039 0 4.906 2.487 8.039 6.464 8.039 4.008 0 6.465-3.133 6.465-8.04 0-4.906-2.487-8.038-6.465-8.038m-.029 18.62c-5.674 0-9.272-4.257-9.272-10.552 0-6.324 3.656-10.61 9.33-10.61 5.705 0 9.274 4.256 9.274 10.551 0 6.296-3.628 10.61-9.332 10.61M218.964 31.089l-11.087-15.87v15.87h-2.544V10.697h2.457l10.706 15.28v-15.28h2.544v20.392zM248.213 31.089v-9.398h-10.209v9.398h-2.749V10.697h2.75v8.452h10.208v-8.452h2.75v20.392z" fill="#1C70C4"/>
    <mask id="d" fill="#fff">
      <use xlink:href="#c"/>
    </mask>
    <path fill="#1C70C4" mask="url(#d)" d="M257.456 31.089h2.75V10.697h-2.75zM266.7 31.089V10.697h2.749v17.85h7.283l.381 2.542zM281.85 31.089V10.697h2.75v17.85h7.283l.381 2.542z"/>
    <path fill="#043769" mask="url(#d)" d="M108.4 45.334v-7.356h3.798v.66h-3.07v2.517h2.427l.106.66h-2.532v2.857h3.175v.662zM120.19 45.334v-3.476c0-.65-.265-1.044-.908-1.044-.517 0-1.034.319-1.582.863v3.657h-.687v-3.476c0-.65-.264-1.044-.908-1.044-.516 0-1.044.319-1.582.852v3.668h-.696V40.29h.537l.117.725c.538-.48 1.097-.832 1.762-.832.77 0 1.192.32 1.371.874.55-.5 1.129-.874 1.816-.874.992 0 1.455.576 1.455 1.536v3.614h-.696zM124.931 40.814c-.59 0-1.044.352-1.498.906v2.782c.39.192.76.298 1.276.298.898 0 1.594-.693 1.594-2.1 0-1.226-.581-1.886-1.372-1.886m-.2 4.583c-.497 0-.94-.095-1.298-.245v2.015l-.697.117v-6.993h.538l.117.725c.39-.448.886-.832 1.614-.832 1.086 0 2.004.8 2.004 2.484 0 1.844-1.065 2.729-2.279 2.729M128.68 45.334v-7.527l.686-.127v7.654zM133.27 40.782c-.99 0-1.528.841-1.528 2.035 0 1.163.548 2.026 1.529 2.026 1.013 0 1.552-.831 1.552-2.026 0-1.162-.548-2.035-1.552-2.035m0 4.658c-1.277 0-2.237-.96-2.237-2.623 0-1.674.981-2.633 2.237-2.633 1.298 0 2.269.96 2.269 2.633 0 1.663-.993 2.623-2.27 2.623M138.804 45.962c-.36.982-.803 1.29-1.54 1.29-.106 0-.201-.02-.275-.031l-.095-.619c.105.022.253.043.411.043.412 0 .655-.181.844-.671l.232-.608-1.889-5.012.676-.127 1.551 4.296 1.477-4.232h.717l-2.11 5.671zM142.383 45.334h.686v-5.043h-.686v5.043zm.348-6.248a.516.516 0 0 1-.506-.512c0-.276.232-.511.506-.511.275 0 .497.235.497.511a.507.507 0 0 1-.497.512zM148.272 45.334v-3.476c0-.65-.295-1.044-.929-1.044-.527 0-1.065.33-1.614.874v3.646h-.697V40.29h.54l.115.746c.549-.49 1.119-.853 1.794-.853.992 0 1.488.576 1.488 1.546v3.604h-.697zM152.443 40.707c-.707 0-1.16.522-1.16 1.215 0 .65.453 1.173 1.18 1.173.73 0 1.183-.512 1.183-1.194 0-.672-.486-1.194-1.203-1.194zm-1.508 5.192c0 .522.653.82 1.636.82 1.012 0 1.666-.394 1.666-.895 0-.395-.316-.608-1.202-.778l-.486-.086c-.253-.052-.421-.085-.6-.127-.688.32-1.014.66-1.014 1.066zm4.02-5.693l.115.693-1 .107c.167.255.261.553.261.895 0 1.066-.875 1.715-1.867 1.715-.148 0-.295-.01-.432-.041-.21.116-.328.245-.328.362 0 .202.202.277 1.12.448l.369.075c1.108.202 1.71.532 1.71 1.278 0 .97-1.088 1.514-2.375 1.514s-2.279-.437-2.279-1.31c0-.513.39-.95 1.14-1.344-.254-.15-.37-.33-.37-.522 0-.267.18-.47.495-.672a1.636 1.636 0 0 1-.917-1.503c0-1.066.875-1.717 1.846-1.717.496 0 .929.15 1.266.427l1.245-.405zM160.573 45.419c-.782 0-1.299-.31-1.299-1.237v-3.295h-.77v-.596h.77v-1.748l.687-.117v1.865h1.15l.094.596h-1.244v3.178c0 .512.2.736.738.736.159 0 .348-.032.465-.054l.105.587c-.148.042-.4.085-.696.085M166.019 45.334v-3.476c0-.65-.296-1.044-.93-1.044-.526 0-1.065.33-1.614.874v3.646h-.696v-7.527l.696-.127v3.326c.518-.46 1.077-.822 1.753-.822.991 0 1.488.576 1.488 1.536v3.614h-.697zM170.412 40.75c-.782 0-1.288.585-1.425 1.556h2.722c-.074-.907-.496-1.556-1.297-1.556zm2.014 2.11h-3.471c.02 1.237.59 1.973 1.593 1.973.665 0 1.245-.299 1.762-.747l.106.64a2.889 2.889 0 0 1-1.91.714c-1.308 0-2.247-.895-2.247-2.634 0-1.62.928-2.622 2.153-2.622 1.36 0 2.014 1.13 2.014 2.527v.15zM177.549 38.638v2.634h2.341l.106.66h-2.447v3.402h-.728v-7.356h3.65v.66zM184.936 45.334l-.115-.747c-.549.49-1.118.853-1.794.853-1.003 0-1.487-.586-1.487-1.545V40.29h.695v3.475c0 .651.296 1.034.93 1.034.527 0 1.065-.32 1.613-.863v-3.646h.697v5.043h-.539zM188.907 45.419c-.78 0-1.297-.31-1.297-1.237v-3.295h-.771v-.596h.77v-1.748l.687-.117v1.865h1.149l.096.596h-1.245v3.178c0 .512.2.736.739.736.157 0 .347-.032.463-.054l.106.587a2.673 2.673 0 0 1-.697.085M194.47 45.334l-.116-.747c-.549.49-1.118.853-1.794.853-1.003 0-1.487-.586-1.487-1.545V40.29h.696v3.475c0 .651.295 1.034.929 1.034.527 0 1.065-.32 1.613-.863v-3.646h.697v5.043h-.539zM197.597 42.167v3.167h-.697v-5.042h.517l.159 1.033c.37-.565.949-1.12 1.771-1.14l.117.66c-.823.054-1.53.651-1.867 1.322M202.453 40.75c-.783 0-1.288.585-1.425 1.556h2.722c-.074-.907-.496-1.556-1.297-1.556zm2.014 2.11h-3.471c.02 1.237.59 1.973 1.593 1.973.665 0 1.245-.299 1.762-.747l.106.64a2.889 2.889 0 0 1-1.91.714c-1.308 0-2.247-.895-2.247-2.634 0-1.62.928-2.622 2.153-2.622 1.36 0 2.014 1.13 2.014 2.527v.15z"/>
    <path d="M84.238 11.226c-2.627.115-3.137.516-3.137 3.36v19.397c0 2.844.51 3.245 3.137 3.359v.783c-1.078-.076-2.93-.115-4.95-.115-1.777 0-3.704.04-4.914.115v-.783c2.627-.114 3.137-.515 3.137-3.36v-9.698H64.928v9.699c0 2.844.509 3.245 3.135 3.359v.783c-1.19-.076-3.135-.115-4.912-.115-2.003 0-3.873.04-4.951.115v-.783c2.628-.114 3.137-.515 3.137-3.36V14.587c0-2.844-.51-3.245-3.137-3.36v-.782c1.078.076 2.948.115 4.951.115 1.777 0 3.723-.039 4.912-.115v.782c-2.626.115-3.135.516-3.135 3.36v8.15H77.51v-8.15c0-2.844-.51-3.245-3.137-3.36v-.782c1.21.076 3.137.115 4.913.115 2.022 0 3.873-.039 4.95-.115v.782zm-35.85 35.885h45.747V.89H48.387v46.222z" fill="#1C70C4" mask="url(#d)"/>
    <mask id="f" fill="#fff">
      <use xlink:href="#e"/>
    </mask>
    <path d="M24.51 38.22c-1.159 0-3.5-.116-6.695-.116-1.828 0-3.748.04-4.833.116v-.788c2.645-.116 3.159-.52 3.159-3.384V14.52c0-2.864-.514-3.268-3.159-3.384v-.787c1.085.076 3.044.115 4.757.115 2.454 0 4.946-.077 5.878-.077 5.46 0 8.219 2.557 8.219 6.19 0 2.787-1.56 5.496-5.917 6.842v.077c6.163.826 7.952 3.902 7.952 7.093 0 4.479-3.52 7.631-9.36 7.631zM0 47.11h45.748V.889H0v46.223z" fill="#043769" mask="url(#f)"/>
    <path d="M28.107 17c0-3.864-1.56-5.864-5.46-5.864-2.378 0-2.892.673-2.892 3.384v8.216h2.625c4.585 0 5.727-2.315 5.727-5.736M23.028 24.284h-3.273v9.765c0 2.749.514 3.267 2.93 3.267 5.098 0 7.287-2.479 7.287-6.9 0-3.998-1.998-6.132-6.944-6.132" fill="#043769" mask="url(#f)"/>
    <path d="M84.238 11.226c-2.627.115-3.137.516-3.137 3.36v19.397c0 2.844.51 3.245 3.137 3.359v.783c-1.078-.076-2.93-.115-4.95-.115-1.777 0-3.704.04-4.914.115v-.783c2.627-.114 3.137-.515 3.137-3.36v-9.698H64.928v9.699c0 2.844.509 3.245 3.135 3.359v.783c-1.19-.076-3.135-.115-4.912-.115-2.003 0-3.873.04-4.951.115v-.783c2.628-.114 3.137-.515 3.137-3.36V14.587c0-2.844-.51-3.245-3.137-3.36v-.782c1.078.076 2.948.115 4.951.115 1.777 0 3.723-.039 4.912-.115v.782c-2.626.115-3.135.516-3.135 3.36v8.15H77.51v-8.15c0-2.844-.51-3.245-3.137-3.36v-.782c1.21.076 3.137.115 4.913.115 2.022 0 3.873-.039 4.95-.115v.782zm-35.85 35.885h45.747V.89H48.387v46.222z" fill="#1C70C4" mask="url(#f)"/>
  </g>
</svg>