<?xml version="1.0" encoding="UTF-8"?>
<svg width="109px" height="35px" viewBox="0 0 109 35" version="1.1" xmlns="http://www.w3.org/2000/svg" xmlns:xlink="http://www.w3.org/1999/xlink" class="logo">
    <!-- Generator: Sketch 61 (89581) - https://sketch.com -->
    <title>Shape</title>
    <desc>Created with Sketch.</desc>
    <g id="Desktop" stroke="none" stroke-width="1" fill="none" fill-rule="evenodd">
        <g id="home02" transform="translate(-135.000000, -28.000000)" fill="#000000" fill-rule="nonzero">
            <g id="head">
                <g id="besocial_logo" transform="translate(135.000000, 28.000000)">
                    <path d="M6.98405556,0.0136111111 C6.39838889,0.056 5.06138889,0.224388889 3.68238889,0.938777778 C1.88455556,1.82194444 0.00283931932,3.75627778 0.00283931932,7.33094444 L0.00283931932,27.3466667 C0.00283931932,27.3466667 -0.0377222222,29.1546111 0.881611111,31.0049444 C1.80094444,32.8128889 3.72361111,34.7067778 7.27727778,34.7067778 L31.1472778,34.7067778 C31.1472778,34.7067778 32.9439444,34.7067778 34.783,33.7804444 C36.5808333,32.8552778 38.4622778,30.9217222 38.4622778,27.3466667 L38.4622778,7.33094444 C38.4622778,7.33094444 38.4622778,5.52144444 37.5445,3.71544444 C36.6251667,1.86511111 34.7001667,0.0136111111 31.1472778,0.0136111111 L7.27727778,0.0136111111 L6.98405556,0.0136111111 L6.98405556,0.0136111111 Z M7.27688889,1.06438889 L31.1468889,1.06438889 C34.3649444,1.06438889 35.8279444,2.62072222 36.6247778,4.17472222 C37.3749444,5.77422222 37.3749444,7.33055556 37.3749444,7.33055556 L37.3749444,27.3462778 C37.3749444,30.5841667 35.8711111,32.0561111 34.2828889,32.8548889 C32.7362778,33.6536667 31.1468889,33.6124444 31.1468889,33.6124444 L7.27688889,33.6124444 C4.05961111,33.6124444 2.63705556,32.0992778 1.84294444,30.4997778 C1.04844444,28.9434444 1.09161111,27.3462778 1.09161111,27.3462778 L1.09161111,7.33055556 C1.09161111,4.13466667 2.55227778,2.66272222 4.14205556,1.86472222 C5.68827778,1.10677778 7.27688889,1.06438889 7.27688889,1.06438889 L7.27688889,1.06438889 Z M107.856,5.98422222 L107.436778,6.06861111 C107.185944,6.11177778 106.600667,6.19577778 106.055833,6.27822222 L105.137667,6.40577778 L105.222056,15.6570556 L105.347278,24.8223889 L106.682722,24.8223889 L108.066,24.8223889 L107.938444,15.4038889 L107.856,5.98422222 Z M85.9922778,6.32022222 L84.6548889,6.36338889 L84.6548889,8.13011111 L84.6957222,9.89605556 L86.0354444,9.89605556 L87.3728333,9.85172222 L87.3728333,8.13011111 L87.3296667,6.32022222 L85.9922778,6.32022222 Z M10.7889444,7.70855556 L7.65411111,8.17055556 L7.65411111,25.4131111 C9.19955556,25.7491111 11.2066111,25.8766667 12.4619444,25.8766667 C17.2277778,25.8766667 18.1471111,23.8556111 18.1471111,20.8281111 L18.1471111,17.2122222 C18.1471111,14.5627222 17.0586111,12.9647778 14.4250556,12.9647778 C13.0868889,12.9647778 11.6674444,13.3427778 10.7889444,13.7242778 L10.7889444,7.70855556 L10.7889444,7.70855556 Z M77.9644444,11.4512222 C77.6727778,11.4512222 77.4219444,11.4512222 77.2146667,11.4932222 C75.3324444,11.6612222 74.2867222,12.0388333 73.5346111,12.8811667 C72.5320556,13.93 72.4068333,14.7723333 72.5320556,18.8945556 C72.5728889,21.5833333 72.6164444,22.0888889 72.8237222,22.5940556 C73.4093889,24.1083889 74.4963333,24.864 76.5014444,25.1175556 C77.4219444,25.2451111 79.5958333,25.1583889 80.5983889,24.9503333 C81.0152778,24.8636111 81.3936667,24.7391667 81.3936667,24.7391667 C81.4368333,24.6971667 81.2248889,22.8888333 81.1428333,22.6776667 C81.102,22.5936667 80.8488333,22.5936667 80.1379444,22.7208333 C79.5546111,22.8464444 78.7593333,22.8888333 77.9255556,22.8888333 C76.3762222,22.8468333 75.9157778,22.7208333 75.5420556,22.0045 C75.2912222,21.5833333 75.2912222,21.4165 75.2072222,18.8513889 C75.1251667,15.7815 75.1663889,15.1087222 75.4988889,14.6047222 C75.9593333,13.9303889 76.4606111,13.8063333 78.2992778,13.8063333 C79.2197778,13.8063333 80.1815,13.8471667 80.4319444,13.8907222 C80.7236111,13.9747222 81.0152778,13.9747222 81.0584444,13.9303889 C81.1016111,13.8907222 81.1428333,13.426 81.1836667,12.8815556 L81.2245,11.8727778 L80.7232222,11.7452222 C80.0562778,11.578 78.8876667,11.4512222 77.9644444,11.4512222 L77.9644444,11.4512222 Z M96.6085556,11.4936111 C94.6855,11.4516111 91.5934444,11.9143889 91.6366111,12.2503889 C91.6366111,13.0052222 91.8874444,14.1427222 91.9714444,14.1427222 C92.0535,14.1427222 92.68,14.0602778 93.3500556,13.9747222 C94.8951111,13.7631667 96.9025556,13.6795556 97.5722222,13.8475556 C98.4495556,14.0991667 98.6568333,14.6895 98.7023333,16.3290556 L98.7412222,17.4657778 L96.4444444,17.5493889 C93.9357222,17.6337778 93.3500556,17.7586111 92.4727222,18.3477778 C92.0535,18.5993889 91.8462222,18.8949444 91.5930556,19.3985556 C91.2605556,20.0297222 91.2605556,20.1129444 91.3013889,21.3332778 C91.3013889,22.3016111 91.3422222,22.7628333 91.5086667,23.2267778 C91.9278889,24.3203333 92.8460556,25.0335556 93.9742222,25.2023333 C95.1478889,25.4131111 97.3194444,25.0335556 98.5339444,24.4879444 C98.9943889,24.2347778 99.1196111,24.2779444 99.1604444,24.6975556 C99.1604444,24.8643889 99.288,24.9075556 100.331778,24.8643889 L101.500778,24.8643889 L101.459944,20.0297222 C101.419111,17.2530556 101.334722,14.9422778 101.291167,14.6051111 C100.917444,12.7547778 99.7052778,11.7876111 97.2786111,11.5356111 C97.0709444,11.4936111 96.8613333,11.4936111 96.6085556,11.4936111 L96.6085556,11.4936111 Z M64.3817222,11.578 C64.0468889,11.578 63.6685,11.578 63.336,11.62 C60.9937222,11.914 59.4895,13.0052222 58.9042222,14.7723333 C58.6969444,15.4455 58.6533889,15.8678333 58.6102222,18.0541667 C58.6102222,19.4397778 58.6533889,20.8716667 58.7354444,21.2481111 C59.1138333,23.4787778 60.4943889,24.8216111 62.7503333,25.2015556 C63.7120556,25.3691667 65.4278333,25.3267778 66.3028333,25.1171667 C68.1438333,24.57 69.3540556,23.352 69.7320556,21.5829444 C69.8141111,21.2076667 69.8141111,19.9033333 69.7752222,18.0541667 C69.6885,15.2775 69.6885,15.0659444 69.4380556,14.4347778 C68.6859444,12.7123889 66.6785,11.578 64.3817222,11.578 L64.3817222,11.578 Z M86.0354444,11.6203889 L84.6957222,11.6612222 L84.7801111,18.2213889 L84.8232778,24.8223889 L86.1995556,24.8223889 L87.5369444,24.8223889 L87.4980556,18.2213889 L87.3728333,11.62 L86.0354444,11.62 L86.0354444,11.6203889 Z M50.8779444,11.7036111 C49.2057222,11.7876111 47.9523333,12.2083889 47.3231111,12.9647778 C46.8222222,13.5551111 46.6149444,14.3122778 46.6553889,15.6570556 C46.6553889,18.2622222 47.1982778,18.8105556 50.4587222,19.6513333 C52.4249444,20.1549444 52.7586111,20.3237222 52.9250556,20.7032778 C53.0930556,21.2088333 52.9670556,22.5944444 52.7177778,22.8476111 C52.2157222,23.3107778 50.3774444,23.3951667 48.1603889,22.9736111 C47.5331111,22.8896111 47.0314444,22.8063889 46.9890556,22.8063889 C46.9062222,22.8063889 46.8218333,23.1423889 46.7393889,23.5627778 C46.6962222,24.0247778 46.6145556,24.4879444 46.571,24.5707778 C46.5301667,24.7399444 46.655,24.8223889 47.2410556,24.9915556 C47.866,25.1591667 48.4940556,25.2867222 49.9566667,25.4551111 C50.1666667,25.4959444 50.8351667,25.4551111 51.5472222,25.4551111 C53.3030556,25.3695556 54.1792222,25.0755556 54.8492778,24.3603889 C55.5582222,23.6467778 55.6838333,23.1423889 55.6838333,21.3332778 C55.643,20.0721111 55.6017778,19.8189444 55.3921667,19.4409444 C54.9317222,18.5589444 54.2616667,18.2217778 52.0057222,17.6341667 C49.9990556,17.1301667 49.6642222,16.961 49.497,16.6246111 C49.3305556,16.2874444 49.2897222,14.8983333 49.4565556,14.5215 C49.497,14.3535 49.7062222,14.2286667 49.9566667,14.1431111 C50.5015,13.9307778 52.591,13.9307778 53.9696111,14.1431111 C54.5965,14.2286667 55.1417222,14.2679444 55.1417222,14.2286667 C55.1821667,14.2286667 55.1821667,13.7639444 55.1821667,13.1747778 L55.2253333,12.1671667 L54.5965,11.9976111 C54.2612778,11.9143889 53.3839444,11.8307778 52.6738333,11.7876111 C52.0477222,11.7452222 51.4227778,11.7036111 50.8779444,11.7036111 L50.8779444,11.7036111 Z M25.8377778,12.9647778 C21.9072778,12.9647778 20.7371111,15.1507222 20.7371111,17.8029444 L20.7371111,21.0388889 C20.7371111,24.0247778 22.0764444,25.8762778 25.9637778,25.8762778 C27.4267778,25.8762778 29.0974444,25.5799444 30.4776111,25.0751667 L29.9755556,22.7208333 C28.6385556,23.1416111 27.3859444,23.31 26.2142222,23.31 C24.3327778,23.31 23.8307222,22.7620556 23.8307222,21.2481111 L23.8307222,20.6169444 L30.6876112,20.6169444 L30.6876112,17.9258333 C30.688,15.2782778 29.8098889,12.9647778 25.8377778,12.9647778 L25.8377778,12.9647778 Z M63.9212778,13.8911111 L64.5069444,13.8911111 C65.5938889,13.9307778 66.1772222,14.1839444 66.6376667,14.8567222 C67.0137222,15.4878889 67.0957778,15.8238889 67.0568889,18.8105556 C67.0568889,21.3764444 67.0568889,21.4168889 66.7628889,21.9208889 C66.5941111,22.2172222 66.2616111,22.5100556 65.9676111,22.6780556 C65.5507222,22.9300556 65.2998889,22.9732222 64.4225556,23.0152222 C62.7911667,23.0988333 62.0390556,22.7212222 61.6198333,21.6688889 C61.4533889,21.2080556 61.4125556,20.7448889 61.3713333,18.431 C61.3713333,15.7398889 61.3713333,15.6990556 61.663,15.1503333 C62.0802778,14.3122778 62.7499444,13.9303889 63.9212778,13.8911111 L63.9212778,13.8911111 Z M25.8797778,15.4878889 C27.4263889,15.4878889 27.7180556,16.3290556 27.7180556,17.5050556 L27.7180556,18.0961667 L23.8307222,18.0961667 L23.8307222,17.5050556 C23.8307222,16.3290556 24.3759444,15.4878889 25.8797778,15.4878889 L25.8797778,15.4878889 Z M13.4652778,15.6135 C14.5918889,15.6135 15.0531111,16.1190556 15.0531111,17.1293889 L15.0531111,20.9545 C15.0531111,22.3852222 14.6342778,23.2263889 12.6276111,23.2263889 C11.9595,23.2263889 11.3314444,23.2263889 10.7893333,23.142 L10.7893333,16.3286667 C11.5426111,15.9510556 12.5867778,15.6135 13.4652778,15.6135 L13.4652778,15.6135 Z M98.7847778,19.7357222 L98.7847778,20.8724444 L98.7847778,22.0048889 L98.2835,22.3016111 C98.0307222,22.4264444 97.5726111,22.5944444 97.2354444,22.7216111 C96.4856667,22.9732222 95.2303333,23.1423889 94.7698889,22.9732222 C94.1865556,22.806 94.059,22.5100556 93.9746111,21.6280556 C93.8948889,20.6173333 94.1433889,20.1129444 94.7286667,19.9037222 C94.9382778,19.8185556 95.8179444,19.7765556 96.9457222,19.7765556 L98.7847778,19.7357222 Z" id="Shape"></path>
                </g>
            </g>
        </g>
    </g>
</svg>
