
<svg width="85px" height="26px" viewBox="0 0 85 26" version="1.1" xmlns="http://www.w3.org/2000/svg" xmlns:xlink="http://www.w3.org/1999/xlink">
    <path d="M77.3228723,14.4327273 L72.5212766,14.4327273 L72.5212766,25.7181818 L74.9067021,25.7181818 L74.9067021,16.6709091 L75.3714894,16.6709091 L77.2939362,25.7181818 L80.0157447,25.7181818 L81.9852128,16.6709091 L82.4680851,16.6709091 L82.4680851,25.7181818 L84.8697872,25.7181818 L84.8697872,14.4327273 L80.0284043,14.4327273 L78.6503191,21.4545455 L77.3228723,14.4327273 Z M28.7806383,14.4327273 L20.5012766,14.4327273 L20.5012766,25.7181818 L28.7806383,25.7181818 L28.7806383,23.5127273 L22.8867021,23.5127273 L22.8867021,21.0490909 L28.5075532,21.0490909 L28.5075532,18.8672727 L22.8867021,18.8672727 L22.8867021,16.6381818 L28.7788298,16.6381818 L28.7806383,14.4327273 Z M7.735,14.4327273 L0,14.4327273 L0,25.7181818 L2.38542553,25.7181818 L2.38542553,21.2727273 L7.36606383,21.2727273 L7.36606383,19.0909091 L2.38542553,19.0909091 L2.38542553,16.6381818 L7.735,16.6381818 L7.735,14.4327273 Z M6.78914894,8.13454545 C6.78914894,9.08363636 6.10010638,9.43818182 4.77085106,9.43818182 L2.38542553,9.43818182 L2.38542553,6.89272727 L4.83595745,6.89272727 C6.13265957,6.89272727 6.78914894,7.31090909 6.78914894,8.13272727 L6.78914894,8.13454545 Z M6.5106383,3.72363636 C6.5106383,4.49636364 5.88670213,4.88363636 4.65329787,4.88363636 L2.38542553,4.88363636 L2.38542553,2.56363636 L4.5556383,2.56363636 C5.94819149,2.56363636 6.50882979,2.86909091 6.50882979,3.72181818 L6.5106383,3.72363636 Z M7.75851064,5.76727273 C8.49032126,5.23977006 8.92081488,4.38706752 8.91234043,3.48181818 C8.91957447,1.46909091 7.39861702,0.363636364 5.04393617,0.363636364 L0,0.363636364 L0,11.6363636 L5.31702128,11.6363636 C6.48531915,11.6363636 7.41489362,11.3309091 8.11840426,10.7272727 C8.82519983,10.1373648 9.22107326,9.25212142 9.19085106,8.32909091 C9.19085106,7.28181818 8.70978723,6.42909091 7.76574468,5.75272727 L7.75851064,5.76727273 Z M11.1603191,11.6363636 L16.7341489,11.6363636 L16.7341489,9.45454545 L15.1155319,9.45454545 L15.1155319,2.54545455 L16.7323404,2.54545455 L16.7323404,0.363636364 L11.1603191,0.363636364 L11.1603191,2.54545455 L12.7608511,2.54545455 L12.7608511,9.45454545 L11.1603191,9.45454545 L11.1603191,11.6363636 Z M11.1603191,11.6363636 L16.7341489,11.6363636 L16.7341489,9.45454545 L15.1155319,9.45454545 L15.1155319,2.54545455 L16.7323404,2.54545455 L16.7323404,0.363636364 L11.1603191,0.363636364 L11.1603191,2.54545455 L12.7608511,2.54545455 L12.7608511,9.45454545 L11.1603191,9.45454545 L11.1603191,11.6363636 Z M16.1879787,18.0309091 C16.1879787,19.0454545 15.5640426,19.4963636 14.198617,19.4963636 L12.0103191,19.4963636 L12.0103191,16.6381818 L14.2040426,16.6381818 C15.47,16.6381818 16.1934043,17.1218182 16.1934043,18.0381818 L16.1879787,18.0309091 Z M18.5625532,17.9418182 C18.5625532,16.8309091 18.1628723,15.9781818 17.3617021,15.3654545 C16.5605319,14.7527273 15.5043617,14.4309091 14.1751064,14.4309091 L9.62308511,14.4309091 L9.62308511,25.7163636 L12.0103191,25.7163636 L12.0103191,21.6927273 L13.26,21.6927273 C14.4934043,21.6927273 15.1969149,22.1109091 15.47,22.6745455 C15.6489999,23.0658477 15.7830909,23.4763717 15.8696809,23.8981818 L16.3019149,25.7163636 L18.8338298,25.7163636 L18.2098936,23.3654545 C17.9042553,22.2090909 17.5425532,21.5636364 16.5406383,20.9363636 C17.7508286,20.4366155 18.5458439,19.2570524 18.5589362,17.9418182 L18.5625532,17.9418182 Z M24.0206383,2.56363636 L27.2397872,2.56363636 L27.2397872,0.363636364 L18.4323404,0.363636364 L18.4323404,2.56363636 L21.6514894,2.56363636 L21.6514894,11.6363636 L24.0206383,11.6363636 L24.0206383,2.56363636 Z M31.0340426,3.47272727 C31.0340426,2.81272727 31.6742553,2.36181818 32.6834043,2.36181818 C33.7395745,2.36181818 34.6854255,2.79636364 35.533617,3.66545455 L37.1341489,1.97454545 C35.9893617,0.778181818 34.5570213,0.181818182 32.81,0.181818182 C31.756585,0.152726201 30.7242503,0.482021006 29.8802128,1.11636364 C29.084621,1.68391535 28.6270355,2.61628428 28.6630851,3.59636364 C28.6630851,5.46363636 30.008617,6.60727273 32.2023404,6.97636364 L33.5804255,7.21818182 C34.6221277,7.41090909 35.1502128,7.81454545 35.1502128,8.40909091 C35.1502128,9.11818182 34.4141489,9.63272727 33.1970213,9.63272727 C31.9147872,9.63636364 30.8568085,9.09090909 30.0212766,8 L28.393617,9.65818182 C29.5402834,11.050261 31.2529014,11.8446184 33.0505319,11.8181818 C34.3960638,11.8181818 35.4685106,11.4963636 36.2859574,10.8690909 C37.0792143,10.2913178 37.5401298,9.35912162 37.5193617,8.37454545 C37.5193617,6.42727273 36.2534043,5.25090909 33.7395745,4.84909091 L32.6345745,4.66727273 C31.5621277,4.47454545 31.0340426,4.07090909 31.0340426,3.47636364 L31.0340426,3.47272727 Z M31.0756383,25.7127273 L44.8384043,25.7127273 L44.8384043,23.5127273 L33.4574468,23.5127273 L33.4574468,21.0490909 L44.5617021,21.0490909 L44.5617021,18.8672727 L33.4574468,18.8672727 L33.4574468,16.6381818 L44.8347872,16.6381818 L44.8347872,14.4327273 L31.0720213,14.4327273 L31.0756383,25.7127273 Z M54.9787234,20 C54.9787234,22.3345455 53.5861702,23.5090909 50.7829787,23.5090909 L49.8226596,23.5090909 L49.8226596,16.6381818 L50.7667021,16.6381818 C53.5680851,16.6381818 54.9787234,17.7654545 54.9787234,20.0036364 L54.9787234,20 Z M57.3967021,20.0036364 C57.3967021,18.0563636 56.6118085,16.5109091 55.3784043,15.6727273 C54.145,14.8345455 52.7361702,14.4327273 51.1356383,14.4327273 L47.4408511,14.4327273 L47.4408511,25.7181818 L51.1392553,25.7181818 C52.6587687,25.7361634 54.1465571,25.2807711 55.3982979,24.4145455 C56.6154255,23.5290909 57.4003191,21.9836364 57.4003191,20.0036364 L57.3967021,20.0036364 Z M62.3809574,17.54 C63.0048936,16.8472727 63.827766,16.5090909 64.847766,16.5090909 C65.7579261,16.4858706 66.6315143,16.8694018 67.2331915,17.5563636 C67.8582714,18.2398162 68.1976289,19.1389744 68.1808511,20.0672727 C68.2109641,21.0002695 67.8877908,21.9099939 67.2765957,22.6127273 C66.6834043,23.3054545 65.867766,23.6436364 64.858617,23.6436364 C63.8169149,23.6436364 63.0012766,23.3054545 62.3918085,22.6127273 C61.7806135,21.9099939 61.4574401,21.0002695 61.4875532,20.0672727 C61.4607862,19.1402868 61.7838247,18.2374373 62.3918085,17.54 L62.3809574,17.54 Z M64.7935106,14.2563636 C63.2581144,14.2182002 61.7749746,14.8180488 60.693617,15.9145455 C59.588617,17.0054545 59.0279787,18.3945455 59.0279787,20.0672727 C59.0279787,21.74 59.588617,23.1418182 60.693617,24.2490909 C61.7818363,25.3326845 63.2623348,25.9235861 64.7935106,25.8854545 C66.3337389,25.9234129 67.8236993,25.3331611 68.9241489,24.2490909 C70.0454255,23.1381818 70.6060638,21.7545455 70.6060638,20.0672727 C70.6060638,18.38 70.0454255,17.0090909 68.9241489,15.9145455 C67.8305751,14.8174621 66.337949,14.2182701 64.7935106,14.2563636 L64.7935106,14.2563636 Z M72.8232979,6 C72.8534109,6.93299679 72.5302376,7.84272116 71.9190426,8.54545455 C71.3258511,9.23818182 70.5102128,9.57636364 69.5010638,9.57636364 C68.4593617,9.57636364 67.6437234,9.23818182 67.0342553,8.54545455 C66.4230603,7.84272116 66.0998869,6.93299679 66.13,6 C66.103233,5.07301405 66.4262715,4.1701646 67.0342553,3.47272727 C67.6581915,2.78 68.4810638,2.44181818 69.5010638,2.44181818 C70.411224,2.4185979 71.2848121,2.80212906 71.8864894,3.48909091 C72.5076269,4.17422806 72.843027,5.07319439 72.8232979,6 L72.8232979,6 Z M73.5593617,10.1818182 C74.6806383,9.07090909 75.2412766,7.68727273 75.2412766,6 C75.2412766,4.31272727 74.6806383,2.94181818 73.5593617,1.84727273 C72.4665647,0.747061958 70.9730375,0.145142155 69.4269149,0.181818182 C67.8915186,0.143654772 66.4083789,0.743503348 65.3270213,1.84 C64.2238298,2.93454545 63.6595745,4.32 63.6595745,6 C63.6595745,7.68 64.2202128,9.07454545 65.3252128,10.1818182 C66.413432,11.2654117 67.8939305,11.8563134 69.4251064,11.8181818 C70.9653346,11.8561402 72.455295,11.2658883 73.5557447,10.1818182 L73.5593617,10.1818182 Z M84.8643617,2.56363636 L84.8643617,0.363636364 L77.1293617,0.363636364 L77.1293617,11.6363636 L79.5147872,11.6363636 L79.5147872,7.20181818 L84.4954255,7.20181818 L84.4954255,5.02 L79.5165957,5.02 L79.5165957,2.56363636 L84.8643617,2.56363636 Z" id="Shape" stroke="none" fill="#000000" fill-rule="nonzero"></path>
</svg>