<svg width="737" height="162" xmlns="http://www.w3.org/2000/svg">
  <g fill="none" fill-rule="nonzero">
    <path d="M456.496 122v-8.614h-46.492V39.4h-9.322V122h55.814zm36.476 0V39.4h-9.322V122h9.322zm42.376 0V54.268L588.684 122h7.434V39.4h-9.086v66.198L534.994 39.4h-8.732V122h9.086zm102.556 0V99.816l17.582-17.818L687.228 122h11.682l-36.934-46.492 35.4-36.108H685.34l-47.436 49.324V39.4h-9.322V122h9.322z" fill="#66788A"/>
    <path d="M76.38 122c4.484 0 8.574667-.511333 12.272-1.534 3.697333-1.022667 6.863667-2.497667 9.499-4.425s4.661-4.307 6.077-7.139c1.416-2.832 2.124-6.018 2.124-9.558 0-2.832-.472-5.349333-1.416-7.552s-2.202667-4.090667-3.776-5.664c-1.573333-1.573333-3.441667-2.930333-5.605-4.071-2.163333-1.140667-4.464333-2.065-6.903-2.773 1.652-.708 3.245-1.593 4.779-2.655 1.534-1.062 2.930333-2.379667 4.189-3.953 1.258667-1.573333 2.261667-3.382667 3.009-5.428.747333-2.045333 1.121-4.444667 1.121-7.198 0-3.146667-.629333-5.998333-1.888-8.555s-3.068-4.72-5.428-6.49c-2.36-1.77-5.192-3.146667-8.496-4.13-3.304-.983333-7.001333-1.475-11.092-1.475H39.682V122H76.38zm-3.068-45.784H48.886V47.778H74.02c5.9 0 10.423333 1.219333 13.57 3.658 3.146667 2.438667 4.72 5.742667 4.72 9.912 0 4.877333-1.77 8.574667-5.31 11.092-3.54 2.517333-8.102667 3.776-13.688 3.776zm3.304 37.406h-27.73V84.476h26.078c7.237333 0 12.704667 1.239 16.402 3.717 3.697333 2.478 5.546 5.998333 5.546 10.561 0 4.72-1.809333 8.378-5.428 10.974s-8.574667 3.894-14.868 3.894zM189.792 122v-8.614H143.3V39.4h-9.322V122h55.814zm57.008 1.298c5.192 0 9.892333-.767 14.101-2.301 4.208667-1.534 7.827333-3.835 10.856-6.903 3.028667-3.068 5.369-6.883333 7.021-11.446 1.652-4.562667 2.478-9.872667 2.478-15.93V39.4h-9.322v48.026c0 9.046667-2.242 15.851333-6.726 20.414-4.484 4.562667-10.541333 6.844-18.172 6.844-7.945333 0-14.140333-2.399333-18.585-7.198-4.444667-4.798667-6.667-11.682-6.667-20.65V39.4h-9.322v48.026c0 5.821333.826 10.974 2.478 15.458 1.652 4.484 3.992333 8.240333 7.021 11.269 3.028667 3.028667 6.647333 5.31 10.856 6.844 4.208667 1.534 8.869667 2.301 13.983 2.301zM372.72 122v-8.496h-50.976v-28.91h45.076v-8.496h-45.076V47.896h50.386V39.4h-59.708V122h60.298z" fill="#439CEA"/>
  </g>
</svg>
