<?xml version="1.0" encoding="utf-8"?>
<!-- Generator: Adobe Illustrator 19.1.0, SVG Export Plug-In . SVG Version: 6.00 Build 0)  -->
<svg version="1.1" id="black" xmlns="http://www.w3.org/2000/svg" xmlns:xlink="http://www.w3.org/1999/xlink" x="0px" y="0px"
	 viewBox="101.5 46.2 228.5 53.4" style="enable-background:new 101.5 46.2 228.5 53.4;" xml:space="preserve">
<style type="text/css">
	.st0{fill:none;stroke:#273B81;stroke-width:0.75;stroke-miterlimit:10;}
	.st1{fill:#273B81;stroke:#273B81;stroke-width:0.14;stroke-miterlimit:10;}
	.st2{fill:#273B81;}
</style>
<title>BSF_logo_blue</title>
<line class="st0" x1="248.2" y1="47.3" x2="248.2" y2="97.6"/>
<path class="st1" d="M264.4,52.1c0,1.1-0.7,2-1.7,2.2c1.2,0.3,2.1,1.4,2.1,2.7c0,2.2-2,2.7-3.8,2.7h-4.3V49.2h4.3
	C262.8,49.2,264.4,50.1,264.4,52.1z M257.5,54h3.6c1.3,0,2.6-0.4,2.6-1.9s-1.4-2.2-2.7-2.2h-3.5V54z M257.5,59h3.5c1.3,0,3-0.3,3-2
	s-1.5-2.2-2.9-2.2h-3.6L257.5,59z"/>
<path class="st1" d="M277.7,54.5c0.1,2.9-2.1,5.4-5.1,5.5s-5.4-2.1-5.5-5.1c0-0.2,0-0.3,0-0.5c-0.1-2.9,2.1-5.4,5.1-5.5
	s5.4,2.1,5.5,5.1C277.7,54.2,277.7,54.3,277.7,54.5z M267.9,54.5c-0.2,2.5,1.7,4.6,4.2,4.8s4.6-1.7,4.8-4.2c0-0.2,0-0.4,0-0.6
	c0.2-2.5-1.7-4.6-4.2-4.8c-2.5-0.2-4.6,1.7-4.8,4.2C267.9,54.1,267.9,54.3,267.9,54.5z"/>
<path class="st1" d="M280.5,59.7V49.2h0.8v10.5H280.5z"/>
<path class="st1" d="M285.6,54.1h6.1v0.7h-6.1V59h6.6v0.8h-7.4V49.3h7.2V50h-6.4L285.6,54.1z"/>
<path class="st1" d="M301.9,51.3c-0.7-1-1.9-1.6-3.2-1.4c-1.2,0-3.2,0.4-3.2,2.1c0,1.3,1.4,1.7,3.2,2c2,0.4,4.1,0.8,4.1,3
	s-2.4,2.9-4.2,2.9c-1.7,0.1-3.4-0.8-4.3-2.3l0.7-0.4c0.8,1.2,2.1,2,3.6,1.9c1.3,0,3.3-0.4,3.3-2.2c0-1.6-1.7-1.9-3.4-2.2
	c-1.9-0.4-3.9-0.8-3.9-2.7c0-2.2,2.3-2.9,4-2.9c1.5-0.2,3,0.5,3.8,1.8L301.9,51.3z"/>
<path class="st1" d="M263.5,69.3c-0.7-1-1.9-1.6-3.2-1.4c-1.2,0-3.2,0.4-3.2,2.1c0,1.3,1.4,1.6,3.2,2c2,0.4,4.1,0.8,4.1,3
	s-2.4,2.9-4.2,2.9c-1.7,0.1-3.4-0.8-4.3-2.3l0.7-0.4c0.8,1.2,2.1,2,3.6,1.9c1.3,0,3.3-0.4,3.3-2.2c0-1.6-1.7-1.9-3.5-2.2
	c-1.9-0.4-3.9-0.8-3.9-2.7c0-2.2,2.3-2.9,4-2.9c1.5-0.2,3,0.5,3.8,1.8L263.5,69.3z"/>
<path class="st1" d="M275.6,76.3c-1,1-2.4,1.6-3.8,1.6c-3,0-5.4-2.4-5.4-5.4c0-3,2.4-5.4,5.4-5.4c1.4,0,2.8,0.6,3.8,1.6l-0.6,0.5
	c-0.9-0.9-2-1.3-3.3-1.3c-2.6,0-4.6,2.1-4.6,4.6c0,2.6,2.1,4.6,4.6,4.6c1.2,0,2.4-0.5,3.3-1.3L275.6,76.3z"/>
<path class="st1" d="M285.7,77.7V73H279v4.8h-0.8V67.3h0.8v5h6.7v-5h0.8v10.5L285.7,77.7z"/>
<path class="st1" d="M289.8,77.7V67.2h0.8v10.5H289.8z"/>
<path class="st1" d="M294.8,67.2V77h5.9v0.8H294V67.3L294.8,67.2z"/>
<path class="st1" d="M303.8,67.2V77h5.9v0.8H303V67.3L303.8,67.2z"/>
<path class="st1" d="M312.3,72.1h6.1v0.7h-6.1V77h6.6v0.8h-7.4V67.3h7.2V68h-6.5L312.3,72.1z"/>
<path class="st1" d="M329.9,77.7h-1.1l-3.6-4h-2.9v4h-0.8V67.2h4.6c1.8-0.1,3.3,1.3,3.4,3c0,0.1,0,0.2,0,0.2c0.1,1.7-1.3,3.2-3,3.2
	c-0.1,0-0.3,0-0.4,0L329.9,77.7z M322.3,73h3.7c1.3,0.2,2.5-0.7,2.6-2c0-0.2,0-0.3,0-0.5c0-1.3-1-2.5-2.3-2.5c-0.1,0-0.2,0-0.2,0
	h-3.8L322.3,73z"/>
<path class="st1" d="M257.5,90.2h6V91h-6v4.8h-0.8V85.2h7.1V86h-6.2V90.2z"/>
<path class="st1" d="M267.1,85.2V95h5.9v0.8h-6.7V85.3L267.1,85.2z"/>
<path class="st1" d="M276.1,90.1h6.1v0.7h-6.1V95h6.6v0.8h-7.4V85.3h7.2V86h-6.5L276.1,90.1z"/>
<path class="st1" d="M292.5,85.2h0.9l0,0l-3.6,5.1l3.9,5.4h-1l-3.4-4.8l-3.4,4.8h-1l3.9-5.4l-3.6-5.1l0,0h0.9l3.2,4.5L292.5,85.2z"
	/>
<path class="st1" d="M296.5,85.2l7.1,8.7v-8.7h0.8v10.5H304l-7-8.7v8.7h-0.8V85.2H296.5z"/>
<path class="st1" d="M308.2,90.1h6.1v0.7h-6.1V95h6.6v0.8h-7.4V85.3h7.2V86h-6.4L308.2,90.1z"/>
<path class="st1" d="M325.8,95.7h-1.1l-3.6-4h-2.9v4h-0.8V85.2h4.6c1.8-0.1,3.3,1.3,3.4,3c0,0.1,0,0.2,0,0.2c0.1,1.7-1.3,3.2-3,3.2
	c-0.1,0-0.3,0-0.4,0L325.8,95.7z M318.2,91h3.7c1.3,0.2,2.5-0.7,2.6-2c0-0.2,0-0.3,0-0.5c0-1.3-1-2.5-2.3-2.5c-0.1,0-0.2,0-0.3,0
	h-3.8L318.2,91z"/>
<path class="st2" d="M201.3,97.9V47.5h36.2v9.1h-26.7v13.8H233v8.8h-22.2v18.6L201.3,97.9z"/>
<path class="st2" d="M142.8,62.1c0.1,4.3-2.5,8.2-6.6,9.7c5.9,1.8,8.1,8.1,8.1,11.2c0,11.2-8.4,14.8-18.9,14.8h-23.9V47.4h23.9
	C135.3,47.5,142.8,51.9,142.8,62.1z M110.9,67.7h14.6c6,0,7.9-2.5,7.9-5.4c0-2.3-1.9-6.2-7.9-6.2h-14.6V67.7z M110.9,89h14.6
	c3.9,0,9.4-1.3,9.4-6c0-4.5-5.5-6.9-9.4-6.9h-14.6V89z"/>
<path class="st2" d="M151.7,61.7c0,0.1,0,0.2,0,0.2c0,1.6,0.2,3.2,0.7,4.8c5.9,2,11.6,4.6,17,7.7c3.5,2,6.7,4.3,9.8,6.9
	c2.4,2,4.6,4.3,6.5,6.7c1.5,1.7,2.9,3.6,4.1,5.6c1.9-2.6,3-5.8,2.9-9c0-1-0.1-2-0.2-3c-8.6-11.2-22.3-18-31.2-21.5
	c0.6-3.2,4-5.6,10.3-5.6c5.5,0,10.2,2.7,12,5.6l7.6-3.9c-3.8-7.8-12-10-19.8-10c-7.7,0.1-16,3-18.7,9.8l0,0
	C152,57.9,151.7,59.8,151.7,61.7L151.7,61.7z"/>
<path class="st2" d="M180,92.9l-0.2-0.2c-0.7-0.8-1.4-1.6-2.1-2.4c-2,0.6-4.1,0.9-6.2,0.9c-6.1,0-12-2.4-14.2-8l-7.9,4.1
	c3.7,9.2,11.7,12.4,22,12.4c4.1,0,8.1-0.7,11.9-2.2C182.4,95.8,181.2,94.3,180,92.9z"/>
</svg>
