<?xml version="1.0"?>
<svg xmlns="http://www.w3.org/2000/svg" viewBox="0 0 382.34958 142.677" enable-background="new 0 0 382.34958 142.677">
<polygon fill="#142855" points="41.3382,141.97029 100.3912,141.97029 100.3912,82.9153 "/>
<polygon fill="#FF3246" points="26.57461,0.2379 0.00061,26.8119 115.1546,26.8119 115.1546,141.96989 141.7276,115.3959 
	141.7276,0.2379 "/>
<polygon fill="#142855" points="59.054,41.57669 0,41.57669 0,100.63169 "/>
<polygon fill="#FF3246" points="100.39101,41.57669 79.72301,41.57669 0.00001,121.30169 0.00001,141.97069 20.66901,141.97069 
	100.39101,62.2457 "/>
<g>
	<path fill="#142855" d="M198.10789,30.0921c0,7.14-4.78,11.448-13.571,11.448H168.0139V0.2361h14.51599
		c8.851,0,14.04401,4.543,14.04401,11.269c0,3.95401-1.82899,7.08101-5.429,8.73401v0.17599
		C195.6879,21.83211,198.10789,24.9581,198.10789,30.0921 M175.38989,6.5491v11.211h7.317c4.367,0,6.60901-1.94699,6.60901-5.547
		c0-3.59801-2.242-5.664-6.60901-5.664H175.38989z M190.4369,29.5611c0-3.717-2.065-5.66399-6.55-5.66399h-8.49701V35.2261h8.49701
		C188.3719,35.2261,190.4369,33.3371,190.4369,29.5611"/>
	<path fill="#142855" d="M219.49841,13.2164v6.49101c-0.82602-0.11801-1.65201-0.177-2.41901-0.177
		c-5.192,0-7.84801,2.77299-7.84801,8.556v13.453h-7.08099v-28.263h6.373l0.41299,4.30699h0.177
		c1.358-3.00999,4.308-4.83899,7.72998-4.83899C217.84641,12.74442,218.79041,12.9214,219.49841,13.2164"/>
	<path fill="#142855" d="M222.49152,4.48399c0-2.537,2.064-4.48399,4.60199-4.48399c2.478,0,4.54401,1.94699,4.54401,4.48399
		c0,2.597-2.06601,4.48399-4.54401,4.48399C224.55551,8.96799,222.49152,7.08099,222.49152,4.48399 M223.5535,13.276h7.08099
		v28.26399h-7.08099V13.276z"/>
	<path fill="#142855" d="M253.94562,35.81599V41.776c-1.00302,0.295-2.42001,0.472-4.18903,0.472
		c-7.082,0-10.44498-3.187-10.44498-10.916V19.47101h-4.72V13.276h4.72V6.431h7.08099v6.845h7.375v6.19501h-7.375v11.448
		c0,3.953,1.298,5.133,5.01599,5.133C252.23361,36.052,253.17761,35.993,253.94562,35.81599"/>
	<path fill="#142855" d="M257.13852,4.48399c0-2.537,2.064-4.48399,4.60098-4.48399c2.479,0,4.54401,1.94699,4.54401,4.48399
		c0,2.597-2.065,4.48399-4.54401,4.48399C259.20251,8.96799,257.13852,7.08099,257.13852,4.48399 M258.19949,13.276h7.08099
		v28.26399h-7.08099V13.276z"/>
	<path fill="#142855" d="M269.31482,32.689h6.84497c0.23502,2.537,2.18201,4.01201,5.19202,4.01201
		c2.89099,0,4.603-1.35699,4.603-3.245c0-1.47501-1.121-2.53801-4.54401-3.18701L277.9288,29.561
		c-5.72299-1.061-8.43701-3.717-8.43701-7.966c0-5.192,4.24802-9.02699,11.565-9.02699c6.72702,0,10.85703,3.18599,11.27002,8.84999
		h-6.845c-0.23502-2.00499-1.888-3.30299-4.77902-3.30299c-2.83197,0-4.42599,1.23799-4.42599,3.009
		c0,1.35699,0.88602,2.24199,4.60202,2.95l3.48199,0.649c5.89999,1.121,8.43799,3.83499,8.43799,8.14299
		c0,5.42801-4.30701,9.382-11.68298,9.382C274.03479,42.248,269.5498,38.53,269.31482,32.689"/>
	<path fill="#142855" d="M322.2699,23.83749v17.70201h-7.08102V26.0795c0-5.133-1.88898-7.021-5.25198-7.021
		c-3.83499,0-6.254,2.36-6.254,7.258v15.22301h-7.08099V0.2355h7.08099v16.522h0.177c1.888-2.655,4.897-4.19,8.61499-4.19
		C318.4939,12.5675,322.2699,16.6395,322.2699,23.83749"/>
	<path fill="#142855" d="M198.10789,80.3069c0,7.14-4.78,11.448-13.571,11.448H168.0139v-41.304h14.51599
		c8.851,0,14.04401,4.543,14.04401,11.269c0,3.954-1.82899,7.081-5.429,8.734v0.176
		C195.6879,72.0469,198.10789,75.1729,198.10789,80.3069 M175.38989,56.7639v11.211h7.317c4.367,0,6.60901-1.947,6.60901-5.547
		c0-3.598-2.242-5.66399-6.60901-5.66399H175.38989z M190.4369,79.77589c0-3.717-2.065-5.66399-6.55-5.66399h-8.49701V85.4409
		h8.49701C188.3719,85.4409,190.4369,83.5519,190.4369,79.77589"/>
	<path fill="#142855" d="M227.49451,63.49079v28.264h-6.43201l-0.354-3.6h-0.177c-1.76999,2.655-5.134,4.308-8.79199,4.308
		c-5.664,0-9.618-3.953-9.618-11.271v-17.701h7.08099v15.519c0,5.133,1.82899,7.021,5.07401,7.021
		c3.65797,0,6.13698-2.419,6.13698-7.31599V63.49079H227.49451z"/>
	<path fill="#142855" d="M231.52771,82.90389h6.84497c0.23502,2.537,2.18201,4.012,5.19202,4.012
		c2.89099,0,4.603-1.35699,4.603-3.245c0-1.475-1.121-2.538-4.54401-3.187l-3.48199-0.708
		c-5.72299-1.061-8.43701-3.717-8.43701-7.966c0-5.192,4.24802-9.027,11.565-9.027c6.72702,0,10.85703,3.186,11.27002,8.85h-6.845
		c-0.23502-2.005-1.888-3.303-4.77902-3.303c-2.83197,0-4.42599,1.238-4.42599,3.009c0,1.35699,0.88602,2.242,4.60202,2.95
		l3.48199,0.649c5.89999,1.121,8.43799,3.835,8.43799,8.143c0,5.428-4.30701,9.382-11.68298,9.382
		C236.24768,92.4629,231.7627,88.7449,231.52771,82.90389"/>
	<path fill="#142855" d="M258.03351,54.69899c0-2.537,2.064-4.485,4.60199-4.485c2.478,0,4.54401,1.948,4.54401,4.485
		c0,2.596-2.06601,4.484-4.54401,4.484C260.0975,59.18299,258.03351,57.29499,258.03351,54.69899 M259.09549,63.491h7.08099v28.264
		h-7.08099V63.491z"/>
	<path fill="#142855" d="M297.0062,74.05229v17.702h-7.08102v-15.46c0-5.133-1.888-7.021-5.25198-7.021
		c-3.83499,0-6.254,2.36-6.254,7.258v15.223h-7.08099v-28.264h6.43198l0.29501,3.6h0.23599c1.711-2.655,5.07401-4.308,8.91-4.308
		C293.11118,62.7823,297.0062,66.7953,297.0062,74.05229"/>
	<path fill="#142855" d="M328.85709,79.363h-21.125c0.59,4.78,3.659,7.14,7.73001,7.14c3.009,0,5.42899-1.298,6.54999-3.599h6.66702
		c-1.47501,6.018-6.608,9.558-13.33502,9.558c-8.67398,0-14.634-5.959-14.634-14.633c0-8.909,6.19601-15.046,14.69302-15.046
		c7.90698,0,13.689,5.429,13.689,13.925C329.0921,77.59299,329.03308,78.36,328.85709,79.363 M307.96811,74.52499h14.04398
		c-0.64899-4.071-3.18698-5.89999-6.60898-5.89999C311.74408,68.625,308.91208,70.63,307.96811,74.52499"/>
	<path fill="#142855" d="M332.349,82.90389h6.84497c0.23502,2.537,2.18201,4.012,5.19202,4.012c2.89099,0,4.603-1.35699,4.603-3.245
		c0-1.475-1.121-2.538-4.54401-3.187l-3.48199-0.708c-5.72299-1.061-8.43701-3.717-8.43701-7.966
		c0-5.192,4.24802-9.027,11.565-9.027c6.72702,0,10.85703,3.186,11.27002,8.85h-6.845c-0.23502-2.005-1.888-3.303-4.77902-3.303
		c-2.83197,0-4.42599,1.238-4.42599,3.009c0,1.35699,0.88602,2.242,4.60202,2.95l3.48199,0.649
		c5.89999,1.121,8.43799,3.835,8.43799,8.143c0,5.428-4.30701,9.382-11.68298,9.382
		C337.06897,92.4629,332.58398,88.7449,332.349,82.90389"/>
	<path fill="#142855" d="M358.8656,82.90389h6.84497c0.23502,2.537,2.18201,4.012,5.19202,4.012
		c2.89099,0,4.603-1.35699,4.603-3.245c0-1.475-1.121-2.538-4.54401-3.187l-3.48199-0.708
		c-5.72299-1.061-8.43701-3.717-8.43701-7.966c0-5.192,4.24802-9.027,11.565-9.027c6.72702,0,10.85703,3.186,11.27002,8.85h-6.845
		c-0.23502-2.005-1.888-3.303-4.77902-3.303c-2.83197,0-4.42599,1.238-4.42599,3.009c0,1.35699,0.88602,2.242,4.60202,2.95
		l3.48199,0.649c5.89999,1.121,8.43799,3.835,8.43799,8.143c0,5.428-4.30701,9.382-11.68298,9.382
		C363.58557,92.4629,359.10059,88.7449,358.8656,82.90389"/>
	<path fill="#142855" d="M198.10789,130.52179c0,7.14001-4.78,11.448-13.571,11.448H168.0139v-41.30399h14.51599
		c8.851,0,14.04401,4.54301,14.04401,11.269c0,3.954-1.82899,7.081-5.429,8.73399v0.176
		C195.6879,122.2618,198.10789,125.3878,198.10789,130.52179 M175.38989,106.9788v11.211h7.317c4.367,0,6.60901-1.947,6.60901-5.547
		c0-3.598-2.242-5.664-6.60901-5.664H175.38989z M190.4369,129.9908c0-3.717-2.065-5.664-6.55-5.664h-8.49701v11.32899h8.49701
		C188.3719,135.65579,190.4369,133.7668,190.4369,129.9908"/>
	<path fill="#142855" d="M226.97458,124.44499v17.524h-6.37201l-0.354-3.599h-0.17697c-1.65201,2.537-5.134,4.30701-9.26501,4.30701
		c-5.66399,0-9.43999-3.36301-9.43999-8.20201c0-4.601,3.36299-7.729,10.267-8.73199l8.438-1.239v-0.295
		c0-3.60001-1.71201-5.311-5.311-5.311c-3.422,0-5.192,1.593-5.42801,4.308h-7.02199c0.35399-6.255,5.01599-10.208,12.68599-10.208
		C222.78558,112.99799,226.97458,117.069,226.97458,124.44499 M220.07159,130.10899v-0.767l-6.43201,0.88499
		c-3.717,0.53101-5.075,1.82901-5.075,3.77701c0,2.005,1.534,3.12599,4.19,3.12599
		C217.12158,137.12999,220.07159,134.23999,220.07159,130.10899"/>
	<path fill="#142855" d="M257.82941,124.2672v17.702h-7.08102v-15.46c0-5.133-1.88898-7.021-5.25198-7.021
		c-3.83499,0-6.254,2.36-6.254,7.258v15.223h-7.08099v-28.264h6.43198l0.29501,3.60001h0.23599
		c1.711-2.655,5.07401-4.30801,8.91-4.30801C253.93439,112.99719,257.82941,117.01019,257.82941,124.2672"/>
	<polygon fill="#142855" points="281.0423,141.9693 270.24429,129.5193 270.06729,129.5193 270.06729,141.9693 262.9863,141.9693 
		262.9863,100.6653 270.06729,100.6653 270.06729,124.9763 270.24429,124.9763 280.80728,113.7053 289.48029,113.7053 
		276.91229,127.0403 289.89328,141.9693 	"/>
</g>
</svg>
