<svg xmlns="http://www.w3.org/2000/svg" viewBox="0 0 300 120.3">
  <g id="af6e8113-e319-4669-b0b2-be517090d782" data-name="Layer 2">
    <g id="b917eaac-bdda-4c66-bbe7-6876439c468a" data-name="Layer 1">
      <g>
        <g>
          <path d="M78.72,36.05C63.17,24.16,42,30.54,33.67,45.8A30.16,30.16,0,0,0,44.76,86.11c14.37,8.52,31.88,4.27,41.53-9.88-.69,3.44-1.12,7-2.1,10.3C79.07,104,67,114.26,49.79,119.05a5.33,5.33,0,0,1-2.54,0C23.18,113.44,4.91,94.65,1,70.62c-3.39-20.54,2.3-38.4,16.94-53.21A57.34,57.34,0,0,1,52.22.54,59.61,59.61,0,0,1,95.89,11.6c.87.63,1.16,1.1.4,2.07Q87.82,24.46,79.41,35.31C79.2,35.57,79,35.81,78.72,36.05Z" fill="#fdb825"/>
          <path d="M116.47,74.77C111.86,96.66,91.29,118,61.27,120.3a7.82,7.82,0,0,1,1.11-.69C79.29,113,89.07,100.29,93.33,83c.51-2.06.85-4.17,1.18-6.26.18-1.12.6-1.83,1.84-1.84,2.49,0,5-.11,7.47-.12C108,74.76,112.15,74.77,116.47,74.77Z" fill="#fdb825"/>
          <path d="M106.15,70.81a9.26,9.26,0,0,1-9.55-9.53,9.27,9.27,0,0,1,9.55-9.64c5.54-.07,9.63,3.93,9.59,9.72A9.19,9.19,0,0,1,106.15,70.81Z" fill="#fdb825"/>
        </g>
        <g>
          <path d="M136.39,83v17.59H135V83Z" fill="#6f7073"/>
          <path d="M156.38,83v17.59h-1L143.13,85.19v15.37h-1.24V83h1.05l12.19,15.38V83Z" fill="#6f7073"/>
          <path d="M176.71,83.06v17.59h-1L163.46,85.28v15.37h-1.24V83.06h1.05l12.2,15.37V83.06Z" fill="#6f7073"/>
          <path d="M298.49,82.91V100.5h-1L285.24,85.12V100.5H284V82.91h1.06l12.19,15.37V82.91Z" fill="#6f7073"/>
          <path d="M190.33,81.79A9.25,9.25,0,0,1,197,84.44a9,9,0,0,1,0,12.91,9.69,9.69,0,0,1-13.34,0,9,9,0,0,1,0-12.91A9.19,9.19,0,0,1,190.33,81.79Zm0,16.94a7.61,7.61,0,0,0,5.6-2.27,7.93,7.93,0,0,0,0-11.13,7.61,7.61,0,0,0-5.6-2.27,7.72,7.72,0,0,0-5.64,2.27,7.86,7.86,0,0,0,0,11.13A7.72,7.72,0,0,0,190.38,98.73Z" fill="#6f7073"/>
          <path d="M270.18,81.79a9.25,9.25,0,0,1,6.68,2.65,9,9,0,0,1,0,12.91,9.69,9.69,0,0,1-13.34,0,9,9,0,0,1,0-12.91A9.19,9.19,0,0,1,270.18,81.79Zm.05,16.94a7.61,7.61,0,0,0,5.6-2.27,7.93,7.93,0,0,0,0-11.13,7.61,7.61,0,0,0-5.6-2.27,7.72,7.72,0,0,0-5.64,2.27,7.86,7.86,0,0,0,0,11.13A7.72,7.72,0,0,0,270.23,98.73Z" fill="#6f7073"/>
          <path d="M218.17,83l-7.37,17.77h-.4L203,83h1.38l6.23,14.88L216.8,83Z" fill="#6f7073"/>
          <path d="M228.22,82.85l8.13,17.71h-1.43l-2.78-6.08h-8.6l-2.77,6.08h-1.43l8.13-17.71Zm3.4,10.5-3.79-8.29-3.78,8.29Z" fill="#6f7073"/>
          <path d="M250.72,83V84.1h-6.6v16.46h-1.37V84.1h-6.6V83Z" fill="#6f7073"/>
          <path d="M256.4,83v17.59H255V83Z" fill="#6f7073"/>
        </g>
        <g>
          <path d="M149.64,75.34a16.34,16.34,0,0,1-6-1.13,13.81,13.81,0,0,1-2.57-1.31,17.5,17.5,0,0,1-2.32-1.76,14,14,0,0,1-3.26-4.52,13.45,13.45,0,0,1,0-11.15,14.86,14.86,0,0,1,3.26-4.55,16.26,16.26,0,0,1,16.83-3,14.87,14.87,0,0,1,4.89,3l-4.54,4.27a8.49,8.49,0,0,0-2.87-1.82,9.49,9.49,0,0,0-3.43-.62,9.21,9.21,0,0,0-6.29,2.44,8.27,8.27,0,0,0-1.91,2.63,7.66,7.66,0,0,0,0,6.44,8.2,8.2,0,0,0,1.91,2.64,9.16,9.16,0,0,0,2.82,1.79,9.27,9.27,0,0,0,3.47.65,9.49,9.49,0,0,0,3.43-.62,8.49,8.49,0,0,0,2.87-1.82l4.54,4.24a14.62,14.62,0,0,1-4.89,3.07A16.21,16.21,0,0,1,149.64,75.34Z" fill="#981b1e"/>
          <path d="M213.45,53.42h-8.11V74.7h-6V53.42h-8.09v-6h22.2Z" fill="#981b1e"/>
          <path d="M241.07,47.42V74.7h-5.51v-12H223.73v12h-5.5V47.42h5.5v9.29h11.83V47.42Z" fill="#981b1e"/>
          <path d="M254.25,68.88l-2.54,5.82h-6.53L257,47.42h6.24L275.11,74.7h-6.56L266,68.88Zm5.86-13.55-3.28,7.55h6.6Z" fill="#981b1e"/>
          <path d="M171.29,68l-2.54,5.82h-6.53L174,46.56h6.25l11.85,27.28h-6.56L183.07,68Zm5.86-13.56L173.86,62h6.6Z" fill="#981b1e"/>
          <path d="M296.34,47.42H300l-11.36,17V74.7h-5.72V64.43l-11.33-17h7l7.23,10.84L293,47.42Z" fill="#981b1e"/>
        </g>
      </g>
    </g>
  </g>
</svg>
