<?xml version="1.0" encoding="UTF-8" standalone="no"?>
<!-- Created with Inkscape (http://www.inkscape.org/) -->

<svg
   xmlns:dc="http://purl.org/dc/elements/1.1/"
   xmlns:cc="http://creativecommons.org/ns#"
   xmlns:rdf="http://www.w3.org/1999/02/22-rdf-syntax-ns#"
   xmlns:svg="http://www.w3.org/2000/svg"
   xmlns="http://www.w3.org/2000/svg"
   xmlns:sodipodi="http://sodipodi.sourceforge.net/DTD/sodipodi-0.dtd"
   xmlns:inkscape="http://www.inkscape.org/namespaces/inkscape"
   width="60.353802"
   height="55.822578"
   viewBox="0 0 15.96861 14.769723"
   version="1.1"
   id="svg2223"
   inkscape:version="0.92.0 r15299"
   sodipodi:docname="cdw.svg">
  <defs
     id="defs2217" />
  <sodipodi:namedview
     id="base"
     pagecolor="#ffffff"
     bordercolor="#666666"
     borderopacity="1.0"
     inkscape:pageopacity="0.0"
     inkscape:pageshadow="2"
     inkscape:zoom="9.722272"
     inkscape:cx="29.676901"
     inkscape:cy="27.411288"
     inkscape:document-units="mm"
     inkscape:current-layer="layer1"
     showgrid="false"
     fit-margin-top="0"
     fit-margin-left="0"
     fit-margin-right="0"
     fit-margin-bottom="0"
     units="px"
     inkscape:window-width="1280"
     inkscape:window-height="744"
     inkscape:window-x="-4"
     inkscape:window-y="-4"
     inkscape:window-maximized="1" />
  <metadata
     id="metadata2220">
    <rdf:RDF>
      <cc:Work
         rdf:about="">
        <dc:format>image/svg+xml</dc:format>
        <dc:type
           rdf:resource="http://purl.org/dc/dcmitype/StillImage" />
        <dc:title></dc:title>
      </cc:Work>
    </rdf:RDF>
  </metadata>
  <g
     inkscape:label="Layer 1"
     inkscape:groupmode="layer"
     id="layer1"
     transform="translate(-86.642033,-226.7388)">
    <g
       id="g2235"
       transform="translate(0.13229152,-0.13228889)">
      <path
         id="path2129"
         d="m 102.01986,227.613 c -0.15533,0 -0.2796,-0.12504 -0.2796,-0.28135 0,-0.1563 0.12427,-0.28135 0.2796,-0.28135 0.15533,0 0.2796,0.12505 0.2796,0.28135 0,0.15631 -0.12427,0.28135 -0.2796,0.28135 m 0,0.0625 c 0.1864,0 0.3262,-0.1563 0.3262,-0.32824 0,-0.18756 -0.1398,-0.32824 -0.3262,-0.32824 -0.1864,0 -0.3262,0.15631 -0.3262,0.32824 0,0.17194 0.1398,0.32824 0.3262,0.32824 m -0.0155,-0.31261 c 0.0155,0 0.0466,0 0.0621,0.0156 0.0155,0.0156 0.0155,0.0469 0.0155,0.0782 0,0.0156 0.0155,0.0469 0.0155,0.0625 h 0.0777 c -0.0155,-0.0313 -0.0155,-0.0781 -0.0311,-0.10942 0,-0.0469 -0.0155,-0.0625 -0.0621,-0.0781 0.0466,-0.0156 0.0777,-0.0469 0.0777,-0.0938 0,-0.0938 -0.0777,-0.10942 -0.1398,-0.10942 h -0.12427 v 0.39077 h 0.0621 v -0.15631 z m -0.0466,-0.0625 v -0.10941 h 0.0777 c 0.0466,0 0.0621,0.0156 0.0621,0.0469 0,0.0313 -0.0155,0.0469 -0.0777,0.0625 z"
         class="st3"
         inkscape:connector-curvature="0"
         style="fill:#cc0000;stroke-width:0.15581766" />
      <path
         id="path2131"
         d="m 86.642033,227.00341 v 4.07957 c 0.38833,-0.34387 0.91646,-0.54707 1.53779,-0.54707 0.91645,0 1.59991,0.37513 1.36691,1.60994 h -1.30478 c 0.0777,-0.59396 -0.0466,-0.67211 -0.21747,-0.67211 -0.37279,0 -0.48152,0.37513 -0.60579,0.95346 -0.10873,0.54707 -0.17086,0.95346 0.1864,0.95346 0.1864,0 0.3262,-0.10941 0.51259,-0.59396 h 0.93199 c 0.233,-0.23445 0.48153,-0.46891 0.76113,-0.68774 l 0.31066,-1.4849 h 1.69311 c 0.0777,0 0.15534,0 0.233,0.0156 0.466,-0.25009 0.96306,-0.50017 1.46012,-0.70337 2.93577,-1.23481 5.856,-1.53179 7.580177,-0.9222 v -2.00071 z m 1.58439,7.19004 c -0.31067,0.60959 -0.40387,1.20355 -0.17087,1.67247 0.79219,1.57868 4.48908,1.54742 8.04618,0.0469 0.90092,-0.37513 1.70864,-0.81279 2.40764,-1.2817 2.081437,-1.40675 2.889157,-2.98543 2.298897,-4.15772 -0.80772,-1.57869 -4.038617,-1.75062 -7.580177,-0.25009 -0.32619,0.14067 -0.63686,0.28135 -0.94752,0.43765 1.02519,0.15631 1.22712,0.87531 1.02519,1.81314 -0.233,1.09414 -1.08732,1.76625 -2.19018,1.76625 h -1.78631 l 0.40386,-1.90692 c -0.1864,0.1563 -0.34173,0.29698 -0.49706,0.46892 h 0.20193 c -0.1864,0.75026 -0.65239,1.18792 -1.21158,1.39111 z m 6.66372,-3.56376 -0.17086,2.28206 0.80772,-2.28206 h 1.47565 l -0.1398,2.28206 h 0.0155 l 0.7922,-2.28206 h 1.27371 l -1.53778,3.62628 h -1.553311 l 0.15533,-2.36021 h -0.0155 l -0.83879,2.36021 h -1.52225 l -0.0155,-3.62628 z m 2.01931,5.76767 c -4.03862,1.70372 -8.07724,1.59431 -8.9937,-0.18757 -0.29513,-0.5627 -0.26406,-1.21918 0.0466,-1.92255 -0.20193,0.0313 -0.40386,0.0625 -0.59026,0.0625 -0.2796,0 -0.52813,-0.0469 -0.73006,-0.10942 v 7.2682 H 101.0568 v -7.69022 c -0.38833,0.37513 -0.83879,0.73463 -1.366907,1.07851 -0.7922,0.53143 -1.78632,1.0785 -2.78044,1.50053 z m -5.07934,-3.95453 c 0.0777,-0.3595 0.0932,-0.60959 0.0311,-0.76589 -0.0621,-0.14068 -0.17086,-0.23446 -0.40386,-0.23446 h -0.1398 l -0.41939,1.98508 h 0.1398 c 0.23299,0 0.38833,-0.0782 0.49706,-0.23446 0.1398,-0.14068 0.21746,-0.39076 0.29513,-0.75027 z"
         class="st3"
         inkscape:connector-curvature="0"
         style="fill:#cc0000;stroke-width:0.15581766" />
    </g>
  </g>
</svg>
