<svg width="185" height="45" viewBox="0 0 185 45" fill="none" xmlns="http://www.w3.org/2000/svg">
<g clip-path="url(#clip0)">
<path d="M22.6728 0H22.1346V5.26689H21.6846V12.3758H23.1181V5.26689H22.6681V0H22.6728Z" fill="#0E1826"/>
<path d="M21.6892 39.7332H22.1392V45.0001H22.6774V39.7332H23.1274V32.6243H21.6938V39.7332H21.6892Z" fill="#0E1826"/>
<path d="M5.24252 23.2196H12.3222V21.7803H5.24252V22.2292H0V22.7707H5.24252V23.2196Z" fill="#0E1826"/>
<path d="M9.77056 10.8439L14.744 15.8378L15.7739 14.801L10.8005 9.81184L10.485 10.1266L6.76422 6.3916L6.3606 6.79888L10.0814 10.5338L9.77056 10.8439Z" fill="#0E1826"/>
<path d="M35.0415 34.1559L30.0263 29.1621L28.9963 30.1988L34.0162 35.1927L34.3316 34.8779L38.0524 38.6129L38.4561 38.2056L34.7353 34.4707L35.0415 34.1559Z" fill="#0E1826"/>
<path d="M34.0115 9.81184L28.9917 14.8057L30.0216 15.8424L35.0415 10.8486L34.726 10.5338L38.4468 6.79888L38.0432 6.3916L34.3224 10.1266L34.0115 9.81184Z" fill="#0E1826"/>
<path d="M10.8005 35.1883L15.7739 30.1944L14.744 29.1577L9.77055 34.1562L10.086 34.4709L6.36523 38.2058L6.76886 38.6131L10.4897 34.8782L10.8005 35.1883Z" fill="#0E1826"/>
<path d="M19.3137 5.5817L18.2838 0.361084L17.7456 0.495302L18.7756 5.66963L18.3255 5.75757L19.7173 12.6906L21.1509 12.4222L19.7637 5.48913L19.3137 5.5817Z" fill="#0E1826"/>
<path d="M26.4399 39.2426L25.0945 32.3142L23.6609 32.5826L25.0063 39.5111L25.4563 39.4231L26.4863 44.6437L27.0245 44.5095L26.0409 39.3352L26.4399 39.2426Z" fill="#0E1826"/>
<path d="M5.73424 26.5937L12.6377 25.2006L12.3686 23.7612L5.4234 25.1543L5.51155 25.5616L0.357178 26.5937L0.49172 27.1768L5.64609 26.1401L5.73424 26.5937Z" fill="#0E1826"/>
<path d="M7.75236 13.5466L13.6212 17.5084L14.4285 16.2449L8.55961 12.3294L8.29053 12.6904L3.94341 9.76538L3.62793 10.2143L7.97505 13.1856L7.75236 13.5466Z" fill="#0E1826"/>
<path d="M37.0596 31.4532L31.1908 27.4915L30.3835 28.7503L36.2524 32.6658L36.4751 32.3048L40.8686 35.2298L41.1841 34.7809L36.7906 31.8142L37.0596 31.4532Z" fill="#0E1826"/>
<path d="M28.5881 14.4908L32.5316 8.59452L32.1743 8.32608L35.0879 3.96169L34.5961 3.64697L31.6826 8.01136L31.3253 7.78458L27.3818 13.6809L28.5881 14.4908Z" fill="#0E1826"/>
<path d="M16.1778 30.509L12.2807 36.4054L12.6379 36.6738L9.72437 41.0382L10.1697 41.3529L13.0833 36.9885L13.4869 37.2153L17.384 31.319L16.1778 30.509Z" fill="#0E1826"/>
<path d="M15.1477 6.88677L17.8803 13.4125L19.2257 12.871L16.4931 6.29898L16.0895 6.47948L14.0714 1.61987L13.5796 1.80037L15.5977 6.70627L15.1477 6.88677Z" fill="#0E1826"/>
<path d="M29.6227 38.1132L26.9319 31.5874L25.5864 32.1289L28.2773 38.701L28.6809 38.5205L30.699 43.3801L31.2372 43.1996L29.2191 38.2937L29.6227 38.1132Z" fill="#0E1826"/>
<path d="M37.9549 15.2546L31.4133 17.9529L31.9979 19.3043L38.4977 16.6061L38.3632 16.1571L43.202 14.13L42.9794 13.6348L38.1358 15.6619L37.9549 15.2546Z" fill="#0E1826"/>
<path d="M6.85703 29.7455L13.3568 27.0472L12.8186 25.6958L6.2771 28.394L6.45804 28.843L1.56812 30.8701L1.79081 31.3653L6.67609 29.3382L6.85703 29.7455Z" fill="#0E1826"/>
<path d="M6.27246 16.6061L12.814 19.3043L13.3522 17.9529L6.85239 15.2546L6.67145 15.6619L1.79081 13.6348L1.56812 14.13L6.4534 16.1571L6.27246 16.6061Z" fill="#0E1826"/>
<path d="M38.4931 28.394L31.9933 25.6958L31.4087 27.0472L37.9502 29.7455L38.1312 29.3382L42.9701 31.3653L43.1928 30.8701L38.3539 28.843L38.4931 28.394Z" fill="#0E1826"/>
<path d="M26.9319 13.4079L29.6227 6.88214L29.2191 6.70164L31.2372 1.79574L30.6944 1.61987L28.6763 6.47948L28.2726 6.29899L25.5818 12.871L26.9319 13.4079Z" fill="#0E1826"/>
<path d="M17.8803 31.592L15.1477 38.1178L15.5977 38.2983L13.5796 43.2042L14.0714 43.3847L16.0895 38.5251L16.4931 38.7056L19.2257 32.1335L17.8803 31.592Z" fill="#0E1826"/>
<path d="M12.2804 8.59452L16.1775 14.4908L17.3884 13.6809L13.4913 7.78458L13.0877 8.01136L10.1741 3.64697L9.72876 3.96169L12.6423 8.32608L12.2804 8.59452Z" fill="#0E1826"/>
<path d="M32.5316 36.4054L28.5881 30.509L27.3772 31.319L31.3207 37.2153L31.6779 36.9885L34.5915 41.3529L35.0832 41.0382L32.1697 36.6738L32.5316 36.4054Z" fill="#0E1826"/>
<path d="M36.2524 12.3296L30.3835 16.2451L31.1908 17.504L37.0596 13.5422L36.7906 13.1812L41.1841 10.2099L40.8686 9.76099L36.4751 12.686L36.2524 12.3296Z" fill="#0E1826"/>
<path d="M8.55961 32.6704L14.4285 28.755L13.6212 27.4961L7.75236 31.4578L7.97505 31.8188L3.62793 34.7901L3.94341 35.2391L8.29053 32.3141L8.55961 32.6704Z" fill="#0E1826"/>
<path d="M5.4234 19.8458L12.3686 21.2388L12.6377 19.7995L5.73424 18.4064L5.64609 18.8553L0.49172 17.8186L0.357178 18.4018L5.51155 19.4385L5.4234 19.8458Z" fill="#0E1826"/>
<path d="M26.4399 5.7622L26.0363 5.67427L27.0198 0.49994L26.4816 0.365723L25.4517 5.58633L25.0017 5.4984L23.6562 12.4268L25.0898 12.6952L26.4399 5.7622Z" fill="#0E1826"/>
<path d="M18.3302 39.2426L18.7802 39.3306L17.7502 44.5049L18.2884 44.6391L19.3184 39.4185L19.7684 39.5064L21.1509 32.5826L19.7174 32.3142L18.3302 39.2426Z" fill="#0E1826"/>
<path d="M102.308 8.6827V7.37754L108.539 5.80396V34.11C108.539 36.2251 109.615 37.123 111.318 37.123V38.4281H102.266V37.123C104.104 37.123 105.087 36.2251 105.087 34.11V13.0934C105.082 9.08998 103.83 8.59476 102.308 8.6827Z" fill="#0E1826"/>
<path d="M132.868 37.0352L133.318 31.5878H134.617C135.243 35.6374 138.203 36.8963 141.205 36.8963C143.896 36.8963 145.371 35.3644 145.371 33.3418C145.371 27.987 132.914 30.0558 132.914 22.7201C132.914 19.2536 135.601 16.4211 140.04 16.4211C143.399 16.4211 145.464 17.1431 147.255 18.1336L146.805 22.9932H145.506C144.791 19.9339 142.504 18.7167 139.813 18.7167C137.257 18.7167 136.051 20.1098 136.051 21.8223C136.051 26.5476 148.554 24.7473 148.554 32.2635C148.554 37.0768 144.791 39.1919 140.62 39.1919C137.619 39.2382 134.436 38.3403 132.868 37.0352Z" fill="#0E1826"/>
<path d="M161.233 35.4614L161.906 36.5397C161.28 37.5302 159.396 38.9695 156.752 38.9695C153.569 38.9695 151.866 36.9007 151.866 33.7952V19.9337H149.403V18.6286L151.866 17.4114L154.019 11.1541H155.318V17.6798H161.906V19.9291H155.276V32.2124C155.276 34.3274 155.499 35.901 157.605 36.5768C159.531 37.2617 161.233 35.4614 161.233 35.4614Z" fill="#0E1826"/>
<path d="M181.623 33.5268V16.8745H180.324L178.441 19.1238C177.188 17.9112 174.901 16.333 171.718 16.333C166.16 16.333 161.725 20.429 161.725 27.5379C161.725 34.6931 165.984 38.1133 170.957 38.1133C174.316 38.1133 176.872 36.4935 178.26 34.1516V37.8403H184.398V36.5351C182.384 36.5397 181.623 35.6419 181.623 33.5268ZM178.264 29.5188C177.773 32.8927 175.485 35.3688 172.08 35.3688C167.645 35.3688 165.446 31.9948 165.446 27.4037C165.446 22.4515 167.909 18.8554 171.987 18.8554C174.497 18.8554 176.603 19.619 178.26 21.7804V29.5188H178.264Z" fill="#0E1826"/>
<path d="M70.3566 36.9015C71.4329 36.9015 73.2237 36.721 74.3464 36.4063C75.4645 36.0916 76.4063 35.5501 77.1718 34.9207C77.8446 34.3375 78.3827 33.6155 78.8281 32.7176C79.2781 31.8198 79.6354 30.871 79.9044 29.7926L81.2035 29.7463L79.9044 36.8553C78.8745 37.3505 77.4827 37.7994 75.6919 38.2946C73.9428 38.7436 71.7484 39.0166 69.2385 39.0166C67.3131 39.0166 65.4759 38.7019 63.5923 38.0725C61.7551 37.443 60.0989 36.4989 58.707 35.1474C57.2735 33.8423 56.1507 32.1345 55.3017 30.0611C54.4481 27.946 54.0027 25.4699 54.0027 22.5449C54.0027 20.1613 54.4063 17.9537 55.2136 15.9312C56.0208 13.904 57.1389 12.1499 58.5307 10.6643C59.9179 9.17861 61.6206 8.00768 63.5923 7.15609C65.5641 6.29987 67.7585 5.89722 70.0921 5.89722C72.6902 5.89722 74.7547 6.16565 76.23 6.66087C77.71 7.15609 78.8745 7.65131 79.589 8.01231L80.4426 15.1212L79.1436 15.1675C79.009 14.3113 78.7864 13.5014 78.4245 12.6498C78.0672 11.8398 77.6636 11.1178 77.1254 10.5347C76.3646 9.67846 75.4228 9.04902 74.3001 8.60009C73.182 8.15115 71.5674 7.92437 70.0875 7.92437C68.2503 7.92437 66.594 8.28537 65.114 9.04902C63.5923 9.81267 62.335 10.8494 61.2587 12.1545C60.1824 13.4597 59.3751 14.9916 58.7952 16.792C58.2106 18.5461 57.8998 20.4807 57.8998 22.5078C57.8998 24.6692 58.2153 26.6501 58.7952 28.4042C59.3798 30.1582 60.2288 31.6902 61.3515 32.9491C62.4278 34.2079 63.7269 35.1521 65.2486 35.8278C66.8585 36.5405 68.5194 36.9015 70.3566 36.9015Z" fill="#0E1826"/>
<path d="M131.165 32.9854C129.463 36.5861 126.549 39.0159 121.664 39.0159C114.941 39.0159 111.086 34.4247 111.086 27.8573C111.086 21.4241 115.656 16.6987 121.617 16.6987C127.175 16.6987 130.803 20.2532 131.026 25.969L129.727 27.3621H114.361C114.765 31.7728 117.989 36.0909 122.875 36.0909C128.474 36.0909 129.954 32.268 129.954 32.268L131.165 32.9854ZM114.45 25.1082H127.041C126.994 22.0952 124.754 18.9434 120.676 18.9434C117.948 18.9897 114.941 20.9706 114.45 25.1082Z" fill="#0E1826"/>
<path d="M102.443 32.9854C100.74 36.5861 97.8264 39.0159 92.9411 39.0159C86.2186 39.0159 82.3633 34.4247 82.3633 27.8573C82.3633 21.4241 86.9331 16.6987 92.8947 16.6987C98.4527 16.6987 102.081 20.2532 102.303 25.969L101.004 27.4084H85.6805C86.0841 31.8191 89.3085 36.1372 94.1937 36.1372C99.7935 36.1372 101.273 32.3143 101.273 32.3143L102.443 32.9854ZM85.7268 25.1082H98.3646C98.3182 22.0952 96.0773 18.9434 91.9993 18.9434C89.2203 18.9897 86.2186 20.9706 85.7268 25.1082Z" fill="#0E1826"/>
</g>
<defs>
<clipPath id="clip0">
<rect width="184.402" height="45" fill="white"/>
</clipPath>
</defs>
</svg>
