<?xml version="1.0" encoding="UTF-8" standalone="no"?>
<!-- Created with Inkscape (http://www.inkscape.org/) -->

<svg
   xmlns:dc="http://purl.org/dc/elements/1.1/"
   xmlns:cc="http://creativecommons.org/ns#"
   xmlns:rdf="http://www.w3.org/1999/02/22-rdf-syntax-ns#"
   xmlns:svg="http://www.w3.org/2000/svg"
   xmlns="http://www.w3.org/2000/svg"
   xmlns:sodipodi="http://sodipodi.sourceforge.net/DTD/sodipodi-0.dtd"
   xmlns:inkscape="http://www.inkscape.org/namespaces/inkscape"
   width="221.59537"
   height="50.6245"
   id="svg2"
   version="1.1"
   inkscape:version="0.47 r22583"
   sodipodi:docname="New document 1">
  <defs
     id="defs4">
    <inkscape:perspective
       sodipodi:type="inkscape:persp3d"
       inkscape:vp_x="0 : 526.18109 : 1"
       inkscape:vp_y="0 : 1000 : 0"
       inkscape:vp_z="744.09448 : 526.18109 : 1"
       inkscape:persp3d-origin="372.04724 : 350.78739 : 1"
       id="perspective10" />
    <clipPath
       id="clipPath3240"
       clipPathUnits="userSpaceOnUse">
      <path
         id="path3242"
         d="M 0,0 576,0 576,720 0,720 0,0 z" />
    </clipPath>
    <clipPath
       id="clipPath3224"
       clipPathUnits="userSpaceOnUse">
      <path
         id="path3226"
         d="M 0,720 576,720 576,0 0,0 0,720 z" />
    </clipPath>
    <clipPath
       id="clipPath3214"
       clipPathUnits="userSpaceOnUse">
      <path
         id="path3216"
         d="M 0,0 576,0 576,720 0,720 0,0 z" />
    </clipPath>
    <clipPath
       id="clipPath3194"
       clipPathUnits="userSpaceOnUse">
      <path
         id="path3196"
         d="M 0,0 576,0 576,720 0,720 0,0 z" />
    </clipPath>
    <clipPath
       id="clipPath3070"
       clipPathUnits="userSpaceOnUse">
      <path
         id="path3072"
         d="m 199.362,135.25 177.277,0 0,40.5 -177.277,0 0,-40.5 z" />
    </clipPath>
    <clipPath
       id="clipPath3062"
       clipPathUnits="userSpaceOnUse">
      <path
         id="path3064"
         d="M 0,720 576,720 576,0 0,0 0,720 z" />
    </clipPath>
    <clipPath
       id="clipPath3052"
       clipPathUnits="userSpaceOnUse">
      <path
         id="path3054"
         d="M 0,0 576,0 576,720 0,720 0,0 z" />
    </clipPath>
    <clipPath
       id="clipPath2882"
       clipPathUnits="userSpaceOnUse">
      <path
         id="path2884"
         d="m -9,-9 528.199,0 0,49.5 L -9,40.5 -9,-9 z" />
    </clipPath>
    <clipPath
       id="clipPath2878"
       clipPathUnits="userSpaceOnUse">
      <path
         id="path2880"
         d="m -10.9258,44.5858 440.6398,0 0,-60.48 -440.6398,0 0,60.48 z" />
    </clipPath>
    <mask
       id="mask2868"
       height="1"
       width="1"
       y="0"
       x="0"
       maskUnits="userSpaceOnUse">
      <g
         id="g2870">
        <g
           id="g2872"
           clip-path="url(#clipPath2864)">
          <g
             id="g2874">
            <g
               id="g2876"
               transform="matrix(542.88002,0,0,64.800003,-14.885788,-18.414215)" />
          </g>
        </g>
      </g>
    </mask>
    <clipPath
       id="clipPath2864"
       clipPathUnits="userSpaceOnUse">
      <path
         id="path2866"
         d="m -14.8858,46.3858 542.8798,0 0,-64.8 -542.8798,0 0,64.8 z" />
    </clipPath>
    <clipPath
       id="clipPath2860"
       clipPathUnits="userSpaceOnUse">
      <path
         id="path2862"
         d="m -14.8858,46.3858 542.7988,0 0,-64.1 -542.7988,0 0,64.1 z" />
    </clipPath>
    <clipPath
       id="clipPath2852"
       clipPathUnits="userSpaceOnUse">
      <path
         id="path2854"
         d="M 0,0 576,0 576,720 0,720 0,0 z" />
    </clipPath>
    <clipPath
       id="clipPath2842"
       clipPathUnits="userSpaceOnUse">
      <path
         id="path2844"
         d="M 0,720 576,720 576,0 0,0 0,720 z" />
    </clipPath>
    <clipPath
       id="clipPath2832"
       clipPathUnits="userSpaceOnUse">
      <path
         id="path2834"
         d="M 0,0 576,0 576,720 0,720 0,0 z" />
    </clipPath>
    <inkscape:perspective
       id="perspective2824"
       inkscape:persp3d-origin="0.5 : 0.33333333 : 1"
       inkscape:vp_z="1 : 0.5 : 1"
       inkscape:vp_y="0 : 1000 : 0"
       inkscape:vp_x="0 : 0.5 : 1"
       sodipodi:type="inkscape:persp3d" />
  </defs>
  <sodipodi:namedview
     id="base"
     pagecolor="#ffffff"
     bordercolor="#666666"
     borderopacity="1.0"
     inkscape:pageopacity="0.0"
     inkscape:pageshadow="2"
     inkscape:zoom="5.7010309"
     inkscape:cx="121.42857"
     inkscape:cy="15.714286"
     inkscape:document-units="px"
     inkscape:current-layer="layer1"
     showgrid="false"
     inkscape:window-width="1680"
     inkscape:window-height="1000"
     inkscape:window-x="-8"
     inkscape:window-y="-8"
     inkscape:window-maximized="1" />
  <metadata
     id="metadata7">
    <rdf:RDF>
      <cc:Work
         rdf:about="">
        <dc:format>image/svg+xml</dc:format>
        <dc:type
           rdf:resource="http://purl.org/dc/dcmitype/StillImage" />
        <dc:title></dc:title>
      </cc:Work>
    </rdf:RDF>
  </metadata>
  <g
     inkscape:label="Layer 1"
     inkscape:groupmode="layer"
     id="layer1"
     transform="translate(-215.63157,-558.74605)">
    <path
       d="m 227.28407,563.7148 -0.60625,0 c -0.1725,-1.57625 -1.0725,-2.96125 -4.38,-2.96125 -3.1,0 -4.97,1.42 -4.97,4.64125 0,3.56625 2.28625,6.40625 5.50625,6.40625 1.8175,0 3.2725,-0.79625 4.19,-2.39 l 0.43375,0.34625 -1.265,2.3375 c -1.24625,0.33 -2.45875,0.485 -3.58375,0.485 -3.93,0 -6.9775,-1.8175 -6.9775,-6.40625 0,-3.89625 2.35375,-6.19875 6.7525,-6.19875 1.24625,0 3.32375,0.26 4.71,0.62375 l 0.19,3.11625 z"
       style="fill:#005288;fill-opacity:1;fill-rule:nonzero;stroke:none"
       id="path3076" />
    <path
       d="m 233.89844,566.71042 c 0.0687,-1.28125 -0.5025,-2.32 -1.905,-2.32 -1.26375,0 -2.0425,1.1775 -2.13,2.32 l 4.035,0 z m -4.06875,0.52 c 0,2.2675 0.8825,4.1375 3.13375,4.1375 1.05625,0 1.8875,-0.76125 2.5625,-1.47125 l 0.38125,0.38125 -2.02625,2.0425 c -0.12125,0.0688 -0.74375,0.19 -1.6275,0.19 -2.1475,0 -3.84375,-1.54 -3.84375,-4.345 0,-2.75375 1.71375,-4.295 3.84375,-4.295 1.80125,0 3.15125,1.2125 3.15125,2.66625 0,0.65875 -0.1725,0.69375 -0.6925,0.69375 l -4.8825,0 z"
       style="fill:#005288;fill-opacity:1;fill-rule:nonzero;stroke:none"
       id="path3080" />
    <path
       d="m 238.88507,571.50643 1.47125,0.29375 0,0.52 -4.415,0 0,-0.52 1.4725,-0.29375 0,-6.1125 c -0.4675,-0.225 -1.005,-0.31125 -1.5075,-0.31125 l 0,-0.52 c 0.83125,-0.10375 1.87,-0.38 2.58,-0.6925 l 0.39875,0.12125 0,1.29875 c 0.83125,-0.60625 1.645,-1.195 1.8525,-1.28125 0.17375,-0.0687 0.4675,-0.13875 0.64125,-0.13875 2.3025,0 2.96,1.005 2.96,2.71875 l 0,4.9175 1.4725,0.29375 0,0.52 -4.415,0 0,-0.52 1.47125,-0.29375 0,-3.5325 c 0,-1.42 0.0525,-2.96 -1.74875,-2.96 -0.81375,0 -1.57625,0.32875 -2.23375,0.79625 l 0,5.69625 z"
       style="fill:#005288;fill-opacity:1;fill-rule:nonzero;stroke:none"
       id="path3084" />
    <path
       d="m 245.49907,564.8748 c 1.10875,-0.45 1.97375,-1.57625 2.3025,-2.77 l 0.41625,0 0,2.42375 2.5975,0 0,0.86625 -2.5975,0 0,4.2075 c -0.035,1.22875 0.38,1.8 1.385,1.8175 0.51875,0 0.935,-0.36375 1.33375,-0.745 l 0.24125,0.41625 -1.03875,1.05625 c -0.36375,0.36375 -0.9175,0.31125 -1.38375,0.31125 -0.9875,0 -2.01,-0.5025 -2.01,-2.16375 l 0,-4.9 -1.24625,0 0,-0.52 z"
       style="fill:#005288;fill-opacity:1;fill-rule:nonzero;stroke:none"
       id="path3088" />
    <path
       d="m 257.04844,566.71042 c 0.0687,-1.28125 -0.5025,-2.32 -1.905,-2.32 -1.26375,0 -2.0425,1.1775 -2.13,2.32 l 4.035,0 z m -4.06875,0.52 c 0,2.2675 0.8825,4.1375 3.13375,4.1375 1.05625,0 1.8875,-0.76125 2.5625,-1.47125 l 0.38125,0.38125 -2.02625,2.0425 c -0.12125,0.0688 -0.74375,0.19 -1.6275,0.19 -2.1475,0 -3.84375,-1.54 -3.84375,-4.345 0,-2.75375 1.71375,-4.295 3.84375,-4.295 1.80125,0 3.15125,1.2125 3.15125,2.66625 0,0.65875 -0.1725,0.69375 -0.6925,0.69375 l -4.8825,0 z"
       style="fill:#005288;fill-opacity:1;fill-rule:nonzero;stroke:none"
       id="path3092" />
    <path
       d="m 262.38119,563.99192 0,2.16375 0.31125,-0.48375 c 0.38125,-0.71 1.09125,-1.87 2.00875,-1.87 0.36375,0 0.55375,0.1375 0.83125,0.34625 l -0.225,1.35 -0.225,0.0525 c -0.19,-0.13875 -0.58875,-0.33 -0.81375,-0.33 -1.005,0 -1.8875,1.75 -1.8875,2.06125 l 0,4.225 1.8175,0.29375 0,0.52 -4.8825,0 0,-0.52 1.59375,-0.29375 0,-6.1125 c -0.4675,-0.225 -1.005,-0.31125 -1.5075,-0.31125 l 0,-0.52 c 0.83125,-0.10375 1.87,-0.38125 2.58,-0.6925 l 0.39875,0.12125 z"
       style="fill:#005288;fill-opacity:1;fill-rule:nonzero;stroke:none"
       id="path3096" />
    <path
       d="m 271.17694,565.39442 0,-0.86625 1.07375,0 c 0,-3.39375 1.28125,-5.7825 3.18625,-5.7825 0.38,0 0.6225,0.10375 0.79625,0.19 l -0.485,1.36875 c -0.485,-0.3475 -0.6575,-0.485 -1.16,-0.485 -1.09125,0 -1.05625,1.645 -0.83125,4.70875 l 2.09625,0 0,0.86625 -2.1125,0 0,6.1125 1.69625,0.29375 0,0.52 -4.64125,0 0,-0.52 1.4725,-0.29375 0,-6.1125 -1.09125,0 z"
       style="fill:#005288;fill-opacity:1;fill-rule:nonzero;stroke:none"
       id="path3100" />
    <path
       d="m 280.42332,571.9913 c 1.99125,0 2.49375,-1.71375 2.49375,-3.37625 0,-1.74875 -0.41625,-4.225 -2.6675,-4.225 -1.88625,0 -2.40625,1.835 -2.40625,3.39375 0,1.55875 0.55375,4.2075 2.58,4.2075 m -4.13875,-3.7925 c 0,-2.59625 1.42,-4.32875 4.12125,-4.32875 2.66625,0 4.06875,1.59375 4.06875,4.2075 0,2.6675 -1.4025,4.43375 -4.19,4.43375 -2.5975,0 -4,-1.83625 -4,-4.3125"
       style="fill:#005288;fill-opacity:1;fill-rule:nonzero;stroke:none"
       id="path3104" />
    <path
       d="m 287.88582,563.99192 0,2.16375 0.31125,-0.48375 c 0.38125,-0.71 1.09125,-1.87 2.00875,-1.87 0.36375,0 0.55375,0.1375 0.83125,0.34625 l -0.22375,1.35 -0.22625,0.0525 c -0.19,-0.13875 -0.58875,-0.33 -0.81375,-0.33 -1.005,0 -1.8875,1.75 -1.8875,2.06125 l 0,4.225 1.8175,0.29375 0,0.52 -4.8825,0 0,-0.52 1.59375,-0.29375 0,-6.1125 c -0.4675,-0.225 -1.005,-0.31125 -1.5075,-0.31125 l 0,-0.52 c 0.83125,-0.10375 1.87,-0.38125 2.58,-0.6925 l 0.39875,0.12125 z"
       style="fill:#005288;fill-opacity:1;fill-rule:nonzero;stroke:none"
       id="path3108" />
    <path
       d="m 299.08869,566.9698 3.6875,0 -1.92125,-4.6575 -1.76625,4.6575 z m -0.3475,0.86625 -1.28,3.60125 1.69625,0.29375 0,0.58875 -4.32875,0 0,-0.58875 1.47125,-0.29375 4.52,-11.4625 0.88375,0 4.76125,11.4625 1.47125,0.29375 0,0.58875 -5.00375,0 0,-0.58875 1.6975,-0.29375 -1.49,-3.60125 -4.39875,0 z"
       style="fill:#005288;fill-opacity:1;fill-rule:nonzero;stroke:none"
       id="path3112" />
    <path
       d="m 311.90169,571.50643 1.47125,0.29375 0,0.52 -4.415,0 0,-0.52 1.4725,-0.29375 0,-6.1125 c -0.4675,-0.225 -1.005,-0.31125 -1.5075,-0.31125 l 0,-0.52 c 0.83125,-0.10375 1.87,-0.38 2.58,-0.6925 l 0.39875,0.12125 0,1.42 1.385,-1.02125 c 0.57125,-0.41625 0.81375,-0.5025 1.54125,-0.5025 1.10875,0 2.04375,0.52 2.5275,1.4025 l 1.33375,-0.9525 c 0.55375,-0.3975 0.935,-0.4675 1.16,-0.4675 2.3025,0 2.96125,1.005 2.96125,2.71875 l 0,4.9175 1.47125,0.29375 0,0.52 -4.415,0 0,-0.52 1.47125,-0.29375 0,-3.5325 c 0,-1.42 0.0525,-2.96 -1.74875,-2.96 -0.81375,0 -1.575,0.32875 -2.23375,0.79625 l 0,5.69625 1.4725,0.29375 0,0.52 -4.415,0 0,-0.52 1.47125,-0.29375 0,-3.5325 c 0,-1.42 0.0525,-2.96 -1.74875,-2.96 -0.81375,0 -1.57625,0.32875 -2.23375,0.79625 l 0,5.69625 z"
       style="fill:#005288;fill-opacity:1;fill-rule:nonzero;stroke:none"
       id="path3116" />
    <path
       d="m 329.85694,566.71042 c 0.0687,-1.28125 -0.5025,-2.32 -1.90375,-2.32 -1.26375,0 -2.04375,1.1775 -2.13125,2.32 l 4.035,0 z m -4.06875,0.52 c 0,2.2675 0.8825,4.1375 3.135,4.1375 1.055,0 1.88625,-0.76125 2.56125,-1.47125 l 0.38125,0.38125 -2.025,2.0425 c -0.12125,0.0688 -0.745,0.19 -1.62875,0.19 -2.14625,0 -3.84375,-1.54 -3.84375,-4.345 0,-2.75375 1.715,-4.295 3.84375,-4.295 1.80125,0 3.1525,1.2125 3.1525,2.66625 0,0.65875 -0.17375,0.69375 -0.6925,0.69375 l -4.88375,0 z"
       style="fill:#005288;fill-opacity:1;fill-rule:nonzero;stroke:none"
       id="path3120" />
    <path
       d="m 335.22482,563.99192 0,2.16375 0.31125,-0.48375 c 0.38125,-0.71 1.09,-1.87 2.00875,-1.87 0.36375,0 0.55375,0.1375 0.83125,0.34625 l -0.225,1.35 -0.225,0.0525 c -0.19,-0.13875 -0.58875,-0.33 -0.81375,-0.33 -1.005,0 -1.8875,1.75 -1.8875,2.06125 l 0,4.225 1.8175,0.29375 0,0.52 -4.8825,0 0,-0.52 1.5925,-0.29375 0,-6.1125 c -0.46625,-0.225 -1.00375,-0.31125 -1.50625,-0.31125 l 0,-0.52 c 0.83125,-0.10375 1.87,-0.38125 2.58,-0.6925 l 0.39875,0.12125 z"
       style="fill:#005288;fill-opacity:1;fill-rule:nonzero;stroke:none"
       id="path3124" />
    <path
       d="m 341.31944,561.82755 c -0.4325,0 -0.84875,-0.38125 -0.84875,-0.81375 0,-0.45 0.36375,-0.9175 0.84875,-0.9175 0.5025,0 0.8825,0.4325 0.8825,0.9175 0,0.4675 -0.4325,0.81375 -0.8825,0.81375 m -2.33875,10.4925 0,-0.51875 1.6975,-0.295 0,-6.11125 c -0.4675,-0.22625 -1.00375,-0.3125 -1.50625,-0.3125 l 0,-0.51875 c 0.83125,-0.10375 1.87,-0.38125 2.58,-0.6925 l 0.39875,0.12125 0,7.51375 1.69625,0.295 0,0.51875 -4.86625,0 z"
       style="fill:#005288;fill-opacity:1;fill-rule:nonzero;stroke:none"
       id="path3128" />
    <path
       d="m 349.47482,566.51992 -0.225,-0.17375 c 0.0512,-1.1425 0.0175,-1.8525 -1.2825,-1.8525 -2.25,0 -2.4225,2.095 -2.31875,3.86125 0.13875,1.6975 0.935,3.01375 2.7875,3.01375 1.55875,0 1.8875,-0.62375 2.68375,-1.87 l 0.41625,0.24125 c -0.22625,0.39875 -1.075,2.165 -1.55875,2.39 -0.60625,0.31125 -1.36875,0.38125 -2.0425,0.38125 -2.615,0 -3.845,-1.55875 -3.845,-4.08625 0,-2.54625 1.07375,-4.55375 3.91375,-4.55375 0.7625,0 2.0425,0.2425 2.545,0.8825 0.34625,0.45 0.27625,0.81375 0.225,1.33375 l -1.29875,0.4325 z"
       style="fill:#005288;fill-opacity:1;fill-rule:nonzero;stroke:none"
       id="path3132" />
    <path
       d="m 356.92069,568.25142 c -1.59375,0.79625 -3.22125,1.05625 -3.22125,2.26875 0,0.6225 0.57125,1.02125 1.265,1.02125 0.53625,0 1.4025,-0.4325 1.95625,-0.7625 l 0,-2.5275 z m 0,-1.73125 c 0,-1.33375 -0.4325,-1.73125 -1.2125,-1.73125 -1.12625,0 -1.52375,0.96875 -1.4725,1.87 0.0188,0.2075 -0.1375,0.19 -0.29375,0.225 l -1.03875,0.2075 -0.12125,-0.0688 0.07,-1.09125 c 0.0175,-0.295 0.74375,-0.6925 0.95125,-0.81375 l 2.04375,-1.16 c 0.19125,-0.10375 0.41625,-0.0875 0.6225,-0.0875 1.10875,0 1.9225,0.60625 1.9225,2.13 l 0,5.05625 1.42,0.295 0,0.415 c -0.8825,0.15625 -1.905,0.415 -2.83875,0.745 l -0.12125,-0.13875 0.0512,-1.10875 c -0.865,0.65875 -1.8175,1.2475 -2.94375,1.2475 -1.26375,0 -1.81875,-1.04 -1.81875,-1.715 0,-1.43625 1.10875,-1.8175 1.8875,-2.06 1.03875,-0.32875 2.01,-0.6925 2.8925,-0.9525 l 0,-1.26375 z"
       style="fill:#005288;fill-opacity:1;fill-rule:nonzero;stroke:none"
       id="path3136" />
    <path
       d="m 363.60369,571.50643 1.47125,0.29375 0,0.52 -4.415,0 0,-0.52 1.4725,-0.29375 0,-6.1125 c -0.4675,-0.225 -1.005,-0.31125 -1.5075,-0.31125 l 0,-0.52 c 0.83125,-0.10375 1.87,-0.38 2.58,-0.6925 l 0.39875,0.12125 0,1.29875 c 0.83125,-0.60625 1.645,-1.195 1.8525,-1.28125 0.17375,-0.0687 0.4675,-0.13875 0.64125,-0.13875 2.3025,0 2.96,1.005 2.96,2.71875 l 0,4.9175 1.4725,0.29375 0,0.52 -4.415,0 0,-0.52 1.47125,-0.29375 0,-3.5325 c 0,-1.42 0.0525,-2.96 -1.74875,-2.96 -0.81375,0 -1.57625,0.32875 -2.23375,0.79625 l 0,5.69625 z"
       style="fill:#005288;fill-opacity:1;fill-rule:nonzero;stroke:none"
       id="path3140" />
    <path
       d="m 377.73257,571.43718 0,-10.32 -1.80125,-0.29375 0,-0.58875 5.26375,0 c 2.2,0 4.10375,0.58875 4.10375,2.995 0,2.39 -1.76625,4.08625 -4.1375,4.08625 -0.39875,0 -0.78,-0.0512 -1.1775,-0.13875 l 0,-0.50125 0.0688,-0.0875 c 0.2775,0.0525 0.55375,0.105 0.84875,0.105 2.3725,0 2.77125,-1.81875 2.6675,-3.16875 -0.1225,-1.87 -1.28125,-2.6325 -2.80625,-2.6325 -0.45,0 -0.9,0.0175 -1.33375,0.07 l 0,10.475 1.94,0.29375 0,0.58875 -5.4375,0 0,-0.58875 1.80125,-0.29375 z"
       style="fill:#005288;fill-opacity:1;fill-rule:nonzero;stroke:none"
       id="path3144" />
    <path
       d="m 388.83157,563.99192 0,2.16375 0.31125,-0.48375 c 0.38125,-0.71 1.09125,-1.87 2.00875,-1.87 0.36375,0 0.55375,0.1375 0.83125,0.34625 l -0.225,1.35 -0.225,0.0525 c -0.19,-0.13875 -0.58875,-0.33 -0.81375,-0.33 -1.005,0 -1.8875,1.75 -1.8875,2.06125 l 0,4.225 1.8175,0.29375 0,0.52 -4.8825,0 0,-0.52 1.59375,-0.29375 0,-6.1125 c -0.4675,-0.225 -1.005,-0.31125 -1.5075,-0.31125 l 0,-0.52 c 0.83125,-0.10375 1.87,-0.38125 2.58,-0.6925 l 0.39875,0.12125 z"
       style="fill:#005288;fill-opacity:1;fill-rule:nonzero;stroke:none"
       id="path3148" />
    <path
       d="m 396.12069,571.9913 c 1.99125,0 2.49375,-1.71375 2.49375,-3.37625 0,-1.74875 -0.41625,-4.225 -2.6675,-4.225 -1.88625,0 -2.40625,1.835 -2.40625,3.39375 0,1.55875 0.55375,4.2075 2.58,4.2075 m -4.13875,-3.7925 c 0,-2.59625 1.42,-4.32875 4.12125,-4.32875 2.66625,0 4.06875,1.59375 4.06875,4.2075 0,2.6675 -1.4025,4.43375 -4.19,4.43375 -2.5975,0 -4,-1.83625 -4,-4.3125"
       style="fill:#005288;fill-opacity:1;fill-rule:nonzero;stroke:none"
       id="path3152" />
    <path
       d="m 402.70032,566.17355 c 0,1.05625 0.5375,2.45875 1.78375,2.45875 0.98625,0 1.43625,-0.9525 1.42,-1.80125 -0.0175,-0.98625 -0.43375,-2.44125 -1.68,-2.44125 -1.02125,0 -1.52375,0.86625 -1.52375,1.78375 m 4.57125,7.35875 c 0,-1.2125 -1.8175,-1.47125 -2.805,-1.47125 -1.03875,0 -2.64875,0.25875 -2.64875,1.645 0,1.45375 1.43625,1.8 2.61375,1.8 1.16,0 2.84,-0.60625 2.84,-1.97375 m -4.39875,-1.71375 c -0.81375,-0.3125 -1.6275,-1.10875 -1.26375,-2.04375 l 1.57625,-0.74375 c -1.12625,-0.295 -1.8525,-1.23 -1.8525,-2.4075 0,-1.835 1.28125,-2.7525 3.0475,-2.7525 0.6575,0 1.315,0.2075 1.93875,0.3975 l 0.45,0 1.74875,-0.0862 c -0.0162,-0.0688 0.45,0.7275 -0.225,0.9875 -0.2075,0.0862 -0.98625,-0.07 -1.48875,-0.19125 0.32875,0.45 0.4675,0.90125 0.4675,1.4375 0,1.835 -1.645,2.8575 -3.3425,2.73625 l -0.32875,0.1725 -0.69125,0.4325 c 0.0513,1.12625 1.85125,1.12625 2.61375,1.16 1.4375,0.07 3.03,0.45125 3.03,2.2175 0,2.19875 -2.84,2.89125 -4.55375,2.89125 -1.48875,0 -3.46375,-0.52 -3.46375,-2.3375 0,-1.12625 0.38125,-1.2475 0.84875,-1.35125 l 1.48875,-0.51875 z"
       style="fill:#005288;fill-opacity:1;fill-rule:nonzero;stroke:none"
       id="path3156" />
    <path
       d="m 412.58694,563.99192 0,2.16375 0.3125,-0.48375 c 0.38125,-0.71 1.09,-1.87 2.0075,-1.87 0.365,0 0.55375,0.1375 0.83125,0.34625 l -0.225,1.35 -0.225,0.0525 c -0.19,-0.13875 -0.58875,-0.33 -0.81375,-0.33 -1.005,0 -1.8875,1.75 -1.8875,2.06125 l 0,4.225 1.8175,0.29375 0,0.52 -4.8825,0 0,-0.52 1.59375,-0.29375 0,-6.1125 c -0.4675,-0.225 -1.00375,-0.31125 -1.5075,-0.31125 l 0,-0.52 c 0.83125,-0.10375 1.87,-0.38125 2.58,-0.6925 l 0.39875,0.12125 z"
       style="fill:#005288;fill-opacity:1;fill-rule:nonzero;stroke:none"
       id="path3160" />
    <path
       d="m 421.40044,566.71042 c 0.0688,-1.28125 -0.5025,-2.32 -1.90375,-2.32 -1.265,0 -2.04375,1.1775 -2.13125,2.32 l 4.035,0 z m -4.06875,0.52 c 0,2.2675 0.8825,4.1375 3.13375,4.1375 1.05625,0 1.8875,-0.76125 2.5625,-1.47125 l 0.38125,0.38125 -2.025,2.0425 c -0.1225,0.0688 -0.74625,0.19 -1.62875,0.19 -2.14625,0 -3.84375,-1.54 -3.84375,-4.345 0,-2.75375 1.71375,-4.295 3.84375,-4.295 1.80125,0 3.15125,1.2125 3.15125,2.66625 0,0.65875 -0.1725,0.69375 -0.69125,0.69375 l -4.88375,0 z"
       style="fill:#005288;fill-opacity:1;fill-rule:nonzero;stroke:none"
       id="path3164" />
    <path
       d="m 429.60794,566.51992 -0.60625,0 c 0,-1.10875 -0.58875,-2.02625 -1.8,-2.02625 -0.8825,0 -1.645,0.41625 -1.645,1.36875 0,1.90375 4.675,0.865 4.675,3.9125 0,1.835 -1.59375,2.73625 -3.27375,2.73625 -0.8825,0 -1.7825,-0.17375 -2.57875,-0.57125 l -0.24375,-2.39 0.67625,0 c 0.035,1.33375 0.84875,2.3375 2.23375,2.3375 0.9525,0 1.8875,-0.45 1.8875,-1.48875 0,-2.23375 -4.60625,-0.935 -4.60625,-4.10375 0,-1.52375 1.4025,-2.42375 2.84,-2.42375 0.935,0 1.74875,0.225 2.47625,0.81375 l -0.035,1.835 z"
       style="fill:#005288;fill-opacity:1;fill-rule:nonzero;stroke:none"
       id="path3168" />
    <path
       d="m 436.60319,566.51992 -0.60625,0 c 0,-1.10875 -0.58875,-2.02625 -1.8,-2.02625 -0.8825,0 -1.645,0.41625 -1.645,1.36875 0,1.90375 4.675,0.865 4.675,3.9125 0,1.835 -1.59375,2.73625 -3.27375,2.73625 -0.8825,0 -1.7825,-0.17375 -2.57875,-0.57125 l -0.24375,-2.39 0.67625,0 c 0.035,1.33375 0.84875,2.3375 2.23375,2.3375 0.9525,0 1.8875,-0.45 1.8875,-1.48875 0,-2.23375 -4.60625,-0.935 -4.60625,-4.10375 0,-1.52375 1.4025,-2.42375 2.84,-2.42375 0.935,0 1.74875,0.225 2.47625,0.81375 l -0.035,1.835 z"
       style="fill:#005288;fill-opacity:1;fill-rule:nonzero;stroke:none"
       id="path3172" />
    <path
       d="m 260.58232,583.92855 5.97,-0.875 -0.3125,-2.61625 3.89,2.09625 5.98875,-0.87625 -3.4525,2.22625 4.05,2.13875 -6.14625,-0.78375 -3.4625,2.19125 -0.285,-2.6925 -6.24,-0.80875 z m -14.055,-0.7725 -3.4625,2.1875 -0.285,-2.69125 -6.24,-0.8075 5.96875,-0.87375 -0.31,-2.61625 3.88875,2.0925 5.99,-0.875 -3.45375,2.22875 4.05,2.13875 -6.14625,-0.78375 z m -8.21,7.71125 -3.4625,2.19125 -0.28375,-2.69125 -6.24,-0.81 5.96875,-0.87125 -0.3125,-2.61625 3.89,2.09125 5.99,-0.87625 -3.4525,2.2275 4.04875,2.13875 -6.14625,-0.78375 z m 51.3775,-4.77 c -1.75875,-1.87625 -3.8125,-5.41875 -7.03625,-8.54625 l -66.085,0 0,5.395 1.66,0.83625 5.99,-0.875 -3.455,2.2275 4.05125,2.13875 -6.1475,-0.7825 -2.09875,1.25625 0,10.415 c 12.16,-0.70625 35.48875,-4.81 50.2525,-8.10375 6.02625,-1.3425 19.35,-3.33375 22.86875,-3.96125"
       style="fill:#005288;fill-opacity:1;fill-rule:nonzero;stroke:none"
       id="path3176" />
    <path
       d="m 216.58807,601.8743 c 6.45,0 35.29875,-3.06125 44.09375,-4.72875 8.79625,-1.6675 52.125,-10.9225 60.10625,-12.925 9.9675,-2.5 39.78375,-5.92 51.8075,-6.64375 l 5.3925,-0.30625 c 2.69625,0 2.4925,-0.1525 6.7925,0.23 1.72375,0.15375 3.34125,0.46 6.36125,1.0725 l 6.3625,1.61 c -1.55875,-0.2625 -5.60875,-0.42875 -6.2525,-0.45875 -9.92125,-0.46 -20.165,1.0725 -25.7725,1.83875 -8.99125,1.22875 -27.09875,3.91125 -54.65875,10.58125 -27.5625,6.66875 -58.4625,15.35 -94.2325,17.22625 l 0,-7.49625 z"
       style="fill:#005288;fill-opacity:1;fill-rule:nonzero;stroke:none"
       id="path3180" />
    <path
       d="m 351.85444,577.55142 -35.185,0 c -7.5675,1.655 -21.0875,4.15125 -30.19375,4.41125 1.24625,1.64125 2.2775,3.12875 3.22,4.13375 -0.0625,0.0125 -0.135,0.0238 -0.2025,0.0362 l 0.005,0.006 c 8.81625,-1.68625 43.81625,-8.3775 62.35625,-8.5875"
       style="fill:#005288;fill-opacity:1;fill-rule:nonzero;stroke:none"
       id="path3184" />
    <path
       d="m 284.64407,579.6778 c 4.17875,-0.635 13.73625,-1.90875 17.29875,-2.12 l -19.27875,0 c 0.71625,0.69375 1.37125,1.4075 1.98,2.12"
       style="fill:#005288;fill-opacity:1;fill-rule:nonzero;stroke:none"
       id="path3188" />
  </g>
</svg>
