<svg id="CAF_logo" data-name="CAF logo" xmlns="http://www.w3.org/2000/svg" viewBox="0 0 432.6 270.3">
  <title>CAF Main logo RGB</title>
  <g id="CAF_logo_with_desicriptor" data-name="CAF logo with desicriptor">
    <rect x="27.1" y="202.8" width="376.7" height="3" fill="#d24508"/>
    <path d="M194.4,127.3,215.6,68l23.1,59.4ZM239.7,28H200.6L138,189.5h34.2l14.1-38.7h61.3l13.7,38.7h42.9Z" fill="#d24508"/>
    <path d="M194.4,127.2l21.2-59.4,23.1,59.4Zm45.3-99.4H200.6L138,189.4h34.2l14.1-38.7h61.3l13.7,38.7h42.9Z" fill="#d24508"/>
    <g>
      <g>
        <path d="M45.4,243a24,24,0,0,1-5.4.7c-7.7,0-13-3.8-13-11.8s5-12.7,13-12.7a15.7,15.7,0,0,1,5.4,1l-.3,4a9.8,9.8,0,0,0-5.1-1.3c-4.9,0-7.9,3.7-7.9,8.6s3,8.5,8,8.5a13.2,13.2,0,0,0,5.2-1Z" fill="#d24508"/>
        <path d="M48.3,217.9h4.5v10.4H53a6.5,6.5,0,0,1,5.5-2.8c4.1,0,5.9,2.9,5.9,6.9v11H59.8V234c0-2.1,0-5-3-5s-4,3.6-4,5.8v8.6H48.3Z" fill="#d24508"/>
        <path d="M68.8,226.8a15.6,15.6,0,0,1,6.1-1.3c5.3,0,7.5,2.2,7.5,7.4v2.2c0,1.8,0,3.1.1,4.4s.1,2.5.2,3.9h-4a21.7,21.7,0,0,1-.2-2.6h-.1a6.2,6.2,0,0,1-5.4,3c-3.1,0-6.1-1.9-6.1-5.2a5.1,5.1,0,0,1,3-5,13.9,13.9,0,0,1,5.9-1h2.5c0-2.8-1.3-3.8-3.9-3.8a9.1,9.1,0,0,0-5.4,1.9Zm5.3,13.6a3.9,3.9,0,0,0,3.2-1.6,5.8,5.8,0,0,0,.9-3.6h-2c-2,0-5.1.3-5.1,3S72.5,240.4,74.2,240.4Z" fill="#d24508"/>
        <path d="M86,225.9h4v4h.1c.2-1.6,2.1-4.4,4.8-4.4h1.4v4.6a4.6,4.6,0,0,0-2-.4c-3.7,0-3.7,4.6-3.7,7.1v6.4H86Z" fill="#d24508"/>
        <path d="M99.1,218.3h4.5v4.3H99.1Zm0,7.5h4.5v17.5H99.1Z" fill="#d24508"/>
        <path d="M109.8,229.2h-3.4v-3.3h3.4v-3.5l4.5-1.5v5h4v3.3h-4v8.1c0,1.5.4,2.9,2.1,2.9a4.1,4.1,0,0,0,2.1-.5v3.6a12,12,0,0,1-3.4.4c-3.6,0-5.5-2.2-5.5-5.7Z" fill="#d24508"/>
        <path d="M121.4,218.3H126v4.3h-4.5Zm0,7.5H126v17.5h-4.5Z" fill="#d24508"/>
        <path d="M144.6,242.4a12,12,0,0,1-6,1.4c-5.8,0-9.1-3.3-9.1-9.1s2.7-9.2,8.1-9.2,8.3,4.4,8.3,10.6H133.8c.2,2.8,2.2,4.4,5,4.4a11.8,11.8,0,0,0,5.8-1.8Zm-3.1-9.5c-.1-2.2-1.2-4.1-3.7-4.1s-3.8,1.8-4,4.1Z" fill="#d24508"/>
        <path d="M159.7,229.5a11.1,11.1,0,0,0-4.1-.7c-1.2,0-2.7.4-2.7,1.9s7.9,1,7.9,7.3c0,4.1-3.6,5.7-7.3,5.7a20.3,20.3,0,0,1-5.2-.7l.3-3.7a10,10,0,0,0,4.5,1.2c1.2,0,3-.4,3-2.1,0-3.4-7.9-1.1-7.9-7.4,0-3.8,3.3-5.4,6.9-5.4a20.9,20.9,0,0,1,5,.6Z" fill="#d24508"/>
        <path d="M178.3,219.6h5.4l9.3,23.7h-5.3l-2-5.4h-9.6l-2.1,5.4h-4.9Zm2.6,4.8h-.1l-3.4,9.8h6.9Z" fill="#d24508"/>
        <path d="M195.6,218.3h4.6v4.3h-4.6Zm0,7.5h4.6v17.5h-4.6Z" fill="#d24508"/>
        <path d="M216.4,241.4h-.1a6.5,6.5,0,0,1-5.4,2.4c-5.4,0-7.3-4.4-7.3-9.2s2-9.1,7.3-9.1a6.2,6.2,0,0,1,5.2,2.4h.1v-10h4.5v25.5h-4.4Zm-4.2-1.2c3,0,4-3.2,4-5.7s-1.2-5.6-4.1-5.6-3.8,3.2-3.8,5.6S209.3,240.2,212.3,240.2Z" fill="#d24508"/>
      </g>
      <g>
        <path d="M231.8,219.6H245v3.7h-8.4v5.8h8V233h-8v10.4h-4.8Z" fill="#d24508"/>
        <path d="M255.4,225.5c5.2,0,9.2,3.5,9.2,9.3s-3.4,9-9.2,9-9.1-4-9.1-9S250.2,225.5,255.4,225.5Zm0,14.8c3.5,0,4.4-3.1,4.4-6s-1.4-5.2-4.4-5.2-4.4,2.6-4.4,5.2S251.9,240.2,255.4,240.2Z" fill="#d24508"/>
        <path d="M283.2,243.3h-4.3V241h-.1a7.3,7.3,0,0,1-5.7,2.8c-4.1,0-5.9-2.9-5.9-6.9v-11h4.5v9.3c0,2.1,0,5,2.9,5s4-3.6,4-5.8v-8.6h4.5Z" fill="#d24508"/>
        <path d="M286.8,225.9h4.3v2.4h.1a6.5,6.5,0,0,1,5.7-2.8c4.1,0,5.9,2.9,5.9,6.9v11h-4.5V234c0-2.1,0-5-3-5s-4,3.6-4,5.8v8.6h-4.5Z" fill="#d24508"/>
        <path d="M318.5,241.4h-.1a6.5,6.5,0,0,1-5.4,2.4c-5.4,0-7.3-4.4-7.3-9.2s2-9.1,7.3-9.1a6.2,6.2,0,0,1,5.2,2.4h.1v-10h4.5v25.5h-4.4Zm-4.2-1.2c3,0,4-3.2,4-5.7s-1.2-5.6-4.1-5.6-3.8,3.2-3.8,5.6S311.4,240.2,314.4,240.2Z" fill="#d24508"/>
        <path d="M327.9,226.8a15.7,15.7,0,0,1,6.1-1.3c5.3,0,7.5,2.2,7.5,7.4v2.2c0,1.8,0,3.1.1,4.4s.1,2.5.2,3.9h-4a20.8,20.8,0,0,1-.2-2.6h-.1a6.2,6.2,0,0,1-5.4,3c-3.1,0-6.1-1.9-6.1-5.2a5.1,5.1,0,0,1,3-5,13.9,13.9,0,0,1,5.9-1h2.5c0-2.8-1.3-3.8-3.9-3.8a9.1,9.1,0,0,0-5.4,1.9Zm5.3,13.6a3.9,3.9,0,0,0,3.2-1.6,5.8,5.8,0,0,0,.9-3.6h-2c-2,0-5.1.3-5.1,3S331.6,240.4,333.2,240.4Z" fill="#d24508"/>
        <path d="M347.3,229.2H344v-3.3h3.4v-3.5l4.5-1.5v5h4v3.3h-4v8.1c0,1.5.4,2.9,2.1,2.9a4.1,4.1,0,0,0,2.1-.5v3.6a12.1,12.1,0,0,1-3.4.4c-3.6,0-5.5-2.2-5.5-5.7Z" fill="#d24508"/>
        <path d="M359.6,218.3h4.5v4.3h-4.5Zm0,7.5h4.5v17.5h-4.5Z" fill="#d24508"/>
        <path d="M375.9,225.5c5.2,0,9.2,3.5,9.2,9.3s-3.4,9-9.2,9-9.1-4-9.1-9S370.7,225.5,375.9,225.5Zm0,14.8c3.5,0,4.4-3.1,4.4-6s-1.4-5.2-4.4-5.2-4.4,2.6-4.4,5.2S372.4,240.2,375.9,240.2Z" fill="#d24508"/>
        <path d="M387.9,225.9h4.3v2.4h.1a6.5,6.5,0,0,1,5.7-2.8c4.1,0,5.9,2.9,5.9,6.9v11h-4.5V234c0-2.1,0-5-3-5s-4,3.6-4,5.8v8.6h-4.5Z" fill="#d24508"/>
      </g>
    </g>
    <path d="M134.9,162.7a94.2,94.2,0,0,1-23,2.4q-19.9,0-31.4-13.5T69,110.1v-2.3q0-26.2,12.4-41c8.2-9.9,19.7-14.9,34.3-14.9a105,105,0,0,1,20.6,1.8,68.1,68.1,0,0,1,13.9,4.1V33.2c-3.8-1.7-9-3-15.8-4A178.2,178.2,0,0,0,109,27.6q-35.3,0-58.6,21.4T27,105.9v6.3q0,37.9,23,57.6t58.4,19.6h26.4l11.6-30.1C143.3,160.4,139.5,161.5,134.9,162.7Z" fill="#d24508"/>
    <polygon points="403.9 52.1 403.9 27.9 290.9 27.9 290.9 148 307.4 189.4 332.6 189.4 332.6 119.6 388 119.6 388 95.4 332.6 95.4 332.6 52.1 403.9 52.1" fill="#d24508"/>
  </g>
</svg>
