<?xml version="1.0" encoding="UTF-8" standalone="no"?>
<!-- Created with Inkscape (http://www.inkscape.org/) -->

<svg
   xmlns:dc="http://purl.org/dc/elements/1.1/"
   xmlns:cc="http://creativecommons.org/ns#"
   xmlns:rdf="http://www.w3.org/1999/02/22-rdf-syntax-ns#"
   xmlns:svg="http://www.w3.org/2000/svg"
   xmlns="http://www.w3.org/2000/svg"
   xmlns:sodipodi="http://sodipodi.sourceforge.net/DTD/sodipodi-0.dtd"
   xmlns:inkscape="http://www.inkscape.org/namespaces/inkscape"
   id="svg2"
   version="1.1"
   inkscape:version="0.47 r22583"
   width="256"
   height="36.638809"
   xml:space="preserve"
   sodipodi:docname="CIC_2010_annualreprot_cn.pdf"><metadata
     id="metadata8"><rdf:RDF><cc:Work
         rdf:about=""><dc:format>image/svg+xml</dc:format><dc:type
           rdf:resource="http://purl.org/dc/dcmitype/StillImage" /><dc:title></dc:title></cc:Work></rdf:RDF></metadata><defs
     id="defs6"><inkscape:perspective
       sodipodi:type="inkscape:persp3d"
       inkscape:vp_x="0 : 0.5 : 1"
       inkscape:vp_y="0 : 1000 : 0"
       inkscape:vp_z="1 : 0.5 : 1"
       inkscape:persp3d-origin="0.5 : 0.33333333 : 1"
       id="perspective10" /><clipPath
       clipPathUnits="userSpaceOnUse"
       id="clipPath36"><path
         d="m 0,0 595.276,0 0,807.874 L 0,807.874 0,0 z"
         id="path38" /></clipPath><clipPath
       clipPathUnits="userSpaceOnUse"
       id="clipPath110"><path
         d="m 0,0 595.276,0 0,807.874 L 0,807.874 0,0 z"
         id="path112" /></clipPath><clipPath
       clipPathUnits="userSpaceOnUse"
       id="clipPath128"><path
         d="m 0,0 595.276,0 0,807.874 L 0,807.874 0,0 z"
         id="path130" /></clipPath><clipPath
       clipPathUnits="userSpaceOnUse"
       id="clipPath144"><path
         d="m 0,0 595.276,0 0,807.874 L 0,807.874 0,0 z"
         id="path146" /></clipPath><clipPath
       clipPathUnits="userSpaceOnUse"
       id="clipPath160"><path
         d="m 0,0 595.276,0 0,807.874 L 0,807.874 0,0 z"
         id="path162" /></clipPath><clipPath
       clipPathUnits="userSpaceOnUse"
       id="clipPath184"><path
         d="m 0,0 595.276,0 0,807.874 L 0,807.874 0,0 z"
         id="path186" /></clipPath><clipPath
       clipPathUnits="userSpaceOnUse"
       id="clipPath226"><path
         d="m 0,0 595.276,0 0,807.874 L 0,807.874 0,0 z"
         id="path228" /></clipPath><clipPath
       clipPathUnits="userSpaceOnUse"
       id="clipPath242"><path
         d="m 0,0 595.276,0 0,807.874 L 0,807.874 0,0 z"
         id="path244" /></clipPath><inkscape:perspective
       id="perspective3066"
       inkscape:persp3d-origin="0.5 : 0.33333333 : 1"
       inkscape:vp_z="1 : 0.5 : 1"
       inkscape:vp_y="0 : 1000 : 0"
       inkscape:vp_x="0 : 0.5 : 1"
       sodipodi:type="inkscape:persp3d" /><clipPath
       clipPathUnits="userSpaceOnUse"
       id="clipPath242-4"><path
         d="m 0,0 595.276,0 0,807.874 L 0,807.874 0,0 z"
         id="path244-0" /></clipPath><clipPath
       clipPathUnits="userSpaceOnUse"
       id="clipPath226-9"><path
         d="m 0,0 595.276,0 0,807.874 L 0,807.874 0,0 z"
         id="path228-4" /></clipPath><clipPath
       clipPathUnits="userSpaceOnUse"
       id="clipPath184-8"><path
         d="m 0,0 595.276,0 0,807.874 L 0,807.874 0,0 z"
         id="path186-8" /></clipPath><clipPath
       clipPathUnits="userSpaceOnUse"
       id="clipPath160-2"><path
         d="m 0,0 595.276,0 0,807.874 L 0,807.874 0,0 z"
         id="path162-4" /></clipPath><clipPath
       clipPathUnits="userSpaceOnUse"
       id="clipPath144-5"><path
         d="m 0,0 595.276,0 0,807.874 L 0,807.874 0,0 z"
         id="path146-5" /></clipPath><clipPath
       clipPathUnits="userSpaceOnUse"
       id="clipPath128-1"><path
         d="m 0,0 595.276,0 0,807.874 L 0,807.874 0,0 z"
         id="path130-7" /></clipPath><clipPath
       clipPathUnits="userSpaceOnUse"
       id="clipPath110-1"><path
         d="m 0,0 595.276,0 0,807.874 L 0,807.874 0,0 z"
         id="path112-1" /></clipPath><clipPath
       clipPathUnits="userSpaceOnUse"
       id="clipPath36-5"><path
         d="m 0,0 595.276,0 0,807.874 L 0,807.874 0,0 z"
         id="path38-2" /></clipPath><inkscape:perspective
       id="perspective3421"
       inkscape:persp3d-origin="0.5 : 0.33333333 : 1"
       inkscape:vp_z="1 : 0.5 : 1"
       inkscape:vp_y="0 : 1000 : 0"
       inkscape:vp_x="0 : 0.5 : 1"
       sodipodi:type="inkscape:persp3d" /><clipPath
       clipPathUnits="userSpaceOnUse"
       id="clipPath36-5-7"><path
         d="m 0,0 595.276,0 0,807.874 L 0,807.874 0,0 z"
         id="path38-2-6" /></clipPath><clipPath
       clipPathUnits="userSpaceOnUse"
       id="clipPath110-1-1"><path
         d="m 0,0 595.276,0 0,807.874 L 0,807.874 0,0 z"
         id="path112-1-4" /></clipPath><clipPath
       clipPathUnits="userSpaceOnUse"
       id="clipPath128-1-2"><path
         d="m 0,0 595.276,0 0,807.874 L 0,807.874 0,0 z"
         id="path130-7-3" /></clipPath><clipPath
       clipPathUnits="userSpaceOnUse"
       id="clipPath144-5-2"><path
         d="m 0,0 595.276,0 0,807.874 L 0,807.874 0,0 z"
         id="path146-5-2" /></clipPath><clipPath
       clipPathUnits="userSpaceOnUse"
       id="clipPath160-2-1"><path
         d="m 0,0 595.276,0 0,807.874 L 0,807.874 0,0 z"
         id="path162-4-6" /></clipPath><clipPath
       clipPathUnits="userSpaceOnUse"
       id="clipPath184-8-8"><path
         d="m 0,0 595.276,0 0,807.874 L 0,807.874 0,0 z"
         id="path186-8-5" /></clipPath><clipPath
       clipPathUnits="userSpaceOnUse"
       id="clipPath226-9-7"><path
         d="m 0,0 595.276,0 0,807.874 L 0,807.874 0,0 z"
         id="path228-4-6" /></clipPath><clipPath
       clipPathUnits="userSpaceOnUse"
       id="clipPath242-4-1"><path
         d="m 0,0 595.276,0 0,807.874 L 0,807.874 0,0 z"
         id="path244-0-8" /></clipPath><inkscape:perspective
       id="perspective3776"
       inkscape:persp3d-origin="0.5 : 0.33333333 : 1"
       inkscape:vp_z="1 : 0.5 : 1"
       inkscape:vp_y="0 : 1000 : 0"
       inkscape:vp_x="0 : 0.5 : 1"
       sodipodi:type="inkscape:persp3d" /><clipPath
       clipPathUnits="userSpaceOnUse"
       id="clipPath36-5-7-9"><path
         d="m 0,0 595.276,0 0,807.874 L 0,807.874 0,0 z"
         id="path38-2-6-2" /></clipPath><clipPath
       clipPathUnits="userSpaceOnUse"
       id="clipPath110-1-1-7"><path
         d="m 0,0 595.276,0 0,807.874 L 0,807.874 0,0 z"
         id="path112-1-4-9" /></clipPath><clipPath
       clipPathUnits="userSpaceOnUse"
       id="clipPath128-1-2-5"><path
         d="m 0,0 595.276,0 0,807.874 L 0,807.874 0,0 z"
         id="path130-7-3-4" /></clipPath><clipPath
       clipPathUnits="userSpaceOnUse"
       id="clipPath144-5-2-3"><path
         d="m 0,0 595.276,0 0,807.874 L 0,807.874 0,0 z"
         id="path146-5-2-1" /></clipPath><clipPath
       clipPathUnits="userSpaceOnUse"
       id="clipPath160-2-1-2"><path
         d="m 0,0 595.276,0 0,807.874 L 0,807.874 0,0 z"
         id="path162-4-6-3" /></clipPath><clipPath
       clipPathUnits="userSpaceOnUse"
       id="clipPath184-8-8-3"><path
         d="m 0,0 595.276,0 0,807.874 L 0,807.874 0,0 z"
         id="path186-8-5-4" /></clipPath><clipPath
       clipPathUnits="userSpaceOnUse"
       id="clipPath226-9-7-1"><path
         d="m 0,0 595.276,0 0,807.874 L 0,807.874 0,0 z"
         id="path228-4-6-1" /></clipPath><clipPath
       clipPathUnits="userSpaceOnUse"
       id="clipPath242-4-1-3"><path
         d="m 0,0 595.276,0 0,807.874 L 0,807.874 0,0 z"
         id="path244-0-8-8" /></clipPath></defs><sodipodi:namedview
     pagecolor="#ffffff"
     bordercolor="#666666"
     borderopacity="1"
     objecttolerance="10"
     gridtolerance="10"
     guidetolerance="10"
     inkscape:pageopacity="0"
     inkscape:pageshadow="2"
     inkscape:window-width="640"
     inkscape:window-height="480"
     id="namedview4"
     showgrid="false"
     inkscape:zoom="4.6953125"
     inkscape:cx="128"
     inkscape:cy="18.319405"
     inkscape:current-layer="g12" /><g
     id="g12"
     inkscape:groupmode="layer"
     inkscape:label="CIC_2010_annualreprot_cn"
     transform="matrix(1.25,0,0,-1.25,4.0488e-6,523.24064)"><path
       d="m 37.517922,412.22754 -3.716,0 0,-4.24913 3.716,0 0,4.24913 z m 6.15299,0 -3.71356,0 0,-4.24913 3.71356,0 0,4.24913 z m -12.06875,-6.19333 0,8.13632 5.91576,0 0,2.93832 2.43943,0 0,-2.93832 5.91455,0 0,-8.13632 -5.91455,0 0,-4.92533 -2.43943,0 0,4.92533 -5.91576,0 z"
       style="fill:#000000;fill-opacity:1;fill-rule:nonzero;stroke:none"
       id="path30" /><g
       transform="matrix(1.2227712,0,0,1.2227712,-57.082998,318.89215)"
       id="g32"><g
         id="g34"
         clip-path="url(#clipPath36-5-7-9)"><g
           id="g40"
           transform="translate(120.2185,74.5558)"><path
             d="M 0,0 5.165,0 C 4.163,0.302 2.84,1.231 2.465,1.855 2.121,1.315 0.7,0.262 0,0 m -4.534,-7.339 c -0.14,0.532 -0.649,1.668 -0.649,1.668 2.894,-0.097 5.204,0.633 5.351,3.934 0.298,-0.085 1.312,-0.278 1.835,-0.331 -0.375,-3.3 -2.359,-5.103 -6.537,-5.271 M -5.259,4.52 c 0.411,0.409 1.116,1.145 1.116,1.145 0.706,-0.437 1.43,-0.95 2.119,-1.444 C -2.37,3.892 -3.121,3.046 -3.121,3.046 -3.745,3.552 -4.454,4.047 -5.259,4.52 M -5.703,0.873 c 0.661,0.298 3.565,2.337 3.565,2.337 0.106,-0.518 0.293,-1.196 0.442,-1.626 -1.377,-0.97 -2.032,-1.439 -3.109,-2.264 -0.078,0.2 -0.538,1.048 -0.898,1.553 M 6.946,-5.714 C 6.628,-6.286 6.169,-7.299 6.169,-7.299 c -1.337,0.61 -5.026,1.763 -5.026,1.763 0.408,0.522 0.888,1.397 0.888,1.397 1.223,-0.311 2.813,-0.695 4.915,-1.575 M -0.58,0 c -0.08,0.116 -0.616,0.771 -1.027,1.177 1.438,0.24 2.944,1.204 3.11,2.202 l -1.025,0 C 0.104,2.955 -0.396,2.508 -1.011,2.032 -1.307,2.508 -1.602,2.941 -1.918,3.372 -1.025,3.966 -0.208,4.86 0.346,6.018 0.802,5.927 1.432,5.831 2.057,5.731 1.908,5.426 1.717,5.091 1.539,4.825 l 5.377,0 C 6.586,3.95 6.23,2.91 6.021,2.218 5.563,2.321 4.947,2.444 4.444,2.513 4.586,2.804 4.703,3.128 4.787,3.379 l -1.588,0 C 3.216,2.257 6.042,1.17 7.531,1.177 7.399,0.914 7.05,0.005 6.901,-0.525 6.314,-0.4 5.838,-0.266 5.47,-0.119 l 0,-4.502 -1.8,0 0,3.202 -5.443,0 0,-3.202 -1.721,0 0,4.621 2.914,0 z"
             style="fill:#000000;fill-opacity:1;fill-rule:nonzero;stroke:none"
             id="path42" /></g><g
           id="g44"
           transform="translate(134.1338,80.4869)"><path
             d="M 0,0 C 0,0 1.115,-0.166 2.101,-0.264 1.979,-0.728 1.834,-1.186 1.67,-1.639 l 6.345,0 0,-1.584 -7.031,0 C 0.817,-3.553 0.64,-3.874 0.448,-4.187 l 6.108,0 0,-7.863 c 0,-0.61 -0.66,-0.991 -1.338,-1.103 -0.538,-0.089 -1.018,-0.116 -1.543,-0.165 -0.082,0.741 -0.457,1.8 -0.457,1.8 0.6,-0.056 0.785,-0.027 1.025,0.002 0.295,0.036 0.449,0.133 0.449,0.351 l 0,0.687 -4.568,0 0,-2.733 -1.865,0 0.005,6.335 c -0.699,-0.641 -1.517,-1.254 -2.353,-1.67 0,0 -0.723,1.124 -1.03,1.576 1.335,0.637 2.494,1.57 3.389,2.783 0.222,0.303 0.425,0.624 0.614,0.964 l -3.467,0 0,1.584 4.169,0 C -0.236,-1.122 -0.099,-0.573 0,0 m 4.692,-5.681 -4.568,0 0,-0.99 4.568,0 0,0.99 z m 0,-2.389 -4.568,0 0,-0.988 4.568,0 0,0.988 z"
             style="fill:#000000;fill-opacity:1;fill-rule:nonzero;stroke:none"
             id="path46" /></g><g
           id="g48"
           transform="translate(155.3588,73.3763)"><path
             d="m 0,0 1.091,-1.197 c -0.508,-0.24 -1.579,-1.06 -2.018,-1.399 0.514,-0.722 1.224,-1.283 2.121,-1.638 -0.472,-0.855 -0.674,-1.194 -0.865,-1.521 -2.462,1.161 -3.643,3.891 -3.767,6.268 l -0.922,0 0,-3.757 c 0.471,0.298 1.113,0.939 1.113,0.939 0.172,-0.62 0.532,-1.455 0.532,-1.455 -0.394,-0.309 -2.153,-1.548 -2.784,-2.309 -0.342,0.653 -0.93,1.642 -0.93,1.642 0.301,0.249 0.369,0.48 0.369,0.797 l 0,10.279 6.232,0 0,-6.136 -2.084,0 c 0.032,-0.668 0.147,-1.292 0.346,-1.859 L 0,0 z m -1.553,2.941 -2.808,0 0,-1.036 2.808,0 0,1.036 z m 0,2.306 -2.808,0 0,-1.036 2.808,0 0,1.036 z M -9.42,-1.3 c 1.951,-0.384 2.284,1.87 0.062,3.262 0.169,0.439 0.882,3.197 0.882,3.197 l -1.053,0 0,-11.266 -1.739,0 0,12.72 5.167,0 c 0,0 -1.121,-3.061 -1.574,-4.089 2.686,-2.202 1.534,-5.891 -1.216,-5.552 C -8.994,-2.497 -9.42,-1.3 -9.42,-1.3"
             style="fill:#000000;fill-opacity:1;fill-rule:nonzero;stroke:none"
             id="path50" /></g><g
           id="g52"
           transform="translate(176.4272,77.0434)"><path
             d="m 0,0 0,-9.775 -1.755,0 0,6.861 c -0.294,-0.402 -0.585,-0.753 -0.867,-1.027 -0.114,0.254 -0.865,1.264 -1.227,1.694 1.442,1.523 2.607,3.463 3.312,5.65 C -0.001,3.071 0.581,2.789 1.214,2.553 0.903,1.824 0.479,0.918 0,0 m 4.101,-2.47 0,2.975 C 3.301,0.37 2.116,0.208 1.445,0.116 1.405,0.293 1.208,1.131 0.956,1.727 3.21,1.829 6.268,2.498 7.596,2.987 7.952,2.378 8.352,1.989 8.799,1.459 7.581,1.153 5.898,0.767 5.898,0.767 l 0,-3.237 3.712,0 0,-1.546 -3.712,0 0,-3.724 3.102,0 0,-1.524 -8.286,0 0,1.524 3.387,0 0,3.724 -3.715,0 0,1.546 3.715,0 z"
             style="fill:#000000;fill-opacity:1;fill-rule:nonzero;stroke:none"
             id="path54" /></g><g
           id="g56"
           transform="translate(189.0699,69.7439)"><path
             d="M 0,0 C 1.583,0.997 3.261,3.766 4.38,5.594 4.953,5.183 5.551,4.823 6.175,4.515 5.993,4.267 3.354,0.802 2.795,0.251 4.546,0.3 6.048,0.411 7.73,0.483 7.321,1.1 6.404,2.244 6.404,2.244 7.056,2.557 7.947,3.075 7.947,3.075 9.104,1.624 9.85,0.618 10.758,-0.82 9.979,-1.395 9.22,-2.077 9.22,-2.077 9.138,-1.888 8.852,-1.368 8.61,-0.982 6.939,-1.074 2.612,-1.307 0.78,-1.777 0.59,-1.117 0,0 0,0"
             style="fill:#000000;fill-opacity:1;fill-rule:nonzero;stroke:none"
             id="path58" /></g><g
           id="g60"
           transform="translate(192.1302,79.7959)"><path
             d="m 0,0 c 0.653,-0.326 1.771,-0.815 1.771,-0.815 -0.842,-1.886 -2.657,-4.352 -4.773,-5.96 -0.63,0.862 -1.422,1.491 -1.422,1.491 C -2.584,-4.307 -0.489,-1.933 0,0"
             style="fill:#000000;fill-opacity:1;fill-rule:nonzero;stroke:none"
             id="path62" /></g><g
           id="g64"
           transform="translate(196.9016,79.9592)"><path
             d="M 0,0 -1.861,0 C -1.629,-3.725 0.42,-5.983 3.073,-7.052 3.446,-6.194 4.05,-5.308 4.05,-5.308 1.189,-4.562 0,-2.445 0,0"
             style="fill:#000000;fill-opacity:1;fill-rule:nonzero;stroke:none"
             id="path66" /></g><g
           id="g68"
           transform="translate(202.4736,78.5444)"><path
             d="m 0,0 0,1.523 11.698,0 0,-11.118 c 0,-0.768 -0.428,-1.282 -1.194,-1.492 -0.513,-0.14 -0.704,-0.132 -1.804,-0.21 -0.028,0.19 -0.559,1.832 -0.559,1.832 0.213,-0.006 0.849,-0.014 1.193,0 0.54,0.025 0.5,0.194 0.5,0.645 L 9.834,0 0,0 z m 8.992,-2.572 -9.395,0 0,1.521 9.395,0 0,-1.521 z m -2.541,-2.444 -4.134,0 0,-2.678 4.134,0 0,2.678 z m -5.914,1.404 7.693,0 0,-5.485 -7.693,0 0,5.485 z"
             style="fill:#000000;fill-opacity:1;fill-rule:nonzero;stroke:none"
             id="path70" /></g><g
           id="g72"
           transform="translate(88.4646,71.5497)"><path
             d="m 0,0 2.87,0 0,1.841 -2.517,0 0,1.414 2.517,0 0,1.384 -2.692,0 0,1.391 7.179,0 0,-1.391 -2.689,0 0,-1.384 2.518,0 0,-1.414 -1.231,0 C 6.391,1.542 6.811,1.24 7.271,0.822 7.031,0.66 6.619,0.311 6.352,0.082 5.982,0.411 5.411,0.909 4.978,1.189 5.247,1.395 5.58,1.651 5.842,1.841 l -1.174,0 0,-1.841 2.869,0 0,-1.391 L 0,-1.391 0,0 z m -0.271,-2.263 8.077,0 0,9.08 -8.077,0 0,-9.08 z m -1.773,10.605 11.625,0 0,-12.127 -11.625,0 0,12.127 z"
             style="fill:#000000;fill-opacity:1;fill-rule:nonzero;stroke:none"
             id="path74" /></g><g
           id="g76"
           transform="translate(170.4618,68.8419)"><path
             d="m 0,0 c -0.145,-0.201 -0.613,-1.033 -0.813,-1.527 -1.073,0.545 -3.102,1.301 -4.974,1.912 0.157,0.171 0.627,0.988 0.841,1.403 0,0 0.869,-0.266 1.925,-0.624 l 0,2.746 -5.77,0 0,-3.068 -1.782,0 0,4.47 9.337,0 0,-4.29 -1.37,0 C -1.702,0.705 -0.656,0.32 0,0 m -12.297,5.776 0,1.466 5.376,0 0,0.445 -4.389,0 0,1.37 4.389,0 0,0.468 -5.064,0 0,1.488 5.064,0 0,0.773 1.761,0 0,-0.773 5.137,0 0,-1.488 -5.137,0 0,-0.468 4.462,0 0,-1.37 -4.462,0 0,-0.445 5.498,0 0,-1.466 -12.635,0 z m 7.306,-2.353 c -0.58,-3.495 -3.052,-4.822 -6.437,-5.005 -0.119,0.489 -0.651,1.585 -0.651,1.585 2.802,0.042 5.255,1.061 5.315,3.778 0.778,-0.193 1.773,-0.358 1.773,-0.358"
             style="fill:#000000;fill-opacity:1;fill-rule:nonzero;stroke:none"
             id="path78" /></g><g
           id="g80"
           transform="translate(105.1986,74.3263)"><path
             d="M 0,0 7.053,0 C 6.637,-1.836 5.94,-3.218 4.868,-4.316 c 0.93,-0.535 2.026,-0.96 3.151,-1.171 0,0 -0.476,-0.806 -0.943,-1.628 -1.423,0.491 -2.599,1.031 -3.572,1.679 -0.967,-0.648 -2.147,-1.188 -3.564,-1.679 -0.471,0.822 -0.947,1.628 -0.947,1.628 1.117,0.211 2.212,0.642 3.137,1.185 -0.629,0.648 -1.128,1.393 -1.518,2.272 0.504,0.169 0.832,0.289 1.632,0.524 0.132,-0.606 0.582,-1.241 1.239,-1.825 0.684,0.606 1.151,1.267 1.286,1.884 L 0,-1.447 0,0 z"
             style="fill:#000000;fill-opacity:1;fill-rule:nonzero;stroke:none"
             id="path82" /></g><g
           id="g84"
           transform="translate(113.0518,76.5022)"><path
             d="m 0,0 c -0.043,-0.251 -0.191,-1.684 -0.191,-1.684 -0.731,-0.022 -1.728,0 -2.123,0 -0.603,0 -1.03,0.409 -1.03,0.997 l 0,2.769 -2.023,0 0,-1.148 c 0,-0.916 -0.502,-2.281 -1.944,-3.03 -0.156,0.147 -1.225,1.203 -1.225,1.203 1.171,0.635 1.394,1.175 1.394,2.116 l 0,2.251 5.522,0 0,-3.097 c 0,-0.251 0.045,-0.453 0.25,-0.453 C -0.722,-0.09 0,0 0,0"
             style="fill:#000000;fill-opacity:1;fill-rule:nonzero;stroke:none"
             id="path86" /></g><g
           id="g88"
           transform="translate(104.9701,74.6581)"><path
             d="M 0,0 C -0.036,-0.207 0.062,-1.499 0.062,-1.499 -0.06,-1.551 -0.565,-1.751 -1.201,-2.004 l 0,-4.092 c 0,-0.624 -0.382,-1.063 -0.938,-1.157 -0.475,-0.082 -0.985,-0.103 -1.736,-0.106 -0.031,0.332 -0.263,1.139 -0.405,1.589 0.202,0.01 0.603,0 0.908,0 0.183,0 0.393,0.146 0.393,0.328 l 0,2.738 -1.411,-0.557 c -0.131,0.569 -0.433,1.619 -0.433,1.619 0.26,0.071 1.009,0.314 1.844,0.589 l 0,2.497 -1.759,0 0,1.561 1.759,0 0,2.632 1.778,0 0,-2.632 1.362,0 0,-1.561 -1.362,0 0,-1.898 C -0.603,-0.245 -0.134,-0.063 0,0"
             style="fill:#000000;fill-opacity:1;fill-rule:nonzero;stroke:none"
             id="path90" /></g><g
           id="g92"
           transform="translate(76.8433,61.0953)"><path
             d="M 0,0 0.756,-0.175 C 0.597,-0.743 0.312,-1.177 -0.1,-1.477 c -0.411,-0.297 -0.913,-0.445 -1.507,-0.445 -0.615,0 -1.117,0.114 -1.503,0.343 -0.384,0.23 -0.677,0.562 -0.88,0.998 -0.2,0.435 -0.3,0.902 -0.3,1.401 0,0.544 0.114,1.02 0.34,1.424 0.227,0.407 0.551,0.714 0.969,0.924 0.42,0.211 0.882,0.317 1.387,0.317 0.57,0 1.05,-0.133 1.439,-0.399 C 0.234,2.82 0.506,2.444 0.659,1.962 l -0.743,-0.16 c -0.134,0.379 -0.325,0.658 -0.578,0.831 -0.251,0.173 -0.567,0.259 -0.948,0.259 -0.44,0 -0.807,-0.095 -1.102,-0.288 -0.293,-0.193 -0.5,-0.452 -0.62,-0.777 -0.12,-0.325 -0.179,-0.658 -0.179,-1.002 0,-0.446 0.07,-0.834 0.21,-1.166 0.142,-0.331 0.363,-0.578 0.662,-0.742 0.297,-0.165 0.622,-0.248 0.969,-0.248 0.424,0 0.782,0.112 1.075,0.336 C -0.302,-0.772 -0.103,-0.44 0,0"
             style="fill:#000000;fill-opacity:1;fill-rule:nonzero;stroke:none"
             id="path94" /></g></g></g><g
       id="g96"
       transform="matrix(1.2227712,0,0,1.2227712,39.089672,391.3577)"><path
         d="m 0,0 0,5.228 0.756,0 0,-2.147 2.967,0 0,2.147 0.756,0 0,-5.228 -0.756,0 0,2.463 -2.967,0 L 0.756,0 0,0 z"
         style="fill:#000000;fill-opacity:1;fill-rule:nonzero;stroke:none"
         id="path98" /></g><path
       d="m 46.381792,391.35728 0.92319,0 0,6.39265 -0.92319,0 0,-6.39265 z"
       style="fill:#000000;fill-opacity:1;fill-rule:nonzero;stroke:none"
       id="path100" /><g
       id="g102"
       transform="matrix(1.2227712,0,0,1.2227712,49.045972,391.3577)"><path
         d="m 0,0 0,5.228 0.775,0 2.997,-4.105 0,4.105 0.724,0 L 4.496,0 3.722,0 0.724,4.107 0.724,0 0,0 z"
         style="fill:#000000;fill-opacity:1;fill-rule:nonzero;stroke:none"
         id="path104" /></g><g
       transform="matrix(1.2227712,0,0,1.2227712,-57.082998,318.89215)"
       id="g106"><g
         id="g108"
         clip-path="url(#clipPath110-1-1-7)"><g
           id="g114"
           transform="translate(92.032,59.2633)"><path
             d="m 0,0 2.193,5.228 0.813,0 L 5.342,0 4.48,0 3.815,1.583 1.428,1.583 0.802,0 0,0 z m 1.646,2.146 1.935,0 -0.595,1.448 C 2.805,4.034 2.67,4.396 2.581,4.678 2.508,4.343 2.406,4.01 2.273,3.679 L 1.646,2.146 z"
             style="fill:#000000;fill-opacity:1;fill-rule:nonzero;stroke:none"
             id="path116" /></g></g></g><path
       d="m 65.829972,391.35728 0.92197,0 0,6.39265 -0.92197,0 0,-6.39265 z"
       style="fill:#000000;fill-opacity:1;fill-rule:nonzero;stroke:none"
       id="path118" /><g
       id="g120"
       transform="matrix(1.2227712,0,0,1.2227712,68.492432,391.3577)"><path
         d="m 0,0 0,5.228 0.775,0 2.998,-4.105 0,4.105 0.724,0 L 4.497,0 3.723,0 0.724,4.107 0.724,0 0,0 z"
         style="fill:#000000;fill-opacity:1;fill-rule:nonzero;stroke:none"
         id="path122" /></g><g
       transform="matrix(1.2227712,0,0,1.2227712,-57.082998,318.89215)"
       id="g124"><g
         id="g126"
         clip-path="url(#clipPath128-1-2-5)"><g
           id="g132"
           transform="translate(110.195,59.2633)"><path
             d="m 0,0 -2.213,5.228 0.819,0 1.483,-3.799 C 0.209,1.125 0.309,0.84 0.389,0.573 0.478,0.858 0.58,1.144 0.697,1.429 l 1.541,3.799 0.771,0 L 0.774,0 0,0 z"
             style="fill:#000000;fill-opacity:1;fill-rule:nonzero;stroke:none"
             id="path134" /></g></g></g><g
       id="g136"
       transform="matrix(1.2227712,0,0,1.2227712,82.307922,391.3577)"><path
         d="m 0,0 0,5.228 4.127,0 0,-0.616 -3.372,0 0,-1.602 3.158,0 0,-0.614 -3.158,0 0,-1.78 3.504,0 L 4.259,0 0,0 z"
         style="fill:#000000;fill-opacity:1;fill-rule:nonzero;stroke:none"
         id="path138" /></g><g
       transform="matrix(1.2227712,0,0,1.2227712,-57.082998,318.89215)"
       id="g140"><g
         id="g142"
         clip-path="url(#clipPath144-5-2-3)"><g
           id="g148"
           transform="translate(119.1403,60.9427)"><path
             d="M 0,0 0.713,0.057 C 0.747,-0.205 0.825,-0.42 0.947,-0.589 1.071,-0.756 1.264,-0.891 1.524,-0.996 1.782,-1.098 2.075,-1.148 2.4,-1.148 c 0.287,0 0.542,0.038 0.761,0.117 0.222,0.078 0.385,0.184 0.491,0.32 0.109,0.138 0.165,0.289 0.165,0.451 0,0.163 -0.053,0.306 -0.157,0.426 C 3.557,0.291 3.386,0.394 3.146,0.477 2.992,0.532 2.655,0.617 2.131,0.731 1.607,0.848 1.239,0.957 1.029,1.059 0.756,1.189 0.553,1.351 0.418,1.543 0.285,1.739 0.219,1.957 0.219,2.197 c 0,0.264 0.081,0.51 0.246,0.737 0.162,0.231 0.402,0.407 0.715,0.525 0.315,0.12 0.664,0.179 1.049,0.179 0.422,0 0.795,-0.064 1.116,-0.189 C 3.671,3.325 3.919,3.142 4.092,2.899 4.266,2.656 4.36,2.382 4.372,2.074 L 3.648,2.026 C 3.611,2.356 3.477,2.605 3.252,2.774 3.029,2.943 2.697,3.028 2.26,3.028 1.802,3.028 1.469,2.95 1.258,2.796 1.051,2.644 0.947,2.459 0.947,2.243 0.947,2.054 1.02,1.902 1.169,1.779 1.313,1.658 1.693,1.533 2.306,1.405 2.921,1.28 3.343,1.168 3.571,1.073 3.904,0.932 4.148,0.755 4.306,0.537 4.466,0.324 4.543,0.078 4.545,-0.205 4.545,-0.482 4.457,-0.744 4.283,-0.992 4.111,-1.238 3.859,-1.428 3.532,-1.566 3.208,-1.702 2.842,-1.77 2.434,-1.77 c -0.516,0 -0.95,0.069 -1.301,0.206 -0.348,0.14 -0.622,0.346 -0.82,0.622 C 0.115,-0.665 0.011,-0.35 0,0"
             style="fill:#000000;fill-opacity:1;fill-rule:nonzero;stroke:none"
             id="path150" /></g></g></g><g
       id="g152"
       transform="matrix(1.2227712,0,0,1.2227712,97.312782,391.3577)"><path
         d="m 0,0 0,4.612 -1.879,0 0,0.616 4.523,0 0,-0.616 -1.888,0 L 0.756,0 0,0 z"
         style="fill:#000000;fill-opacity:1;fill-rule:nonzero;stroke:none"
         id="path154" /></g><g
       transform="matrix(1.2227712,0,0,1.2227712,-57.082998,318.89215)"
       id="g156"><g
         id="g158"
         clip-path="url(#clipPath160-2-1-2)"><g
           id="g164"
           transform="translate(129.7619,59.2633)"><path
             d="m 0,0 0,5.228 1.137,0 1.351,-3.702 C 2.612,1.18 2.704,0.923 2.762,0.752 2.825,0.941 2.927,1.221 3.064,1.59 l 1.366,3.638 1.017,0 0,-5.228 -0.729,0 0,4.376 L 3.061,0 2.379,0 0.729,4.45 0.729,0 0,0 z"
             style="fill:#000000;fill-opacity:1;fill-rule:nonzero;stroke:none"
             id="path166" /></g></g></g><g
       id="g168"
       transform="matrix(1.2227712,0,0,1.2227712,109.87616,391.3577)"><path
         d="m 0,0 0,5.228 4.128,0 0,-0.616 -3.372,0 0,-1.602 3.157,0 0,-0.614 -3.157,0 0,-1.78 3.504,0 L 4.26,0 0,0 z"
         style="fill:#000000;fill-opacity:1;fill-rule:nonzero;stroke:none"
         id="path170" /></g><g
       id="g172"
       transform="matrix(1.2227712,0,0,1.2227712,116.47264,391.3577)"><path
         d="m 0,0 0,5.228 0.775,0 2.999,-4.105 0,4.105 0.723,0 L 4.497,0 3.723,0 0.725,4.107 0.725,0 0,0 z"
         style="fill:#000000;fill-opacity:1;fill-rule:nonzero;stroke:none"
         id="path174" /></g><g
       id="g176"
       transform="matrix(1.2227712,0,0,1.2227712,125.42099,391.3577)"><path
         d="m 0,0 0,4.612 -1.881,0 0,0.616 4.524,0 0,-0.616 -1.889,0 L 0.754,0 0,0 z"
         style="fill:#000000;fill-opacity:1;fill-rule:nonzero;stroke:none"
         id="path178" /></g><g
       transform="matrix(1.2227712,0,0,1.2227712,-57.082998,318.89215)"
       id="g180"><g
         id="g182"
         clip-path="url(#clipPath184-8-8-3)"><g
           id="g188"
           transform="translate(159.1594,61.0953)"><path
             d="M 0,0 0.754,-0.175 C 0.595,-0.743 0.31,-1.177 -0.103,-1.477 c -0.408,-0.297 -0.911,-0.445 -1.506,-0.445 -0.615,0 -1.115,0.114 -1.502,0.343 -0.384,0.23 -0.677,0.562 -0.881,0.998 -0.199,0.435 -0.3,0.902 -0.3,1.401 0,0.544 0.114,1.02 0.339,1.424 0.23,0.407 0.551,0.714 0.97,0.924 0.421,0.211 0.883,0.317 1.386,0.317 0.572,0 1.052,-0.133 1.44,-0.399 C 0.232,2.82 0.503,2.444 0.657,1.962 l -0.743,-0.16 c -0.133,0.379 -0.325,0.658 -0.576,0.831 -0.252,0.173 -0.57,0.259 -0.95,0.259 -0.439,0 -0.807,-0.095 -1.102,-0.288 -0.294,-0.193 -0.5,-0.452 -0.618,-0.777 -0.121,-0.325 -0.18,-0.658 -0.18,-1.002 0,-0.446 0.07,-0.834 0.211,-1.166 0.141,-0.331 0.361,-0.578 0.661,-0.742 0.298,-0.165 0.621,-0.248 0.969,-0.248 0.423,0 0.781,0.112 1.075,0.336 C -0.303,-0.772 -0.105,-0.44 0,0"
             style="fill:#000000;fill-opacity:1;fill-rule:nonzero;stroke:none"
             id="path190" /></g><g
           id="g192"
           transform="translate(160.7139,61.8087)"><path
             d="M 0,0 C 0,0.868 0.254,1.547 0.763,2.038 1.271,2.53 1.928,2.775 2.733,2.775 3.26,2.775 3.734,2.659 4.158,2.429 4.58,2.198 4.902,1.876 5.123,1.462 5.347,1.051 5.458,0.585 5.458,0.06 5.458,-0.47 5.341,-0.944 5.108,-1.362 4.874,-1.781 4.543,-2.098 4.115,-2.314 3.688,-2.528 3.226,-2.636 2.729,-2.636 2.193,-2.636 1.713,-2.517 1.288,-2.279 0.867,-2.042 0.545,-1.717 0.326,-1.306 0.108,-0.894 0,-0.458 0,0 m 0.779,-0.011 c 0,-0.63 0.183,-1.126 0.552,-1.491 0.372,-0.362 0.836,-0.542 1.395,-0.542 0.569,0 1.035,0.184 1.402,0.549 0.369,0.367 0.552,0.887 0.552,1.56 C 4.68,0.49 4.601,0.861 4.443,1.177 4.288,1.495 4.056,1.742 3.753,1.915 3.452,2.092 3.113,2.179 2.736,2.179 2.202,2.179 1.742,2.01 1.355,1.673 0.971,1.337 0.779,0.777 0.779,-0.011"
             style="fill:#000000;fill-opacity:1;fill-rule:nonzero;stroke:none"
             id="path194" /></g><g
           id="g196"
           transform="translate(167.256,59.2633)"><path
             d="m 0,0 0,5.228 2.532,0 C 3.04,5.228 3.427,5.18 3.692,5.085 3.957,4.992 4.168,4.827 4.325,4.589 4.486,4.352 4.563,4.089 4.563,3.801 4.563,3.43 4.432,3.117 4.169,2.863 3.908,2.609 3.503,2.447 2.956,2.377 3.156,2.29 3.308,2.203 3.412,2.117 3.632,1.932 3.841,1.7 4.039,1.422 L 5.031,0 4.08,0 3.326,1.086 C 3.105,1.402 2.923,1.642 2.781,1.808 2.638,1.974 2.51,2.09 2.395,2.157 2.284,2.223 2.169,2.27 2.053,2.297 1.966,2.312 1.827,2.322 1.632,2.322 l -0.876,0 L 0.756,0 0,0 z m 0.756,2.921 1.623,0 c 0.346,0 0.616,0.032 0.81,0.095 0.195,0.067 0.343,0.172 0.444,0.314 0.101,0.146 0.153,0.302 0.153,0.471 0,0.247 -0.1,0.451 -0.297,0.611 C 3.295,4.57 2.986,4.65 2.563,4.65 l -1.807,0 0,-1.729 z"
             style="fill:#000000;fill-opacity:1;fill-rule:nonzero;stroke:none"
             id="path198" /></g><g
           id="g200"
           transform="translate(173.1033,59.2633)"><path
             d="m 0,0 0,5.228 2.153,0 c 0.378,0 0.668,-0.016 0.868,-0.05 C 3.301,5.136 3.536,5.053 3.725,4.932 3.914,4.814 4.066,4.645 4.18,4.429 4.297,4.212 4.356,3.974 4.356,3.716 4.356,3.271 4.201,2.894 3.892,2.585 3.583,2.277 3.025,2.125 2.219,2.125 l -1.465,0 L 0.754,0 0,0 z m 0.754,2.741 1.476,0 c 0.488,0 0.834,0.084 1.04,0.251 0.204,0.167 0.306,0.4 0.306,0.702 0,0.219 -0.06,0.405 -0.182,0.559 C 3.274,4.412 3.116,4.513 2.919,4.564 2.792,4.596 2.556,4.61 2.214,4.612 l -1.46,0 0,-1.871 z"
             style="fill:#000000;fill-opacity:1;fill-rule:nonzero;stroke:none"
             id="path202" /></g><g
           id="g204"
           transform="translate(178.2902,61.8087)"><path
             d="M 0,0 C 0,0.868 0.254,1.547 0.764,2.038 1.272,2.53 1.928,2.775 2.732,2.775 3.26,2.775 3.734,2.659 4.159,2.429 4.58,2.198 4.902,1.876 5.124,1.462 5.347,1.051 5.458,0.585 5.458,0.06 5.458,-0.47 5.341,-0.944 5.108,-1.362 4.874,-1.781 4.543,-2.098 4.115,-2.314 3.688,-2.528 3.226,-2.636 2.729,-2.636 2.193,-2.636 1.712,-2.517 1.288,-2.279 0.867,-2.042 0.545,-1.717 0.327,-1.306 0.108,-0.894 0,-0.458 0,0 m 0.778,-0.011 c 0,-0.63 0.186,-1.126 0.554,-1.491 0.371,-0.362 0.837,-0.542 1.394,-0.542 0.569,0 1.035,0.184 1.402,0.549 0.367,0.367 0.552,0.887 0.552,1.56 C 4.68,0.49 4.601,0.861 4.443,1.177 4.286,1.495 4.056,1.742 3.754,1.915 3.452,2.092 3.114,2.179 2.737,2.179 2.203,2.179 1.741,2.01 1.355,1.673 0.971,1.337 0.778,0.777 0.778,-0.011"
             style="fill:#000000;fill-opacity:1;fill-rule:nonzero;stroke:none"
             id="path206" /></g><g
           id="g208"
           transform="translate(184.8323,59.2633)"><path
             d="m 0,0 0,5.228 2.532,0 C 3.04,5.228 3.427,5.18 3.692,5.085 3.957,4.992 4.168,4.827 4.325,4.589 4.484,4.352 4.563,4.089 4.563,3.801 4.563,3.43 4.432,3.117 4.17,2.863 3.908,2.609 3.503,2.447 2.956,2.377 3.155,2.29 3.308,2.203 3.412,2.117 3.632,1.932 3.841,1.7 4.038,1.422 L 5.03,0 4.08,0 3.326,1.086 C 3.105,1.402 2.923,1.642 2.781,1.808 2.637,1.974 2.51,2.09 2.395,2.157 2.284,2.223 2.169,2.27 2.053,2.297 1.966,2.312 1.827,2.322 1.632,2.322 l -0.876,0 L 0.756,0 0,0 z m 0.756,2.921 1.624,0 c 0.345,0 0.615,0.032 0.809,0.095 0.195,0.067 0.343,0.172 0.443,0.314 0.102,0.146 0.154,0.302 0.154,0.471 0,0.247 -0.1,0.451 -0.297,0.611 C 3.295,4.57 2.986,4.65 2.563,4.65 l -1.807,0 0,-1.729 z"
             style="fill:#000000;fill-opacity:1;fill-rule:nonzero;stroke:none"
             id="path210" /></g><g
           id="g212"
           transform="translate(190.0517,59.2633)"><path
             d="m 0,0 2.192,5.228 0.814,0 L 5.342,0 4.482,0 3.816,1.583 1.43,1.583 0.802,0 0,0 z m 1.647,2.146 1.935,0 -0.595,1.448 C 2.805,4.034 2.669,4.396 2.582,4.678 2.51,4.343 2.406,4.01 2.273,3.679 L 1.647,2.146 z"
             style="fill:#000000;fill-opacity:1;fill-rule:nonzero;stroke:none"
             id="path214" /></g></g></g><g
       id="g216"
       transform="matrix(1.2227712,0,0,1.2227712,184.47326,391.3577)"><path
         d="m 0,0 0,4.612 -1.88,0 0,0.616 4.523,0 0,-0.616 -1.888,0 L 0.755,0 0,0 z"
         style="fill:#000000;fill-opacity:1;fill-rule:nonzero;stroke:none"
         id="path218" /></g><path
       d="m 188.93124,391.35728 0.92442,0 0,6.39265 -0.92442,0 0,-6.39265 z"
       style="fill:#000000;fill-opacity:1;fill-rule:nonzero;stroke:none"
       id="path220" /><g
       transform="matrix(1.2227712,0,0,1.2227712,-57.082998,318.89215)"
       id="g222"><g
         id="g224"
         clip-path="url(#clipPath226-9-7-1)"><g
           id="g230"
           transform="translate(203.1508,61.8087)"><path
             d="M 0,0 C 0,0.868 0.254,1.547 0.764,2.038 1.272,2.53 1.929,2.775 2.732,2.775 3.26,2.775 3.734,2.659 4.159,2.429 4.581,2.198 4.903,1.876 5.124,1.462 5.347,1.051 5.458,0.585 5.458,0.06 5.458,-0.47 5.341,-0.944 5.108,-1.362 4.874,-1.781 4.543,-2.098 4.116,-2.314 3.688,-2.528 3.226,-2.636 2.729,-2.636 c -0.536,0 -1.017,0.119 -1.44,0.357 C 0.867,-2.042 0.545,-1.717 0.327,-1.306 0.109,-0.894 0,-0.458 0,0 m 0.779,-0.011 c 0,-0.63 0.185,-1.126 0.553,-1.491 0.371,-0.362 0.835,-0.542 1.394,-0.542 0.569,0 1.035,0.184 1.402,0.549 0.369,0.367 0.552,0.887 0.552,1.56 C 4.68,0.49 4.601,0.861 4.443,1.177 4.288,1.495 4.056,1.742 3.754,1.915 3.452,2.092 3.114,2.179 2.737,2.179 2.203,2.179 1.742,2.01 1.355,1.673 0.971,1.337 0.779,0.777 0.779,-0.011"
             style="fill:#000000;fill-opacity:1;fill-rule:nonzero;stroke:none"
             id="path232" /></g></g></g><g
       id="g234"
       transform="matrix(1.2227712,0,0,1.2227712,199.3012,391.3577)"><path
         d="m 0,0 0,5.228 0.774,0 2.999,-4.105 0,4.105 0.724,0 L 4.497,0 3.721,0 0.723,4.107 0.723,0 0,0 z"
         style="fill:#000000;fill-opacity:1;fill-rule:nonzero;stroke:none"
         id="path236" /></g><g
       transform="matrix(1.2227712,0,0,1.2227712,-57.082998,318.89215)"
       id="g238"><g
         id="g240"
         clip-path="url(#clipPath242-4-1-3)"><g
           id="g246"
           transform="translate(66.9113,60.0814)"><path
             d="m 0,0 c 0,-1.389 -1.127,-2.516 -2.515,-2.516 l -15.198,0 c -1.39,0 -2.515,1.127 -2.515,2.516 l 0,18.94 c 0,1.389 1.125,2.515 2.515,2.515 l 15.198,0 C -1.127,21.455 0,20.329 0,18.94 l 0,-1.802 -7.922,0 c -0.102,-0.005 -0.204,0 -0.308,0 -4.231,0 -7.661,-3.432 -7.661,-7.669 0,-4.233 3.43,-7.666 7.661,-7.666 L -8.165,1.805 0,1.804 0,0 z"
             style="fill:#00164b;fill-opacity:1;fill-rule:nonzero;stroke:none"
             id="path248" /></g><g
           id="g250"
           transform="translate(66.9113,74.8276)"><path
             d="m 0,0 0,-10.688 -4.509,0.002 c -1.388,0 -2.513,1.125 -2.513,2.513 l 0,5.657 C -7.022,-1.125 -5.897,0 -4.509,0 L 0,0 z"
             style="fill:#00164b;fill-opacity:1;fill-rule:nonzero;stroke:none"
             id="path252" /></g></g></g></g></svg>