<?xml version="1.0" encoding="utf-8"?>
<!-- Generator: Adobe Illustrator 25.2.0, SVG Export Plug-In . SVG Version: 6.00 Build 0)  -->
<svg version="1.1" id="Layer_1" xmlns="http://www.w3.org/2000/svg" xmlns:xlink="http://www.w3.org/1999/xlink" x="0px" y="0px"
	 viewBox="0 0 132 132" style="enable-background:new 0 0 132 132;" xml:space="preserve">
<style type="text/css">
	.st0{fill:#CF3339;}
	.st1{fill:#FFFFFF;}
</style>
<rect x="0" class="st0" width="132" height="132"/>
<path class="st1" d="M23.85,101.12c3.1,0,4.63,1.84,4.63,1.84l-1.12,1.68c0,0-1.32-1.43-3.42-1.43c-2.49,0-4.3,1.88-4.3,4.45
	c0,2.56,1.81,4.51,4.37,4.51c2.29,0,3.8-1.68,3.8-1.68l0.95,1.76c0,0-1.7,2.01-4.93,2.01c-3.88,0-6.61-2.8-6.61-6.56
	C17.24,103.97,19.97,101.12,23.85,101.12"/>
<path class="st1" d="M36.35,101.42h2.36v12.53h-2.36V101.42z M36.32,96.47h2.4v2.45h-2.4V96.47z"/>
<path class="st1" d="M45.61,101.42h2.51l3,8.47c0.25,0.7,0.39,1.71,0.41,1.71h0.05c0.02,0,0.2-1.01,0.44-1.71l3-8.47h2.49
	l-4.56,12.54h-2.73L45.61,101.42z"/>
<path class="st1" d="M64.42,101.42h2.36v12.53h-2.36V101.42z M64.4,96.47h2.39v2.45H64.4V96.47z"/>
<path class="st1" d="M75.89,103.53h-1.61v-1.93h1.68v-3.61h2.29v3.61h2.98v1.93h-2.98v5.57c0,2.51,1.73,2.83,2.64,2.83
	c0.34,0,0.56-0.05,0.56-0.05V114c0,0-0.33,0.05-0.82,0.05c-1.59,0-4.73-0.49-4.73-4.68V103.53z"/>
<path class="st1" d="M92.69,112.32c2,0,3.3-2.13,3.3-3.99v-0.39h-0.61c-1.78,0-5,0.12-5,2.37
	C90.38,111.32,91.16,112.32,92.69,112.32 M95.43,106.12h0.54v-0.22c0-2.05-1.15-2.75-2.71-2.75c-1.9,0-3.44,1.21-3.44,1.21
	l-0.97-1.76c0,0,1.78-1.49,4.61-1.49c3.12,0,4.88,1.74,4.88,4.91v7.92h-2.19v-1.19c0-0.56,0.05-0.99,0.05-0.99h-0.05
	c0,0-1.01,2.47-3.95,2.47c-2.12,0-4.2-1.31-4.2-3.81C87.99,106.3,93.35,106.12,95.43,106.12"/>
<path class="st1" d="M106.9,110.71c0,0,1.39,1.46,3.54,1.46c1.03,0,2.05-0.54,2.05-1.56c0-2.3-6.35-1.83-6.35-5.92
	c0-2.27,2-3.56,4.47-3.56c2.7,0,3.97,1.39,3.97,1.39l-0.95,1.8c0,0-1.1-1.11-3.05-1.11c-1.03,0-2.03,0.44-2.03,1.54
	c0,2.25,6.34,1.75,6.34,5.86c0,2.08-1.75,3.64-4.46,3.64c-3.02,0-4.69-1.83-4.69-1.83L106.9,110.71z"/>
</svg>
