<?xml version="1.0" encoding="utf-8"?>
<!-- Generator: Adobe Illustrator 15.0.0, SVG Export Plug-In . SVG Version: 6.00 Build 0)  -->
<!DOCTYPE svg PUBLIC "-//W3C//DTD SVG 1.1//EN" "http://www.w3.org/Graphics/SVG/1.1/DTD/svg11.dtd">
<svg version="1.1" id="Layer_1" xmlns="http://www.w3.org/2000/svg" xmlns:xlink="http://www.w3.org/1999/xlink" x="0px" y="0px"
	 width="612px" height="250px" viewBox="0 0 612 250" enable-background="new 0 0 612 250" xml:space="preserve">
<g>
	<defs>
		<rect id="SVGID_1_" width="612" height="250"/>
	</defs>
	<clipPath id="SVGID_2_">
		<use xlink:href="#SVGID_1_"  overflow="visible"/>
	</clipPath>
	<g opacity="0.2" clip-path="url(#SVGID_2_)">
		<g>
			<defs>
				<rect id="SVGID_3_" x="-47.813" y="-57.25" width="449.848" height="296.886"/>
			</defs>
			<clipPath id="SVGID_4_">
				<use xlink:href="#SVGID_3_"  overflow="visible"/>
			</clipPath>
			<polygon clip-path="url(#SVGID_4_)" fill="#5FA529" points="-47.813,-57.25 402.035,-12.338 246.458,239.636 -15.219,154.475 			
				"/>
		</g>
	</g>
	<g opacity="0.2" clip-path="url(#SVGID_2_)">
		<g>
			<defs>
				<rect id="SVGID_5_" x="-79.864" y="-57.25" width="468.587" height="281.491"/>
			</defs>
			<clipPath id="SVGID_6_">
				<use xlink:href="#SVGID_5_"  overflow="visible"/>
			</clipPath>
			<polygon clip-path="url(#SVGID_6_)" fill="#5FA529" points="-61.124,-57.25 388.725,-12.338 267.925,224.242 -79.863,129.313 			
				"/>
		</g>
	</g>
</g>
<polygon fill="#5FA529" points="0,0 0,150.656 292.162,204.255 366.563,0 "/>
<g>
	<path fill="#FFFFFF" d="M120.881,111.782c-2.854,1.473-8.836,2.945-16.383,2.945c-17.488,0-30.558-11.045-30.558-31.479
		c0-19.513,13.162-32.582,32.398-32.582c7.639,0,12.61,1.656,14.727,2.761l-2.025,6.535c-2.945-1.473-7.271-2.577-12.426-2.577
		c-14.542,0-24.207,9.296-24.207,25.587c0,15.279,8.744,24.943,23.747,24.943c4.97,0,9.94-1.012,13.162-2.577L120.881,111.782z"/>
	<path fill="#FFFFFF" d="M130.908,51.679h8.1v55.317h26.508v6.719h-34.607V51.679z"/>
	<path fill="#FFFFFF" d="M206.469,84.63h-24.022v22.366h26.876v6.719h-34.976V51.679h33.595v6.719h-25.495v19.604h24.022V84.63z"/>
	<path fill="#FFFFFF" d="M229.751,94.202l-6.443,19.513h-8.283l21.169-62.036h9.572l21.17,62.036h-8.56l-6.627-19.513H229.751z
		 M250.184,87.943l-6.167-17.856c-1.38-4.05-2.301-7.731-3.221-11.321h-0.185c-0.92,3.589-1.841,7.455-3.129,11.229l-6.075,17.948
		H250.184z"/>
	<path fill="#FFFFFF" d="M276.043,52.508c4.05-0.736,9.94-1.289,15.371-1.289c8.56,0,14.174,1.657,17.947,5.063
		c3.038,2.761,4.879,6.995,4.879,11.873c0,8.1-5.154,13.53-11.598,15.739v0.276c4.694,1.656,7.548,6.074,9.021,12.518
		c2.024,8.651,3.497,14.634,4.786,17.027h-8.284c-1.013-1.841-2.393-7.087-4.05-14.818c-1.841-8.56-5.246-11.781-12.518-12.058
		h-7.547v26.876h-8.008V52.508z M284.051,80.764h8.191c8.56,0,13.99-4.694,13.99-11.781c0-8.007-5.799-11.505-14.267-11.505
		c-3.865,0-6.535,0.276-7.915,0.645V80.764z"/>
</g>
<g>
	<path fill="#5FA529" d="M357.681,94.202l-6.442,19.513h-8.284l21.17-62.036h9.572l21.169,62.036h-8.56l-6.627-19.513H357.681z
		 M378.114,87.943l-6.167-17.856c-1.381-4.05-2.301-7.731-3.222-11.321h-0.184c-0.921,3.589-1.841,7.455-3.13,11.229l-6.074,17.948
		H378.114z"/>
	<path fill="#5FA529" d="M403.881,51.679h8.1v55.317h26.508v6.719h-34.607V51.679z"/>
	<path fill="#5FA529" d="M455.419,51.679v62.036h-8.1V51.679H455.419z"/>
	<path fill="#5FA529" d="M516.717,110.954c-3.59,1.38-10.77,3.406-19.145,3.406c-9.389,0-17.12-2.394-23.195-8.192
		c-5.338-5.154-8.651-13.438-8.651-23.102c0-18.5,12.794-32.03,33.595-32.03c7.18,0,12.886,1.564,15.555,2.853l-2.024,6.535
		c-3.313-1.564-7.455-2.669-13.714-2.669c-15.095,0-24.943,9.388-24.943,24.943c0,15.739,9.389,25.035,23.931,25.035
		c5.246,0,8.836-0.736,10.677-1.657v-18.5h-12.518v-6.443h20.434V110.954z"/>
	<path fill="#5FA529" d="M528.861,113.715V51.679h8.836l19.789,31.386c4.51,7.271,8.191,13.806,11.045,20.157l0.275-0.092
		c-0.736-8.283-0.92-15.831-0.92-25.495V51.679h7.547v62.036h-8.1l-19.696-31.478c-4.326-6.903-8.468-13.99-11.505-20.709
		l-0.276,0.092c0.46,7.824,0.552,15.279,0.552,25.587v26.508H528.861z"/>
</g>
<g>
	<path fill="#FFFFFF" d="M137.715,145.959l7.025-18.293h2.608l7.487,18.293h-2.758l-2.134-5.54h-7.649l-2.009,5.54H137.715z
		 M142.994,138.447h6.202l-1.909-5.066c-0.583-1.539-1.015-2.803-1.298-3.793c-0.233,1.173-0.562,2.337-0.985,3.494L142.994,138.447
		z"/>
</g>
<g>
	<path fill="#FFFFFF" d="M157.182,145.959v-18.293h2.421v18.293H157.182z"/>
</g>
<g>
	<path fill="#FFFFFF" d="M181.839,144.324c-0.832,0.708-1.633,1.207-2.402,1.498s-1.595,0.437-2.477,0.437
		c-1.456,0-2.575-0.355-3.357-1.067c-0.782-0.711-1.173-1.62-1.173-2.726c0-0.649,0.147-1.242,0.443-1.778s0.682-0.967,1.161-1.292
		c0.478-0.324,1.017-0.57,1.616-0.736c0.441-0.116,1.106-0.229,1.997-0.337c1.813-0.216,3.148-0.474,4.005-0.773
		c0.008-0.308,0.013-0.503,0.013-0.586c0-0.915-0.212-1.56-0.636-1.934c-0.574-0.507-1.427-0.761-2.558-0.761
		c-1.057,0-1.836,0.185-2.34,0.555s-0.875,1.025-1.117,1.965l-2.196-0.299c0.2-0.94,0.528-1.699,0.986-2.277
		s1.119-1.023,1.984-1.335c0.865-0.312,1.868-0.468,3.007-0.468c1.131,0,2.051,0.133,2.758,0.399s1.227,0.601,1.56,1.004
		c0.333,0.404,0.566,0.913,0.699,1.529c0.075,0.382,0.112,1.073,0.112,2.071v2.995c0,2.088,0.048,3.409,0.144,3.962
		s0.285,1.083,0.568,1.591h-2.346C182.055,145.493,181.906,144.948,181.839,144.324z M181.652,139.308
		c-0.815,0.333-2.038,0.616-3.668,0.849c-0.923,0.133-1.577,0.283-1.959,0.449c-0.383,0.167-0.678,0.41-0.886,0.73
		c-0.208,0.32-0.312,0.676-0.312,1.067c0,0.599,0.227,1.098,0.68,1.497c0.454,0.399,1.117,0.599,1.99,0.599
		c0.865,0,1.635-0.189,2.309-0.568c0.674-0.378,1.169-0.896,1.485-1.553c0.241-0.507,0.362-1.256,0.362-2.246V139.308z"/>
	<path fill="#FFFFFF" d="M187.404,145.959v-13.252h2.021v1.884c0.973-1.456,2.379-2.184,4.217-2.184
		c0.799,0,1.533,0.144,2.203,0.431c0.669,0.287,1.171,0.664,1.503,1.129c0.333,0.466,0.566,1.019,0.699,1.659
		c0.083,0.416,0.125,1.144,0.125,2.184v8.148h-2.246v-8.061c0-0.915-0.087-1.599-0.262-2.052c-0.174-0.454-0.484-0.815-0.929-1.086
		c-0.445-0.27-0.967-0.405-1.566-0.405c-0.957,0-1.782,0.304-2.477,0.911c-0.695,0.607-1.042,1.76-1.042,3.457v7.237H187.404z"/>
	<path fill="#FFFFFF" d="M210.214,145.959v-1.672c-0.84,1.314-2.076,1.971-3.706,1.971c-1.057,0-2.028-0.291-2.914-0.874
		c-0.886-0.582-1.572-1.395-2.059-2.439c-0.487-1.043-0.73-2.244-0.73-3.6c0-1.323,0.22-2.522,0.661-3.6
		c0.441-1.077,1.103-1.903,1.984-2.477c0.881-0.574,1.867-0.861,2.957-0.861c0.799,0,1.51,0.168,2.134,0.505
		s1.131,0.776,1.522,1.316v-6.563h2.233v18.293H210.214z M203.114,139.346c0,1.697,0.357,2.966,1.073,3.806
		c0.715,0.84,1.56,1.26,2.533,1.26c0.981,0,1.815-0.401,2.502-1.204c0.686-0.803,1.029-2.028,1.029-3.675
		c0-1.813-0.349-3.145-1.048-3.993c-0.699-0.848-1.56-1.272-2.583-1.272c-0.999,0-1.833,0.408-2.502,1.223
		C203.449,136.305,203.114,137.59,203.114,139.346z"/>
	<path fill="#FFFFFF" d="M222.929,145.959v-13.252h2.021v1.884c0.973-1.456,2.379-2.184,4.217-2.184
		c0.799,0,1.533,0.144,2.203,0.431c0.669,0.287,1.171,0.664,1.503,1.129c0.333,0.466,0.566,1.019,0.699,1.659
		c0.083,0.416,0.125,1.144,0.125,2.184v8.148h-2.246v-8.061c0-0.915-0.087-1.599-0.262-2.052c-0.174-0.454-0.484-0.815-0.929-1.086
		c-0.445-0.27-0.967-0.405-1.566-0.405c-0.957,0-1.782,0.304-2.477,0.911c-0.695,0.607-1.042,1.76-1.042,3.457v7.237H222.929z"/>
	<path fill="#FFFFFF" d="M246.213,141.691l2.321,0.287c-0.366,1.356-1.044,2.408-2.034,3.157c-0.99,0.749-2.254,1.123-3.793,1.123
		c-1.938,0-3.476-0.597-4.611-1.791c-1.136-1.193-1.703-2.868-1.703-5.022c0-2.229,0.574-3.959,1.722-5.191
		c1.148-1.231,2.637-1.847,4.467-1.847c1.772,0,3.219,0.604,4.342,1.81s1.685,2.903,1.685,5.091c0,0.133-0.004,0.333-0.012,0.599
		h-9.883c0.083,1.456,0.495,2.57,1.235,3.344c0.74,0.773,1.664,1.16,2.77,1.16c0.824,0,1.526-0.216,2.109-0.649
		C245.411,143.331,245.873,142.64,246.213,141.691z M238.839,138.061h7.4c-0.1-1.115-0.383-1.951-0.849-2.508
		c-0.716-0.865-1.643-1.298-2.783-1.298c-1.032,0-1.899,0.345-2.602,1.036C239.303,135.981,238.914,136.904,238.839,138.061z"/>
	<path fill="#FFFFFF" d="M256.258,143.95l0.325,1.984c-0.632,0.133-1.198,0.2-1.697,0.2c-0.815,0-1.447-0.129-1.896-0.387
		c-0.449-0.258-0.766-0.597-0.949-1.017c-0.183-0.42-0.274-1.304-0.274-2.652v-7.624h-1.647v-1.747h1.647v-3.282l2.234-1.347v4.629
		h2.258v1.747H254v7.749c0,0.641,0.039,1.052,0.118,1.235s0.208,0.329,0.387,0.437c0.179,0.108,0.435,0.163,0.767,0.163
		C255.522,144.038,255.851,144.008,256.258,143.95z"/>
	<path fill="#FFFFFF" d="M260.9,145.959l-4.056-13.252h2.321l2.108,7.649l0.786,2.845c0.033-0.141,0.262-1.052,0.687-2.732
		l2.109-7.762h2.308l1.984,7.687l0.661,2.533l0.761-2.558l2.271-7.662h2.184l-4.143,13.252h-2.333l-2.109-7.936l-0.512-2.259
		l-2.683,10.195H260.9z"/>
	<path fill="#FFFFFF" d="M276.074,139.333c0-2.454,0.682-4.271,2.046-5.453c1.14-0.981,2.529-1.473,4.167-1.473
		c1.822,0,3.311,0.597,4.467,1.791c1.156,1.194,1.734,2.843,1.734,4.948c0,1.706-0.256,3.047-0.768,4.024
		c-0.511,0.978-1.256,1.737-2.233,2.277s-2.044,0.811-3.201,0.811c-1.855,0-3.354-0.595-4.498-1.784
		C276.646,143.285,276.074,141.571,276.074,139.333z M278.382,139.333c0,1.697,0.37,2.968,1.111,3.812
		c0.74,0.845,1.672,1.267,2.795,1.267c1.115,0,2.042-0.424,2.783-1.272c0.74-0.849,1.11-2.142,1.11-3.881
		c0-1.639-0.372-2.88-1.117-3.725s-1.67-1.267-2.776-1.267c-1.123,0-2.055,0.42-2.795,1.26
		C278.752,136.368,278.382,137.636,278.382,139.333z"/>
	<path fill="#FFFFFF" d="M291.097,145.959v-13.252h2.021v2.009c0.516-0.94,0.992-1.56,1.429-1.859
		c0.437-0.299,0.917-0.449,1.441-0.449c0.757,0,1.527,0.241,2.309,0.724l-0.773,2.084c-0.549-0.324-1.098-0.487-1.647-0.487
		c-0.491,0-0.932,0.148-1.322,0.443c-0.391,0.295-0.67,0.705-0.836,1.229c-0.25,0.798-0.374,1.672-0.374,2.62v6.938H291.097z"/>
	<path fill="#FFFFFF" d="M299.645,145.959v-18.293h2.246v10.432l5.315-5.391h2.908l-5.066,4.917l5.577,8.335h-2.77l-4.38-6.775
		l-1.585,1.522v5.253H299.645z"/>
</g>
<g>
	<path fill="#5FA529" d="M328.57,141.691l2.321,0.287c-0.366,1.356-1.044,2.408-2.034,3.157c-0.99,0.749-2.254,1.123-3.793,1.123
		c-1.938,0-3.476-0.597-4.611-1.791c-1.135-1.193-1.703-2.868-1.703-5.022c0-2.229,0.574-3.959,1.723-5.191
		c1.147-1.231,2.637-1.847,4.467-1.847c1.771,0,3.22,0.604,4.343,1.81s1.685,2.903,1.685,5.091c0,0.133-0.005,0.333-0.013,0.599
		h-9.883c0.083,1.456,0.495,2.57,1.235,3.344c0.74,0.773,1.664,1.16,2.771,1.16c0.823,0,1.526-0.216,2.108-0.649
		C327.768,143.331,328.229,142.64,328.57,141.691z M321.196,138.061h7.399c-0.1-1.115-0.383-1.951-0.849-2.508
		c-0.716-0.865-1.644-1.298-2.782-1.298c-1.032,0-1.899,0.345-2.603,1.036C321.659,135.981,321.271,136.904,321.196,138.061z"/>
	<path fill="#5FA529" d="M333.712,145.959v-13.252h2.021v1.884c0.974-1.456,2.379-2.184,4.218-2.184
		c0.799,0,1.532,0.144,2.202,0.431s1.171,0.664,1.504,1.129c0.332,0.466,0.565,1.019,0.698,1.659
		c0.083,0.416,0.125,1.144,0.125,2.184v8.148h-2.246v-8.061c0-0.915-0.087-1.599-0.262-2.052c-0.175-0.454-0.485-0.815-0.93-1.086
		c-0.445-0.27-0.967-0.405-1.566-0.405c-0.956,0-1.782,0.304-2.477,0.911c-0.694,0.607-1.042,1.76-1.042,3.457v7.237H333.712z"/>
	<path fill="#5FA529" d="M356.571,144.324c-0.832,0.708-1.633,1.207-2.402,1.498s-1.595,0.437-2.477,0.437
		c-1.456,0-2.575-0.355-3.356-1.067c-0.782-0.711-1.173-1.62-1.173-2.726c0-0.649,0.147-1.242,0.442-1.778s0.683-0.967,1.16-1.292
		c0.479-0.324,1.018-0.57,1.616-0.736c0.441-0.116,1.106-0.229,1.997-0.337c1.813-0.216,3.148-0.474,4.005-0.773
		c0.009-0.308,0.013-0.503,0.013-0.586c0-0.915-0.212-1.56-0.637-1.934c-0.573-0.507-1.427-0.761-2.558-0.761
		c-1.057,0-1.837,0.185-2.34,0.555s-0.876,1.025-1.117,1.965l-2.195-0.299c0.199-0.94,0.527-1.699,0.985-2.277
		c0.457-0.578,1.119-1.023,1.984-1.335c0.865-0.312,1.867-0.468,3.007-0.468c1.131,0,2.051,0.133,2.758,0.399
		s1.227,0.601,1.56,1.004c0.333,0.404,0.565,0.913,0.699,1.529c0.074,0.382,0.112,1.073,0.112,2.071v2.995
		c0,2.088,0.048,3.409,0.144,3.962c0.095,0.553,0.284,1.083,0.567,1.591h-2.346C356.787,145.493,356.638,144.948,356.571,144.324z
		 M356.384,139.308c-0.815,0.333-2.038,0.616-3.668,0.849c-0.924,0.133-1.577,0.283-1.96,0.449c-0.382,0.167-0.678,0.41-0.886,0.73
		s-0.312,0.676-0.312,1.067c0,0.599,0.227,1.098,0.68,1.497c0.453,0.399,1.117,0.599,1.99,0.599c0.865,0,1.635-0.189,2.309-0.568
		c0.674-0.378,1.169-0.896,1.485-1.553c0.241-0.507,0.361-1.256,0.361-2.246V139.308z"/>
	<path fill="#5FA529" d="M364.208,145.959h-2.084v-18.293h2.246v6.526c0.948-1.19,2.159-1.785,3.631-1.785
		c0.815,0,1.587,0.165,2.315,0.493c0.728,0.329,1.326,0.79,1.797,1.385c0.47,0.595,0.838,1.313,1.104,2.152
		c0.267,0.84,0.399,1.739,0.399,2.695c0,2.271-0.562,4.026-1.685,5.266c-1.123,1.239-2.471,1.859-4.043,1.859
		c-1.563,0-2.791-0.653-3.681-1.959V145.959z M364.183,139.233c0,1.589,0.217,2.737,0.649,3.444c0.707,1.156,1.664,1.734,2.87,1.734
		c0.981,0,1.83-0.426,2.545-1.279c0.716-0.853,1.073-2.124,1.073-3.812c0-1.73-0.343-3.007-1.029-3.831
		c-0.687-0.823-1.516-1.235-2.489-1.235c-0.981,0-1.83,0.427-2.546,1.279C364.541,136.386,364.183,137.62,364.183,139.233z"/>
	<path fill="#5FA529" d="M376.299,145.959v-18.293h2.246v18.293H376.299z"/>
	<path fill="#5FA529" d="M391.098,141.691l2.321,0.287c-0.366,1.356-1.044,2.408-2.034,3.157c-0.99,0.749-2.254,1.123-3.793,1.123
		c-1.938,0-3.476-0.597-4.611-1.791c-1.135-1.193-1.703-2.868-1.703-5.022c0-2.229,0.574-3.959,1.723-5.191
		c1.147-1.231,2.637-1.847,4.467-1.847c1.771,0,3.22,0.604,4.343,1.81s1.685,2.903,1.685,5.091c0,0.133-0.005,0.333-0.013,0.599
		h-9.883c0.083,1.456,0.495,2.57,1.235,3.344c0.74,0.773,1.664,1.16,2.771,1.16c0.823,0,1.526-0.216,2.108-0.649
		C390.295,143.331,390.757,142.64,391.098,141.691z M383.724,138.061h7.399c-0.1-1.115-0.383-1.951-0.849-2.508
		c-0.716-0.865-1.644-1.298-2.782-1.298c-1.032,0-1.899,0.345-2.603,1.036C384.187,135.981,383.798,136.904,383.724,138.061z"/>
	<path fill="#5FA529" d="M404.837,145.959v-1.672c-0.841,1.314-2.076,1.971-3.706,1.971c-1.057,0-2.028-0.291-2.914-0.874
		c-0.886-0.582-1.572-1.395-2.059-2.439c-0.486-1.043-0.73-2.244-0.73-3.6c0-1.323,0.221-2.522,0.662-3.6
		c0.44-1.077,1.102-1.903,1.983-2.477c0.882-0.574,1.868-0.861,2.958-0.861c0.798,0,1.51,0.168,2.134,0.505
		c0.623,0.337,1.131,0.776,1.521,1.316v-6.563h2.234v18.293H404.837z M397.736,139.346c0,1.697,0.357,2.966,1.073,3.806
		c0.716,0.84,1.56,1.26,2.533,1.26c0.981,0,1.815-0.401,2.502-1.204s1.029-2.028,1.029-3.675c0-1.813-0.35-3.145-1.048-3.993
		c-0.699-0.848-1.56-1.272-2.583-1.272c-0.998,0-1.833,0.408-2.502,1.223C398.071,136.305,397.736,137.59,397.736,139.346z"/>
	<path fill="#5FA529" d="M417.889,145.959v-18.293h13.227v2.159H420.31v5.603h10.119v2.146H420.31v6.227h11.23v2.159H417.889z"/>
	<path fill="#5FA529" d="M434.147,137.05c0-3.037,0.815-5.414,2.445-7.131c1.631-1.718,3.735-2.577,6.314-2.577
		c1.688,0,3.211,0.403,4.566,1.21c1.356,0.807,2.39,1.932,3.102,3.375c0.711,1.443,1.066,3.08,1.066,4.91
		c0,1.855-0.374,3.515-1.123,4.979c-0.749,1.464-1.81,2.572-3.182,3.325c-1.373,0.753-2.854,1.129-4.442,1.129
		c-1.722,0-3.261-0.416-4.617-1.248c-1.355-0.832-2.383-1.967-3.082-3.406C434.497,140.178,434.147,138.655,434.147,137.05z
		 M436.643,137.087c0,2.205,0.593,3.941,1.778,5.21s2.673,1.903,4.461,1.903c1.822,0,3.321-0.641,4.499-1.922
		c1.177-1.281,1.766-3.099,1.766-5.453c0-1.489-0.252-2.789-0.755-3.899c-0.504-1.111-1.24-1.972-2.209-2.583
		c-0.97-0.611-2.057-0.917-3.263-0.917c-1.714,0-3.188,0.589-4.424,1.766S436.643,134.333,436.643,137.087z"/>
	<path fill="#5FA529" d="M452.79,146.271l5.303-18.917h1.797l-5.29,18.917H452.79z"/>
</g>
<g>
	<path fill="#5FA529" d="M462.259,145.959v-18.293h2.42v18.293H462.259z"/>
</g>
<g>
	<path fill="#5FA529" d="M471.493,145.959v-18.293h8.111c1.63,0,2.869,0.165,3.718,0.493s1.526,0.909,2.034,1.741
		c0.508,0.832,0.761,1.751,0.761,2.757c0,1.298-0.42,2.392-1.26,3.282c-0.841,0.89-2.138,1.456-3.894,1.697
		c0.641,0.308,1.128,0.611,1.46,0.911c0.707,0.649,1.377,1.46,2.01,2.434l3.182,4.979h-3.045l-2.421-3.806
		c-0.707-1.098-1.289-1.938-1.747-2.521c-0.457-0.583-0.867-0.99-1.229-1.223c-0.362-0.233-0.73-0.395-1.104-0.486
		c-0.274-0.058-0.724-0.087-1.348-0.087h-2.808v8.123H471.493z M473.914,135.739h5.203c1.106,0,1.972-0.114,2.596-0.343
		c0.624-0.229,1.098-0.595,1.423-1.098c0.324-0.503,0.486-1.05,0.486-1.641c0-0.865-0.314-1.576-0.942-2.134
		c-0.628-0.557-1.62-0.836-2.976-0.836h-5.79V135.739z"/>
</g>
<rect fill="none" width="612" height="250"/>
</svg>
