<?xml version="1.0" encoding="UTF-8"?>
<svg width="1380px" height="322px" viewBox="0 0 1380 322" version="1.1" xmlns="http://www.w3.org/2000/svg" xmlns:xlink="http://www.w3.org/1999/xlink">
    <!-- Generator: Sketch 63.1 (92452) - https://sketch.com -->
    <title>CWF_PRIMARY-01</title>
    <desc>Created with Sketch.</desc>
    <g id="Page-1" stroke="none" stroke-width="1" fill="none" fill-rule="evenodd">
        <g id="CWF_PRIMARY-01" fill-rule="nonzero">
            <path d="M190.53,113.45 C209.62,87.27 221.62,46.74 209.77,32.88 C209.77,32.88 282.84,60.59 247.29,159.52 C247.29,159.52 285.49,241.23 208.13,297.29 C208.13,297.29 223.7,242.35 192.54,205.09 L236.35,159.18 L190.53,113.45 Z" id="Path" fill="#A7D05F"></path>
            <path d="M246.31,279.37 L282,244.94 C312.58,201.78 313.46,146.16 301.08,108.8 C283.53,55.8 238.56,43.11 238.56,43.11 C269.16,93.85 262.37,130.96 245.05,156.64 C245.05,156.64 267.58,230.48 246.34,279.37" id="Path" fill="#43976D"></path>
            <path d="M67.16,266.45 L67.37,266.52 C67.3,266.69 67.24,266.65 67.21,266.4 L67.16,266.45 Z" id="Path" fill="#FFFFFF"></path>
            <polygon id="Path" fill="#302A2C" points="382.47 264.71 371.36 264.71 371.36 194.83 414.44 194.83 414.44 205.29 382.44 205.29 382.44 225.51 411.44 225.51 411.44 236.06 382.44 236.06"></polygon>
            <path d="M67.16,266.45 L67.37,266.52 C67.3,266.69 67.24,266.65 67.21,266.4 L67.16,266.45 Z" id="Path" fill="#302A2C"></path>
            <path d="M159.29,214.76 L159.29,196.94 C208.171622,196.422357 247.525662,156.649363 247.525662,107.765 C247.525662,58.8806369 208.171622,19.1076428 159.29,18.59 L159.29,0.77 C218.17,0.77 266.08,48.77 266.08,107.77 C266.08,166.77 218.17,214.77 159.29,214.77" id="Path" fill="#302A2C"></path>
            <path d="M160.64,321.32 L160.64,303.5 C209.196996,302.984085 248.288791,263.474737 248.288791,214.915 C248.288791,166.355263 209.196996,126.845915 160.64,126.33 L160.64,108.51 C219.2,108.51 266.84,156.24 266.84,214.92 C266.84,273.6 219.2,321.32 160.64,321.32" id="Path" fill="#302A2C"></path>
            <path d="M160.59,321.32 C102.03,321.32 54.39,273.59 54.39,214.92 C54.39,156.25 102,108.51 160.59,108.51 L160.59,126.33 C112.033004,126.845915 72.9412093,166.355263 72.9412093,214.915 C72.9412093,263.474737 112.033004,302.984085 160.59,303.5 L160.59,321.32 Z" id="Path" fill="#302A2C"></path>
            <path d="M160.66,321.32 L160.66,303.5 C239.08,303.5 302.89,239.58 302.89,161 C302.89,82.42 239.08,18.5 160.66,18.5 L160.66,0.68 C248.89,0.68 320.66,72.6 320.66,161 C320.66,249.4 248.88,321.32 160.66,321.32" id="Path" fill="#302A2C"></path>
            <path d="M160.58,321.32 C72.35,321.32 0.58,249.4 0.58,161 C0.58,72.6 72.36,0.68 160.58,0.68 L160.58,18.5 C82.15,18.5 18.35,82.42 18.35,161 C18.35,239.58 82.15,303.5 160.58,303.5 L160.58,321.32 Z" id="Path" fill="#302A2C"></path>
            <path d="M160.61,321.32 C126.27998,321.32 98.45,293.49002 98.45,259.16 C98.45,224.82998 126.27998,197 160.61,197 L160.61,214.82 C136.121694,214.82 116.27,234.671694 116.27,259.16 C116.27,283.648306 136.121694,303.5 160.61,303.5 L160.61,321.32 Z" id="Path" fill="#302A2C"></path>
            <path d="M160.62,321.32 L160.62,303.5 C185.108306,303.5 204.96,283.648306 204.96,259.16 C204.96,234.671694 185.108306,214.82 160.62,214.82 L160.62,197 C194.95002,197 222.78,224.82998 222.78,259.16 C222.78,293.49002 194.95002,321.32 160.62,321.32" id="Path" fill="#302A2C"></path>
            <path d="M159.72,126.34 L159.72,108.52 C184.572814,108.52 204.72,88.3728137 204.72,63.52 C204.72,38.6671863 184.572814,18.52 159.72,18.52 L159.72,0.69 C194.108164,1.12386177 221.757362,29.1240989 221.757362,63.515 C221.757362,97.9059011 194.108164,125.906138 159.72,126.34" id="Path" fill="#302A2C"></path>
            <path d="M375,115.55 C375,135.71 387.61,146.55 401.88,146.55 C418.34,146.55 424.38,135.37 426.39,128.41 L441.6,135 C437.39,147.64 424.77,162.48 401.91,162.48 C376.31,162.48 357.47,144.64 357.47,117.89 C357.47,90.4 376.67,68.89 401.73,68.89 C425.14,68.89 437.21,83.54 440.87,96.89 L440.48,97.06 C433.107157,100.073481 424.634036,98.0637271 419.4,92.06 C415.63,87.89 409.98,84.84 401.73,84.84 C387.83,84.84 375.03,95.1 375.03,115.62" id="Path" fill="#302A2C"></path>
            <path d="M456.229997,159.72 L456.229997,44.27 C456.224473,34.7690804 463.919085,27.0610396 473.42,27.05 L473.42,159.72 L456.229997,159.72 Z" id="Path" fill="#302A2C"></path>
            <path d="M497.189988,159.72 L497.189988,88.07 C497.184693,83.7001524 498.916204,79.5073197 502.003341,76.4145565 C505.090477,73.3217933 509.28015,71.58265 513.65,71.58 L514.2,71.58 L514.2,159.72 L497.189988,159.72 Z M508.13,26 C512.995137,27.0062349 516.79383,30.812792 517.79,35.68 C519.63,44.92 511.15,52.83 501.48,49.86 C497.898825,48.7395207 495.095707,45.9326653 493.98,42.35 C490.98,32.66 498.91,24.17 508.13,26" id="Shape" fill="#302A2C"></path>
            <path d="M537.999988,159.72 L537.999988,88.07 C537.994692,83.6992313 539.725885,79.5053698 542.812735,76.4110188 C545.899584,73.3166679 550.089231,71.5753011 554.46,71.57 L554.46,83.3 C559.94,73.59 570.92,69.01 581.16,69.01 C592.16,69.01 602.74,74.32 607.5,85.68 C614.42,73 625.76,69 636.92,69 C652.29,69 667.28,79.44 667.28,102.53 L667.28,159.71 L650.28,159.71 L650.28,104.38 C650.28,92.83 644.61,84.22 631.63,84.22 C619.56,84.22 611.33,93.75 611.33,106.39 L611.33,159.72 L594.13,159.72 L594.13,104.38 C594.13,93.02 588.64,84.22 575.47,84.22 C563.22,84.22 554.99,93.38 554.99,106.57 L554.99,159.72 L537.999988,159.72 Z" id="Path" fill="#302A2C"></path>
            <path d="M741,122 L741,118 L714.12,122 C706.8,123.1 701.31,127.31 701.31,135.19 C701.31,141.79 706.8,148.02 715.58,148.02 C729.66,148.02 741,141.24 741,122.02 M710.46,109.37 L734.23,105.89 C739.54,105.16 741,102.41 741,99.3 C741,90.68 735.33,83.54 722,83.54 C714.8,83.54 709.49,86.21 706.14,90.54 C701.230254,96.6508014 693.217151,99.3517596 685.61,97.46 C687.43,80.6 702.61,68.88 721.61,68.88 C747.95,68.88 758.19,83.88 758.19,101.13 L758.19,145.29 C758.136527,150.139418 758.504578,154.98431 759.29,159.77 L742.46,159.77 C741.793225,155.832801 741.488618,151.842788 741.55,147.85 C737.71,154.09 728.93,162.51 713.2,162.51 C695.28,162.51 683.76,150.05 683.76,136.13 C683.76,120.37 695.28,111.57 710.46,109.37" id="Shape" fill="#302A2C"></path>
            <path d="M802.43,71.57 L821.43,71.57 L821.43,87.15 L802.43,87.15 L802.43,133 C802.43,141.06 805.72,145.1 814.68,145.1 C816.955596,145.078003 819.223386,144.830121 821.45,144.36 L821.45,159 C817.661698,160.164825 813.712689,160.721737 809.75,160.65 C794.75,160.65 785.24,151.49 785.24,135.55 L785.24,87.15 L768.41,87.15 L768.41,71.57 L773.17,71.57 C782.68,71.57 786.7,65.71 786.7,58.02 C786.694692,54.2309766 788.195472,50.5951788 790.871904,47.9131201 C793.548336,45.2310615 797.180974,43.7226497 800.97,43.72 L802.43,43.72 L802.43,71.57 Z" id="Path" fill="#302A2C"></path>
            <path d="M897.17,106.57 C896.8,93.93 888.57,84.04 873.02,84.04 C858.58,84.04 849.8,95.21 849.02,106.57 L897.17,106.57 Z M914.54,134.57 C909.6,150.15 895.54,162.42 875.04,162.42 C851.44,162.42 830.78,145.2 830.78,115.33 C830.78,87.66 850.71,68.79 872.84,68.79 C899.91,68.79 915.090692,87.48 915.090692,114.96 C915.101152,116.799909 914.977488,118.638163 914.72,120.46 L848.52,120.46 C848.88,136.22 860.22,147.21 875.04,147.21 C883.6,147.21 889.59,144.38 893.72,139.97 C898.909715,134.220004 907.005933,132.078272 914.36,134.51 L914.54,134.57 Z" id="Shape" fill="#302A2C"></path>
            <path d="M1000.83,80 L1020.83,137.93 L1040.22,71.59 L1058.32,71.59 L1029.79,159.74 L1012,159.74 L988.59,92.67 L965.73,159.74 L947.62,159.74 L918.73,71.59 L937.56,71.59 L957.32,137.93 L977.32,80 C979.036457,74.9655591 983.765994,71.5811937 989.085,71.5811937 C994.404006,71.5811937 999.133543,74.9655591 1000.85,80" id="Path" fill="#302A2C"></path>
            <path d="M1133.46,115.55 C1133.46,95.21 1120.66,84.22 1106.03,84.22 C1091.4,84.22 1078.59,95.22 1078.59,115.55 C1078.59,136.08 1091.39,147.07 1106.03,147.07 C1120.67,147.07 1133.46,136.07 1133.46,115.55 M1151.02,115.55 C1151.02,142.49 1132.36,162.46 1106.02,162.46 C1079.68,162.46 1061.02,142.46 1061.02,115.55 C1061.02,88.8 1079.68,68.83 1106.02,68.83 C1132.36,68.83 1151.02,88.83 1151.02,115.55" id="Shape" fill="#302A2C"></path>
            <path d="M1216.3,81.13 C1216.29215,83.0845254 1215.50402,84.9549689 1214.11073,86.3257258 C1212.71744,87.6964827 1210.83439,88.4540142 1208.88,88.43 L1208.8,88.43 C1194.36,88.43 1184.66,96.13 1184.66,115.55 L1184.66,159.72 L1167.46997,159.72 L1167.46997,88.44 C1167.46204,83.9702909 1169.23136,79.6807768 1172.38817,76.516461 C1175.54498,73.3521452 1179.83028,71.5726471 1184.3,71.57 L1184.3,87 C1190.7,73.44 1201.67,70.14 1210.63,70.14 C1212.53272,70.1520362 1214.43044,70.3361193 1216.3,70.69 L1216.3,81.13 Z" id="Path" fill="#302A2C"></path>
            <path d="M1270.44,108.77 L1308.66,159.77 L1287.08,159.77 L1258.37,120.92 L1246.11,133.2 L1246.11,159.77 L1229.11,159.77 L1229.11,44.09 C1229.11,34.7011593 1236.72116,27.09 1246.11,27.09 L1246.11,110.65 L1284.11,71.65 L1307.89,71.65 L1270.44,108.77 Z" id="Path" fill="#302A2C"></path>
            <path d="M1326.94,131.31 C1328.04,140.47 1334.94,147.81 1347.43,147.81 C1357.12,147.81 1362.43,142.31 1362.43,136.08 C1362.43,130.58 1358.43,126.37 1351.09,124.72 L1336.09,121.42 C1322.37,118.49 1314.14,109.14 1314.14,96.68 C1314.14,81.68 1328.23,68.83 1345.42,68.83 C1369.56,68.83 1377.06,84.58 1378.89,92.46 L1363.71,98.14 C1362.97,93.56 1359.32,83.48 1345.42,83.48 C1336.64,83.48 1330.79,89.17 1330.79,95.21 C1330.79,100.53 1334.08,104.38 1340.85,105.84 L1355.11,108.96 C1371.02,112.44 1379.43,122.15 1379.43,135.16 C1379.43,147.62 1369.01,162.47 1347.25,162.47 C1323.1,162.47 1312.86,146.89 1311.4,136.81 L1326.94,131.31 Z" id="Path" fill="#302A2C"></path>
            <polygon id="Path" fill="#302A2C" points="912.12 264.71 900.81 264.71 900.81 194.83 912.12 194.83"></polygon>
            <polygon id="Path" fill="#302A2C" points="859 264.71 847.9 264.71 847.9 205.29 825.16 205.29 825.16 194.83 881.75 194.83 881.75 205.29 859 205.29"></polygon>
            <path d="M465.85,203.75 C449.56,203.75 442.14,217.22 442.14,229.75 C442.14,247.66 454.43,255.82 465.85,255.82 C477.27,255.82 489.57,247.66 489.57,229.75 C489.57,217.24 482.15,203.75 465.85,203.75 M465.85,266.16 C448.85,266.16 430.85,253.39 430.85,229.73 C430.85,212.12 443.12,193.4 465.85,193.4 C488.58,193.4 500.85,212.12 500.85,229.73 C500.85,253.39 482.85,266.16 465.85,266.16" id="Shape" fill="#302A2C"></path>
            <path d="M548,266.16 C532.62,266.16 522.68,256.16 522.68,240.59 L522.68,194.84 L533.68,194.84 L533.68,240.3 C533.68,250.09 538.9,255.7 548,255.7 C557.1,255.7 562.22,250.23 562.22,240.3 L562.22,194.84 L573.31,194.84 L573.31,240.59 C573.31,256.12 563.38,266.16 548,266.16" id="Path" fill="#302A2C"></path>
            <polygon id="Path" fill="#302A2C" points="657 264.71 645.9 264.71 610.45 211.12 610.45 264.71 599.35 264.71 599.35 194.83 613.24 194.83 613.49 195.22 645.9 245.13 645.9 194.83 657 194.83"></polygon>
            <path d="M694.8,254.64 L707.87,254.64 C721.4,254.64 730.15,244.94 730.15,229.92 C730.15,214.72 721.48,204.92 708.07,204.92 L694.8,204.92 L694.8,254.64 Z M708.16,264.71 L683.69,264.71 L683.69,194.83 L708.35,194.83 C724.87,194.83 741.54,205.68 741.54,229.92 C741.54,253.92 724.78,264.71 708.16,264.71" id="Shape" fill="#302A2C"></path>
            <path d="M776.71,235.22 L797.71,235.22 L787.14,207.88 L776.71,235.22 Z M821.07,264.71 L809.07,264.71 L801.68,245.71 L772.68,245.71 L765.48,264.71 L753.56,264.71 L781.29,194.83 L793.29,194.83 L821.07,264.71 Z" id="Shape" fill="#302A2C"></path>
            <path d="M969.76,203.75 C953.47,203.75 946.04,217.22 946.04,229.75 C946.04,247.66 958.34,255.82 969.76,255.82 C981.18,255.82 993.48,247.66 993.48,229.75 C993.48,217.24 986.06,203.75 969.76,203.75 M969.76,266.16 C952.76,266.16 934.76,253.39 934.76,229.73 C934.76,212.12 947.03,193.4 969.76,193.4 C992.49,193.4 1004.76,212.12 1004.76,229.73 C1004.76,253.39 986.76,266.16 969.76,266.16" id="Shape" fill="#302A2C"></path>
            <polygon id="Path" fill="#302A2C" points="1085 264.71 1073.9 264.71 1038.45 211.12 1038.45 264.71 1027.34 264.71 1027.34 194.83 1041.24 194.83 1041.49 195.22 1073.9 245.13 1073.9 194.83 1085 194.83"></polygon>
        </g>
    </g>
</svg>