<?xml version="1.0" encoding="UTF-8" standalone="no" ?>
<!DOCTYPE svg PUBLIC "-//W3C//DTD SVG 1.1//EN" "http://www.w3.org/Graphics/SVG/1.1/DTD/svg11.dtd">
<svg xmlns="http://www.w3.org/2000/svg" xmlns:xlink="http://www.w3.org/1999/xlink" version="1.1" width="1280" height="289.0915" viewBox="0 0 1280 289.0915" xml:space="preserve">
<desc>Created with Fabric.js 4.6.0</desc>
<defs>
</defs>
<g transform="matrix(7.35 0 0 7.35 640 144.55)" id="8uCZi_iBBqQpxehSqw-l2"  >
<g style="" vector-effect="non-scaling-stroke"   >
		<g transform="matrix(0.11 0 0 0.11 -67.41 0)" id="aKObLxOJ8mS_HtTKtmP7T"  >
<path style="stroke: none; stroke-width: 1; stroke-dasharray: none; stroke-linecap: square; stroke-dashoffset: 0; stroke-linejoin: bevel; stroke-miterlimit: 4; fill: rgb(231,29,29); fill-rule: nonzero; opacity: 1;"  transform=" translate(-178.96, -178.89)" d="M 0.699951 105.05 C 0.699951 35.64 43.96 0.619995 123.82 0.619995 L 357.23 0.619995 L 357.23 148.98 L 338.14 148.98 C 330.1 62.82 291.63 27.4 213.47 27.4 L 165.29 27.4 C 127.78 27.4 109.55 46.1 109.55 83.02 L 109.55 274.76 C 109.55 311.68 127.77 330.38 165.29 330.38 L 213.5 330.38 C 290.51 330.38 329.69 292.86 338.13 203.97 L 357.22 203.97 L 357.22 357.16 L 123.83 357.16 C 43.9699 357.16 0.709961 322.14 0.709961 252.73 L 0.709961 105.05 L 0.699951 105.05" stroke-linecap="round" />
</g>
		<g transform="matrix(0.11 0 0 0.11 -22.08 0)" id="CXh2UpZupKGzss73aPv7g"  >
<path style="stroke: none; stroke-width: 1; stroke-dasharray: none; stroke-linecap: square; stroke-dashoffset: 0; stroke-linejoin: bevel; stroke-miterlimit: 4; fill: rgb(231,29,29); fill-rule: nonzero; opacity: 1;"  transform=" translate(-584.63, -178.89)" d="M 762.9 0.630005 L 762.9 357.17 L 667.98 357.17 L 434.73 73.32 L 434.73 201.12 C 434.73 295.13 472.44 329.99 557.54 339.26 L 557.54 357.17 L 406.37 357.17 L 406.37 0.630005 L 515.55 0.630005 L 734.54 267.2 L 734.54 155.4 C 734.54 62.02 696.67 26.81 613.67 18.53 L 613.67 0.619995 L 762.9 0.619995 L 762.9 0.630005" stroke-linecap="round" />
</g>
		<g transform="matrix(0.11 0 0 0.11 23.35 0)" id="fOVt0syp-Zoav_975alWT"  >
<path style="stroke: none; stroke-width: 1; stroke-dasharray: none; stroke-linecap: square; stroke-dashoffset: 0; stroke-linejoin: bevel; stroke-miterlimit: 4; fill: rgb(231,29,29); fill-rule: nonzero; opacity: 1;"  transform=" translate(-991.25, -178.9)" d="M 812.98 0.630005 L 1169.52 0.630005 L 1169.52 148.99 L 1150.43 148.99 C 1142.35 62.51 1103.92 27.02 1025.76 27.02 L 918.52 27.02 L 918.52 160.72 L 954.85 160.72 C 1015.5 160.72 1041.29 133.5 1047.43 75.11 L 1066.84 75.11 L 1066.84 271.09 L 1047.43 271.09 C 1041.33 212.42 1015.62 185.4 954.85 185.4 L 918.52 185.4 L 918.52 330.79 L 1025.8 330.79 C 1102.81 330.79 1141.99 293.16 1150.43 203.98 L 1169.52 203.98 L 1169.52 357.17 L 812.98 357.17 L 812.98 0.630005" stroke-linecap="round" />
</g>
		<g transform="matrix(0.11 0 0 0.11 67.4 0)" id="zIN3hcJM3j7X62Tl9s-Lt"  >
<path style="stroke: none; stroke-width: 1; stroke-dasharray: none; stroke-linecap: square; stroke-dashoffset: 0; stroke-linejoin: bevel; stroke-miterlimit: 4; fill: rgb(231,29,29); fill-rule: nonzero; opacity: 1;"  transform=" translate(-1385.46, -178.9)" d="M 1563.73 0.630005 L 1563.73 148.99 L 1544.64 148.99 C 1536.4 67.38 1502.29 29.47 1438.23 22.58 L 1438.23 273.3 C 1438.23 316.88 1453.6 334.31 1509.85 337.95 L 1509.85 357.16 L 1261.07 357.16 L 1261.07 337.95 C 1317.33 334.3 1332.7 316.88 1332.7 273.3 L 1332.7 22.57 C 1268.64 29.46 1234.53 67.37 1226.29 148.98 L 1207.19 148.98 L 1207.19 0.630005 L 1563.73 0.630005" stroke-linecap="round" />
</g>
</g>
</g>
</svg>