<?xml version="1.0" encoding="utf-8"?>
<!-- Generator: Adobe Illustrator 26.1.0, SVG Export Plug-In . SVG Version: 6.00 Build 0)  -->
<svg version="1.1" id="a" xmlns="http://www.w3.org/2000/svg" xmlns:xlink="http://www.w3.org/1999/xlink" x="0px" y="0px"
	 viewBox="0 0 1074 540.2" style="enable-background:new 0 0 1074 540.2;" xml:space="preserve">
<style type="text/css">
	.st0{fill:#14213D;}
</style>
<path class="st0" d="M411.5,344V121.6c1.8-0.1,3.4-0.2,5-0.2c22.2,0,44.3-0.2,66.5,0.1c20.8,0.3,41.4,2.1,60.9,10.7
	c25.3,11.3,38.6,34.9,34.4,62.4c-2.2,14-10.3,23.9-22.5,30.6c-1.2,0.7-2.5,1.4-4.2,2.3c19.1,7.7,31.8,20.9,34.4,41
	c4,30.2-8,54.6-40.2,67.2c-13.6,5.3-27.9,7.9-42.4,8.2c-30,0.6-60,0.4-89.9,0.5C413.1,344.3,412.6,344.1,411.5,344L411.5,344z
	 M547.1,296c-0.8-11.5-9.3-20.4-20.4-20.8c-3.1-0.1-4.3-1.4-5.6-3.7c-16.4-28.4-32.8-56.7-49.2-85c-1.6-2.7-1.9-5-0.8-8.2
	c1.3-3.9,1.8-8.6,1.1-12.7c-2.6-15.1-21.8-21-30.2-13.7c4.4,2.5,8.6,5,13,7.3c4.3,2.3,5.4,5.8,3.8,10.1c-1,2.7-2.6,5.4-4.5,7.6
	c-3,3.6-6.6,4.6-11,1.7c-4.1-2.7-8.4-5-12.9-7.6c0.3,10.6,7.7,18.9,18.4,20.1c3.8,0.4,5.4,2.3,7,5.1c16.3,28.2,32.5,56.5,48.9,84.6
	c1.6,2.8,2.1,5,0.8,8.2c-3.3,8.3-0.5,17.9,6.2,23.5c6.5,5.4,15.8,6.4,23.6,2.2c-4.5-2.5-8.7-5.1-13.1-7.3c-4.5-2.4-5.8-6-4-10.4
	c1.3-3.1,3.3-6.1,5.6-8.7c2.5-2.8,5.6-3.1,9-1C537.3,290.4,541.9,293,547.1,296L547.1,296z"/>
<path class="st0" d="M1011.8,248.2v-9.9H928v9.6c5.2,1,10.5,1.7,15.5,3.2c15.3,4.5,20.8,15.2,18.5,30.9c-2.5,16.6-3.2,33.4-4.5,50.1
	c-0.3,3.8,0,7.6,0,11.5h-64.6V121.9c2,0,3.7,0,5.5,0c28.5,0,57-0.2,85.5,0.1c17.5,0.2,34.4,3.8,49.9,12.3
	c23.6,13.1,34.9,33.9,36.1,60.4c0.8,17.9-1.8,35.2-13.7,49.3c-5.7,6.8-13.3,11.9-20.1,17.6c-1.4,1.1-3.1,1.9-4.9,3
	c14.3,26.4,28.5,52.5,42.9,79h-92.1c0-8.5,0.5-16.7-0.1-25c-0.8-11.8-1-23.8-3.9-35.1c-4.4-17.1,3.2-32.6,26.8-34.5
	C1007.1,248.9,1009.3,248.5,1011.8,248.2L1011.8,248.2z M1009.7,153c-2.2,16.1-4.4,31.6-6.6,47.2c-0.5-0.1-1-0.1-1.4-0.1
	c0.5-15.6,1.1-31.2,1.7-48.1c-14.3,0-27.9,0-41.5,0c-10.4,0-10.3,0-11.4,10.5c-0.6,5.6-1.5,11.1-2.2,16.6l-1.3-0.1
	c-0.5-8.8-1.1-17.6-1.7-27c-7.2,0.6-13.7,1.2-20.5,1.8c1.2,16.7,2.1,32.6,3.4,48.4c0.6,7.5,0.9,7.5,8.6,7.5c23,0,46,0,68.9,0h5.8
	c1.5-18.7,2.9-36.9,4.3-55.4C1013.7,153.8,1012,153.5,1009.7,153L1009.7,153z M1011.8,218.4h-83.2v16.5h83.2V218.4z"/>
<path class="st0" d="M736.1,348.7c-40.9-0.5-73.9-14.4-97.9-46.5c-15.1-20.2-21.9-43.3-22-68.6c-0.1-28.8,8.5-54.4,27.3-76.2
	c22.4-26,51.4-38.6,85.5-40.1c20.4-0.8,40.1,2.2,58.7,11c36,17.1,57.9,45.5,64.3,84.6c6.1,36.7-2.4,70.2-27.7,98.3
	c-18.8,20.9-42.8,32.3-70.3,36.2C747.6,348.3,741.1,348.3,736.1,348.7L736.1,348.7z M764,263.3h58.3v-57.9h-58.5v-58.2h-58.8v58.3
	h-57.9v58h58.1v58.4H764L764,263.3L764,263.3z"/>
<path class="st0" d="M278.1,198.3c-17.6,38.2-35.2,76.5-53.3,115.7c12.6-3.2,24.2-6.2,36.8-9.5c-3.7,10.7-7.2,20.7-10.7,30.6
	c-3.2,8.8-3.2,8.8-12.7,8.8c-27.6,0-55.3,0-83.5,0c0.6-1.5,0.9-2.7,1.5-3.8c36.2-72.3,72.5-144.6,108.7-216.9
	c0.4-0.7,0.7-1.5,1.1-2.2c2-3.4,4.2-3.5,6,0c3.9,7.4,7.6,14.8,11.4,22.2c32.9,65.7,65.7,131.3,98.5,197c0.5,1,0.9,2.1,1.5,3.5H279.3
	c5.6-23.5,11.2-46.7,16.9-70.6c-12.2,3.3-24,6.5-36.6,9.9c6.5-28.6,12.9-56.3,19.2-84.1L278.1,198.3L278.1,198.3z"/>
<path class="st0" d="M720.4,369.9h48.2v5.5c0,28,0,56,0,83.9c0,4.8,0.2,9.6,0.7,14.4c1.1,11.7,7.7,18.7,19.3,21
	c17.3,3.4,30.5-5.1,32.2-21c0.4-4.1,0.6-8.3,0.6-12.4c0-28.5,0-57,0-85.4v-5.8H870c0,2.1,0,4.1,0,6c0,32.5,0,65,0,97.4
	c0,33.4-18.9,56.9-51.7,63.9c-21.3,4.5-42.4,3.9-62.4-5.4c-23.4-10.8-35.2-30.1-35.7-55.5c-0.6-34.5-0.2-69-0.1-103.4
	C720.1,372.2,720.3,371.2,720.4,369.9L720.4,369.9z"/>
<path class="st0" d="M476.2,370h48.4c0,2.2,0,4.1,0,6.1c0,32.5,0,65,0,97.5c0,33.5-18.8,57-51.6,63.9c-22.7,4.8-45,3.9-66-7.2
	c-19.1-10.1-30.3-26.4-31.5-47.8c-1.4-24.1-0.7-48.3-0.9-72.4c-0.1-11.8,0-23.7,0-35.5c0-1.5,0.2-2.9,0.3-4.6h48.4v5.2
	c0,29.3,0,58.6,0,88c0,4,0.3,8,0.9,11.9c2,12.8,10.4,20,23.3,20c3,0,6,0,8.9-0.5c11-2.1,17.3-8.8,18.7-19.8
	c0.5-4.1,0.9-8.3,0.9-12.4c0.1-28.8,0-57.6,0-86.5C476.2,374.1,476.2,372.3,476.2,370L476.2,370z"/>
<path class="st0" d="M0,122.2h57.2c-2,14.4-4,28.7-5.7,43c-0.3,2.3,0,5.4,1.3,7c3.5,4.4,2.8,8.7,0.5,13c-4.1,7.8-8.3,15.5-12.5,23.3
	c-0.6,1.2-1.2,2.4-1.8,3.6c-5.6,12.5-1.7,15.6,8.1,17.5c6.5,1.3,7.4,3.5,5.1,9.4c-2,4.9-1.3,6.1,5.7,10c-3.5,4-3,7.3,1,11
	c1.5,1.4,2,5.3,1.3,7.5c-5.2,16,4,26.7,20.6,25.2c11.5-1,23.3-0.9,34.8,0.5c17.8,2.2,27.1,14.2,26.5,32.1
	c-0.2,6.1-0.9,12.1-1.4,18.8H0V122.2z"/>
<path class="st0" d="M1009.6,418.4c-14.6-8.3-29.8-11.2-45.7-10.1c-4.2,0.3-8.6,1.4-12.4,3.2c-6.3,3-6.8,8.8-0.9,12.4
	c6.6,4.1,13.8,7.2,21,10.3c12.5,5.5,25.5,10.2,35.3,20c4.1,4.1,8.2,9.1,10.2,14.5c9.9,27.8,1.7,58.1-33.9,67.3
	c-25.5,6.6-51.1,4.5-76.2-3.6c-3.2-1-4.4-2.5-4.4-6c0.2-13.8,0.1-27.6,0.1-42.2c1.7,0.8,3,1.3,4.2,1.9c17.6,8.3,35.9,12.9,55.6,10.2
	c4.4-0.6,9.6-1.2,10.5-6.7c0.9-5.6-4-7.7-8.1-9.4c-10.4-4.5-20.9-8.5-31.3-13c-10.6-4.6-20.6-10.3-27.1-20.4
	c-13.1-20.2-12.2-59.9,23.2-74.5c23.5-9.7,47.5-7.6,71.5-1.7c1,0.2,1.9,0.6,2.9,0.8c4.1,0.9,5.8,3,5.7,7.5
	C1009.4,391.9,1009.6,404.9,1009.6,418.4L1009.6,418.4z"/>
<path class="st0" d="M690.3,485.5c0,14,0.2,28-0.2,41.9c0,1.6-2.9,4-4.9,4.5c-10.6,2.7-21.2,5.7-32,7.2
	c-20.1,2.9-39.7,0.2-57.3-10.2c-28.3-16.6-42.6-41.8-43-74.5c-0.4-32,12.6-57.1,39.4-74.6c21.1-13.7,44.7-16.2,69.1-12
	c8.4,1.5,16.5,4.8,24.7,7.6c1.4,0.5,3.2,2.7,3.2,4.1c0.2,13.6,0.1,27.3,0.1,41.4c-6.1-2.3-11.8-4.9-17.7-6.5
	c-16.3-4.4-32.7-6.2-48.6,1.9c-16.1,8.2-24.7,28.2-20.2,46.9c4.6,19.3,19.9,32.1,38.8,31.8c8.3-0.1,16.7-0.6,24.7-2.2
	C674.3,491.3,681.9,488.1,690.3,485.5L690.3,485.5z"/>
<path class="st0" d="M177.5,421.5c-15.4-7.7-30.6-11.2-47-10.5c-21.1,0.8-39.2,17.6-40.4,37.6c-1.6,26.9,14.3,44.1,35.9,46.4
	c16.8,1.8,33.1-1.5,48.6-8.5c0.9-0.4,1.8-0.8,2.8-1.1c0.1,0,0.3,0.1,1.1,0.4c0,8,0,16.2,0,24.5c0,4.7-0.4,9.4,0.1,14
	c0.6,4.9-1.8,6.7-5.9,8.2c-11.6,4.2-23.7,6.2-36,7.3c-20,1.7-38.9-1.8-55.8-12.6c-25.7-16.4-38.9-40.3-39.8-70.8
	C40.2,423.6,53,397.9,80.3,380c21.2-13.9,45-16.5,69.5-12.2c8.4,1.5,16.5,4.8,24.6,7.6c1.3,0.5,3,2.4,3,3.7
	C177.6,393,177.5,406.8,177.5,421.5L177.5,421.5z"/>
<path class="st0" d="M192.2,536.2c11.2-22.4,22-44,32.8-65.5c16.4-32.7,32.8-65.4,49.1-98.2c0.5-1,1-2.1,1.6-3.1
	c1.7-2.8,3.3-3.2,4.9,0.1c3.1,6.1,6.3,12.1,9.3,18.2c24,47.9,47.9,95.8,71.9,143.7c0.6,1.3,1.2,2.7,2.2,4.8c-5.6,0-10.7,0-15.8,0
	c-10.3,0-20.6-0.1-31,0.1c-2.7,0-4.2-0.7-5.3-3.2c-2.3-5.3-5.1-10.5-7.4-15.8c-1.1-2.6-2.6-3.2-5.3-3.2c-14.2,0.1-28.3,0.2-42.5,0
	c-3.1,0-4.5,1.2-5.6,3.8c-2.2,5.2-4.5,10.4-7.1,15.4c-0.7,1.3-2.5,2.9-3.8,2.9C224.6,536.3,208.8,536.2,192.2,536.2L192.2,536.2z
	 M267,482.1h22.5c-3.9-9.9-7.6-19.4-11.3-28.9C274.4,463,270.8,472.4,267,482.1L267,482.1z"/>
<path class="st0" d="M816.5,46c0.1,26.1-19.4,45.5-45.9,45.8c-26.5,0.3-46.7-19.4-46.7-45.5c0-25.7,20.2-45.7,46.2-45.8
	C796.2,0.4,816.4,20.3,816.5,46L816.5,46z M770.1,21.1c-13.6,0.1-23.9,11.1-23.7,25.5c0.2,14.1,10.5,24.8,23.9,24.8
	c13.4,0,23.7-10.8,23.8-25C794.2,32.1,783.7,21,770.1,21.1L770.1,21.1z"/>
<path class="st0" d="M180.6,46.2c0,26-19.6,45.5-46.1,45.6C108,91.9,88,72.2,88.1,46c0.1-25.8,20.3-45.6,46.4-45.6
	C160.5,0.5,180.6,20.4,180.6,46.2z M134.2,21.1c-13.4,0.1-23.7,11-23.7,25.1c0,14.3,10.4,25.3,24,25.2c13.4-0.1,23.6-10.9,23.7-25
	C158.3,32,147.8,21,134.2,21.1L134.2,21.1z"/>
<path class="st0" d="M403.4,61.4v28.3h-21.5V3.2c0.3-0.2,0.5-0.6,0.8-0.6c13.3,0.2,26.7-0.5,39.9,0.8c19.5,2,30.1,17.7,25.7,36.3
	c-2,8.4-7.5,13.9-15.1,17.8c5.8,10.8,11.5,21.2,17.5,32.5c-7.7,0-14.6,0.2-21.5-0.1c-1.1-0.1-2.6-1.8-3.3-3.1
	c-3.2-6.1-6.1-12.2-9.1-18.3C414.4,63.2,409.9,60.9,403.4,61.4L403.4,61.4z M403.6,43.1c4.9,0,9.4,0.3,13.8-0.1
	c5.8-0.5,8.9-4.3,9.2-10c0.3-6.1-2.5-10.4-8.3-11.2c-4.8-0.7-9.8-0.1-14.8-0.1L403.6,43.1L403.6,43.1z"/>
<path class="st0" d="M853.6,45.4v44.3h-21.2V0.7c17.5,15.5,34.3,30.4,52.1,46.2v-44h21.7v88.8C888.6,76.2,871.7,61.3,853.6,45.4
	L853.6,45.4z"/>
<path class="st0" d="M218.1,89.8h-21.6V0.7C214,16.1,230.9,31.1,248.8,47V2.6h21.4v89c-17.4-15.3-34.4-30.2-52.2-45.9V89.8
	L218.1,89.8z"/>
<path class="st0" d="M343.5,69.8V49h20.7c0.1,1.4,0.3,2.9,0.3,4.3c0,8.3-0.4,16.7,0.1,25c0.3,5.5-1.5,8-6.7,9.5
	c-12.4,3.6-24.8,5.2-37.5,2c-21.3-5.3-34.9-23.9-33.9-45.9c1-21.8,16.3-38.8,38.6-42.7c11.5-2,22.6,0,33.3,4.1
	c1.2,0.5,2.7,2.2,2.8,3.3c0.3,5.8,0.1,11.6,0.1,16.4c-9.3-1.4-18.2-3.7-27.2-3.8c-18.4-0.3-29.7,16.7-23.6,34
	C315.1,68.2,329.1,74.6,343.5,69.8L343.5,69.8z"/>
<path class="st0" d="M523.1,21.3h-34.5v15.3H518v17.8h-29.4v16.8H525v18.6h-58.6V2.7h56.7V21.3z"/>
<path class="st0" d="M538.2,66.6c7.2,1.8,13.8,4,20.7,4.9c4.5,0.6,9.3,0,13.8-1.2c5.2-1.4,5.9-6.2,1.5-9.2
	c-3.1-2.1-6.8-3.4-10.2-5.1c-5.3-2.5-10.9-4.3-15.8-7.4c-15.6-9.7-15.7-32.7-0.2-42.3c13.9-8.6,28.7-6.9,43.4-2.2
	c0.8,0.3,1.8,1.6,1.8,2.5c0.2,5.9,0.1,11.9,0.1,17.2c-6.7-1.4-12.9-2.8-19.2-3.9c-1.9-0.3-4-0.1-6,0.1c-4.1,0.5-8.4,1.4-9.3,6.1
	c-0.8,4.5,3.2,6.3,6.4,7.9c7.1,3.6,14.7,6.3,21.6,10.3c12.2,7.2,15.8,22.7,8.4,34.4c-4.9,7.8-12.8,10.9-21.5,12.1
	c-10.7,1.4-21.2,0.4-31.6-2.6c-2.8-0.8-4-2.2-3.8-5.2C538.4,77.5,538.2,71.9,538.2,66.6L538.2,66.6z"/>
<path class="st0" d="M610.8,66.6c7.3,1.8,14,4,20.8,5c4.5,0.6,9.3,0,13.8-1.2c5.2-1.4,5.9-6.2,1.5-9.3c-3-2.1-6.5-3.3-9.8-4.9
	c-5.1-2.4-10.5-4.3-15.4-7c-9.1-5-12.8-13.2-12.3-23.4c0.5-9.7,5.3-16.7,13.8-21c13.3-6.6,26.8-5.2,40.3-0.8c1,0.3,2.1,2.1,2.1,3.2
	c0.2,5.6,0.1,11.3,0.1,16.3c-7.2-1.3-14.1-2.9-21-3.6c-3.2-0.3-6.7,0.5-9.7,1.7c-4.8,2-5.3,6.8-1,9.8c3.2,2.3,7,3.8,10.5,5.6
	c5.1,2.5,10.4,4.5,15.2,7.4c8.9,5.3,12.4,13.6,11.4,23.8c-1,10.2-6.7,17-16.2,20.2c-14,4.8-27.9,3.3-41.7-1.1
	c-1.1-0.3-2.3-2.3-2.4-3.6C610.6,78.2,610.7,72.4,610.8,66.6L610.8,66.6z"/>
<path class="st0" d="M76.6,25.1c-8.3-1.4-16.2-3.7-24.2-3.8c-18.5-0.2-30,17.1-23.5,34.4c3.6,9.7,11,15.4,21.2,15.4
	c7.3,0,14.7-2.1,22-3.3c1.6-0.3,3-1.1,5.1-1.8c0,6.4,0.1,12.2-0.1,18c0,1.1-0.9,2.7-1.8,3.1c-26,10.7-59.4,4.6-68.8-27.8
	c-9.8-33.8,18.3-63.8,53.7-58c16.1,2.7,16.3,2.8,16.3,18.9C76.6,22.1,76.6,24,76.6,25.1L76.6,25.1z"/>
<path class="st0" d="M1006.4,90c-7.5,0-14,0.2-20.4-0.2c-1.6-0.1-4-2-4.4-3.5c-2.4-8.5-7.5-11.5-16.1-10c-3.7,0.7-7.7,0.5-11.5,0
	c-5.3-0.8-8.2,1.4-9.3,6.3c-1.5,6.2-5.3,8.3-11.6,7.5c-4.7-0.6-9.5-0.1-15.1-0.1c14.8-30.1,29.1-59.4,44.2-90
	C977.1,30.4,991.5,59.7,1006.4,90z M970.2,61.3c-2.8-6.9-5.3-13.2-8.1-20.3c-2.8,7.2-5.3,13.5-8,20.3H970.2z"/>
<path class="st0" d="M1070.8,89.8h-53.2V2.8h21.7v68.3h31.5V89.8z"/>
<path class="st0" d="M707.8,89.7H686v-87h21.8V89.7z"/>
</svg>
