<?xml version="1.0" encoding="utf-8"?>
<!-- Generator: Adobe Illustrator 23.0.3, SVG Export Plug-In . SVG Version: 6.00 Build 0)  -->
<svg version="1.1" id="Logo_x5F_CONITAS" xmlns="http://www.w3.org/2000/svg" xmlns:xlink="http://www.w3.org/1999/xlink" x="0px"
	 y="0px" viewBox="0 0 573.6 204.5" style="enable-background:new 0 0 573.6 204.5;" xml:space="preserve">
<style type="text/css">
	.st0{fill:#005E90;}
	.st1{fill:#FFFFFF;}
</style>
<rect x="-2.7" y="-3.4" class="st0" width="578.9" height="217.5"/>
<g>
	<path class="st1" d="M123,91.2h-10.1l-1.4-9.1c-1.3-1.3-3-2.4-5.1-3.2c-2-0.8-4.4-1.2-7.2-1.2c-5.9,0-10.5,2.1-13.7,6.4
		s-4.8,9.9-4.8,16.8v2.4c0,6.9,1.6,12.5,4.8,16.9c3.2,4.3,7.7,6.5,13.5,6.5c2.7,0,5.1-0.4,7.4-1.2c2.2-0.8,3.9-1.8,5.2-3.2l1.4-9.1
		h10v13.5c-2.7,3.2-6.2,5.7-10.5,7.6c-4.2,1.9-9,2.8-14.3,2.8c-9.1,0-16.6-3.2-22.4-9.5s-8.7-14.4-8.7-24.3V101
		c0-9.9,2.9-18,8.7-24.3c5.8-6.4,13.3-9.5,22.5-9.5c5.3,0,10,1,14.2,2.9s7.7,4.4,10.5,7.6C123,77.7,123,91.2,123,91.2z"/>
	<path class="st1" d="M181.5,101.6c0-7-1.5-12.8-4.4-17.1c-2.9-4.4-7.3-6.6-13-6.6s-10,2.2-12.8,6.5c-2.8,4.4-4.2,10.1-4.2,17.2v1.1
		c0,7.2,1.4,12.9,4.3,17.3c2.9,4.4,7.1,6.6,12.8,6.6c5.8,0,10.1-2.2,13-6.6s4.3-10.1,4.3-17.3L181.5,101.6L181.5,101.6z
		 M195.1,102.8c0,10-2.8,18.2-8.5,24.7s-13.2,9.8-22.4,9.8s-16.6-3.3-22.3-9.8c-5.6-6.5-8.5-14.7-8.5-24.7v-1
		c0-9.9,2.8-18.1,8.5-24.7c5.6-6.5,13-9.8,22.2-9.8s16.7,3.3,22.4,9.8s8.6,14.8,8.6,24.7V102.8z"/>
	<polygon class="st1" points="272.4,68.2 272.4,76.5 265.1,77.9 265.1,136.3 251.5,136.3 224.1,90.5 223.8,90.5 223.8,126.7 
		231.1,128.1 231.1,136.3 202.9,136.3 202.9,128.1 210.2,126.7 210.2,77.9 202.9,76.5 202.9,68.2 210.2,68.2 223.8,68.2 251.3,114 
		251.5,114 251.5,77.9 244.3,76.5 244.3,68.2 265.1,68.2 	"/>
	<polygon class="st1" points="282.5,76.5 282.5,68.2 310.7,68.2 310.7,76.5 303.4,77.9 303.4,126.7 310.7,128.1 310.7,136.3 
		282.5,136.3 282.5,128.1 289.8,126.7 289.8,77.9 	"/>
	<polygon class="st1" points="381.5,68.2 381.5,86.4 371,86.4 370.5,78.8 357.9,78.8 357.9,126.7 365.2,128.1 365.2,136.3 
		337,136.3 337,128.1 344.3,126.7 344.3,78.8 331.8,78.8 331.3,86.4 320.8,86.4 320.8,68.2 	"/>
	<polygon class="st1" points="446,136.3 446,128.1 441.1,127.4 420.5,68.3 406.6,68.3 385.9,127.4 381,128.1 381,136.3 404.2,136.3 
		404.2,128.1 399.5,127.2 405.8,107.9 413.3,83.9 413.5,83.9 413.6,83.8 413.6,83.9 413.6,83.9 421.2,107.9 427.5,127.2 
		422.8,128.1 422.8,136.3 	"/>
	<path class="st1" d="M505.5,90h-10.2l-1.8-9.3c-1.2-0.7-2.9-1.4-5.2-2c-2.3-0.6-4.7-0.8-7.2-0.8c-3.7,0-6.6,0.8-8.7,2.4
		c-2,1.6-3.1,3.6-3.1,6.1c0,2.3,1.1,4.2,3.2,5.7s5.8,3,11,4.7c7.5,2.1,13.2,4.8,17.1,8.3c3.9,3.4,5.8,7.9,5.8,13.5
		c0,5.8-2.3,10.4-6.9,13.8c-4.6,3.4-10.7,5-18.2,5c-5.4,0-10.2-0.9-14.6-2.6c-4.3-1.7-8-4.1-10.9-7.1v-14.2h10.6l1.4,9.7
		c1.4,1.1,3.2,2,5.6,2.8c2.4,0.7,5,1.1,7.9,1.1c3.7,0,6.6-0.8,8.5-2.3s2.9-3.6,2.9-6.1c0-2.6-0.9-4.7-2.8-6.3
		c-1.9-1.6-5.1-3.1-9.7-4.5c-8.1-2.3-14.2-5.1-18.3-8.3c-4.1-3.2-6.2-7.6-6.2-13.2c0-5.5,2.3-10,7-13.5s10.5-5.3,17.6-5.4
		c5.2,0,10,0.8,14.3,2.4s7.9,3.7,10.8,6.4V90H505.5z"/>
</g>
</svg>
