<?xml version="1.0" encoding="windows-1252"?>
<!-- Generator: Adobe Illustrator 17.1.0, SVG Export Plug-In . SVG Version: 6.00 Build 0)  -->
<!DOCTYPE svg PUBLIC "-//W3C//DTD SVG 1.1//EN" "http://www.w3.org/Graphics/SVG/1.1/DTD/svg11.dtd">
<svg version="1.1" id="Layer_1" xmlns="http://www.w3.org/2000/svg" xmlns:xlink="http://www.w3.org/1999/xlink" x="0px" y="0px" viewBox="0 0 284.5 52" enable-background="new 0 0 284.5 52" xml:space="preserve">
<g id="XMLID_2_">
	<g id="XMLID_197_">
		<g id="XMLID_399_">
			<path id="XMLID_397_" fill="#0F1140" d="M99.1,26.1c-0.1-1.1-0.4-2-0.9-2.9c-0.5-0.9-1.1-1.6-1.8-2.2c-0.7-0.6-1.6-1.1-2.5-1.4     c-1-0.3-2-0.5-3-0.5c-1.9,0-3.5,0.4-4.8,1.1c-1.3,0.8-2.4,1.8-3.3,3c-0.9,1.3-1.5,2.7-1.9,4.3c-0.4,1.6-0.6,3.2-0.6,4.8     c0,1.7,0.2,3.3,0.6,4.8c0.4,1.6,1,3,1.9,4.2c0.9,1.3,2,2.3,3.3,3c1.3,0.8,2.9,1.1,4.8,1.1c1.2,0,2.3-0.2,3.3-0.6     c1-0.4,1.8-0.9,2.6-1.6c0.7-0.7,1.4-1.5,1.9-2.4c0.5-0.9,1-1.9,1.3-3l6.4,3c-1.5,3.8-3.5,6.6-6.1,8.4c-2.5,1.8-5.7,2.7-9.5,2.7     c-3,0-5.7-0.5-7.9-1.6c-2.2-1.1-4.1-2.5-5.6-4.3c-1.5-1.8-2.6-3.9-3.4-6.3c-0.7-2.4-1.1-4.9-1.1-7.6c0-2.6,0.4-5.2,1.2-7.6     c0.8-2.4,2-4.5,3.6-6.3c1.5-1.8,3.4-3.2,5.6-4.3c2.2-1.1,4.7-1.6,7.6-1.6c3.8,0,7,1,9.7,3c2.7,2,4.5,4.9,5.4,8.9L99.1,26.1z"/>
			<path id="XMLID_4_" fill="#0F1140" d="M121,29.7c-1.2,0-2.2,0.2-3,0.7c-0.9,0.5-1.6,1.1-2.2,1.8s-1,1.6-1.3,2.6     c-0.3,1-0.4,2-0.4,3c0,1.1,0.1,2.1,0.4,3c0.3,1,0.7,1.8,1.3,2.6c0.6,0.7,1.3,1.3,2.2,1.8c0.9,0.5,1.9,0.7,3,0.7s2.2-0.2,3-0.7     c0.9-0.5,1.6-1.1,2.2-1.8c0.6-0.7,1-1.6,1.3-2.6c0.3-1,0.4-2,0.4-3c0-1.1-0.1-2.1-0.4-3c-0.3-1-0.7-1.8-1.3-2.6     c-0.6-0.7-1.3-1.3-2.2-1.8C123.2,29.9,122.1,29.7,121,29.7 M121,23.7c2.1,0,4.1,0.4,5.8,1.1c1.7,0.7,3.1,1.7,4.3,2.9     c1.2,1.3,2.1,2.7,2.7,4.4c0.6,1.7,0.9,3.6,0.9,5.6c0,2-0.3,3.9-0.9,5.6c-0.6,1.7-1.5,3.2-2.7,4.4c-1.2,1.3-2.6,2.2-4.3,2.9     c-1.7,0.7-3.6,1.1-5.8,1.1c-2.2,0-4.1-0.4-5.8-1.1c-1.7-0.7-3.1-1.7-4.3-2.9c-1.2-1.2-2.1-2.7-2.7-4.4c-0.6-1.7-0.9-3.6-0.9-5.6     c0-2,0.3-3.9,0.9-5.6c0.6-1.7,1.5-3.2,2.7-4.4c1.2-1.2,2.6-2.2,4.3-2.9C116.9,24.1,118.8,23.7,121,23.7"/>
			<path id="XMLID_394_" fill="#0F1140" d="M136.1,24.4h6.4v3.7h0.1c0.8-1.5,1.9-2.7,3.3-3.3c1.4-0.7,3.1-1,5-1v6.5     c-1.1,0-2.1,0.1-3.1,0.4c-1,0.3-1.9,0.7-2.7,1.3c-0.8,0.6-1.4,1.4-1.8,2.4c-0.5,1-0.7,2.2-0.7,3.7v12.9h-6.4V24.4z"/>
			<path id="XMLID_5_" fill="#0F1140" d="M171,34.3c0-0.4-0.1-0.8-0.3-1.4c-0.2-0.6-0.6-1.2-1.1-1.7c-0.5-0.6-1.1-1.1-1.9-1.5     c-0.8-0.4-1.7-0.6-2.8-0.6c-1.9,0-3.4,0.5-4.6,1.6c-1.2,1-1.9,2.3-2.3,3.7H171z M158.1,39.3c0,1,0.2,1.9,0.6,2.7     c0.4,0.8,0.9,1.5,1.6,2.1c0.7,0.6,1.4,1,2.2,1.3c0.8,0.3,1.7,0.5,2.5,0.5c1.3,0,2.3-0.2,3.2-0.5c0.9-0.3,1.7-0.7,2.3-1.1     c0.6-0.4,1.1-0.8,1.4-1.3c0.3-0.4,0.6-0.7,0.8-1l5.4,3.2c-0.5,0.8-1.1,1.5-1.9,2.3c-0.8,0.8-1.7,1.5-2.7,2.1     c-1.1,0.6-2.3,1.1-3.7,1.5c-1.4,0.4-3,0.6-4.9,0.6c-2.2,0-4.1-0.4-5.8-1.1c-1.7-0.7-3.1-1.7-4.3-2.9c-1.2-1.2-2.1-2.7-2.7-4.4     c-0.6-1.7-0.9-3.6-0.9-5.6c0-2,0.3-3.9,0.9-5.6c0.6-1.7,1.5-3.2,2.7-4.4c1.2-1.2,2.6-2.2,4.3-2.9c1.7-0.7,3.6-1.1,5.8-1.1     c2.2,0,4.1,0.4,5.8,1.1c1.6,0.7,3,1.8,4,3.1c1.1,1.3,1.8,3,2.3,4.9c0.5,1.9,0.7,4.1,0.7,6.5H158.1z"/>
			<path id="XMLID_391_" fill="#A22321" d="M205.8,26.1c-0.1-1.1-0.4-2-0.9-2.9c-0.5-0.9-1.1-1.6-1.8-2.2c-0.7-0.6-1.6-1.1-2.5-1.4     c-1-0.3-2-0.5-3-0.5c-1.9,0-3.5,0.4-4.8,1.1c-1.3,0.8-2.4,1.8-3.3,3c-0.9,1.3-1.5,2.7-1.9,4.3c-0.4,1.6-0.6,3.2-0.6,4.8     c0,1.7,0.2,3.3,0.6,4.8c0.4,1.6,1,3,1.9,4.2c0.9,1.3,2,2.3,3.3,3c1.3,0.8,2.9,1.1,4.8,1.1c1.2,0,2.3-0.2,3.3-0.6     c1-0.4,1.8-0.9,2.6-1.6c0.7-0.7,1.4-1.5,1.9-2.4c0.5-0.9,1-1.9,1.3-3l6.4,3c-1.5,3.8-3.5,6.6-6.1,8.4c-2.5,1.8-5.7,2.7-9.5,2.7     c-3,0-5.7-0.5-7.9-1.6c-2.2-1.1-4.1-2.5-5.6-4.3c-1.5-1.8-2.6-3.9-3.4-6.3c-0.7-2.4-1.1-4.9-1.1-7.6c0-2.6,0.4-5.2,1.2-7.6     c0.8-2.4,2-4.5,3.6-6.3c1.5-1.8,3.4-3.2,5.6-4.3c2.2-1.1,4.7-1.6,7.6-1.6c3.8,0,7,1,9.7,3c2.7,2,4.5,4.9,5.4,8.9L205.8,26.1z"/>
		</g>
		<path id="XMLID_3_" fill="#A22321" d="M215,24.4h6.4v26.7H215V24.4z M215,13.5h6.4V20H215V13.5z"/>
		<polygon id="XMLID_388_" fill="#A22321" points="223.6,24.4 230.5,24.4 235.8,42.9 235.9,42.9 241.2,24.4 248,24.4 239.2,51.1     232.5,51.1   "/>
		<path id="XMLID_6_" fill="#A22321" d="M250.2,24.4h6.4v26.7h-6.4V24.4z M250.2,13.5h6.4V20h-6.4V13.5z"/>
		<path id="XMLID_385_" fill="#A22321" d="M278.5,33.9c-0.4-1.3-1.2-2.4-2.2-3.1c-1-0.8-2.2-1.1-3.5-1.1c-1.2,0-2.2,0.2-3,0.7    c-0.9,0.5-1.6,1.1-2.2,1.8c-0.6,0.7-1,1.6-1.3,2.6c-0.3,1-0.4,2-0.4,3c0,1.1,0.1,2.1,0.4,3c0.3,1,0.7,1.8,1.2,2.6    c0.5,0.7,1.2,1.3,2,1.8c0.8,0.5,1.8,0.7,2.9,0.7c1,0,1.8-0.2,2.5-0.5c0.7-0.3,1.3-0.7,1.8-1.2c0.5-0.5,0.9-1,1.3-1.7    c0.4-0.6,0.7-1.2,0.9-1.8l5.5,2.9c-0.5,1-1,2-1.6,2.9c-0.6,1-1.4,1.8-2.4,2.6c-1,0.8-2.1,1.4-3.4,1.9c-1.3,0.5-2.9,0.7-4.7,0.7    c-2,0-3.9-0.4-5.5-1.1c-1.6-0.7-3-1.7-4.1-2.9c-1.1-1.2-2-2.7-2.6-4.4c-0.6-1.7-0.9-3.6-0.9-5.6c0-2,0.3-3.9,0.9-5.6    c0.6-1.7,1.5-3.2,2.7-4.4c1.2-1.2,2.6-2.2,4.3-2.9c1.7-0.7,3.6-1.1,5.8-1.1c1.6,0,3,0.2,4.3,0.6c1.2,0.4,2.3,1,3.2,1.7    c0.9,0.7,1.7,1.5,2.3,2.4c0.6,0.9,1.1,1.9,1.6,2.9L278.5,33.9z"/>
	</g>
</g>
<g id="XMLID_1_">
	<polygon id="XMLID_323_" fill="#0F1140" points="25.6,0 0,8.9 0,51.1 25.6,51.1 25.6,47.2 25.6,43.2 25.6,39.3 25.6,35.4    25.6,31.5 25.6,27.5 25.6,23.6 25.6,19.7 25.6,15.7 25.6,11.8 25.6,7.9 25.6,3.9  "/>
	<polygon id="XMLID_322_" fill="#A22321" points="25.6,0 25.6,3.9 63.2,15.6 63.2,12.7  "/>
	<polygon id="XMLID_256_" fill="#A22321" points="25.6,11.8 63.2,21.6 63.2,18.6 25.6,7.9  "/>
	<polygon id="XMLID_255_" fill="#A22321" points="25.6,19.7 63.2,27.5 63.2,24.5 25.6,15.7  "/>
	<polygon id="XMLID_254_" fill="#A22321" points="25.6,27.5 63.2,33.4 63.2,30.5 25.6,23.6  "/>
	<polygon id="XMLID_240_" fill="#A22321" points="25.6,35.4 63.2,39.3 63.2,36.4 25.6,31.5  "/>
	<polygon id="XMLID_226_" fill="#A22321" points="25.6,43.3 63.2,45.3 63.2,42.3 25.6,39.3  "/>
	<polygon id="XMLID_225_" fill="#A22321" points="25.6,51.1 63.2,51.1 63.2,48.2 25.6,47.2  "/>
</g>
</svg>