<?xml version="1.0" encoding="UTF-8" standalone="no"?>
<svg xmlns="http://www.w3.org/2000/svg" width="265" height="108">
<text style="font-weight:bold;font-size:13.75px;font-family:Helvetica;writing-mode:lr-tb;fill:#00467f;stroke:none" x="1.0004719" y="106.73875">
<tspan x="1.0004719 10.982985 19.38423 27.730482 36.145493 43.817978 47.571732 51.394241 55.216721 63.631729 72.032974 75.855484 85.824234 98.144241 106.02298 111.31673 115.15298 122.90799 130.59424 139.32549 144.27548 148.23549 155.88048 159.73048 167.44423 179.65424 183.49049 191.13548 194.95798 204.87173 212.73674 216.58673 224.27298 228.93423 232.77048 241.18547 249.58673" y="106.73875">Council on American-Islamic Relations</tspan>
</text>
<path fill="#316497" d="m 63.76398,42.31587 c 0,3.595 2.9125,6.57875 6.50625,6.57875 0.93875,0 1.82875,-0.1975 2.63375,-0.55375 l -0.0325,0.0188 c -2.21,4.515 -6.85125,7.62373 -12.21625,7.62373 -1.45625,0 -2.85875,-0.2287 -4.17375,-0.65248 l 0.0225,0.0175 c 2.90375,2.39628 6.6275,3.83628 10.68375,3.83628 9.2775,0 16.79,-7.60253 16.79,-16.88003 l 0,-0.0412 c 0,-9.27625 -7.5125,-16.87 -16.79,-16.87 -4.05625,0 -7.78,1.44 -10.68375,3.83625 l -0.0225,0.0175 c 1.315,-0.42375 2.7175,-0.6525 4.17375,-0.6525 5.365,0 10.00625,3.1075 12.21625,7.6225 l 0.0325,0.02 c -0.805,-0.35625 -1.695,-0.55375 -2.63375,-0.55375 -3.59375,0 -6.50625,2.975 -6.50625,6.56875 l 0,0.0637 z"/>
<path fill="#00467f" d="m 42.52973,21.01462 c 3.595,0 6.57875,-2.9125 6.57875,-6.50625 0,-0.9375 -0.1975,-1.82875 -0.55375,-2.63375 l 0.0188,0.0337 c 4.515,2.21 7.62375,6.85125 7.62375,12.21625 0,1.45625 -0.22875,2.8575 -0.6525,4.17375 l 0.0175,-0.0238 c 2.39625,-2.90375 3.83625,-6.62625 3.83625,-10.68375 0,-9.27625 -7.6025,-16.79 -16.88,-16.79 l -0.0412,0 c -9.2775,0 -16.87,7.51375 -16.87,16.79 0,4.0575 1.44,7.78 3.83625,10.68375 l 0.0175,0.0238 c -0.42375,-1.31625 -0.6525,-2.7175 -0.6525,-4.17375 0,-5.365 3.1075,-10.00625 7.6225,-12.21625 l 0.02,-0.0337 c -0.35625,0.805 -0.55375,1.69625 -0.55375,2.63375 0,3.59375 2.975,6.50625 6.56875,6.50625 l 0.0637,0 z"/>
<path fill="#839bc1" d="m 21.21385,42.254 c 0,-3.595 -2.9125,-6.57875 -6.50625,-6.57875 -0.9375,0 -1.82875,0.1975 -2.63375,0.55375 l 0.0337,-0.0188 c 2.21,-4.515 6.85125,-7.62375 12.21625,-7.62375 1.45625,0 2.8575,0.22875 4.17375,0.6525 l -0.0238,-0.0175 C 25.57,26.8252 21.8475,25.3852 17.79,25.3852 8.5125,25.3852 1,32.9877 1,42.2652 l 0,0.0412 c 0,9.2775 7.5125,16.87 16.79,16.87 4.0575,0 7.78,-1.44 10.68375,-3.83625 l 0.0238,-0.0162 c -1.31625,0.42245 -2.7175,0.65125 -4.17375,0.65125 -5.365,0 -10.00625,-3.1075 -12.21625,-7.6225 l -0.0337,-0.02 c 0.805,0.35625 1.69625,0.55375 2.63375,0.55375 3.59375,0 6.50625,-2.975 6.50625,-6.56875 l 0,-0.0637 z"/>
<path fill="#f89728" d="m 54.67436,30.11212 c 0.48,-0.84625 0.815,-1.61125 1.09375,-2.51875 0.0375,-0.0362 0.08,-0.0913 0.11625,-0.12625 3.11,-3.11 4.7475,-7.3975 5.1825,-11.4575 4.55,-0.4225 8.09625,-0.3775 8.09625,-0.3775 l 0.005,0.005 c 0,0 0.045,3.54625 -0.3775,8.09625 -4.06,0.435 -8.34625,2.0725 -11.4575,5.1825 -0.035,0.035 -0.0888,0.0787 -0.12625,0.11625 -0.9075,0.27875 -1.66625,0.59 -2.51125,1.06875 l -0.0213,0.0113 z"/>
<path fill="#f89728" d="m 30.31611,30.11075 c -0.84625,-0.48 -1.6125,-0.81375 -2.52,-1.09375 -0.035,-0.0362 -0.09,-0.08 -0.12625,-0.115 -3.11,-3.11125 -7.3975,-4.74875 -11.4575,-5.18375 -0.4225,-4.55 -0.3775,-8.095 -0.3775,-8.095 l 0.005,-0.006 c 0,0 3.54625,-0.045 8.09625,0.37875 0.43625,4.06 2.0725,8.34625 5.1825,11.4575 0.0362,0.035 0.08,0.0888 0.11625,0.125 0.28,0.90875 0.59125,1.66625 1.07,2.51125 l 0.0112,0.0213 z"/>
<path fill="#6081ae" d="m 42.46786,63.5726 c -3.595,0 -6.57875,2.9138 -6.57875,6.5075 0,0.9375 0.1975,1.8288 0.55375,2.6338 l -0.02,-0.034 c -4.51375,-2.21 -7.6225,-6.8513 -7.6225,-12.2163 0,-1.4562 0.22875,-2.8575 0.6525,-4.1737 l -0.0175,0.024 c -2.39625,2.9037 -3.83625,6.6262 -3.83625,10.6837 0,9.2763 7.6025,16.7875 16.88,16.7875 l 0.0412,0 c 9.27625,0 16.87,-7.5112 16.87,-16.7875 0,-4.0575 -1.44,-7.78 -3.83625,-10.6837 l -0.0175,-0.024 c 0.42375,1.3162 0.6525,2.7175 0.6525,4.1737 0,5.365 -3.1075,10.0063 -7.6225,12.2163 l -0.02,0.034 c 0.35625,-0.805 0.55375,-1.6963 0.55375,-2.6338 0,-3.5937 -2.975,-6.5075 -6.56875,-6.5075 l -0.0638,0 z"/>
<path fill="#f89728" d="m 30.31673,54.46712 c -0.48,0.84625 -0.81375,1.61248 -1.09375,2.51998 -0.0362,0.035 -0.08,0.09 -0.115,0.1263 -3.11,3.11 -4.74875,7.3975 -5.18375,11.4575 -4.55,0.4225 -8.095,0.3775 -8.095,0.3775 l -0.006,0 c 0,0 -0.045,-3.5463 0.37875,-8.0963 4.06,-0.4362 8.34625,-2.0725 11.4575,-5.1825 0.035,-0.0363 0.0888,-0.08 0.125,-0.11623 0.90875,-0.28 1.66625,-0.59125 2.51125,-1.07 l 0.0213,-0.0113 z"/>
<path fill="#f89728" d="m 54.67823,54.46312 c 0.84625,0.48 1.6125,0.815 2.52,1.095 0.035,0.0362 0.09,0.08 0.12625,0.11628 3.11,3.11 7.3975,4.7475 11.4575,5.1825 0.4225,4.55 0.3775,8.095 0.3775,8.095 l -0.005,0.01 c 0,0 -3.54625,0.045 -8.09625,-0.3788 -0.43625,-4.06 -2.0725,-8.3462 -5.1825,-11.4562 -0.0362,-0.035 -0.08,-0.09 -0.11625,-0.1263 -0.28,-0.9087 -0.59125,-1.66748 -1.07,-2.51248 l -0.0113,-0.0213 z"/>
<path fill="#f89728" d="m 49.19485,35.60537 c -4.1375,2.3325 -9.23375,2.33 -13.375,-0.002 2.335,4.14375 2.335,9.23875 0.002,13.3775 4.14,-2.33125 9.2375,-2.33125 13.3775,0.002 -2.33125,-4.14125 -2.33375,-9.23625 -0.005,-13.3775"/>
<path fill="#00467f" d="m 130.63542,16.54897 c -14.1775,0 -25.44726,10.68703 -25.44726,25.30078 0,14.61495 11.26976,25.37305 25.44726,25.37305 9.52,0 16.35719,-4.2155 20.64844,-10.9043 l -7.92774,-5.45117 c -2.76,4.215 -6.32445,7.26957 -12.7207,7.26957 -8.945,0 -14.97852,-7.05465 -14.97852,-16.28715 1e-5,-9.2325 6.03352,-16.13867 14.97852,-16.13867 5.67,0 9.66789,2.6907 11.99414,6.4707 l 7.77734,-5.52539 c -4.43374,-6.905 -10.83023,-10.10742 -19.77148,-10.10742 z m 45.44336,0.14648 -21.73633,49.87495 9.8125,0 2.32617,-5.5996 20.06641,0 2.32617,5.5996 10.68946,0 -22.61329,-49.87495 -0.87109,0 z m 30.89062,0.4375 0,49.43555 10.17969,0 0,-49.43555 -10.17969,0 z m 21.05274,0.002 0,49.43355 10.17773,0 0,-12.28707 3.48829,0 c 0.9475,0 1.96585,-0.0686 2.9121,-0.21484 l 8.13868,12.50191 11.77539,0 -10.25,-15.41012 c 6.1075,-2.76375 9.52539,-7.63679 9.52539,-15.34179 0,-12.06875 -8.28782,-18.68164 -22.10156,-18.68164 l -13.66602,0 z m 10.17773,8.9414 3.20118,0 c 8.14,0 11.91992,2.75774 11.91992,9.74024 0,6.98 -3.63242,9.59765 -11.91992,9.59765 l -3.20118,0 0,-19.33789 z m -61.83203,8.94336 c 0,0 1.52922,5.37844 2.98047,8.86719 l 3.56445,8.57812 -13.01562,0 3.56641,-8.57812 c 1.45,-3.48875 2.90429,-8.86719 2.90429,-8.86719 z"/>
</svg>
