<svg width="90" height="38" viewBox="0 0 90 38" fill="none" xmlns="http://www.w3.org/2000/svg">
<path fill-rule="evenodd" clip-rule="evenodd" d="M87.9611 34.0229C85.0151 34.0275 82.6213 31.7057 82.6096 28.8326V17.1277H87.2779C88.4034 17.1277 89.3158 16.2378 89.3158 15.1402C89.3158 14.0425 88.4034 13.1527 87.2779 13.1527H82.6096V1.99881C82.6096 0.894897 81.692 0 80.5602 0C79.4282 0 78.5107 0.894897 78.5107 1.99881V28.8347C78.5316 33.9081 82.7589 38.008 87.9611 38C89.0872 38 90 37.1097 90 36.0115C90 34.9132 89.0872 34.0229 87.9611 34.0229ZM73.2617 1.33146e-05H74.6293C75.332 0.000196993 75.9813 0.379811 76.3325 0.995858C76.6837 1.61191 76.6835 2.37079 76.332 2.98666C75.9805 3.60252 75.331 3.98179 74.6283 3.98161H73.2607C70.4216 3.97705 68.1145 6.29911 68.1033 9.17249V13.149H72.5992C73.6839 13.149 74.5632 14.0389 74.5632 15.1367C74.5632 16.2344 73.6839 17.1244 72.5992 17.1244H68.1064L68.1186 32.1376C68.1183 32.2261 68.1119 32.3144 68.0993 32.4019V36.001C68.0993 37.105 67.215 38 66.1241 38C65.0333 38 64.149 37.105 64.149 36.001V29.2604C64.1496 29.1782 64.1553 29.0961 64.1662 29.0147L64.154 15.2354V15.1326V15.0297V9.16838C64.1725 4.09332 68.2472 -0.00852786 73.2617 1.33146e-05ZM21.7165 34.0717H21.9741C23.0577 34.0717 23.9362 34.9511 23.9362 36.0359C23.9362 37.1206 23.0577 38 21.9741 38H20.1257V37.9909H16.5142C10.6615 38.1303 5.19276 35.0843 2.22547 30.0322C-0.741822 24.9802 -0.741822 18.7153 2.22547 13.6632C5.19276 8.61117 10.6615 5.56516 16.5142 5.70459H21.9741C23.0575 5.70459 23.9357 6.58373 23.9357 7.66821C23.9357 8.75269 23.0575 9.63183 21.9741 9.63183H16.5142C9.77445 9.63183 4.31084 15.1013 4.31084 21.8482C4.31084 28.5952 9.77445 34.0646 16.5142 34.0646H21.7165V34.0717ZM44.9598 13.301H50.1784V13.3C55.2357 13.2915 59.3447 17.3615 59.3617 22.3959V36.0046V36.0699C59.3349 37.1615 58.4247 38.0251 57.3281 37.9994L55.1296 37.9515V37.9454H48.8507C46.1174 37.977 43.578 36.5435 42.2021 34.1922C40.8262 31.8409 40.8262 28.9349 42.2021 26.5836C43.578 24.2323 46.1174 22.7988 48.8507 22.8304H55.3786V22.3919C55.3673 19.5421 53.0411 17.2392 50.1784 17.2437H44.9598C43.8661 17.2437 42.9795 16.3611 42.9795 15.2724C42.9795 14.1836 43.8661 13.301 44.9598 13.301ZM45 30.3995C45.0088 28.296 46.6989 26.5964 48.7784 26.6H55.5319V34.2H48.7784C46.6985 34.2036 45.0082 32.5034 45 30.3995ZM27.766 36.0203C27.7671 37.114 28.6368 38 29.7092 38C30.779 38.0017 31.6485 37.1205 31.6534 36.0295L31.6915 22.4721V22.4047C31.7031 19.5507 33.9774 17.2446 36.776 17.2492H39.234C40.3034 17.2492 41.1702 16.3651 41.1702 15.2746C41.1702 14.1841 40.3034 13.3 39.234 13.3H36.776C31.8597 13.2918 27.8542 17.323 27.797 22.3362V22.4016L27.766 36.0203Z" fill="#46305D"/>
</svg>
