<?xml version="1.0" encoding="UTF-8" standalone="no"?>
<svg width="676px" height="131px" viewBox="0 0 676 131" version="1.1" xmlns="http://www.w3.org/2000/svg" xmlns:xlink="http://www.w3.org/1999/xlink">
    <!-- Generator: Sketch 42 (36781) - http://www.bohemiancoding.com/sketch -->
    <title>CFP_sig_FL_full-cmyk</title>
    <desc>Created with Sketch.</desc>
    <defs>
        <polygon id="path-1" points="0.06 59.58 0.06 0.218 53.631 0.218 53.631 59.58 0.06 59.58"></polygon>
        <polygon id="path-3" points="52.65 62.94 0.71 62.94 0.71 0.86 52.65 0.86 52.65 62.94"></polygon>
    </defs>
    <g id="Page-1" stroke="none" stroke-width="1" fill="none" fill-rule="evenodd">
        <g id="CFP_sig_FL_full-cmyk">
            <path d="M150.082,61.984 C149.887,61.27 149.516,60.879 149.007,60.599 C148.369,60.296 147.246,60.109 145.993,60.109 C140.612,60.109 137.025,63.382 137.025,68.687 C137.025,73.903 140.777,77.307 145.748,77.307 C146.889,77.307 147.984,77.12 148.689,76.834 C149.249,76.559 149.675,76.234 149.951,75.416 L150.257,75.416 C150.242,76.654 150.246,77.944 150.267,78.84 C149.837,78.984 149.174,79.164 148.545,79.281 C147.569,79.469 146.623,79.538 145.557,79.538 C139.29,79.538 134.284,75.474 134.284,68.67 C134.284,61.843 139.451,57.894 145.981,57.894 C146.936,57.894 147.78,57.953 148.438,58.026 C149.039,58.094 149.937,58.236 150.562,58.364 C150.481,59.702 150.45,60.633 150.411,61.984 L150.082,61.984" id="Fill-1" fill="#5F696C"></path>
            <path d="M166.984,64.088 C166.984,61.708 165.391,60.209 162.661,60.209 C162.143,60.209 161.534,60.244 161.245,60.276 L161.245,68.375 C161.542,68.403 161.868,68.412 162.295,68.412 C163.272,68.412 164.207,68.187 164.925,67.775 C165.987,67.192 166.984,66.015 166.984,64.115 L166.984,64.088 Z M158.809,66.345 C158.809,59.4 158.809,58.574 157.692,58.517 L157.692,58.2 C158.396,58.192 158.989,58.175 159.836,58.161 C160.565,58.145 161.662,58.094 162.366,58.094 C163.731,58.094 165.033,58.248 166.098,58.646 C167.689,59.227 169.573,60.852 169.573,63.947 C169.573,66.536 168.182,68.142 167.054,68.935 C166.472,69.366 165.755,69.721 165.14,69.908 L165.14,69.956 C165.749,70.79 166.343,71.614 170.301,76.95 C171.026,77.918 171.895,78.818 172.576,78.907 L172.576,79.237 C172.01,79.237 171.438,79.224 170.759,79.224 C170.28,79.224 169.99,79.237 169.544,79.237 C169.193,79.237 168.835,79.114 168.581,78.881 C166.877,76.457 165.055,73.823 162.601,70.382 C162.127,70.382 161.549,70.372 161.245,70.372 L161.245,71.514 C161.245,77.993 161.256,78.813 162.317,78.907 L162.317,79.251 C161.698,79.237 160.944,79.224 160.064,79.224 C159.107,79.224 158.396,79.237 157.706,79.251 L157.706,78.907 C158.813,78.813 158.809,77.993 158.809,70.566 L158.809,66.345 L158.809,66.345 Z" id="Fill-2" fill="#5F696C"></path>
            <path d="M195.588,68.614 C195.588,63.814 192.076,60.161 187.483,60.161 C182.893,60.161 179.39,63.831 179.39,68.732 C179.39,73.63 182.919,77.315 187.485,77.315 C192.099,77.315 195.588,73.703 195.588,68.641 L195.588,68.614 Z M198.31,68.508 C198.31,74.678 193.753,79.556 187.342,79.556 C181.371,79.556 176.65,74.857 176.65,68.824 C176.65,62.495 181.429,57.903 187.745,57.903 C193.784,57.903 198.31,62.405 198.31,68.481 L198.31,68.508 L198.31,68.508 Z" id="Fill-3" fill="#5F696C"></path>
            <path d="M223.173,79.651 L222.768,79.651 C217.803,67.069 217.078,65.105 216.575,63.565 L216.548,63.565 C216.035,65.117 215.28,67.115 210.182,79.651 L209.767,79.651 L206.002,66.107 C204.137,59.411 203.967,58.606 203.034,58.485 L203.034,58.143 C203.63,58.155 204.393,58.169 205.372,58.169 C206.323,58.169 207.101,58.155 207.993,58.143 L207.993,58.485 C206.606,58.596 206.815,59.413 208.368,65.213 C209.668,70.021 210.041,71.479 210.528,73.563 L210.566,73.563 C211.172,71.761 211.685,70.441 213.634,65.333 C214.404,63.438 215.468,60.991 216.478,58.485 L216.837,58.485 C217.857,60.974 218.846,63.402 219.654,65.34 C221.51,70.324 222.044,71.739 222.624,73.472 L222.672,73.472 C223.133,71.416 223.585,69.566 224.765,65.262 C226.31,59.415 226.515,58.592 225.121,58.495 L225.121,58.143 C225.987,58.155 226.703,58.169 227.676,58.169 C228.672,58.169 229.205,58.155 229.816,58.143 L229.816,58.495 C228.941,58.604 228.714,59.401 226.877,66.103 L223.173,79.651" id="Fill-4" fill="#5F696C"></path>
            <path d="M252.663,79.484 L252.277,79.484 C247.121,73.486 244.074,69.918 242.173,67.706 C240.929,66.267 240.045,65.244 238.699,63.511 L238.651,63.511 C238.663,64.547 238.667,65.595 238.667,70.644 C238.667,77.964 238.667,78.815 239.825,78.913 L239.825,79.251 C239.098,79.237 238.295,79.224 237.415,79.224 C236.463,79.224 235.868,79.237 235.232,79.251 L235.232,78.917 C236.402,78.822 236.402,77.964 236.402,70.547 L236.402,57.949 L236.789,57.949 C242.054,64.144 245.159,67.8 247.056,70.019 C248.234,71.391 249.085,72.392 250.353,74.017 L250.411,74.017 C250.403,72.933 250.399,71.925 250.399,66.297 C250.399,59.429 250.399,58.57 249.207,58.477 L249.207,58.143 C249.833,58.155 250.671,58.169 251.485,58.169 C252.395,58.169 253.101,58.155 253.689,58.143 L253.689,58.477 C252.663,58.58 252.663,59.429 252.663,66.374 L252.663,79.484" id="Fill-5" fill="#5F696C"></path>
            <path d="M282.234,61.578 C282.094,60.474 281.374,60.269 279.513,60.269 L275.28,60.269 L275.28,67.795 L278.937,67.795 C280.848,67.795 281.387,67.772 281.59,67.103 L281.928,67.103 C281.9,67.707 281.877,68.267 281.877,68.834 C281.877,69.488 281.9,69.996 281.928,70.696 L281.59,70.696 C281.395,69.938 280.888,69.895 279,69.895 L275.28,69.895 L275.28,71.504 C275.28,77.989 275.28,78.715 276.44,78.884 L276.44,79.251 C275.704,79.237 274.957,79.224 274.078,79.224 C273.151,79.224 272.402,79.237 271.696,79.251 L271.696,78.876 C272.76,78.728 272.76,77.993 272.76,70.566 L272.76,66.345 C272.76,59.413 272.76,58.715 271.764,58.563 L271.764,58.143 C272.444,58.155 274.474,58.169 276.836,58.169 C279.01,58.169 281.295,58.155 282.707,58.143 C282.651,59.401 282.611,60.413 282.603,61.578 L282.234,61.578" id="Fill-6" fill="#5F696C"></path>
            <path d="M299.163,71.184 L299.139,71.088 C296.734,64.628 296.446,63.853 296.24,63.101 L296.2,63.101 C295.975,63.849 295.662,64.634 293.147,71.088 L293.124,71.184 L299.163,71.184 Z M292.345,73.222 C290.42,77.997 290.098,78.818 291.249,78.903 L291.249,79.251 C290.56,79.237 289.745,79.224 288.888,79.224 C287.878,79.224 287.156,79.237 286.678,79.251 L286.678,78.903 C287.509,78.828 287.904,78.011 290.961,70.539 L296.147,57.809 L296.567,57.809 L301.59,70.558 C304.541,77.993 304.892,78.809 305.7,78.903 L305.7,79.251 C305.265,79.237 304.561,79.224 303.54,79.224 C302.607,79.224 301.675,79.237 300.985,79.251 L300.985,78.903 C302.119,78.818 301.78,78.003 299.929,73.222 L292.345,73.222 L292.345,73.222 Z" id="Fill-7" fill="#5F696C"></path>
            <path d="M313.559,57.988 L313.941,57.988 C320.983,71.899 321.44,72.79 322.237,74.563 L322.278,74.563 C323.012,72.851 323.522,71.913 330.743,57.988 L331.129,57.988 L332.555,70.566 C333.393,77.993 333.519,78.817 334.508,78.907 L334.508,79.251 C333.911,79.237 333.145,79.224 332.279,79.224 C331.295,79.224 330.364,79.237 329.689,79.251 L329.689,78.907 C330.958,78.817 330.855,77.935 330.182,71.802 C329.728,67.703 329.578,66.164 329.512,64.569 L329.475,64.569 C328.518,66.817 327.682,68.393 326.084,71.616 C325.202,73.359 323.961,75.734 322.321,78.821 L321.928,78.821 C320.303,75.702 319.057,73.303 318.2,71.573 C316.672,68.421 315.776,66.649 314.911,64.527 L314.875,64.527 C314.793,66.143 314.628,67.749 314.187,71.81 C313.524,77.931 313.434,78.813 314.679,78.907 L314.679,79.251 C314.009,79.237 313.077,79.224 312.176,79.224 C311.238,79.224 310.533,79.237 309.995,79.251 L309.995,78.903 C311.013,78.809 311.169,77.993 312.055,70.566 L313.559,57.988" id="Fill-8" fill="#5F696C"></path>
            <path d="M344.475,70.562 C344.475,77.989 344.475,78.771 345.684,78.907 L345.684,79.251 C345.03,79.237 344.153,79.224 343.223,79.224 C342.159,79.224 341.378,79.237 340.769,79.251 L340.769,78.894 C341.952,78.771 341.952,77.993 341.952,70.577 L341.952,66.345 C341.952,59.4 341.952,58.615 340.813,58.513 L340.813,58.143 C341.39,58.155 342.209,58.169 343.172,58.169 C344.085,58.169 344.983,58.155 345.572,58.143 L345.572,58.499 C344.479,58.615 344.475,59.397 344.475,66.341 L344.475,70.562" id="Fill-9" fill="#5F696C"></path>
            <path d="M354.781,66.345 C354.781,59.404 354.781,58.681 353.645,58.503 L353.645,58.143 C354.213,58.155 355.074,58.169 356.028,58.169 C356.971,58.169 357.821,58.155 358.407,58.143 L358.407,58.503 C357.304,58.685 357.296,59.4 357.296,66.345 L357.296,70.488 L357.296,76.651 C357.296,76.974 357.401,77.075 357.7,77.075 L362.508,77.075 C363.196,77.075 363.711,77.006 364.062,76.776 C364.381,76.609 364.618,76.256 364.702,75.776 L365.04,75.776 C364.992,77.049 364.965,77.853 364.958,79.251 C363.455,79.237 361.197,79.224 359.125,79.224 C356.548,79.224 354.23,79.237 353.62,79.251 L353.62,78.867 C354.789,78.722 354.781,77.954 354.781,70.566 L354.781,66.345" id="Fill-10" fill="#5F696C"></path>
            <path d="M377.266,70.688 L377.266,71.643 C377.266,77.92 377.256,78.797 378.485,78.907 L378.485,79.251 C377.884,79.237 376.985,79.224 376.055,79.224 C374.991,79.224 374.032,79.237 373.536,79.251 L373.536,78.894 C374.737,78.793 374.737,77.92 374.737,71.664 L374.737,70.885 L372.388,66.399 C368.61,59.325 368.284,58.596 367.419,58.485 L367.419,58.143 C367.757,58.155 368.608,58.169 369.604,58.169 C370.549,58.169 371.522,58.155 372.319,58.143 L372.319,58.485 C371.069,58.588 371.494,59.421 373.667,63.613 C374.807,65.813 375.527,67.191 376.049,68.294 L376.103,68.294 C376.624,67.191 377.329,65.854 378.502,63.652 C380.685,59.419 381.096,58.567 379.93,58.485 L379.93,58.143 C380.758,58.155 381.601,58.169 382.51,58.169 C383.46,58.169 384.073,58.155 384.512,58.143 L384.512,58.489 C383.756,58.596 383.417,59.288 379.559,66.424 L377.266,70.688" id="Fill-11" fill="#5F696C"></path>
            <path d="M409.149,64.436 C409.149,62.802 408.378,61.438 406.98,60.757 C406.267,60.391 405.261,60.233 404.262,60.233 C403.866,60.233 403.353,60.256 402.927,60.292 L402.927,68.977 C403.245,68.986 403.693,69.006 404.105,68.994 C405.002,68.975 405.917,68.832 406.635,68.514 C407.319,68.208 407.993,67.682 408.4,67.05 C408.856,66.381 409.149,65.535 409.149,64.462 L409.149,64.436 Z M400.491,66.336 C400.491,59.4 400.484,58.721 399.375,58.53 L399.375,58.21 C400.17,58.189 400.963,58.167 401.72,58.157 C402.59,58.145 403.532,58.102 404.385,58.117 C405.762,58.137 407.178,58.347 408.229,58.828 C410.282,59.719 411.729,61.609 411.729,64.402 C411.729,65.643 411.394,66.738 410.961,67.565 C410.492,68.458 409.747,69.266 408.856,69.796 C407.999,70.346 406.918,70.728 405.782,70.9 C404.885,71.09 403.857,71.096 402.927,71.09 L402.927,72.077 C402.927,77.993 402.939,78.719 404.075,78.907 L404.075,79.251 C403.317,79.237 402.579,79.224 401.708,79.224 C400.741,79.224 400.048,79.237 399.398,79.251 L399.398,78.907 C400.502,78.707 400.491,77.993 400.491,70.566 L400.491,66.336 L400.491,66.336 Z" id="Fill-12" fill="#5F696C"></path>
            <path d="M435.535,70.566 C435.535,77.974 435.535,78.813 436.784,78.907 L436.784,79.251 C436.155,79.237 435.329,79.224 434.391,79.224 C433.403,79.224 432.526,79.237 431.782,79.251 L431.782,78.907 C433.016,78.813 433.016,77.974 433.016,71.109 L433.016,69.565 L422.321,69.565 L422.321,71.109 C422.321,77.974 422.321,78.813 423.53,78.907 L423.53,79.251 C422.836,79.237 422.034,79.224 421.083,79.224 C420.115,79.224 419.149,79.237 418.61,79.251 L418.61,78.907 C419.801,78.813 419.801,77.974 419.801,70.566 L419.801,66.345 C419.801,59.419 419.801,58.58 418.663,58.485 L418.663,58.143 C419.18,58.155 420.13,58.169 421.071,58.169 C422.024,58.169 422.822,58.155 423.417,58.143 L423.417,58.485 C422.321,58.58 422.321,59.423 422.321,66 L422.321,67.406 L433.016,67.406 L433.016,65.977 C433.016,59.419 433.016,58.58 431.944,58.485 L431.944,58.143 C432.524,58.155 433.346,58.169 434.278,58.169 C435.202,58.169 436.02,58.155 436.571,58.143 L436.571,58.485 C435.535,58.58 435.535,59.419 435.535,66.345 L435.535,70.566" id="Fill-13" fill="#5F696C"></path>
            <path d="M448.368,70.562 C448.368,77.989 448.368,78.771 449.577,78.907 L449.577,79.251 C448.922,79.237 448.045,79.224 447.116,79.224 C446.051,79.224 445.272,79.237 444.663,79.251 L444.663,78.894 C445.844,78.771 445.844,77.993 445.844,70.577 L445.844,66.345 C445.844,59.4 445.844,58.615 444.707,58.513 L444.707,58.143 C445.284,58.155 446.102,58.169 447.065,58.169 C447.979,58.169 448.875,58.155 449.465,58.143 L449.465,58.499 C448.372,58.615 448.368,59.397 448.368,66.341 L448.368,70.562" id="Fill-14" fill="#5F696C"></path>
            <path d="M458.674,66.345 C458.674,59.404 458.674,58.681 457.539,58.503 L457.539,58.143 C458.107,58.155 458.966,58.169 459.92,58.169 C460.864,58.169 461.714,58.155 462.3,58.143 L462.3,58.503 C461.197,58.685 461.189,59.4 461.189,66.345 L461.189,70.488 L461.189,76.651 C461.189,76.974 461.293,77.075 461.592,77.075 L466.401,77.075 C467.089,77.075 467.604,77.006 467.955,76.776 C468.275,76.609 468.51,76.256 468.595,75.776 L468.933,75.776 C468.884,77.049 468.858,77.853 468.85,79.251 C467.348,79.237 465.089,79.224 463.019,79.224 C460.442,79.224 458.123,79.237 457.513,79.251 L457.513,78.867 C458.682,78.722 458.674,77.954 458.674,70.566 L458.674,66.345" id="Fill-15" fill="#5F696C"></path>
            <path d="M485.982,71.184 L485.959,71.088 C483.554,64.628 483.266,63.853 483.06,63.101 L483.02,63.101 C482.794,63.849 482.482,64.634 479.966,71.088 L479.944,71.184 L485.982,71.184 Z M479.166,73.222 C477.24,77.997 476.917,78.818 478.069,78.903 L478.069,79.251 C477.379,79.237 476.565,79.224 475.708,79.224 C474.698,79.224 473.976,79.237 473.498,79.251 L473.498,78.903 C474.329,78.828 474.724,78.011 477.781,70.539 L482.967,57.809 L483.386,57.809 L488.41,70.558 C491.36,77.993 491.711,78.809 492.519,78.903 L492.519,79.251 C492.085,79.237 491.38,79.224 490.359,79.224 C489.427,79.224 488.495,79.237 487.805,79.251 L487.805,78.903 C488.939,78.818 488.599,78.003 486.749,73.222 L479.166,73.222 L479.166,73.222 Z" id="Fill-16" fill="#5F696C"></path>
            <path d="M515.298,79.484 L514.912,79.484 C509.756,73.486 506.708,69.918 504.808,67.706 C503.564,66.267 502.681,65.244 501.334,63.511 L501.287,63.511 C501.298,64.547 501.301,65.595 501.301,70.644 C501.301,77.964 501.301,78.815 502.46,78.913 L502.46,79.251 C501.733,79.237 500.93,79.224 500.05,79.224 C499.098,79.224 498.503,79.237 497.867,79.251 L497.867,78.917 C499.038,78.822 499.038,77.964 499.038,70.547 L499.038,57.949 L499.423,57.949 C504.689,64.144 507.794,67.8 509.692,70.019 C510.87,71.391 511.72,72.392 512.988,74.017 L513.045,74.017 C513.038,72.933 513.035,71.925 513.035,66.297 C513.035,59.429 513.035,58.57 511.842,58.477 L511.842,58.143 C512.468,58.155 513.306,58.169 514.121,58.169 C515.03,58.169 515.736,58.155 516.325,58.143 L516.325,58.477 C515.298,58.58 515.298,59.429 515.298,66.374 L515.298,79.484" id="Fill-17" fill="#5F696C"></path>
            <path d="M528.912,60.244 L524.81,60.244 C523.339,60.244 522.855,60.503 522.612,61.648 L522.254,61.648 C522.254,60.46 522.251,59.26 522.251,58.152 C524.424,58.165 527.041,58.169 528.998,58.169 L531.317,58.169 C533.514,58.169 536.135,58.165 538.074,58.152 C538.074,59.263 538.07,60.47 538.07,61.648 L537.716,61.648 C537.491,60.493 536.945,60.244 535.532,60.244 L531.43,60.244 L531.43,70.566 C531.43,78.012 531.434,78.84 532.645,78.907 L532.645,79.251 C531.985,79.237 531.119,79.224 530.202,79.224 C529.211,79.224 528.31,79.237 527.719,79.251 L527.719,78.898 C528.912,78.787 528.912,78.008 528.912,70.566 L528.912,60.244" id="Fill-18" fill="#5F696C"></path>
            <path d="M560.945,70.566 C560.945,77.974 560.945,78.813 562.195,78.907 L562.195,79.251 C561.566,79.237 560.739,79.224 559.801,79.224 C558.813,79.224 557.936,79.237 557.192,79.251 L557.192,78.907 C558.425,78.813 558.425,77.974 558.425,71.109 L558.425,69.565 L547.73,69.565 L547.73,71.109 C547.73,77.974 547.73,78.813 548.939,78.907 L548.939,79.251 C548.248,79.237 547.444,79.224 546.494,79.224 C545.525,79.224 544.559,79.237 544.019,79.251 L544.019,78.907 C545.211,78.813 545.211,77.974 545.211,70.566 L545.211,66.345 C545.211,59.419 545.211,58.58 544.074,58.485 L544.074,58.143 C544.59,58.155 545.541,58.169 546.481,58.169 C547.434,58.169 548.232,58.155 548.828,58.143 L548.828,58.485 C547.73,58.58 547.73,59.423 547.73,66 L547.73,67.406 L558.425,67.406 L558.425,65.977 C558.425,59.419 558.425,58.58 557.353,58.485 L557.353,58.143 C557.934,58.155 558.757,58.169 559.687,58.169 C560.612,58.169 561.431,58.155 561.98,58.143 L561.98,58.485 C560.945,58.58 560.945,59.419 560.945,66.345 L560.945,70.566" id="Fill-19" fill="#5F696C"></path>
            <path d="M579.43,64.088 C579.43,61.708 577.836,60.209 575.107,60.209 C574.588,60.209 573.979,60.244 573.69,60.276 L573.69,68.375 C573.987,68.403 574.313,68.412 574.741,68.412 C575.717,68.412 576.652,68.187 577.371,67.775 C578.432,67.192 579.43,66.015 579.43,64.115 L579.43,64.088 Z M571.254,66.345 C571.254,59.4 571.254,58.574 570.138,58.517 L570.138,58.2 C570.841,58.192 571.435,58.175 572.282,58.161 C573.011,58.145 574.107,58.094 574.811,58.094 C576.176,58.094 577.478,58.248 578.542,58.646 C580.134,59.227 582.018,60.852 582.018,63.947 C582.018,66.536 580.626,68.142 579.5,68.935 C578.917,69.366 578.201,69.721 577.585,69.908 L577.585,69.956 C578.194,70.79 578.789,71.614 582.746,76.95 C583.471,77.918 584.34,78.818 585.021,78.907 L585.021,79.237 C584.456,79.237 583.883,79.224 583.205,79.224 C582.725,79.224 582.435,79.237 581.989,79.237 C581.638,79.237 581.281,79.114 581.026,78.881 C579.322,76.457 577.5,73.823 575.046,70.382 C574.572,70.382 573.995,70.372 573.69,70.372 L573.69,71.514 C573.69,77.993 573.702,78.813 574.762,78.907 L574.762,79.251 C574.143,79.237 573.39,79.224 572.509,79.224 C571.552,79.224 570.841,79.237 570.151,79.251 L570.151,78.907 C571.258,78.813 571.254,77.993 571.254,70.566 L571.254,66.345 L571.254,66.345 Z" id="Fill-20" fill="#5F696C"></path>
            <path d="M607.358,68.614 C607.358,63.814 603.845,60.161 599.253,60.161 C594.663,60.161 591.16,63.831 591.16,68.732 C591.16,73.63 594.689,77.315 599.255,77.315 C603.869,77.315 607.358,73.703 607.358,68.641 L607.358,68.614 Z M610.081,68.508 C610.081,74.678 605.523,79.556 599.113,79.556 C593.141,79.556 588.42,74.857 588.42,68.824 C588.42,62.495 593.199,57.903 599.515,57.903 C605.554,57.903 610.081,62.405 610.081,68.481 L610.081,68.508 L610.081,68.508 Z" id="Fill-21" fill="#5F696C"></path>
            <path d="M625.726,64.436 C625.726,62.802 624.956,61.438 623.557,60.757 C622.844,60.391 621.838,60.233 620.839,60.233 C620.443,60.233 619.93,60.256 619.504,60.292 L619.504,68.977 C619.823,68.986 620.27,69.006 620.682,68.994 C621.581,68.975 622.494,68.832 623.212,68.514 C623.896,68.208 624.57,67.682 624.977,67.05 C625.433,66.381 625.726,65.535 625.726,64.462 L625.726,64.436 Z M617.069,66.336 C617.069,59.4 617.061,58.721 615.953,58.53 L615.953,58.21 C616.747,58.189 617.541,58.167 618.297,58.157 C619.167,58.145 620.109,58.102 620.961,58.117 C622.339,58.137 623.754,58.347 624.806,58.828 C626.859,59.719 628.307,61.609 628.307,64.402 C628.307,65.643 627.971,66.738 627.54,67.565 C627.069,68.458 626.325,69.266 625.433,69.796 C624.576,70.346 623.496,70.728 622.359,70.9 C621.461,71.09 620.434,71.096 619.504,71.09 L619.504,72.077 C619.504,77.993 619.516,78.719 620.652,78.907 L620.652,79.251 C619.893,79.237 619.156,79.224 618.286,79.224 C617.319,79.224 616.625,79.237 615.975,79.251 L615.975,78.907 C617.081,78.707 617.069,77.993 617.069,70.566 L617.069,66.336 L617.069,66.336 Z" id="Fill-22" fill="#5F696C"></path>
            <path d="M638.83,70.562 C638.83,77.989 638.83,78.771 640.039,78.907 L640.039,79.251 C639.385,79.237 638.508,79.224 637.578,79.224 C636.514,79.224 635.734,79.237 635.125,79.251 L635.125,78.894 C636.307,78.771 636.307,77.993 636.307,70.577 L636.307,66.345 C636.307,59.4 636.307,58.615 635.169,58.513 L635.169,58.143 C635.746,58.155 636.565,58.169 637.528,58.169 C638.441,58.169 639.338,58.155 639.927,58.143 L639.927,58.499 C638.833,58.615 638.83,59.397 638.83,66.341 L638.83,70.562" id="Fill-23" fill="#5F696C"></path>
            <path d="M648.462,66.345 C648.462,59.413 648.462,58.58 647.465,58.485 L647.465,58.143 C648.45,58.152 650.333,58.169 652.527,58.169 C654.7,58.169 656.985,58.155 658.409,58.143 C658.353,59.263 658.313,60.423 658.305,61.578 L657.981,61.578 C657.837,60.474 657.064,60.269 655.204,60.269 L650.981,60.269 L650.981,67.405 L654.695,67.405 C656.617,67.405 657.203,67.382 657.386,66.713 L657.697,66.713 C657.669,67.316 657.647,67.865 657.647,68.413 C657.647,69.058 657.669,69.643 657.697,70.307 L657.39,70.307 C657.214,69.547 656.646,69.505 654.758,69.505 L650.981,69.505 L650.981,76.418 C650.981,76.979 651.01,77.035 651.535,77.067 C653.545,77.07 654.899,77.074 656.226,77.067 C657.504,77.055 658.215,76.962 658.43,75.869 L658.754,75.869 C658.715,76.846 658.666,78.093 658.666,79.251 C657.039,79.237 654.851,79.224 652.815,79.224 C650.478,79.224 648.41,79.237 647.398,79.251 L647.398,78.907 C648.462,78.813 648.462,77.993 648.462,70.566 L648.462,66.345" id="Fill-24" fill="#5F696C"></path>
            <path d="M675.679,73.896 C675.679,76.851 673.414,79.507 669.171,79.507 C667.787,79.507 666.224,79.176 665.36,78.809 C665.443,77.632 665.482,76.611 665.516,75.231 L665.85,75.231 C665.999,75.994 666.344,76.497 666.843,76.821 C667.418,77.16 668.253,77.328 669.188,77.328 C671.325,77.328 673.032,76.068 673.032,74.019 C673.032,72.767 672.541,71.776 671.305,70.753 C670.448,70.04 669.634,69.45 668.653,68.676 C666.752,67.158 665.753,65.675 665.753,63.498 C665.753,60.528 668.088,58.006 671.937,58.006 C673.065,58.006 674.194,58.183 674.96,58.434 C674.889,59.604 674.857,60.653 674.83,61.895 L674.496,61.895 C674.396,61.206 674.076,60.817 673.638,60.549 C673.233,60.317 672.612,60.179 671.98,60.179 C669.914,60.179 668.356,61.389 668.356,63.324 C668.356,64.435 668.816,65.318 669.659,66.118 C670.402,66.833 671.28,67.468 672.479,68.399 C674.333,69.843 675.679,71.343 675.679,73.868 L675.679,73.896" id="Fill-25" fill="#5F696C"></path>
            <path d="M59.759,55.487 C59.874,55.411 59.989,55.334 60.104,55.256 C60.142,55.103 60.182,54.948 60.22,54.796 C60.295,54.758 60.373,54.719 60.451,54.683 L60.451,54.337 L60.565,54.337 L60.565,54.106 C60.642,54.067 60.717,54.031 60.794,53.99 C60.91,53.645 61.023,53.3 61.14,52.956 C61.216,52.916 61.294,52.879 61.37,52.841 C61.41,52.687 61.447,52.534 61.485,52.381 C61.562,52.342 61.639,52.303 61.715,52.264 L61.715,52.036 C61.791,51.997 61.868,51.958 61.946,51.921 L61.946,51.691 C62.022,51.65 62.099,51.613 62.176,51.574 C62.214,51.421 62.252,51.268 62.291,51.115 C62.368,51.076 62.445,51.039 62.521,51 C62.597,50.733 62.673,50.463 62.752,50.194 C62.828,50.155 62.905,50.116 62.98,50.081 L62.98,49.734 L63.096,49.734 L63.096,49.503 L63.21,49.503 L63.21,49.158 L63.326,49.158 C63.365,49.005 63.403,48.852 63.441,48.699 L63.557,48.699 L63.557,48.353 L63.673,48.353 C63.71,48.2 63.748,48.046 63.786,47.894 L63.902,47.894 L63.902,47.663 C63.979,47.624 64.054,47.587 64.131,47.547 L64.131,47.317 L64.247,47.317 L64.247,47.088 L64.362,47.088 L64.362,46.628 L64.478,46.628 L64.478,46.283 L64.591,46.283 L64.591,46.052 L64.706,46.052 C64.745,45.707 64.784,45.36 64.821,45.015 C64.631,45.055 64.439,45.094 64.247,45.131 C64.21,45.208 64.169,45.286 64.131,45.36 L63.786,45.36 L63.786,45.478 C63.594,45.63 63.403,45.783 63.21,45.936 L63.21,46.166 C63.134,46.205 63.058,46.244 62.98,46.283 L62.98,46.512 C62.905,46.55 62.828,46.589 62.752,46.628 L62.752,46.858 L62.638,46.858 L62.638,47.202 L62.521,47.202 L62.521,47.434 L62.405,47.434 C62.368,47.547 62.328,47.663 62.291,47.778 L62.061,47.778 L62.061,48.007 L61.831,48.007 C61.572,48.663 61.288,49.197 60.91,49.734 C60.794,49.81 60.68,49.887 60.565,49.963 L60.565,50.194 C60.451,50.271 60.335,50.347 60.22,50.424 L60.22,50.655 C60.142,50.692 60.065,50.733 59.989,50.769 L59.989,51 L59.874,51 C59.768,51.156 59.795,51.202 59.759,51.461 L59.46,51.461 L59.433,56.054 C59.503,56.018 59.574,55.984 59.644,55.947 C59.683,55.795 59.722,55.64 59.759,55.487" id="Fill-26" fill="#7D9AA8"></path>
            <path d="M59.759,0.069 L59.618,24.337 C59.626,24.327 59.635,24.317 59.644,24.307 C59.799,24.269 59.952,24.229 60.104,24.192 C60.142,24.114 60.182,24.037 60.22,23.962 L60.451,23.962 L60.451,23.845 L60.68,23.845 C60.757,23.692 60.833,23.539 60.91,23.386 L61.14,23.386 C61.179,23.27 61.216,23.156 61.256,23.04 L61.485,23.04 C61.6,22.887 61.715,22.733 61.831,22.579 L62.061,22.579 C62.138,22.465 62.214,22.35 62.291,22.234 L62.521,22.234 C62.597,22.12 62.673,22.005 62.752,21.889 L62.98,21.889 C63.02,21.813 63.058,21.736 63.096,21.659 L63.326,21.659 C63.403,21.544 63.48,21.429 63.557,21.315 L63.786,21.315 L63.786,21.199 C63.902,21.161 64.016,21.123 64.131,21.084 C64.169,21.007 64.21,20.93 64.247,20.853 L64.478,20.853 C64.631,20.662 64.784,20.471 64.936,20.278 L65.167,20.278 C65.244,20.164 65.321,20.047 65.397,19.933 L65.627,19.933 C65.705,19.818 65.78,19.704 65.859,19.589 C66.012,19.55 66.165,19.512 66.317,19.472 C66.395,19.359 66.471,19.244 66.547,19.129 C66.702,19.09 66.854,19.051 67.008,19.013 C67.047,18.936 67.085,18.86 67.123,18.783 C67.237,18.744 67.353,18.708 67.47,18.668 L67.47,18.552 C67.622,18.515 67.776,18.477 67.928,18.437 C67.966,18.36 68.005,18.283 68.042,18.208 L68.274,18.208 C68.465,17.94 68.658,17.671 68.848,17.402 C69.002,17.364 69.157,17.326 69.31,17.287 L69.31,17.173 L69.539,17.173 L69.769,16.943 L70,16.943 C70.076,16.827 70.153,16.712 70.229,16.597 C70.382,16.56 70.537,16.521 70.69,16.481 C70.728,16.404 70.768,16.329 70.806,16.251 L71.034,16.251 C71.074,16.175 71.111,16.097 71.149,16.023 L71.379,16.023 C71.457,15.907 71.534,15.792 71.61,15.677 C71.763,15.638 71.917,15.599 72.071,15.562 C72.109,15.485 72.148,15.409 72.186,15.33 L72.416,15.33 C72.455,15.255 72.493,15.18 72.532,15.101 C72.839,14.896 73.177,14.729 73.567,14.64 L73.567,14.41 C73.836,14.372 74.103,14.334 74.373,14.296 C74.409,14.219 74.448,14.141 74.486,14.067 L74.717,14.067 L74.717,13.95 L74.948,13.95 C74.985,13.875 75.023,13.798 75.061,13.721 L75.293,13.721 C75.331,13.644 75.37,13.567 75.408,13.489 L75.637,13.489 C75.676,13.414 75.714,13.336 75.753,13.259 C75.943,13.222 76.137,13.183 76.329,13.146 C76.367,13.069 76.405,12.991 76.443,12.917 L76.672,12.917 L76.672,12.799 L77.017,12.799 C77.058,12.724 77.096,12.647 77.135,12.57 L77.364,12.57 L77.364,12.455 C77.554,12.416 77.747,12.38 77.939,12.34 C78.068,12.471 77.939,12.387 78.169,12.455 C78.135,13.032 77.721,14.068 77.364,14.296 C77.232,14.426 77.364,14.341 77.135,14.41 L77.135,14.64 C76.436,14.8 75.895,15.282 75.177,15.446 L75.177,15.677 C74.871,15.83 74.564,15.983 74.255,16.136 L74.255,16.251 C74.065,16.29 73.874,16.329 73.682,16.368 L73.682,16.481 L73.451,16.481 C73.413,16.56 73.374,16.634 73.337,16.712 L73.107,16.712 C73.068,16.788 73.029,16.866 72.99,16.943 L72.76,16.943 C72.645,17.094 72.532,17.249 72.416,17.402 L72.186,17.402 C72.109,17.518 72.032,17.631 71.956,17.749 L71.727,17.749 C71.686,17.824 71.65,17.901 71.61,17.977 L71.379,17.977 C71.304,18.091 71.227,18.208 71.149,18.324 L70.921,18.324 C70.882,18.401 70.843,18.477 70.806,18.552 L70.574,18.552 L70.574,18.668 C70.459,18.708 70.346,18.744 70.229,18.783 C70.191,18.86 70.153,18.936 70.115,19.013 L69.885,19.013 C69.808,19.129 69.731,19.244 69.654,19.359 C69.539,19.396 69.423,19.436 69.31,19.472 C69.271,19.55 69.233,19.626 69.195,19.704 C69.081,19.741 68.965,19.781 68.848,19.818 L68.848,19.933 C68.734,19.972 68.619,20.01 68.505,20.047 L68.505,20.278 C68.046,20.375 68.001,20.624 67.583,20.739 L67.583,20.97 L67.353,20.97 C67.108,21.344 66.686,21.4 66.317,21.659 C66.279,21.736 66.241,21.813 66.202,21.889 L66.088,21.889 C66.049,21.967 66.012,22.042 65.973,22.12 L65.742,22.12 C65.589,22.311 65.436,22.504 65.283,22.694 L65.052,22.694 C65.013,22.771 64.976,22.849 64.936,22.923 L64.706,22.923 C64.591,23.078 64.478,23.231 64.362,23.386 L64.131,23.386 C64.092,23.463 64.054,23.539 64.016,23.616 L63.786,23.616 L63.786,23.73 C63.71,23.769 63.633,23.807 63.557,23.845 L63.557,24.074 C63.441,24.114 63.326,24.152 63.21,24.192 C63.068,24.711 62.789,24.736 62.405,24.997 C62.368,25.073 62.328,25.15 62.291,25.226 L62.061,25.226 C61.985,25.341 61.909,25.456 61.831,25.572 C61.566,25.772 61.626,25.45 61.485,25.916 L61.256,25.916 L61.256,26.147 L61.023,26.147 C60.871,26.376 60.717,26.607 60.565,26.837 C60.445,26.924 60.099,26.934 59.989,27.067 L59.989,27.298 C59.874,27.373 59.759,27.45 59.644,27.526 L59.644,27.757 C59.628,27.768 59.613,27.778 59.598,27.788 L59.486,46.939 C59.616,46.835 59.745,46.731 59.874,46.628 L59.874,46.397 C60.104,46.205 60.335,46.013 60.565,45.821 L60.565,45.593 C60.757,45.439 60.947,45.286 61.14,45.131 L61.14,44.902 C61.216,44.862 61.294,44.825 61.37,44.786 L61.37,44.555 C61.447,44.518 61.523,44.48 61.6,44.441 C61.852,44.173 62.178,43.918 62.291,43.52 L62.521,43.52 C62.692,42.834 63.44,42.732 63.786,42.255 L63.786,42.025 C63.902,41.948 64.016,41.871 64.131,41.794 C64.169,41.68 64.21,41.565 64.247,41.451 L64.478,41.451 C64.515,41.334 64.554,41.22 64.591,41.105 C64.861,41.065 65.13,41.028 65.397,40.988 C65.474,41.143 65.549,41.298 65.627,41.451 C65.705,41.488 65.78,41.527 65.859,41.565 C65.895,41.756 65.935,41.948 65.973,42.139 L66.088,42.139 L66.088,41.909 C66.165,41.871 66.241,41.833 66.317,41.794 L66.317,41.22 L66.432,41.22 L66.432,40.757 L66.547,40.757 L66.547,40.413 L66.663,40.413 C66.702,40.299 66.741,40.185 66.779,40.069 L66.663,40.069 L66.663,40.185 L66.547,40.185 C66.44,40.391 66.389,40.365 66.317,40.646 C66.018,40.698 65.809,40.754 65.397,40.757 C65.324,40.561 65.289,40.397 65.283,40.069 C65.791,39.754 65.986,39.075 66.317,38.573 C66.395,38.535 66.471,38.496 66.547,38.458 C66.587,38.305 66.624,38.152 66.663,37.998 C66.741,37.959 66.816,37.921 66.894,37.883 L66.894,37.653 C66.97,37.615 67.047,37.576 67.123,37.537 C67.2,37.307 67.275,37.078 67.353,36.848 C67.431,36.809 67.507,36.772 67.583,36.731 L67.583,36.503 L67.7,36.503 L67.7,36.272 L67.812,36.272 L67.812,35.926 C67.89,35.889 67.966,35.85 68.042,35.811 L68.042,35.582 L68.158,35.582 L68.158,35.352 L68.388,35.121 L68.388,34.891 L68.505,34.891 C68.637,34.717 68.662,34.69 68.734,34.431 L69.081,34.431 C69.195,34.277 69.31,34.124 69.423,33.969 L69.539,33.969 C69.577,33.817 69.616,33.663 69.654,33.51 L69.769,33.51 L69.769,33.28 L69.885,33.28 C69.962,33.05 70.039,32.821 70.115,32.589 L70.229,32.589 L70.229,32.015 C70.306,31.975 70.382,31.937 70.459,31.9 C70.497,31.746 70.537,31.593 70.574,31.44 C70.652,31.4 70.728,31.363 70.806,31.324 L70.806,30.979 L70.921,30.979 C70.958,30.788 70.998,30.595 71.034,30.405 L71.149,30.405 C71.188,30.174 71.227,29.944 71.265,29.713 L71.496,29.713 C71.534,29.599 71.574,29.483 71.61,29.368 L71.727,29.368 L71.727,29.137 C71.802,29.1 71.879,29.062 71.956,29.024 C71.995,28.868 72.032,28.715 72.071,28.563 C72.148,28.525 72.226,28.487 72.302,28.448 C72.338,28.294 72.378,28.141 72.416,27.987 C72.532,27.912 72.645,27.835 72.76,27.757 L72.76,27.526 C72.837,27.489 72.916,27.45 72.99,27.413 C73.068,27.067 73.145,26.721 73.222,26.376 L73.337,26.376 L73.337,26.147 C73.413,26.109 73.49,26.07 73.567,26.032 C73.603,25.839 73.643,25.649 73.682,25.456 C73.758,25.418 73.836,25.38 73.913,25.341 L73.913,24.997 L74.027,24.997 L74.027,24.767 L74.142,24.767 C74.219,24.536 74.295,24.307 74.373,24.074 L74.486,24.074 L74.486,23.73 C74.564,23.692 74.642,23.655 74.717,23.616 L74.717,23.27 C74.795,23.231 74.871,23.193 74.948,23.156 L74.948,22.923 L75.061,22.923 L75.061,22.579 L75.177,22.579 C75.216,22.426 75.253,22.273 75.293,22.12 L75.408,22.12 C75.622,21.671 75.331,21.623 75.981,21.544 C76.021,21.392 76.059,21.236 76.097,21.084 L76.212,21.084 L76.212,20.739 C76.29,20.7 76.367,20.662 76.443,20.624 L76.443,20.164 L76.558,20.164 L76.558,19.933 L76.672,19.933 C76.711,19.666 76.749,19.396 76.789,19.129 C76.865,19.09 76.942,19.051 77.017,19.013 L77.017,18.783 C77.284,18.708 77.289,18.677 77.477,18.552 L77.477,18.437 C77.812,18.287 78.298,18.512 78.516,18.552 C78.56,18.966 78.788,19.625 78.63,20.164 L78.516,20.164 L78.516,20.853 L78.398,20.853 C78.322,21.084 78.247,21.315 78.169,21.544 L78.054,21.544 L78.054,21.775 L77.939,21.775 L77.939,22.005 L77.824,22.005 L77.824,22.234 L77.707,22.234 C77.632,22.579 77.554,22.923 77.477,23.27 L77.135,23.27 C77.064,23.642 76.946,23.887 76.789,24.192 L76.672,24.192 L76.672,24.536 C76.596,24.574 76.519,24.613 76.443,24.652 L76.443,24.88 L76.329,24.88 L76.329,25.226 C76.251,25.266 76.174,25.303 76.097,25.341 L76.097,25.687 C76.021,25.724 75.943,25.765 75.866,25.803 L75.866,26.147 C75.79,26.184 75.714,26.224 75.637,26.261 L75.637,26.607 L75.524,26.607 L75.524,26.952 C75.447,26.99 75.37,27.028 75.293,27.067 C75.253,27.26 75.216,27.45 75.177,27.642 C75.101,27.681 75.023,27.719 74.948,27.757 L74.948,27.987 L74.832,27.987 C74.795,28.141 74.756,28.294 74.717,28.448 L74.601,28.448 L74.601,28.794 C74.525,28.831 74.448,28.868 74.373,28.908 C74.213,29.107 74.185,29.271 74.142,29.599 L73.913,29.599 C73.874,29.713 73.836,29.828 73.796,29.944 L73.682,29.944 L73.682,30.174 C73.603,30.212 73.527,30.25 73.451,30.288 L73.451,30.635 C73.374,30.671 73.297,30.712 73.222,30.751 L73.222,31.094 L73.107,31.094 L73.107,31.324 L72.99,31.324 L72.99,31.669 L72.876,31.669 L72.876,31.9 L72.76,31.9 L72.76,32.13 C72.685,32.168 72.608,32.207 72.532,32.246 L72.532,32.705 L72.416,32.705 L72.416,32.935 C72.338,32.974 72.262,33.011 72.186,33.05 L72.186,33.395 L72.071,33.395 L72.071,33.626 L71.956,33.626 L71.956,33.856 L71.84,33.856 C71.802,34.009 71.763,34.162 71.727,34.315 C71.65,34.355 71.574,34.393 71.496,34.431 L71.496,34.661 L71.379,34.661 C71.342,34.815 71.304,34.968 71.265,35.121 L71.149,35.121 L71.149,35.467 L71.034,35.467 L71.034,35.696 L70.921,35.696 L70.921,35.926 C70.768,36.042 70.615,36.156 70.459,36.272 L70.459,36.503 C70.382,36.541 70.306,36.578 70.229,36.616 C70.191,36.772 70.153,36.924 70.115,37.078 C70,37.154 69.885,37.231 69.769,37.307 L69.769,37.653 L69.654,37.653 L69.654,37.998 L69.539,37.998 C69.501,38.152 69.463,38.305 69.423,38.458 L69.31,38.458 L69.31,38.689 C69.157,38.804 69.002,38.918 68.848,39.034 L68.848,39.264 C68.77,39.301 68.695,39.34 68.619,39.378 L68.619,39.723 L68.388,39.84 L68.388,40.069 L68.274,40.069 C68.236,40.452 68.197,40.836 68.158,41.22 C67.878,42.11 67.649,43.228 67.353,44.096 L67.353,44.673 L67.237,44.673 C67.16,44.902 67.085,45.131 67.008,45.36 L66.894,45.36 L66.894,45.936 L66.779,45.936 C66.741,46.089 66.702,46.244 66.663,46.397 L66.547,46.397 L66.547,46.742 C66.471,46.781 66.395,46.818 66.317,46.858 L66.317,47.088 L66.202,47.088 C66.088,47.508 65.973,47.931 65.859,48.353 L66.088,48.353 C66.161,48.038 66.238,48.092 66.317,47.778 L66.547,47.778 C66.587,47.587 66.624,47.394 66.663,47.202 C66.779,47.126 66.894,47.049 67.008,46.973 C67.085,46.742 67.16,46.512 67.237,46.283 C67.353,46.205 67.47,46.128 67.583,46.052 L67.583,45.821 C67.66,45.783 67.737,45.746 67.812,45.707 L67.812,45.36 C67.89,45.323 67.966,45.286 68.042,45.248 L68.042,45.015 C68.121,44.978 68.197,44.941 68.274,44.902 L68.274,44.555 L68.388,44.555 L68.388,44.326 L68.505,44.326 L68.505,44.096 L68.619,44.096 L68.619,43.867 L68.734,43.867 C68.77,43.713 68.811,43.56 68.848,43.405 L68.965,43.405 L68.965,43.174 C69.041,43.138 69.116,43.099 69.195,43.06 C69.271,42.831 69.348,42.601 69.423,42.37 C69.501,42.333 69.577,42.294 69.654,42.255 L69.654,41.909 L69.769,41.909 L69.769,41.68 L69.885,41.68 L69.885,41.451 L70,41.451 L70,41.22 L70.115,41.22 C70.153,41.065 70.191,40.912 70.229,40.757 C70.306,40.722 70.382,40.681 70.459,40.646 L70.459,40.299 C70.574,40.222 70.69,40.146 70.806,40.069 L70.806,39.723 C70.882,39.686 70.958,39.646 71.034,39.607 C71.074,39.456 71.111,39.301 71.149,39.149 C71.227,39.109 71.304,39.072 71.379,39.034 L71.379,38.689 C71.457,38.65 71.534,38.611 71.61,38.573 L71.61,38.343 L71.84,38.111 L71.84,37.883 C71.917,37.846 71.995,37.806 72.071,37.767 C72.109,37.615 72.148,37.46 72.186,37.307 C72.262,37.269 72.338,37.231 72.416,37.193 L72.416,36.962 L72.532,36.962 C72.569,36.809 72.608,36.656 72.645,36.503 L72.76,36.503 L72.76,36.156 L72.876,36.156 C72.916,36.004 72.953,35.85 72.99,35.696 L73.107,35.696 L73.107,35.121 L73.222,35.005 C73.822,34.738 74.163,34.445 75.061,34.431 C75.223,35.169 75.615,35.026 75.637,36.042 L75.524,36.042 L75.524,36.387 C75.253,36.616 74.985,36.848 74.717,37.078 L74.717,37.307 C74.525,37.46 74.332,37.615 74.142,37.767 C74.103,37.921 74.065,38.074 74.027,38.228 C73.95,38.265 73.874,38.305 73.796,38.343 L73.796,38.689 C73.72,38.727 73.643,38.765 73.567,38.804 C73.527,38.957 73.49,39.109 73.451,39.264 L73.222,39.264 C73.179,39.752 72.991,39.901 72.76,40.185 L72.645,40.185 L72.645,40.413 C72.569,40.452 72.493,40.491 72.416,40.528 L72.416,40.757 C72.338,40.798 72.262,40.836 72.186,40.875 L72.186,41.105 C72.032,41.22 71.879,41.334 71.727,41.451 L71.727,41.68 L71.496,41.909 L71.496,42.139 C71.419,42.178 71.342,42.215 71.265,42.255 C71.149,42.601 71.034,42.946 70.921,43.291 C70.843,43.328 70.768,43.367 70.69,43.405 C70.615,43.636 70.537,43.867 70.459,44.096 C70.382,44.135 70.306,44.173 70.229,44.212 C70.076,44.673 69.923,45.131 69.769,45.593 L69.654,45.593 L69.654,45.821 L69.539,45.821 L69.539,46.052 L69.31,46.283 L69.31,46.512 C69.233,46.55 69.157,46.589 69.081,46.628 L69.081,46.858 C69.002,46.896 68.926,46.935 68.848,46.973 C68.811,47.165 68.77,47.355 68.734,47.547 C68.658,47.587 68.581,47.624 68.505,47.663 L68.505,48.123 C68.274,48.315 68.042,48.505 67.812,48.699 L67.812,49.044 C67.737,49.082 67.66,49.121 67.583,49.158 L67.583,49.503 L67.47,49.503 C67.431,49.657 67.391,49.81 67.353,49.963 L67.237,49.963 C67.2,50.116 67.16,50.271 67.123,50.424 C67.047,50.463 66.97,50.501 66.894,50.539 L66.894,50.884 C66.816,50.923 66.741,50.961 66.663,51 L66.663,51.229 C66.547,51.305 66.432,51.384 66.317,51.461 C66.279,51.65 66.241,51.844 66.202,52.036 C66.126,52.073 66.049,52.112 65.973,52.15 C65.935,52.303 65.895,52.456 65.859,52.609 C65.78,52.65 65.705,52.687 65.627,52.726 C65.589,52.916 65.549,53.109 65.513,53.3 C65.436,53.339 65.359,53.379 65.283,53.416 C65.244,53.608 65.207,53.798 65.167,53.99 L65.052,53.99 C65.013,54.143 64.976,54.298 64.936,54.451 L64.821,54.451 C64.784,54.643 64.745,54.836 64.706,55.026 L64.591,55.026 L64.591,55.371 L64.478,55.371 L64.478,55.601 L64.362,55.601 C64.247,55.947 64.131,56.292 64.016,56.637 C63.939,56.676 63.863,56.713 63.786,56.753 C63.71,56.983 63.633,57.212 63.557,57.442 C63.441,57.519 63.326,57.595 63.21,57.672 L63.21,58.017 L63.096,58.017 C63.058,58.134 63.02,58.248 62.98,58.363 C62.905,58.401 62.828,58.44 62.752,58.479 L62.752,58.938 L62.638,58.938 L62.638,59.285 L62.521,59.285 L62.521,59.629 L62.405,59.629 L62.405,60.089 C62.328,60.127 62.252,60.165 62.176,60.204 L62.176,60.55 C62.061,60.627 61.946,60.703 61.831,60.78 L61.831,61.009 C61.753,61.048 61.675,61.086 61.6,61.126 L61.6,61.354 L61.485,61.354 L61.485,61.585 C61.41,61.622 61.333,61.661 61.256,61.699 C61.042,61.996 61.379,61.911 60.91,62.044 C60.808,62.519 60.594,62.536 60.451,62.851 L60.451,63.195 L60.335,63.195 L60.335,63.425 L60.22,63.425 L60.22,63.772 C60.104,63.848 59.989,63.924 59.874,64.001 C59.836,64.154 59.799,64.307 59.759,64.462 C59.683,64.499 59.606,64.536 59.53,64.577 C59.491,64.769 59.452,64.96 59.415,65.153 C59.403,65.158 59.392,65.164 59.38,65.17 L59.379,65.389 L63.492,65.551 C63.667,65.342 63.842,65.133 64.016,64.922 C64.398,64.648 64.672,64.783 64.821,64.231 C65.146,64.163 65.3,64.057 65.513,63.886 L65.513,63.772 L65.742,63.772 C65.82,63.656 65.895,63.541 65.973,63.425 L66.202,63.425 L66.202,63.312 C66.466,63.088 66.63,62.842 67.008,62.735 L67.008,62.506 C67.123,62.467 67.237,62.429 67.353,62.39 C67.507,62.198 67.66,62.006 67.812,61.814 L68.042,61.814 C68.158,61.427 68.184,61.595 68.388,61.354 L68.505,61.354 L68.505,61.126 C68.96,60.985 68.647,61.096 68.848,60.78 L68.965,60.78 L68.965,60.55 C69.081,60.474 69.195,60.396 69.31,60.319 C69.348,60.204 69.387,60.089 69.423,59.974 L69.654,59.974 C70.115,59.475 70.574,58.977 71.034,58.479 C71.227,58.363 71.419,58.248 71.61,58.134 C71.65,57.941 71.686,57.749 71.727,57.558 C72.148,57.176 72.569,56.79 72.99,56.406 C73.222,56.09 73.123,55.954 73.567,55.832 C73.684,55.38 73.841,55.499 74.142,55.256 C74.18,55.142 74.219,55.026 74.255,54.911 C74.448,54.758 74.642,54.605 74.832,54.451 C74.908,54.337 74.985,54.221 75.061,54.106 L75.177,54.106 L75.177,53.876 C75.408,53.684 75.637,53.492 75.866,53.3 C75.906,53.186 75.943,53.071 75.981,52.956 C76.059,52.916 76.137,52.879 76.212,52.841 L76.212,52.609 C76.596,52.265 76.979,51.921 77.364,51.574 L77.364,51.344 C77.477,51.268 77.595,51.192 77.707,51.115 L77.707,50.884 C77.787,50.845 77.863,50.808 77.939,50.769 L77.939,50.539 C78.054,50.463 78.169,50.386 78.283,50.31 L78.283,50.081 C78.36,50.04 78.438,50.002 78.516,49.963 L78.516,49.734 C78.669,49.618 78.822,49.503 78.975,49.389 L78.975,49.158 C79.09,49.082 79.203,49.005 79.319,48.929 L79.319,48.699 C79.398,48.658 79.474,48.623 79.55,48.582 C79.627,48.353 79.704,48.123 79.78,47.894 C79.855,47.853 79.933,47.817 80.01,47.778 L80.01,47.547 C80.125,47.47 80.24,47.394 80.356,47.317 C80.392,47.165 80.432,47.01 80.47,46.858 C80.623,46.742 80.775,46.628 80.93,46.512 L80.93,46.283 C81.199,46.052 81.466,45.821 81.737,45.593 L81.737,45.36 C81.813,45.323 81.89,45.286 81.966,45.248 L81.966,45.015 C82.081,44.941 82.196,44.862 82.309,44.786 C82.349,44.631 82.388,44.48 82.426,44.326 C82.503,44.288 82.579,44.249 82.656,44.212 C82.733,43.981 82.81,43.75 82.886,43.52 C82.961,43.483 83.04,43.443 83.117,43.405 C83.154,43.252 83.193,43.099 83.232,42.946 C83.308,42.907 83.385,42.868 83.461,42.831 L83.461,42.601 C83.538,42.562 83.614,42.523 83.691,42.485 L83.691,42.255 C83.768,42.215 83.844,42.178 83.922,42.139 L83.922,41.909 L84.037,41.909 C84.075,41.756 84.114,41.604 84.153,41.451 L84.266,41.451 C84.306,41.257 84.344,41.065 84.382,40.875 L84.497,40.875 L84.497,40.646 L84.726,40.413 L84.726,40.185 C84.802,40.146 84.88,40.107 84.959,40.069 L84.959,39.84 C85.034,39.801 85.112,39.762 85.188,39.723 L85.188,39.378 C85.265,39.34 85.34,39.301 85.417,39.264 C85.455,39.109 85.495,38.957 85.533,38.804 C85.609,38.765 85.687,38.727 85.761,38.689 C85.84,38.343 85.915,37.998 85.993,37.653 L86.107,37.653 L86.107,37.307 L86.223,37.307 C86.33,37.132 86.316,37.026 86.338,36.731 L86.568,36.731 C86.584,36.439 86.58,36.33 86.684,36.156 L86.799,36.156 C86.835,35.964 86.875,35.773 86.913,35.582 C86.991,35.544 87.067,35.505 87.145,35.467 L87.145,35.121 C87.22,35.082 87.296,35.046 87.373,35.005 L87.373,34.546 L87.488,34.546 L87.488,34.315 L87.603,34.315 L87.603,33.856 L87.718,33.856 C87.757,33.626 87.796,33.395 87.834,33.164 L87.949,33.164 L87.949,32.935 L88.064,32.935 L88.064,32.589 L88.18,32.589 L88.18,32.361 L88.294,32.361 L88.294,31.669 C88.371,31.629 88.446,31.593 88.525,31.555 C88.562,31.324 88.6,31.094 88.639,30.864 L88.752,30.864 L88.752,30.635 L88.869,30.635 C88.907,30.442 88.947,30.25 88.986,30.059 L89.099,30.059 L89.099,29.137 L89.214,29.137 L89.214,28.908 L89.33,28.908 L89.33,27.757 C89.404,27.719 89.483,27.681 89.56,27.642 L89.56,27.182 C89.638,27.144 89.714,27.105 89.79,27.067 L89.79,26.837 L89.905,26.837 L89.905,25.916 L90.02,25.916 L90.02,25.112 L90.136,25.112 L90.136,23.962 L90.249,23.962 L90.249,22.694 C90.357,22.311 90.528,20.708 90.365,20.164 L90.249,20.164 L90.249,19.704 L90.136,19.704 L90.136,19.472 L90.02,19.472 L90.02,19.129 L89.905,19.129 C89.866,18.86 89.828,18.591 89.79,18.324 L89.675,18.324 C89.638,18.17 89.597,18.015 89.56,17.862 L89.444,17.862 L89.444,17.518 L89.33,17.518 L89.33,17.287 L89.214,17.287 L89.214,17.057 C89.139,17.019 89.062,16.981 88.986,16.943 C88.907,16.712 88.831,16.481 88.752,16.251 C88.677,16.214 88.6,16.175 88.525,16.136 C88.486,15.983 88.446,15.83 88.408,15.677 L88.294,15.677 C88.256,15.562 88.217,15.446 88.18,15.33 C88.102,15.292 88.025,15.255 87.949,15.216 L87.949,14.985 C87.873,14.946 87.796,14.91 87.718,14.872 C87.603,14.717 87.488,14.564 87.373,14.41 C87.22,14.372 87.067,14.334 86.913,14.296 C86.875,14.219 86.835,14.141 86.799,14.067 L86.568,14.067 L86.338,13.834 C86.183,13.798 86.031,13.759 85.877,13.721 C85.84,13.644 85.801,13.567 85.761,13.489 C85.57,13.452 85.38,13.414 85.188,13.375 C85.149,13.298 85.112,13.222 85.073,13.146 L84.842,13.146 L84.842,13.03 C84.382,12.991 83.922,12.953 83.461,12.917 C83.423,12.838 83.385,12.761 83.346,12.686 L82.886,12.686 L82.886,12.57 L82.54,12.57 L82.54,12.455 C81.919,12.259 81.167,12.58 80.816,12.686 L80.01,12.686 L80.01,12.799 C79.627,12.838 79.243,12.877 78.859,12.917 L78.859,11.879 C79.012,11.84 79.166,11.803 79.319,11.764 L79.319,11.648 L80.01,11.648 L80.01,11.535 L80.24,11.535 L80.24,11.419 L80.816,11.419 L80.816,11.303 L81.161,11.303 L81.161,11.189 L81.851,11.189 L81.851,11.075 L83.461,11.075 C84.667,11.075 85.821,11.062 86.684,11.419 L86.684,11.535 L86.913,11.535 C86.951,11.612 86.991,11.688 87.028,11.764 L87.259,11.764 L87.259,11.879 C87.412,11.918 87.565,11.956 87.718,11.994 C87.757,12.071 87.796,12.147 87.834,12.224 L88.064,12.224 C88.217,12.416 88.371,12.608 88.525,12.799 L88.752,12.799 C88.793,12.877 88.831,12.953 88.869,13.03 C89.062,13.183 89.252,13.336 89.444,13.489 C89.522,13.721 89.597,13.95 89.675,14.181 C89.751,14.219 89.828,14.257 89.905,14.296 L89.905,14.64 C89.981,14.68 90.057,14.717 90.136,14.756 L90.136,14.985 L90.249,14.985 L90.249,15.33 C90.327,15.37 90.402,15.409 90.481,15.446 L90.481,15.677 L90.596,15.677 L90.596,16.023 C90.673,16.059 90.749,16.097 90.827,16.136 L90.827,16.368 L90.94,16.368 L90.94,16.597 L91.055,16.597 L91.055,16.943 L91.17,16.943 L91.17,17.287 L91.286,17.287 L91.286,17.518 L91.4,17.518 L91.4,18.668 L91.515,18.668 L91.515,19.013 L91.631,19.013 L91.631,19.818 L91.747,19.818 L91.747,20.164 L91.861,20.164 C92.06,20.733 91.772,21.463 91.976,22.12 L92.091,22.12 L92.091,22.465 L92.207,22.465 C92.168,23.003 92.13,23.539 92.091,24.074 L91.976,24.074 C92.014,24.88 92.053,25.687 92.091,26.492 L91.976,26.492 L91.976,26.952 L91.861,26.952 L91.861,27.298 L91.747,27.298 L91.747,28.448 L91.631,28.448 L91.631,29.599 C91.487,30.095 91.405,30.378 91.4,31.094 L91.17,31.094 C91.094,31.555 91.018,32.015 90.94,32.475 C90.788,32.589 90.634,32.705 90.481,32.821 L90.481,33.626 L90.365,33.626 L90.365,33.856 L90.249,33.856 L90.249,34.086 C90.174,34.124 90.097,34.162 90.02,34.203 C89.831,34.611 90.098,35.03 89.79,35.352 C89.658,35.483 89.789,35.397 89.56,35.467 C89.542,35.991 89.346,36.154 89.214,36.503 L89.214,36.962 C89.099,37.038 88.986,37.114 88.869,37.193 C88.639,37.883 88.408,38.573 88.18,39.264 C88.102,39.301 88.025,39.34 87.949,39.378 L87.949,39.723 C87.873,39.762 87.796,39.801 87.718,39.84 C87.642,40.069 87.565,40.299 87.488,40.528 C87.412,40.567 87.335,40.605 87.259,40.646 L87.259,40.875 C87.105,40.988 86.951,41.105 86.799,41.22 C86.722,41.565 86.645,41.909 86.568,42.255 L86.338,42.255 C86.3,42.659 86.196,42.832 85.993,43.06 C85.915,43.099 85.84,43.138 85.761,43.174 L85.761,43.52 C85.609,43.636 85.455,43.75 85.302,43.867 L85.302,44.096 C85.188,44.173 85.073,44.249 84.959,44.326 L84.959,44.555 C84.88,44.596 84.802,44.631 84.726,44.673 C84.689,44.862 84.649,45.055 84.612,45.248 C84.42,45.401 84.23,45.552 84.037,45.707 L84.037,45.936 L83.807,46.166 L83.807,46.397 L83.691,46.397 L83.691,46.628 C83.614,46.666 83.538,46.704 83.461,46.742 C83.423,46.858 83.385,46.973 83.346,47.088 C83.232,47.165 83.117,47.241 83.002,47.317 C82.961,47.47 82.925,47.624 82.886,47.778 L82.771,47.778 L82.771,48.007 L82.54,48.238 L82.54,48.468 C82.465,48.505 82.388,48.546 82.309,48.582 L82.309,48.813 C82.233,48.852 82.157,48.891 82.081,48.929 L82.081,49.158 C81.966,49.236 81.851,49.311 81.737,49.389 L81.737,49.618 C81.466,49.848 81.199,50.081 80.93,50.31 L80.93,50.539 C80.816,50.616 80.698,50.692 80.585,50.769 L80.585,51 C80.47,51.076 80.356,51.151 80.24,51.229 L80.24,51.461 C80.125,51.537 80.01,51.613 79.896,51.691 L79.896,51.921 C79.74,52.036 79.588,52.15 79.434,52.264 C79.358,52.495 79.28,52.726 79.203,52.956 C79.09,53.032 78.975,53.109 78.859,53.186 L78.859,53.416 C78.706,53.531 78.552,53.645 78.398,53.76 C78.36,53.876 78.322,53.99 78.283,54.106 L78.054,54.106 C77.95,54.52 77.606,54.737 77.364,55.026 L77.248,55.026 L77.248,55.256 C77.017,55.448 76.789,55.64 76.558,55.832 L76.558,56.063 C76.367,56.216 76.174,56.369 75.981,56.524 L75.981,56.753 C75.83,56.83 75.676,56.906 75.524,56.983 L75.524,57.329 L75.408,57.329 L75.408,57.558 L75.293,57.558 C75.068,57.956 75.111,58.226 74.601,58.363 C74.524,58.7 74.473,58.741 74.142,58.824 C74.01,59.321 73.775,59.22 73.567,59.514 L73.567,59.745 C73.49,59.782 73.413,59.821 73.337,59.859 L73.337,60.089 C73.145,60.241 72.953,60.396 72.76,60.55 L72.76,60.78 C72.569,60.933 72.378,61.086 72.186,61.238 L72.186,61.471 C71.995,61.622 71.802,61.777 71.61,61.932 L71.61,62.276 L71.496,62.276 C71.304,62.506 71.111,62.735 70.921,62.966 C70.806,63.004 70.69,63.043 70.574,63.08 L70.574,63.195 C70.459,63.272 70.346,63.348 70.229,63.425 L70.229,63.656 C70.039,63.809 69.847,63.963 69.654,64.116 L69.654,64.346 C69.463,64.499 69.271,64.654 69.081,64.807 L69.081,65.036 C68.811,65.267 68.542,65.496 68.274,65.727 C68.266,65.732 68.252,65.734 68.242,65.739 L106.991,67.268 L109.653,3.147 L59.759,0.069" id="Fill-27" fill="#7D9AA8"></path>
            <path d="M29.96,65.957 C29.92,66.494 29.882,67.03 29.844,67.569 L29.73,67.569 L29.73,67.798 L29.615,67.798 L29.615,68.092 L54.351,66.202 L54.351,66.188 L54.467,66.188 L54.467,65.957 L54.697,65.727 L54.697,65.496 C54.772,65.459 54.851,65.421 54.926,65.382 L54.926,65.036 L55.042,65.036 L55.042,64.807 L55.157,64.807 C55.196,64.654 55.232,64.499 55.273,64.346 L55.388,64.346 C55.617,63.656 55.849,62.966 56.078,62.276 C56.193,62.198 56.308,62.122 56.422,62.044 C56.461,61.853 56.5,61.661 56.537,61.471 L56.653,61.471 L56.653,61.238 C56.73,61.203 56.807,61.162 56.883,61.126 L56.883,60.893 L56.997,60.893 L56.997,60.55 C57.073,60.509 57.151,60.474 57.23,60.435 L57.23,60.089 C57.272,60.061 57.315,60.032 57.358,60.004 L57.241,54.151 C56.935,54.63 56.674,55.217 56.078,55.371 L56.078,55.601 L55.849,55.601 L55.849,55.832 C55.617,56.024 55.388,56.216 55.157,56.406 L55.157,56.637 C55.042,56.713 54.926,56.79 54.813,56.868 L54.813,56.983 L54.58,56.983 C54.504,57.281 54.402,57.359 54.237,57.558 L54.122,57.558 L54.122,57.787 C53.852,58.017 53.585,58.248 53.316,58.479 L53.316,58.709 C53.124,58.861 52.933,59.016 52.741,59.169 L52.741,59.398 C52.396,59.704 52.051,60.013 51.705,60.319 L51.705,60.55 C51.514,60.703 51.322,60.856 51.13,61.009 C51.093,61.162 51.053,61.317 51.016,61.471 C50.746,61.699 50.477,61.932 50.21,62.161 L50.21,62.39 C50.056,62.506 49.902,62.62 49.75,62.735 C49.142,63.345 48.816,63.891 47.564,63.886 C47.555,63.296 47.566,62.968 47.795,62.62 C47.871,62.582 47.947,62.544 48.024,62.506 C48.061,62.352 48.101,62.198 48.137,62.044 C48.216,62.006 48.293,61.967 48.367,61.932 C48.508,61.7 48.341,61.4 48.483,61.126 C48.637,61.009 48.789,60.893 48.943,60.78 L48.943,60.55 C49.021,60.509 49.095,60.474 49.174,60.435 L49.174,60.204 C49.251,60.165 49.329,60.127 49.405,60.089 C49.442,59.898 49.482,59.704 49.52,59.514 C49.711,59.361 49.902,59.206 50.095,59.053 L50.095,58.824 C50.287,58.67 50.477,58.517 50.67,58.363 L50.67,58.134 C50.785,58.056 50.901,57.981 51.016,57.903 L51.016,57.672 C51.13,57.595 51.246,57.519 51.358,57.442 C51.398,57.288 51.437,57.135 51.476,56.983 C51.551,56.943 51.629,56.906 51.705,56.868 L51.705,56.637 L51.821,56.637 C51.859,56.524 51.898,56.406 51.935,56.292 L52.166,56.292 C52.235,55.993 52.348,55.914 52.511,55.718 L52.627,55.718 C52.872,55.38 52.842,55.145 53.316,55.026 C53.429,54.559 53.687,54.626 53.891,54.337 L53.891,54.106 C53.967,54.067 54.045,54.031 54.122,53.99 L54.122,53.76 L54.237,53.76 L54.237,53.531 C54.351,53.453 54.467,53.379 54.58,53.3 C54.62,53.186 54.659,53.071 54.697,52.956 L54.926,52.956 C54.992,52.69 55.027,52.675 55.157,52.495 L55.273,52.495 L55.273,52.15 C55.54,51.921 55.809,51.691 56.078,51.461 L56.078,51.229 C56.193,51.151 56.308,51.076 56.422,51 L56.422,50.769 C56.5,50.733 56.577,50.692 56.653,50.655 L56.653,50.424 C56.819,50.29 56.989,50.155 57.158,50.021 L56.76,30.161 C56.571,30.319 56.381,30.476 56.193,30.635 L56.193,30.864 L56.078,30.864 C55.833,31.156 55.498,31.37 55.388,31.784 L55.157,31.784 C54.889,32.092 54.62,32.399 54.351,32.705 C54.274,32.744 54.198,32.781 54.122,32.821 C54.039,32.939 53.849,33.575 53.775,33.626 L53.431,33.626 C53.279,33.817 53.124,34.009 52.972,34.203 L52.741,34.203 C52.55,34.468 52.357,34.738 52.166,35.005 L52.166,35.237 C51.705,35.619 51.246,36.004 50.785,36.387 L50.785,36.731 C50.67,36.772 50.554,36.809 50.44,36.848 C50.4,36.924 50.363,37.001 50.325,37.078 L49.979,37.078 C49.902,37.193 49.825,37.307 49.75,37.422 L49.635,37.422 C49.596,37.653 49.557,37.883 49.52,38.111 C49.405,38.152 49.29,38.189 49.174,38.228 C49.095,38.343 49.021,38.458 48.943,38.573 L48.714,38.573 C48.637,38.689 48.561,38.804 48.483,38.918 L48.252,38.918 C48.177,39.034 48.101,39.149 48.024,39.264 L47.908,39.264 L47.908,39.493 C47.831,39.533 47.755,39.57 47.677,39.607 L47.677,39.723 L47.448,39.723 L47.448,39.84 L47.219,39.84 L47.219,39.954 C47.142,39.993 47.066,40.03 46.988,40.069 L46.988,40.299 C46.873,40.338 46.757,40.375 46.642,40.413 C46.566,40.681 46.49,40.951 46.413,41.22 C46.336,41.257 46.259,41.298 46.184,41.334 L46.184,41.68 C45.989,41.833 45.798,41.986 45.608,42.139 L45.608,42.255 C45.217,42.521 45.084,42.257 44.915,42.831 L44.687,42.831 L44.687,43.405 C44.573,43.443 44.456,43.483 44.342,43.52 C44.263,43.857 44.213,43.898 43.881,43.981 C43.778,44.377 43.441,44.638 43.192,44.902 C43.114,44.941 43.038,44.978 42.961,45.015 L42.961,45.248 C42.768,45.401 42.577,45.552 42.386,45.707 L42.386,45.936 C42.233,46.052 42.081,46.166 41.924,46.283 L41.924,46.512 C41.734,46.666 41.542,46.818 41.352,46.973 L41.352,47.434 C41.121,47.587 40.89,47.741 40.66,47.894 C40.623,48.007 40.583,48.123 40.545,48.238 C40.466,48.276 40.389,48.315 40.314,48.353 L40.314,48.582 L40.199,48.582 L40.199,48.813 C40.124,48.852 40.047,48.891 39.971,48.929 L39.971,49.158 L39.854,49.158 C39.689,49.362 39.593,49.435 39.51,49.734 C39.195,49.809 39.248,49.885 38.935,49.963 C38.803,50.498 38.384,50.611 38.244,51.115 L38.013,51.115 C37.932,51.433 37.982,51.372 37.668,51.461 C37.573,51.921 37.284,52.147 37.093,52.495 C37.055,52.65 37.016,52.802 36.977,52.956 C36.786,53.109 36.594,53.261 36.402,53.416 L36.402,53.876 L36.289,53.876 L36.289,54.106 L36.173,54.106 C36.134,54.337 36.097,54.566 36.057,54.796 C35.98,54.836 35.904,54.874 35.828,54.911 L35.828,55.142 C35.75,55.179 35.674,55.218 35.597,55.256 L35.597,55.487 C35.481,55.564 35.367,55.64 35.251,55.718 L35.251,55.947 C35.138,56.024 35.021,56.1 34.909,56.177 L34.909,56.406 L34.792,56.406 C34.544,56.702 34.221,56.911 34.102,57.329 L33.871,57.329 C33.718,57.787 33.565,58.248 33.412,58.709 C33.293,58.786 33.181,58.861 33.065,58.938 L33.065,59.285 C32.988,59.321 32.912,59.361 32.836,59.398 C32.759,59.629 32.682,59.859 32.605,60.089 C32.528,60.127 32.451,60.165 32.376,60.204 L32.376,60.435 L32.26,60.435 C32.299,60.627 32.338,60.819 32.376,61.009 L32.26,61.009 L32.26,61.354 C32.183,61.393 32.107,61.432 32.03,61.471 C31.917,61.814 31.8,62.161 31.686,62.506 L31.455,62.506 C31.461,62.917 31.429,63.23 31.225,63.425 C31.094,63.558 31.223,63.471 30.995,63.541 C30.911,63.858 30.963,63.797 30.649,63.886 C30.677,64.47 30.79,64.784 30.306,64.922 C30.333,65.505 30.445,65.819 29.96,65.957" id="Fill-28" fill="#A8A8A0"></path>
            <path d="M25.24,68.142 L25.356,68.142 L25.356,66.993 L25.474,66.993 C25.51,66.725 25.55,66.456 25.586,66.188 L25.702,66.188 L25.702,65.841 L25.817,65.841 L25.817,65.036 C25.893,64.999 25.97,64.96 26.046,64.922 C26.085,64.462 26.124,64.001 26.163,63.541 C26.277,63.502 26.393,63.465 26.508,63.425 C26.585,63.08 26.661,62.735 26.738,62.39 C26.814,62.352 26.891,62.314 26.968,62.276 L26.968,62.044 L27.082,62.044 C27.122,61.891 27.16,61.738 27.197,61.585 C27.275,61.546 27.351,61.508 27.428,61.471 C27.544,61.247 27.523,60.773 27.659,60.55 C27.735,60.509 27.809,60.474 27.888,60.435 L27.888,60.204 C27.965,60.165 28.043,60.127 28.12,60.089 C28.156,59.935 28.196,59.782 28.233,59.629 C28.309,59.59 28.387,59.551 28.464,59.514 L28.464,59.285 L28.579,59.285 L28.579,58.824 C28.695,58.746 28.808,58.67 28.924,58.593 C28.962,58.44 29.001,58.287 29.039,58.134 C29.116,58.093 29.191,58.056 29.268,58.017 L29.268,57.787 C29.422,57.672 29.576,57.558 29.73,57.442 L29.73,57.212 L29.96,56.983 L29.96,56.753 L30.072,56.753 L30.072,56.524 C30.151,56.484 30.229,56.445 30.306,56.406 L30.306,56.177 C30.382,56.139 30.458,56.1 30.535,56.063 L30.535,55.832 C30.612,55.795 30.688,55.755 30.765,55.718 L30.765,55.487 C30.842,55.448 30.917,55.411 30.995,55.371 L30.995,55.142 C31.11,55.066 31.225,54.989 31.341,54.911 C31.377,54.796 31.417,54.683 31.455,54.566 L31.686,54.566 C31.723,54.451 31.762,54.337 31.8,54.221 L31.917,54.221 L31.917,53.99 C31.993,53.953 32.07,53.914 32.145,53.876 L32.145,53.645 C32.223,53.608 32.299,53.57 32.376,53.531 C32.415,53.339 32.451,53.148 32.491,52.956 L32.605,52.956 L32.605,52.726 C32.682,52.687 32.759,52.65 32.836,52.609 L32.836,52.381 C33.028,52.264 33.218,52.15 33.412,52.036 L33.412,51.803 C33.604,51.65 33.794,51.497 33.986,51.344 L33.986,51.115 C34.064,51.076 34.139,51.039 34.217,51 C34.254,50.845 34.292,50.692 34.333,50.539 C34.562,50.347 34.792,50.155 35.021,49.963 L35.021,49.734 C35.176,49.618 35.329,49.503 35.481,49.389 L35.481,49.158 C35.904,48.776 36.325,48.391 36.749,48.007 L36.749,47.778 C36.825,47.741 36.902,47.7 36.977,47.663 L36.977,47.434 C37.093,47.355 37.207,47.278 37.323,47.202 L37.323,46.973 C37.554,46.781 37.784,46.589 38.013,46.397 L38.013,46.166 C38.09,46.128 38.166,46.089 38.244,46.052 L38.244,45.821 C38.397,45.707 38.55,45.593 38.703,45.478 C38.742,45.36 38.781,45.248 38.818,45.131 L39.049,45.131 C39.088,44.941 39.125,44.749 39.165,44.555 C39.279,44.48 39.395,44.402 39.51,44.326 C39.854,43.943 40.199,43.56 40.545,43.174 C40.66,43.099 40.775,43.023 40.89,42.946 L40.89,42.715 C41.005,42.639 41.121,42.562 41.234,42.485 L41.234,42.255 C41.387,42.139 41.542,42.025 41.694,41.909 L41.694,41.68 C42.002,41.41 42.31,41.143 42.616,40.875 L42.616,40.646 C42.845,40.452 43.076,40.26 43.305,40.069 C43.345,39.993 43.382,39.915 43.42,39.84 L43.651,39.84 C43.688,39.762 43.728,39.686 43.766,39.607 C44.034,39.378 44.303,39.149 44.573,38.918 L44.573,38.689 C44.879,38.458 45.186,38.228 45.493,37.998 L45.493,37.767 C45.837,37.46 46.184,37.154 46.526,36.848 C46.68,36.656 46.836,36.462 46.988,36.272 L47.219,36.272 C47.332,36.12 47.448,35.964 47.564,35.811 L47.677,35.811 C47.716,35.658 47.755,35.505 47.795,35.352 L47.908,35.352 C48.024,35.197 48.137,35.046 48.252,34.891 C48.943,34.278 49.635,33.663 50.325,33.05 L50.325,32.821 C50.518,32.667 50.709,32.513 50.901,32.361 L50.901,32.13 L51.016,32.13 C51.181,31.929 51.277,31.852 51.358,31.555 L51.592,31.555 C51.821,31.363 52.051,31.17 52.281,30.979 C52.357,30.864 52.435,30.751 52.511,30.635 L52.741,30.635 C52.817,30.518 52.895,30.405 52.972,30.288 L53.2,30.288 C53.699,29.752 54.198,29.215 54.697,28.677 L54.926,28.677 C55.081,28.487 55.232,28.294 55.388,28.102 L55.617,28.102 C55.772,27.835 55.925,27.566 56.078,27.298 C56.193,27.26 56.308,27.22 56.422,27.182 C56.461,27.105 56.5,27.028 56.537,26.952 L56.696,26.952 L56.215,2.974 L2.507,5.149 L4.791,69.989 L25.254,68.425 C25.229,68.342 25.212,68.249 25.24,68.142" id="Fill-29" fill="#A8A8A0"></path>
            <g id="Group-33" transform="translate(0.000000, 68.000000)">
                <mask id="mask-2" fill="white">
                    <use xlink:href="#path-1"></use>
                </mask>
                <g id="Clip-31"></g>
                <path d="M41.581,12.455 C43.142,12.894 45.526,12.685 47.219,12.685 C47.294,12.455 47.372,12.224 47.448,11.995 C47.524,11.956 47.602,11.917 47.677,11.879 L47.677,11.419 L47.795,11.419 L47.795,11.19 L47.908,11.19 L47.908,10.958 C48.024,10.881 48.137,10.805 48.252,10.729 C48.33,10.498 48.407,10.268 48.483,10.039 C48.561,10 48.637,9.963 48.714,9.921 L48.714,9.692 L48.829,9.692 L48.829,9.463 L49.06,9.232 L49.06,9.004 C49.135,8.963 49.212,8.926 49.29,8.887 C49.329,8.697 49.367,8.505 49.405,8.313 L49.52,8.313 C49.557,8.16 49.596,8.005 49.635,7.852 L49.75,7.852 L49.75,7.623 C49.825,7.582 49.902,7.546 49.979,7.507 L49.979,7.163 L50.095,7.163 L50.095,6.817 L50.21,6.817 C50.248,6.663 50.287,6.511 50.325,6.357 L50.44,6.357 L50.44,6.012 L50.554,6.012 C50.593,5.859 50.63,5.704 50.67,5.55 L50.785,5.55 C50.824,5.397 50.862,5.244 50.901,5.089 C50.977,5.054 51.053,5.015 51.13,4.976 L51.13,4.746 L51.246,4.746 L51.246,4.401 L51.358,4.401 L51.358,4.17 L51.476,4.17 L51.476,3.941 C51.551,3.902 51.629,3.864 51.705,3.825 L51.705,3.596 C51.782,3.557 51.859,3.52 51.935,3.479 L51.935,3.249 C52.011,3.212 52.088,3.173 52.166,3.134 C52.204,2.943 52.242,2.752 52.281,2.561 L52.396,2.561 L52.396,2.329 L52.511,2.329 L52.511,1.984 L52.627,1.984 L52.627,1.639 L52.741,1.639 L52.741,1.409 C52.817,1.372 52.895,1.331 52.972,1.294 L52.972,1.063 L53.2,0.834 L53.2,0.604 L53.316,0.604 L53.316,0.375 L53.34,0.375 L53.339,0.218 L29.481,2.781 C29.421,3.203 29.183,3.612 29.268,3.941 L29.385,3.941 L29.385,4.401 L29.5,4.401 L29.5,4.86 C29.576,4.9 29.654,4.937 29.73,4.976 C29.844,5.32 29.96,5.666 30.072,6.012 C30.151,6.05 30.229,6.088 30.306,6.126 C30.343,6.357 30.382,6.587 30.419,6.817 C30.535,6.894 30.649,6.97 30.765,7.046 C30.802,7.2 30.842,7.353 30.88,7.507 C30.995,7.582 31.11,7.66 31.225,7.737 L31.225,7.968 C31.493,8.197 31.762,8.428 32.03,8.658 L32.03,8.887 C32.107,8.926 32.183,8.963 32.26,9.004 C32.415,9.194 32.566,9.386 32.722,9.577 L32.951,9.577 C32.988,9.655 33.028,9.731 33.065,9.81 C33.181,9.847 33.293,9.884 33.412,9.921 L33.412,10.039 L33.641,10.039 L33.871,10.268 L34.102,10.268 L34.102,10.384 L34.333,10.384 L34.333,10.498 L34.562,10.498 L34.562,10.613 C34.714,10.652 34.868,10.69 35.021,10.729 C35.06,10.805 35.099,10.881 35.138,10.958 L35.481,10.958 L35.481,11.073 L35.712,11.073 L35.712,11.19 C35.904,11.226 36.097,11.266 36.289,11.305 L36.289,11.419 L36.633,11.419 C36.672,11.497 36.71,11.573 36.749,11.65 L37.439,11.65 L37.439,11.764 L37.668,11.764 L37.668,11.879 C38.13,11.956 38.588,12.032 39.049,12.11 L39.049,12.224 L39.395,12.224 L39.395,12.34 C40.124,12.379 40.852,12.416 41.581,12.455" id="Fill-30" fill="#A2988B" mask="url(#mask-2)"></path>
                <path d="M52.415,35.925 L50.805,35.925 L50.805,36.04 L50.46,36.04 L50.46,36.156 L50,36.156 L50,36.272 C49.386,36.309 48.772,36.348 48.159,36.387 L48.159,36.5 L47.93,36.5 L47.93,36.615 L47.354,36.615 C47.313,36.694 47.277,36.77 47.238,36.846 L45.972,36.846 L45.972,36.959 L45.282,36.959 L45.282,37.074 L44.708,37.074 L44.708,37.192 L44.132,37.192 L44.132,37.305 L43.786,37.305 L43.786,37.42 L43.556,37.42 L43.556,37.535 C43.296,37.625 43.232,37.391 43.097,37.42 L43.097,37.535 C42.941,37.574 42.79,37.613 42.636,37.651 L42.636,37.766 L42.176,37.766 L42.176,37.883 C41.869,37.92 41.561,37.957 41.256,37.998 L41.256,38.111 L40.911,38.111 L40.911,38.227 L40.218,38.227 L40.218,38.34 C39.684,38.5 39.178,38.379 38.723,38.34 L38.723,38.572 C38.379,38.686 38.034,38.803 37.689,38.916 L37.227,38.916 L37.227,39.033 L36.997,39.033 C36.96,39.108 36.921,39.184 36.884,39.262 L36.655,39.262 L36.655,39.379 L35.848,39.379 C35.81,39.453 35.769,39.529 35.732,39.608 L35.158,39.608 C35.119,39.684 35.08,39.762 35.04,39.836 L34.582,39.836 L34.582,39.951 L34.237,39.951 L34.237,40.069 L33.891,40.069 L33.891,40.182 L33.546,40.182 L33.546,40.295 L33.087,40.295 L33.087,40.414 L32.51,40.414 L32.51,40.527 C32.319,40.569 32.128,40.606 31.936,40.643 L31.936,40.758 L31.705,40.758 L31.705,40.873 L31.246,40.873 L31.246,40.986 L30.9,40.986 L30.9,41.104 L30.554,41.104 L30.554,41.219 L30.094,41.219 L30.094,41.33 C29.941,41.371 29.789,41.41 29.634,41.447 L29.634,41.563 L29.289,41.563 L29.289,41.678 L28.597,41.678 L28.597,41.793 L28.254,41.793 L28.254,41.908 L27.91,41.908 L27.91,42.026 L27.332,42.026 C27.296,42.102 27.256,42.176 27.219,42.254 C26.988,42.291 26.758,42.33 26.528,42.369 L26.528,42.483 L26.183,42.483 L26.183,42.6 L25.952,42.6 L25.952,42.715 L25.492,42.715 L25.492,42.83 L25.262,42.83 L25.262,42.942 L24.571,42.942 C24.532,43.02 24.494,43.098 24.457,43.174 L24.227,43.174 L24.227,43.287 C23.882,43.326 23.536,43.365 23.191,43.404 L23.191,43.52 L22.96,43.52 L22.96,43.635 C22.654,43.672 22.347,43.709 22.04,43.748 L22.04,43.863 L21.581,43.863 L21.581,43.981 L21.235,43.981 L21.235,44.094 L20.889,44.094 L20.889,44.209 C20.391,44.285 19.89,44.363 19.395,44.44 L19.395,44.555 L18.59,44.555 L18.59,44.67 C18.16,44.797 15.955,45.092 15.368,44.899 L15.368,44.785 L15.022,44.785 L15.022,44.67 C14.792,44.594 14.561,44.516 14.331,44.44 L14.331,44.324 L14.1,44.324 C14.024,44.209 13.948,44.094 13.872,43.981 L13.641,43.981 C13.565,43.863 13.488,43.748 13.411,43.635 L13.182,43.635 C13.142,43.559 13.105,43.481 13.066,43.404 C12.658,43.006 12.723,43.174 12.72,42.369 C12.351,42.137 12.358,41.723 12.376,41.104 L12.489,41.104 L12.489,40.758 C12.72,40.569 12.952,40.373 13.182,40.182 C13.219,40.106 13.257,40.029 13.295,39.951 L13.527,39.951 C13.565,39.875 13.603,39.799 13.641,39.725 C13.758,39.684 13.872,39.645 13.987,39.608 L13.987,39.492 L14.215,39.492 C14.293,39.379 14.369,39.262 14.446,39.147 C14.601,39.108 14.752,39.072 14.906,39.033 C14.945,38.957 14.983,38.879 15.022,38.803 L15.252,38.803 C15.289,38.727 15.329,38.651 15.368,38.572 L15.598,38.572 L15.598,38.457 L15.941,38.457 L15.941,38.34 L16.288,38.34 L16.288,38.227 C16.517,38.149 16.748,38.074 16.979,37.998 L16.979,37.883 C17.131,37.842 17.285,37.803 17.437,37.766 C17.477,37.69 17.515,37.613 17.553,37.535 L17.898,37.535 L17.898,37.42 L18.128,37.42 L18.128,37.305 L18.358,37.305 C18.397,37.229 18.434,37.151 18.475,37.074 C18.626,37.037 18.78,36.998 18.932,36.959 L18.932,36.846 C19.163,36.77 19.395,36.694 19.625,36.615 L19.625,36.5 L19.97,36.5 C20.008,36.424 20.047,36.348 20.083,36.272 L20.43,36.272 L20.43,36.156 C20.583,36.117 20.736,36.082 20.889,36.04 L20.889,35.925 L21.235,35.925 L21.235,35.81 C21.465,35.734 21.696,35.657 21.925,35.58 L21.925,35.465 L22.154,35.465 L22.154,35.349 L22.385,35.349 L22.385,35.235 L22.616,35.235 L22.616,35.12 L22.846,35.12 L23.076,34.889 L23.307,34.889 C23.345,34.812 23.382,34.736 23.422,34.659 L23.651,34.659 L23.651,34.545 L23.88,34.545 L23.88,34.43 C24.268,34.239 24.185,34.607 24.341,34.084 C24.96,34.093 25.242,33.981 25.606,33.739 C25.646,33.662 25.684,33.587 25.722,33.509 C25.875,33.471 26.027,33.433 26.183,33.393 C26.259,33.278 26.333,33.165 26.412,33.049 L26.873,33.049 C26.911,32.972 26.95,32.895 26.988,32.819 L27.219,32.819 L27.219,32.704 C27.372,32.666 27.525,32.629 27.678,32.589 L27.678,32.473 L28.025,32.473 C28.061,32.396 28.101,32.32 28.139,32.243 C28.406,32.204 28.676,32.166 28.943,32.128 C28.983,32.051 29.02,31.976 29.059,31.897 C29.289,31.822 29.519,31.745 29.75,31.668 C29.789,31.591 29.826,31.514 29.865,31.437 L30.094,31.437 L30.094,31.323 L30.325,31.323 L30.325,31.208 L30.669,31.208 L30.669,31.092 L30.9,31.092 C30.939,31.015 30.975,30.938 31.015,30.862 L31.36,30.862 C31.399,30.786 31.436,30.709 31.476,30.632 C31.666,30.593 31.858,30.555 32.049,30.517 L32.049,30.403 L32.28,30.403 L32.28,30.288 C32.51,30.25 32.741,30.21 32.971,30.172 L32.971,30.057 C33.123,30.019 33.277,29.98 33.433,29.941 L33.433,29.826 L33.663,29.826 C33.7,29.75 33.739,29.673 33.775,29.597 L34.006,29.597 C34.121,29.443 34.237,29.291 34.352,29.137 L34.697,29.137 L34.697,29.022 L34.927,29.022 L34.927,28.906 L35.158,28.906 L35.158,28.791 C35.386,28.715 35.617,28.638 35.848,28.562 L35.848,28.446 L36.192,28.446 L36.192,28.333 L36.422,28.333 L36.422,28.216 L36.655,28.216 C36.69,28.139 36.731,28.062 36.768,27.986 L37.113,27.986 L37.113,27.871 L37.343,27.871 L37.343,27.756 L37.574,27.756 L37.574,27.641 L37.803,27.641 L37.803,27.526 L38.034,27.526 L38.034,27.41 L38.263,27.41 L38.263,27.294 L38.495,27.294 L38.495,27.181 L38.723,27.181 L38.723,27.067 L39.069,27.067 C39.108,26.988 39.147,26.912 39.185,26.835 L39.529,26.835 L39.529,26.722 L39.759,26.722 L39.759,26.605 L39.99,26.605 L39.99,26.491 C40.218,26.414 40.449,26.337 40.681,26.26 L40.681,26.145 L41.024,26.145 L41.024,26.03 L41.256,26.03 L41.256,25.915 L41.485,25.915 C41.523,25.838 41.561,25.761 41.601,25.685 C41.792,25.646 41.983,25.609 42.176,25.569 C42.212,25.493 42.253,25.417 42.29,25.34 L42.521,25.34 L42.521,25.224 L42.867,25.224 L42.867,25.109 L43.097,25.109 L43.097,24.994 L43.327,24.994 L43.327,24.88 L43.556,24.88 L43.786,24.649 L44.017,24.649 C44.056,24.572 44.092,24.496 44.132,24.419 L44.362,24.419 L44.591,24.189 L44.822,24.189 L44.822,24.074 L44.898,24.074 C44.897,24.069 44.912,24.059 44.939,24.045 L44.939,23.959 L45.051,23.959 L45.051,23.987 C45.076,23.974 45.09,23.964 45.091,23.959 L45.167,23.959 C45.206,23.882 45.244,23.806 45.283,23.728 C45.476,23.689 45.667,23.651 45.859,23.613 L45.859,23.499 L46.088,23.499 L46.088,23.383 L46.318,23.383 L46.318,23.268 C46.549,23.191 46.778,23.114 47.01,23.037 L47.01,22.924 L47.354,22.924 L47.354,22.808 L47.585,22.808 L47.585,22.692 L47.814,22.692 L47.814,22.577 L48.045,22.577 L48.045,22.462 C48.275,22.425 48.506,22.385 48.736,22.348 L48.736,22.232 L48.965,22.232 C49.003,22.155 49.042,22.079 49.081,22.002 L49.771,22.002 L49.771,21.888 L50.001,21.888 L50.001,21.773 C50.309,21.668 50.972,21.89 51.036,22.002 L51.036,22.808 C50.807,22.884 50.576,22.962 50.346,23.037 C50.27,23.153 50.192,23.268 50.117,23.383 L49.886,23.383 C49.846,23.46 49.81,23.536 49.771,23.613 C49.54,23.689 49.311,23.767 49.081,23.843 C49.042,23.921 49.003,23.996 48.965,24.072 C48.622,24.188 48.965,24.074 48.619,24.189 L48.619,24.303 L48.388,24.303 L48.388,24.419 L48.044,24.419 C48.006,24.496 47.966,24.572 47.93,24.649 L47.699,24.649 L47.699,24.765 L47.467,24.765 L47.238,24.994 L47.007,24.994 C46.97,25.071 46.931,25.147 46.892,25.224 L46.662,25.224 L46.433,25.454 L46.202,25.454 L46.202,25.569 L45.972,25.569 L45.972,25.685 L45.627,25.685 L45.627,25.799 C45.397,25.876 45.166,25.952 44.938,26.03 L44.938,26.145 L44.708,26.145 L44.708,26.26 L44.477,26.26 L44.477,26.376 C44.323,26.414 44.17,26.452 44.017,26.491 L44.017,26.605 L43.67,26.605 C43.632,26.682 43.594,26.758 43.556,26.835 C43.44,26.875 43.327,26.912 43.211,26.949 L43.211,27.067 L42.98,27.067 L42.751,27.294 L42.521,27.294 L42.521,27.41 L42.29,27.41 L42.29,27.526 L42.06,27.526 L42.06,27.641 C41.906,27.68 41.753,27.717 41.601,27.756 C41.561,27.834 41.523,27.91 41.485,27.986 L41.14,27.986 L41.14,28.102 L40.911,28.102 L40.911,28.216 L40.681,28.216 C40.564,28.37 40.449,28.523 40.334,28.677 L40.105,28.677 L39.876,28.906 L39.645,28.906 L39.645,29.022 L39.414,29.022 L39.414,29.137 L39.185,29.137 L38.954,29.367 L38.723,29.367 C38.685,29.443 38.648,29.52 38.608,29.597 C38.456,29.635 38.302,29.673 38.148,29.713 L38.148,29.826 L37.803,29.826 L37.803,29.941 C37.717,30.006 37.592,30.159 37.574,30.172 L37.343,30.172 C37.267,30.288 37.19,30.403 37.113,30.517 C36.921,30.555 36.731,30.593 36.538,30.632 C36.499,30.709 36.462,30.786 36.422,30.862 L36.192,30.862 C36.154,30.938 36.116,31.015 36.079,31.092 C35.848,31.17 35.617,31.246 35.386,31.323 L35.386,31.437 C35.273,31.477 35.158,31.514 35.04,31.554 C35.003,31.63 34.964,31.706 34.927,31.784 C34.774,31.822 34.621,31.86 34.468,31.897 C34.428,31.976 34.392,32.051 34.352,32.128 C34.199,32.166 34.044,32.204 33.891,32.243 L33.891,32.357 L33.663,32.357 L33.663,32.473 L33.433,32.473 L33.433,32.589 L33.2,32.589 L33.2,32.704 L32.857,32.704 C32.779,32.819 32.705,32.935 32.626,33.049 L32.28,33.049 L32.28,33.165 C32.165,33.202 32.049,33.24 31.936,33.278 C31.897,33.356 31.858,33.433 31.818,33.509 C31.666,33.547 31.512,33.587 31.36,33.624 C31.284,33.739 31.206,33.853 31.13,33.97 C30.9,34.046 30.669,34.124 30.441,34.199 C30.402,34.277 30.363,34.353 30.325,34.43 L29.979,34.43 C29.941,34.506 29.901,34.583 29.865,34.659 L29.634,34.659 L29.634,34.776 L29.405,34.776 L29.405,34.889 L29.173,34.889 L29.173,35.005 L28.943,35.005 L28.943,35.12 C28.785,35.224 28.744,35.199 28.484,35.235 L28.484,35.465 C28.159,35.532 28.008,35.644 27.792,35.81 L27.792,35.925 C27.562,36.002 27.332,36.082 27.103,36.156 C27.063,36.233 27.026,36.309 26.988,36.387 L26.758,36.387 L26.758,36.5 L26.528,36.5 L26.298,36.731 L26.067,36.731 C26.027,36.809 25.991,36.883 25.952,36.959 C25.799,36.998 25.646,37.037 25.492,37.074 L25.492,37.192 C25.375,37.229 25.262,37.27 25.147,37.305 C25.109,37.381 25.069,37.461 25.033,37.535 C24.878,37.574 24.725,37.613 24.571,37.651 C24.494,37.766 24.417,37.883 24.341,37.998 C24.189,38.035 24.035,38.074 23.88,38.111 C23.842,38.188 23.804,38.266 23.764,38.34 L23.536,38.34 L23.536,38.457 L23.307,38.457 L23.307,38.572 L23.076,38.572 L23.076,38.686 L22.846,38.686 L22.616,38.916 L22.385,38.916 C22.347,39.033 22.308,39.147 22.271,39.262 C22.117,39.338 21.963,39.416 21.811,39.492 C21.848,39.608 21.888,39.725 21.925,39.836 C22.578,39.725 23.229,39.608 23.88,39.492 L23.88,39.379 L24.11,39.379 L24.11,39.262 C24.341,39.225 24.571,39.184 24.802,39.147 L24.802,39.033 L25.033,39.033 L25.033,38.916 L25.375,38.916 L25.375,38.803 L25.606,38.803 L25.606,38.686 C25.991,38.61 26.373,38.533 26.758,38.457 L26.758,38.34 C26.988,38.303 27.219,38.266 27.448,38.227 L27.448,38.111 L27.678,38.111 L27.678,37.998 C27.91,37.957 28.139,37.92 28.368,37.883 L28.368,37.766 C28.676,37.729 28.983,37.69 29.289,37.651 C29.326,37.574 29.366,37.496 29.405,37.42 C30.017,37.344 30.631,37.27 31.246,37.192 L31.246,37.074 L31.589,37.074 L31.589,36.959 L31.818,36.959 L31.818,36.846 L32.165,36.846 L32.165,36.731 L32.626,36.731 L32.626,36.615 L32.971,36.615 L32.971,36.5 C33.239,36.463 33.509,36.424 33.775,36.387 L33.775,36.272 L34.237,36.272 L34.237,36.156 L34.813,36.156 L34.813,36.04 L35.158,36.04 L35.158,35.925 L35.617,35.925 L35.617,35.81 L35.848,35.81 L35.848,35.694 C36.231,35.657 36.615,35.619 36.997,35.58 L36.997,35.465 L37.459,35.465 L37.459,35.349 L37.803,35.349 L37.803,35.235 L38.148,35.235 L38.148,35.12 C38.648,35.042 39.147,34.967 39.645,34.889 L39.645,34.776 L39.99,34.776 L39.99,34.659 C40.488,34.622 40.986,34.583 41.485,34.545 L41.485,34.43 L41.944,34.43 L41.944,34.315 C42.212,34.277 42.481,34.236 42.751,34.199 L42.751,34.084 L43.097,34.084 L43.097,33.97 L43.556,33.97 L43.556,33.853 L43.786,33.853 L43.786,33.739 L44.477,33.739 L44.477,33.624 L44.822,33.624 L44.822,33.509 L45.857,33.509 L45.857,33.393 L46.088,33.393 L46.088,33.278 L47.007,33.278 L47.007,33.165 L47.699,33.165 L47.699,33.049 L48.734,33.049 L48.734,32.935 L49.654,32.935 C50.938,32.741 52.222,32.548 53.506,32.354 L53.413,14.411 L53.316,14.411 L53.316,14.525 L52.856,14.525 L52.856,14.64 L52.396,14.64 L52.396,14.755 L51.476,14.755 L51.476,14.871 C50.018,14.91 48.56,14.947 47.103,14.985 C46.872,15.053 46.192,15.294 45.837,15.216 L45.837,15.1 C45.639,15.065 45.643,15.208 45.608,15.216 L44.456,15.216 L44.456,15.33 L40.89,15.33 L40.89,15.216 C40.742,15.199 40.698,15.417 40.429,15.33 L40.429,15.216 L40.199,15.216 L40.199,15.1 L38.935,15.1 L38.935,14.985 L37.323,14.985 L37.323,14.871 L36.633,14.871 L36.633,14.755 L36.057,14.755 L36.057,14.64 L35.367,14.64 L35.367,14.525 L35.138,14.525 L35.138,14.411 C34.83,14.372 34.523,14.334 34.217,14.295 L34.217,14.18 L33.986,14.18 L33.986,14.066 C33.756,14.027 33.525,13.989 33.293,13.95 L33.293,13.837 L33.065,13.837 L33.065,13.719 C32.798,13.682 32.528,13.643 32.26,13.605 L32.26,13.49 C32.107,13.452 31.954,13.413 31.8,13.374 C31.549,12.584 30.551,13.108 30.306,12.224 C29.757,12.127 29.053,11.716 28.924,11.19 L28.695,11.19 L28.695,10.958 L28.464,10.958 L28.464,10.729 C27.936,10.487 27.696,10.304 27.428,9.81 L27.428,9.577 L27.313,9.577 L27.313,9.349 L27.197,9.349 L27.197,9.118 L27.082,9.118 L27.082,8.887 C27.007,8.85 26.93,8.811 26.851,8.771 C26.814,8.618 26.775,8.465 26.738,8.313 C26.661,8.274 26.585,8.234 26.508,8.197 C26.469,8.005 26.429,7.815 26.393,7.623 L26.277,7.623 C26.238,7.47 26.201,7.317 26.163,7.163 L26.046,7.163 C25.97,6.702 25.893,6.242 25.817,5.781 L25.702,5.781 L25.702,5.55 L25.586,5.55 L25.586,5.089 L25.474,5.089 C25.433,4.631 25.396,4.17 25.356,3.71 L25.24,3.71 C25.233,3.553 25.226,3.396 25.22,3.239 L0,5.948 L1.713,59.58 L53.631,56.536 L53.523,35.7 C53.132,35.762 52.749,35.829 52.415,35.925" id="Fill-32" fill="#A2988B" mask="url(#mask-2)"></path>
            </g>
            <path d="M51.935,80.455 C52.289,80.145 52.839,80.28 53.401,80.289 L53.384,76.841 C53.131,77.125 52.878,77.409 52.627,77.692 L52.396,77.692 C52.242,77.884 52.088,78.077 51.935,78.268 C51.859,78.307 51.782,78.345 51.705,78.384 L51.705,78.613 C51.629,78.652 51.551,78.69 51.476,78.729 L51.476,78.958 C51.322,79.073 51.168,79.19 51.016,79.305 C50.855,79.519 51.065,79.468 50.785,79.65 C50.862,79.879 50.937,80.11 51.016,80.34 C51.281,80.44 51.522,80.455 51.935,80.455" id="Fill-34" fill="#A2988B"></path>
            <path d="M44.939,92.072 C44.932,92.074 44.931,92.073 44.926,92.074 L45.051,92.074 L45.051,91.987 C45.017,92.005 44.972,92.027 44.939,92.045 L44.939,92.072" id="Fill-35" fill="#A2988B"></path>
            <g id="Group-39" transform="translate(55.000000, 68.000000)">
                <mask id="mask-4" fill="white">
                    <use xlink:href="#path-3"></use>
                </mask>
                <g id="Clip-37"></g>
                <path d="M2.919,16.712 L3.148,16.712 C3.188,16.635 3.225,16.559 3.264,16.482 L3.494,16.482 C3.531,16.406 3.569,16.329 3.609,16.253 L3.84,16.253 C3.878,16.174 3.916,16.098 3.954,16.02 C4.07,15.983 4.184,15.945 4.299,15.906 L4.299,15.792 C4.53,15.714 4.759,15.637 4.989,15.561 L4.989,15.447 L5.22,15.447 L5.451,15.216 L5.68,15.216 C5.717,15.14 5.757,15.063 5.794,14.985 C6.023,14.91 6.256,14.832 6.485,14.755 C6.523,14.679 6.562,14.603 6.6,14.525 C6.831,14.448 7.061,14.372 7.291,14.295 C7.328,14.219 7.368,14.142 7.405,14.066 L7.638,14.066 C7.673,13.989 7.714,13.913 7.752,13.837 L7.98,13.837 C8.058,13.719 8.134,13.605 8.21,13.49 L8.441,13.49 C8.518,13.374 8.594,13.26 8.673,13.145 L9.016,13.145 C9.092,13.029 9.169,12.914 9.247,12.8 C9.494,12.628 9.736,12.53 10.052,12.455 L10.052,12.34 C9.199,12.322 8.673,12.496 8.096,12.685 C7.252,12.761 6.41,12.838 5.565,12.914 L5.565,13.029 L5.104,13.029 L5.104,13.145 C4.683,13.184 4.26,13.221 3.84,13.26 L3.84,13.374 L3.494,13.374 C3.454,13.452 3.417,13.527 3.378,13.605 C3.035,13.643 2.689,13.682 2.344,13.719 L2.344,13.837 L1.997,13.837 L1.997,13.95 L1.595,13.95 L1.526,17.469 C2.06,17.244 2.668,16.985 2.801,16.941 C2.841,16.864 2.88,16.788 2.919,16.712" id="Fill-36" fill="#5F696C" mask="url(#mask-4)"></path>
                <path d="M47.514,0.86 L9.226,0.86 C9.078,1.044 8.931,1.226 8.786,1.409 L8.557,1.409 C8.518,1.485 8.48,1.562 8.441,1.639 C8.326,1.677 8.21,1.715 8.096,1.754 L8.096,1.87 L7.865,1.87 C7.789,1.984 7.714,2.099 7.638,2.215 L7.291,2.215 L7.291,2.329 L7.061,2.329 L7.061,2.444 L6.831,2.444 L6.831,2.561 C6.675,2.597 6.523,2.636 6.37,2.673 C6.333,2.752 6.294,2.826 6.256,2.904 C6.102,2.943 5.947,2.981 5.794,3.02 C5.757,3.096 5.717,3.173 5.68,3.249 L5.451,3.249 C5.373,3.367 5.295,3.479 5.22,3.596 C5.065,3.633 4.912,3.672 4.759,3.71 C4.722,3.786 4.683,3.864 4.644,3.941 L4.299,3.941 C4.26,4.017 4.222,4.094 4.184,4.17 C4.031,4.208 3.878,4.247 3.724,4.284 C3.685,4.362 3.646,4.439 3.609,4.515 L3.378,4.515 L3.378,4.631 L3.148,4.631 L3.148,4.746 L2.919,4.746 L2.689,4.976 L2.459,4.976 C2.383,5.089 2.305,5.207 2.23,5.32 C2.092,5.417 1.929,5.509 1.759,5.603 L1.636,11.879 L1.653,11.879 L1.653,11.764 L2.344,11.764 L2.344,11.65 L2.919,11.65 L2.919,11.534 L3.724,11.534 L3.724,11.419 L4.759,11.419 C6.457,10.912 8.69,10.788 10.397,10.268 L11.317,10.268 L11.317,10.153 L11.663,10.153 L11.663,10.039 L12.47,10.039 L12.47,9.921 L12.7,9.921 L12.7,9.81 C13.082,9.769 13.465,9.731 13.848,9.692 L13.848,9.577 L14.081,9.577 L14.081,9.463 L14.654,9.463 L14.654,9.349 L15.229,9.349 L15.229,9.232 L15.574,9.232 L15.574,9.118 L16.034,9.118 L16.034,9.004 L16.265,9.004 L16.265,8.887 L16.956,8.887 L16.956,8.771 L17.302,8.771 L17.302,8.658 L17.645,8.658 L17.645,8.542 L18.337,8.542 C18.374,8.465 18.413,8.389 18.451,8.313 L19.255,8.313 L19.255,8.197 L19.486,8.197 L19.486,8.082 C19.871,8.005 20.253,7.929 20.637,7.852 L20.637,7.737 L20.981,7.737 L20.981,7.623 L21.329,7.623 L21.329,7.507 C21.979,7.47 22.632,7.429 23.283,7.392 C23.517,7.784 23.729,7.75 23.745,8.428 C23.546,8.587 23.408,8.892 23.283,9.118 L23.283,9.349 L23.169,9.349 C23.129,9.424 23.092,9.502 23.054,9.577 L22.824,9.577 C22.787,9.655 22.747,9.731 22.707,9.81 L22.477,9.81 C22.364,9.963 22.248,10.115 22.135,10.268 L21.903,10.268 C21.865,10.345 21.824,10.421 21.789,10.498 L21.443,10.498 L21.443,10.613 L21.097,10.613 L21.097,10.729 L20.177,10.729 L20.177,10.844 L18.913,10.844 L18.913,10.958 L18.567,10.958 L18.567,11.073 L17.99,11.073 L17.99,11.19 L17.76,11.19 L17.76,11.305 L17.416,11.305 L17.416,11.419 L17.186,11.419 L17.186,11.534 L16.727,11.534 L16.727,11.65 L16.496,11.65 L16.496,11.764 C16.304,11.802 16.111,11.841 15.921,11.879 L15.921,11.995 L15.346,11.995 L15.346,12.11 L15,12.11 L15,12.224 L14.654,12.224 L14.654,12.34 L14.31,12.34 L14.31,12.455 C14.081,12.532 13.848,12.608 13.619,12.685 L13.619,12.8 L13.388,12.8 L13.388,12.914 C13.158,12.992 12.928,13.067 12.7,13.145 C12.66,13.221 12.622,13.298 12.583,13.374 L12.353,13.374 L12.353,13.49 C12.2,13.527 12.047,13.566 11.894,13.605 L11.894,13.719 L11.547,13.719 L11.547,13.837 L11.317,13.837 L11.317,13.95 L11.088,13.95 C11.049,14.027 11.012,14.105 10.973,14.18 L10.627,14.18 L10.627,14.295 L10.397,14.295 L10.397,14.411 L10.167,14.411 L10.167,14.525 L9.936,14.525 L9.936,14.64 L9.706,14.64 L9.706,14.755 C9.478,14.832 9.247,14.91 9.016,14.985 C8.979,15.063 8.939,15.14 8.902,15.216 L8.673,15.216 L8.441,15.447 L8.21,15.447 C8.173,15.524 8.134,15.6 8.096,15.676 C7.944,15.714 7.789,15.753 7.638,15.792 C7.597,15.868 7.559,15.945 7.521,16.02 L7.061,16.02 C6.985,16.135 6.909,16.253 6.831,16.366 L6.485,16.366 C6.41,16.482 6.333,16.597 6.256,16.712 C5.91,16.827 5.565,16.941 5.22,17.058 C5.142,17.171 5.065,17.287 4.989,17.402 L4.759,17.402 L4.759,17.517 L4.53,17.517 C4.491,17.593 4.452,17.67 4.415,17.748 L4.184,17.748 C4.146,17.824 4.106,17.901 4.07,17.977 L3.724,17.977 L3.724,18.093 L3.494,18.093 C3.454,18.169 3.417,18.246 3.378,18.322 L3.035,18.322 L3.035,18.439 L2.801,18.439 L2.801,18.553 L2.573,18.553 L2.573,18.667 L2.344,18.667 L2.344,18.782 C2.272,18.801 1.893,18.957 1.494,19.122 L1.242,31.941 C1.846,31.85 2.451,31.758 3.055,31.668 L4.319,31.668 L4.319,31.554 L4.665,31.554 L4.665,31.437 L5.816,31.437 L5.816,31.323 L6.389,31.323 L6.389,31.208 C7.693,31.17 8.998,31.131 10.303,31.092 L10.303,30.978 L12.029,30.978 C12.676,30.795 13.502,30.748 14.33,30.746 L16.4,30.746 L16.4,30.632 C17.283,30.593 18.166,30.555 19.048,30.517 L19.048,30.632 L20.197,30.632 L20.197,30.746 L21.923,30.746 L21.923,30.862 L22.843,30.862 L22.843,30.978 L23.994,30.978 L23.994,31.092 L25.951,31.092 L25.951,31.208 L26.526,31.208 L26.526,31.323 L27.561,31.323 L27.561,31.437 L28.136,31.437 L28.136,31.554 L29.057,31.554 L29.057,31.668 L29.286,31.668 L29.286,31.784 L29.977,31.784 L29.977,31.897 L30.323,31.897 L30.323,32.013 L31.358,32.013 L31.358,32.128 L31.818,32.128 L31.818,32.243 L32.738,32.243 L32.738,32.357 L33.199,32.357 L33.199,32.473 L33.429,32.473 L33.429,32.589 C33.66,32.629 33.89,32.666 34.121,32.704 L34.121,32.819 L34.351,32.819 L34.351,32.935 C34.885,33.009 35.423,33.086 35.96,33.165 L35.96,33.278 C36.19,33.356 36.42,33.433 36.651,33.509 L36.651,33.624 L36.88,33.624 L36.88,33.739 L37.113,33.739 L37.113,33.853 C37.455,33.931 37.801,34.008 38.147,34.084 L38.147,34.199 C38.3,34.236 38.453,34.277 38.606,34.315 L38.606,34.43 L38.953,34.43 C39.066,34.583 39.181,34.736 39.297,34.889 L39.642,34.889 C39.682,34.967 39.718,35.042 39.758,35.12 L39.987,35.12 L40.217,35.349 C40.601,35.504 40.985,35.657 41.369,35.81 L41.369,36.846 C40.771,37.252 41.026,38.127 40.217,38.34 C39.986,38.551 39.365,38.436 38.953,38.457 C38.76,38.494 38.569,38.533 38.377,38.572 L38.377,38.686 L37.226,38.686 L37.226,38.803 L36.996,38.803 L36.996,38.916 C36.261,39.168 35.218,38.61 34.811,38.457 L34.351,38.457 C34.312,38.381 34.273,38.303 34.233,38.227 L33.89,38.227 L33.89,38.111 L33.429,38.111 L33.429,37.998 L33.199,37.998 L33.199,37.883 L32.854,37.883 L32.854,37.766 C32.623,37.69 32.394,37.613 32.163,37.535 L32.163,37.42 L31.932,37.42 L31.932,37.305 L31.588,37.305 C31.549,37.229 31.511,37.151 31.474,37.074 L31.012,37.074 C30.976,36.998 30.937,36.924 30.897,36.846 C30.67,36.809 30.437,36.77 30.208,36.731 L30.208,36.615 L29.977,36.615 L29.977,36.5 C29.479,36.463 28.979,36.424 28.483,36.387 L28.483,36.272 C28.214,36.233 27.944,36.194 27.678,36.156 C27.639,36.082 27.6,36.002 27.561,35.925 L26.756,35.925 L26.756,35.81 L26.41,35.81 L26.41,35.694 L25.721,35.694 L25.721,35.58 L25.262,35.58 L25.262,35.465 L24.109,35.465 L24.109,35.349 L23.42,35.349 L23.42,35.235 L22.04,35.235 L22.04,35.12 L21.348,35.12 L21.348,35.005 L20.428,35.005 L20.428,34.889 L18.356,34.889 L18.356,34.776 L17.897,34.776 L17.897,34.659 L17.092,34.659 L17.092,34.776 L16.285,34.776 L16.285,34.659 L14.558,34.659 L14.558,34.545 L12.719,34.545 L12.719,34.43 L12.143,34.43 L12.143,34.545 L9.726,34.545 L9.726,34.659 L9.498,34.659 L9.498,34.776 L7.426,34.776 L7.426,34.889 L6.966,34.889 L6.966,35.005 C6.688,35.082 6.524,34.874 6.389,34.889 L6.389,35.005 C6.083,34.967 5.776,34.928 5.47,34.889 L5.47,35.005 L4.781,35.005 L4.781,35.12 L3.283,35.12 L3.283,35.235 L3.055,35.235 L3.055,35.349 C2.839,35.415 2.708,35.235 2.708,35.235 C2.481,35.2 2.479,35.349 2.479,35.349 C2.208,35.405 2.165,35.217 2.019,35.235 L2.019,35.349 L1.175,35.349 L0.71,59.008 L52.65,63 L47.514,0.86" id="Fill-38" fill="#5F696C" mask="url(#mask-4)"></path>
            </g>
        </g>
    </g>
</svg>