<?xml version="1.0" encoding="utf-8"?>
<!-- Generator: Adobe Illustrator 21.1.0, SVG Export Plug-In . SVG Version: 6.00 Build 0)  -->
<svg version="1.1" id="Ebene_1" xmlns="http://www.w3.org/2000/svg" xmlns:xlink="http://www.w3.org/1999/xlink" x="0px" y="0px"
	 viewBox="0 0 446.8 69.4" style="enable-background:new 0 0 446.8 69.4;" xml:space="preserve">
<style type="text/css">
	.st0{fill:#192A67;}
</style>
<g>
	<path class="st0" d="M67.4,1.9V15h20c1.3-5.1,3.1-9.4,5-13.1H67.4z"/>
	<path class="st0" d="M90.5,36.3L90.5,36.3l0,27H105V15h23.1V1.9H98.7C94.2,9.4,90.2,20.5,90.5,36.3z"/>
	<path class="st0" d="M0,30.4c0,2.4,0.2,4.7,0.4,6.7c7,3.9,13.2,6.2,18.5,7.5c-2.5-2.9-4.4-7.2-4.4-13.4c0-7.8,5.9-17.6,19.3-17.6
		c10.7,0,15.4,3.2,20.4,8.1l4.8-12.5C51.3,1.7,40.8,0,34,0C10.5,0,0,16.9,0,30.4z"/>
	<path class="st0" d="M43.1,49.5c-2.8,1-7.1,2.1-13,2.1c-7.2,0-16.7-1.7-28.1-7.3c6.5,19.2,26.5,20.2,31.1,20.2
		c3.8,0,15.9,0.1,25.3-8.7l0-0.1l-5.1-13.1C50.5,45.7,47.1,48.1,43.1,49.5z"/>
	<path class="st0" d="M135.2,20.9c28.5-14.7,45.1-4.8,45.9-4.4l0,0c2.5,1.3,4.6,3.1,6.8,5.2l4.8-12.5C184.8,1.7,174.4,0,167.5,0
		C149.4,0,139,10.1,135.2,20.9z"/>
	<path class="st0" d="M166.9,51c-3.8,0-18.7-2.1-18.7-19.8c0-3.7,1.3-7.8,4.1-11.2c-5.4,1.4-11.6,3.9-18.6,8
		c-0.1,0.8-0.1,1.6-0.1,2.4c0,32.7,27.7,34.1,33.2,34.1c3.8,0,15.9,0.1,25.3-8.7l0-0.1L187,42.6C181.9,48.1,175.5,51,166.9,51z"/>
	<path class="st0" d="M266.9,58.9c-0.6,0.7-1.6,1-2.7,1c-0.8,0-1.4-0.2-2-0.5c-0.5-0.3-1-0.8-1.3-1.3c-0.3-0.5-0.5-1.2-0.7-1.8
		c-0.1-0.7-0.2-1.3-0.2-2c0-0.7,0.1-1.4,0.2-2c0.1-0.7,0.4-1.3,0.7-1.9c0.3-0.6,0.8-1,1.3-1.4s1.2-0.5,2-0.5c2.1,0,3.3,1,3.7,3.1
		h4.8c-0.1-1.2-0.3-2.2-0.8-3c-0.5-0.8-1.1-1.6-1.9-2.1c-0.8-0.6-1.7-1-2.6-1.3c-1-0.3-2-0.4-3.1-0.4c-1.5,0-2.8,0.2-3.9,0.7
		c-1.1,0.5-2.1,1.2-2.9,2c-0.8,0.9-1.4,1.9-1.8,3.1c-0.4,1.2-0.6,2.5-0.6,3.9c0,1.3,0.2,2.6,0.7,3.7c0.4,1.1,1.1,2.1,1.8,2.9
		c0.8,0.8,1.7,1.4,2.9,1.9c1.1,0.5,2.4,0.7,3.7,0.7c2.4,0,4.4-0.6,5.9-1.9c1.5-1.3,2.5-3.1,2.8-5.5h-4.8
		C268,57.3,267.6,58.2,266.9,58.9z"/>
	<path class="st0" d="M291.2,47.2c-0.8-0.8-1.8-1.5-2.9-1.9c-1.2-0.5-2.4-0.7-3.8-0.7c-1.4,0-2.7,0.2-3.8,0.7
		c-1.1,0.5-2.1,1.1-2.9,1.9c-0.8,0.8-1.4,1.8-1.9,3c-0.4,1.2-0.7,2.5-0.7,3.9c0,1.4,0.2,2.7,0.7,3.9c0.4,1.2,1.1,2.2,1.9,3
		c0.8,0.8,1.8,1.5,2.9,1.9c1.1,0.4,2.4,0.7,3.8,0.7c1.4,0,2.7-0.2,3.8-0.7c1.1-0.4,2.1-1.1,2.9-1.9c0.8-0.8,1.4-1.8,1.9-3
		c0.4-1.2,0.7-2.5,0.7-3.9c0-1.4-0.2-2.7-0.7-3.9C292.7,49,292,48,291.2,47.2z M288.6,56.2c-0.1,0.7-0.4,1.3-0.7,1.8
		c-0.3,0.5-0.8,1-1.4,1.3c-0.6,0.3-1.3,0.5-2.1,0.5s-1.5-0.2-2.1-0.5s-1-0.8-1.3-1.3c-0.3-0.5-0.6-1.2-0.7-1.8
		c-0.1-0.7-0.2-1.4-0.2-2.1c0-0.7,0.1-1.4,0.2-2.1c0.1-0.7,0.4-1.3,0.7-1.8c0.3-0.5,0.8-1,1.3-1.3c0.6-0.3,1.3-0.5,2.1-0.5
		s1.5,0.2,2.1,0.5c0.6,0.3,1,0.8,1.4,1.3c0.3,0.5,0.6,1.1,0.7,1.8c0.1,0.7,0.2,1.4,0.2,2.1C288.8,54.8,288.7,55.5,288.6,56.2z"/>
	<path class="st0" d="M426.1,47.9c-0.7-1-1.7-1.8-2.8-2.4c-1.1-0.6-2.5-0.9-4-0.9c-1.4,0-2.6,0.2-3.7,0.7c-1.1,0.5-2.1,1.2-2.9,2
		c-0.8,0.8-1.4,1.9-1.9,3s-0.7,2.4-0.7,3.8c0,1.4,0.2,2.7,0.6,3.8c0.4,1.2,1,2.2,1.8,3s1.8,1.5,2.9,1.9c1.1,0.5,2.4,0.7,3.8,0.7
		c2,0,3.8-0.5,5.2-1.4c1.4-0.9,2.5-2.5,3.2-4.6h-4.4c-0.2,0.6-0.6,1.1-1.3,1.6c-0.7,0.5-1.6,0.7-2.6,0.7c-1.4,0-2.5-0.4-3.2-1.1
		c-0.7-0.7-1.1-1.9-1.2-3.5h13c0.1-1.4,0-2.7-0.3-4C427.4,50,426.9,48.9,426.1,47.9z M415.1,52.2c0-0.3,0.1-0.7,0.2-1.2
		c0.1-0.4,0.3-0.9,0.7-1.3c0.3-0.4,0.7-0.7,1.3-1c0.5-0.3,1.2-0.4,2-0.4c1.2,0,2.1,0.3,2.7,1s1,1.6,1.2,2.9H415.1z"/>
	<rect x="389.9" y="45.1" class="st0" width="4.9" height="18"/>
	<path class="st0" d="M322.8,46.1c-0.6-0.5-1.3-0.9-2.1-1.1c-0.8-0.2-1.7-0.3-2.6-0.3c-1.3,0-2.3,0.3-3.3,0.9
		c-0.9,0.6-1.6,1.3-2.2,2.1c-0.5-1.1-1.2-1.9-2.1-2.3s-2-0.7-3.1-0.7c-1.2,0-2.2,0.3-3.2,0.8c-0.9,0.5-1.7,1.2-2.3,2.2h-0.1v-2.4
		h-4.7v18h4.9V52.7c0-0.9,0.1-1.6,0.4-2.1c0.3-0.5,0.6-1,0.9-1.3c0.4-0.3,0.7-0.5,1.1-0.6c0.4-0.1,0.7-0.2,0.9-0.2
		c0.8,0,1.4,0.1,1.8,0.4c0.4,0.3,0.7,0.6,0.9,1.1c0.2,0.4,0.3,0.9,0.3,1.4c0,0.5,0,1,0,1.6v10.1h4.9v-10c0-0.6,0-1.1,0.1-1.7
		c0.1-0.5,0.2-1,0.5-1.5c0.2-0.4,0.6-0.8,1-1c0.4-0.3,1-0.4,1.7-0.4c0.7,0,1.2,0.1,1.7,0.3c0.4,0.2,0.7,0.5,0.9,0.9
		c0.2,0.4,0.3,0.9,0.4,1.4c0,0.5,0.1,1.1,0.1,1.7v10.2h4.9v-12c0-1.2-0.2-2.2-0.5-3C323.8,47.3,323.3,46.6,322.8,46.1z"/>
	<path class="st0" d="M446.3,55.2c-0.3-0.6-0.8-1-1.3-1.4c-0.5-0.4-1.1-0.7-1.8-0.9c-0.7-0.2-1.4-0.4-2.1-0.6
		c-0.7-0.2-1.4-0.3-2.1-0.5c-0.7-0.1-1.3-0.3-1.8-0.5c-0.5-0.2-0.9-0.4-1.3-0.7c-0.3-0.3-0.5-0.6-0.5-1.1c0-0.4,0.1-0.7,0.3-0.9
		c0.2-0.2,0.4-0.4,0.7-0.5c0.3-0.1,0.6-0.2,0.9-0.2c0.3,0,0.6-0.1,0.9-0.1c0.9,0,1.6,0.2,2.3,0.5c0.6,0.3,1,1,1.1,1.9h4.7
		c-0.1-1.1-0.4-2-0.9-2.8c-0.5-0.7-1.1-1.3-1.8-1.8c-0.7-0.4-1.5-0.8-2.5-0.9c-0.9-0.2-1.9-0.3-2.8-0.3s-1.9,0.1-2.9,0.3
		c-0.9,0.2-1.8,0.5-2.5,0.9c-0.7,0.4-1.3,1-1.8,1.8c-0.5,0.7-0.7,1.7-0.7,2.9c0,0.8,0.2,1.5,0.5,2c0.3,0.5,0.8,1,1.3,1.4
		s1.1,0.7,1.8,0.9c0.7,0.2,1.4,0.4,2.1,0.6c1.8,0.4,3.1,0.7,4.1,1.1c1,0.4,1.5,0.9,1.5,1.7c0,0.4-0.1,0.8-0.3,1.1
		c-0.2,0.3-0.5,0.5-0.8,0.7c-0.3,0.2-0.7,0.3-1,0.4c-0.4,0.1-0.7,0.1-1.1,0.1c-0.5,0-1-0.1-1.4-0.2c-0.5-0.1-0.9-0.3-1.2-0.5
		c-0.3-0.2-0.6-0.6-0.9-0.9c-0.2-0.4-0.3-0.8-0.3-1.4h-4.7c0,1.2,0.3,2.2,0.8,3c0.5,0.8,1.1,1.4,1.9,1.9c0.8,0.5,1.7,0.8,2.7,1
		c1,0.2,2,0.3,3.1,0.3c1,0,2-0.1,3-0.3c1-0.2,1.9-0.5,2.6-1c0.8-0.5,1.4-1.1,1.9-1.9c0.5-0.8,0.7-1.8,0.7-3
		C446.8,56.5,446.6,55.8,446.3,55.2z"/>
	<path class="st0" d="M385.1,53.8c-0.5-0.4-1.1-0.7-1.8-0.9c-0.7-0.2-1.4-0.4-2.1-0.6c-0.7-0.2-1.4-0.3-2.1-0.5
		c-0.7-0.1-1.3-0.3-1.8-0.5c-0.5-0.2-0.9-0.4-1.3-0.7c-0.3-0.3-0.5-0.6-0.5-1.1c0-0.4,0.1-0.7,0.3-0.9c0.2-0.2,0.4-0.4,0.7-0.5
		c0.3-0.1,0.6-0.2,0.9-0.2c0.3,0,0.6-0.1,0.9-0.1c0.9,0,1.6,0.2,2.3,0.5c0.6,0.3,1,1,1.1,1.9h4.7c-0.1-1.1-0.4-2-0.9-2.8
		c-0.5-0.7-1.1-1.3-1.8-1.8c-0.7-0.4-1.5-0.8-2.5-0.9c-0.9-0.2-1.9-0.3-2.8-0.3c-1,0-1.9,0.1-2.9,0.3c-0.9,0.2-1.8,0.5-2.5,0.9
		c-0.7,0.4-1.3,1-1.8,1.8c-0.5,0.7-0.7,1.7-0.7,2.9c0,0.8,0.2,1.5,0.5,2c0.3,0.5,0.8,1,1.3,1.4s1.1,0.7,1.8,0.9
		c0.7,0.2,1.4,0.4,2.1,0.6c1.8,0.4,3.1,0.7,4.1,1.1c1,0.4,1.5,0.9,1.5,1.7c0,0.4-0.1,0.8-0.3,1.1c-0.2,0.3-0.5,0.5-0.8,0.7
		c-0.3,0.2-0.7,0.3-1,0.4c-0.4,0.1-0.7,0.1-1.1,0.1c-0.5,0-1-0.1-1.4-0.2c-0.5-0.1-0.9-0.3-1.2-0.5c-0.3-0.2-0.6-0.6-0.9-0.9
		c-0.2-0.4-0.3-0.8-0.3-1.4h-4.7c0,1.2,0.3,2.2,0.8,3c0.5,0.8,1.1,1.4,1.9,1.9c0.8,0.5,1.7,0.8,2.7,1c1,0.2,2,0.3,3.1,0.3
		c1,0,2-0.1,3-0.3c1-0.2,1.9-0.5,2.6-1c0.8-0.5,1.4-1.1,1.9-1.9c0.5-0.8,0.7-1.8,0.7-3c0-0.8-0.2-1.5-0.5-2.1
		C386.1,54.6,385.6,54.2,385.1,53.8z"/>
	<path class="st0" d="M405,39.7h-4.9v5.4h-3v3.3h3V59c0,0.9,0.2,1.6,0.5,2.2c0.3,0.6,0.7,1,1.2,1.3c0.5,0.3,1.1,0.5,1.8,0.6
		c0.7,0.1,1.4,0.2,2.2,0.2c0.5,0,1,0,1.5,0c0.5,0,1-0.1,1.4-0.1v-3.8c-0.2,0-0.5,0.1-0.7,0.1c-0.3,0-0.5,0-0.8,0
		c-0.8,0-1.4-0.1-1.7-0.4c-0.3-0.3-0.4-0.8-0.4-1.7v-8.9h3.6v-3.3H405V39.7z"/>
	<rect x="389.9" y="38.2" class="st0" width="4.9" height="4.1"/>
	<path class="st0" d="M365.3,47.2c-0.8-0.8-1.8-1.5-2.9-1.9c-1.1-0.5-2.4-0.7-3.8-0.7c-1.4,0-2.7,0.2-3.8,0.7
		c-1.1,0.5-2.1,1.1-2.9,1.9c-0.8,0.8-1.4,1.8-1.9,3c-0.4,1.2-0.7,2.5-0.7,3.9c0,1.4,0.2,2.7,0.7,3.9c0.4,1.2,1.1,2.2,1.9,3
		c0.8,0.8,1.8,1.5,2.9,1.9c1.1,0.4,2.4,0.7,3.8,0.7c1.4,0,2.7-0.2,3.8-0.7c1.1-0.4,2.1-1.1,2.9-1.9c0.8-0.8,1.4-1.8,1.9-3
		c0.4-1.2,0.7-2.5,0.7-3.9c0-1.4-0.2-2.7-0.7-3.9S366.1,48,365.3,47.2z M362.7,56.2c-0.1,0.7-0.4,1.3-0.7,1.8
		c-0.3,0.5-0.8,1-1.4,1.3c-0.6,0.3-1.3,0.5-2.1,0.5s-1.5-0.2-2.1-0.5c-0.6-0.3-1-0.8-1.3-1.3c-0.3-0.5-0.6-1.2-0.7-1.8
		c-0.1-0.7-0.2-1.4-0.2-2.1c0-0.7,0.1-1.4,0.2-2.1c0.1-0.7,0.4-1.3,0.7-1.8c0.3-0.5,0.8-1,1.3-1.3c0.6-0.3,1.3-0.5,2.1-0.5
		s1.5,0.2,2.1,0.5c0.6,0.3,1,0.8,1.4,1.3c0.3,0.5,0.6,1.1,0.7,1.8c0.1,0.7,0.2,1.4,0.2,2.1C362.9,54.8,362.8,55.5,362.7,56.2z"/>
	<path class="st0" d="M344.8,47.5c-0.7-0.9-1.5-1.6-2.5-2.1c-1-0.5-2.2-0.8-3.7-0.8c-1.1,0-2.1,0.2-3.1,0.7
		c-0.9,0.4-1.7,1.1-2.3,2.1h-0.1v-2.3h-4.7v24.3h4.9v-8.5h0.1c0.6,0.9,1.4,1.5,2.3,2c0.9,0.5,2,0.7,3.1,0.7c1.3,0,2.5-0.3,3.5-0.8
		c1-0.5,1.8-1.2,2.5-2.1c0.7-0.9,1.2-1.8,1.5-3c0.3-1.1,0.5-2.3,0.5-3.5c0-1.3-0.2-2.5-0.5-3.7C346,49.4,345.5,48.4,344.8,47.5z
		 M341.7,56.3c-0.1,0.7-0.4,1.3-0.7,1.8c-0.3,0.5-0.8,0.9-1.3,1.3s-1.2,0.5-2,0.5c-0.8,0-1.5-0.2-2-0.5c-0.6-0.3-1-0.7-1.3-1.3
		c-0.3-0.5-0.6-1.1-0.7-1.8c-0.2-0.7-0.2-1.4-0.2-2.1c0-0.7,0.1-1.5,0.2-2.2c0.1-0.7,0.4-1.3,0.7-1.8c0.3-0.5,0.8-1,1.3-1.3
		c0.5-0.3,1.2-0.5,2-0.5c0.8,0,1.5,0.2,2,0.5c0.5,0.3,1,0.8,1.3,1.3c0.3,0.5,0.6,1.2,0.7,1.9s0.2,1.4,0.2,2.1
		C341.9,54.9,341.8,55.6,341.7,56.3z"/>
	<path class="st0" d="M338.6,18.9c0-0.8,0.1-1.6,0.2-2.3c0.2-0.7,0.4-1.3,0.8-1.8c0.4-0.5,0.9-0.9,1.5-1.2c0.6-0.3,1.4-0.5,2.3-0.5
		c0.3,0,0.6,0,0.9,0.1c0.3,0,0.6,0.1,0.8,0.1V8.7c-0.4-0.1-0.8-0.2-1.1-0.2c-0.6,0-1.2,0.1-1.8,0.3c-0.6,0.2-1.1,0.4-1.6,0.8
		c-0.5,0.3-1,0.7-1.4,1.2c-0.4,0.5-0.7,1-0.9,1.5h-0.1V9h-4.7v18h4.9V18.9z"/>
	<path class="st0" d="M285.6,24.8c0.8,0.8,1.8,1.5,2.9,1.9c1.1,0.5,2.4,0.7,3.8,0.7c2,0,3.8-0.5,5.2-1.4c1.4-0.9,2.5-2.5,3.2-4.6
		h-4.4c-0.2,0.6-0.6,1.1-1.3,1.6c-0.7,0.5-1.6,0.7-2.6,0.7c-1.4,0-2.5-0.4-3.2-1.1c-0.7-0.7-1.1-1.9-1.2-3.5h13c0.1-1.4,0-2.7-0.3-4
		c-0.3-1.3-0.9-2.4-1.6-3.4c-0.7-1-1.7-1.8-2.8-2.4c-1.1-0.6-2.5-0.9-4-0.9c-1.4,0-2.6,0.2-3.7,0.7c-1.1,0.5-2.1,1.2-2.9,2
		c-0.8,0.8-1.4,1.9-1.9,3c-0.4,1.2-0.7,2.4-0.7,3.8c0,1.4,0.2,2.7,0.6,3.8S284.9,24,285.6,24.8z M288.3,14.9
		c0.1-0.4,0.3-0.9,0.7-1.3c0.3-0.4,0.7-0.7,1.3-1c0.5-0.3,1.2-0.4,2-0.4c1.2,0,2.1,0.3,2.7,1c0.6,0.7,1,1.6,1.2,2.9h-8
		C288.1,15.7,288.2,15.3,288.3,14.9z"/>
	<path class="st0" d="M330,25.3c-0.1-0.7-0.1-1.5-0.1-2.3v-9.4c0-1.1-0.2-2-0.7-2.6c-0.5-0.7-1.1-1.2-1.9-1.5
		c-0.8-0.4-1.6-0.6-2.5-0.7c-0.9-0.1-1.8-0.2-2.8-0.2c-1,0-2,0.1-3,0.3c-1,0.2-1.9,0.5-2.7,1c-0.8,0.5-1.4,1.1-2,1.8
		c-0.5,0.8-0.8,1.7-0.9,2.9h4.9c0.1-1,0.4-1.7,1-2.1c0.6-0.4,1.3-0.6,2.3-0.6c0.4,0,0.9,0,1.2,0.1c0.4,0.1,0.7,0.2,1,0.3
		c0.3,0.2,0.5,0.4,0.7,0.7c0.2,0.3,0.3,0.7,0.3,1.3c0,0.5-0.1,0.9-0.5,1.2c-0.3,0.3-0.8,0.5-1.3,0.6c-0.6,0.1-1.2,0.2-1.9,0.3
		c-0.7,0.1-1.5,0.2-2.2,0.3c-0.7,0.1-1.5,0.3-2.2,0.5c-0.7,0.2-1.4,0.5-2,0.9c-0.6,0.4-1,0.9-1.4,1.6c-0.4,0.7-0.5,1.5-0.5,2.5
		c0,0.9,0.2,1.7,0.5,2.4c0.3,0.7,0.7,1.2,1.3,1.7c0.6,0.4,1.2,0.8,1.9,1c0.7,0.2,1.5,0.3,2.4,0.3c1.1,0,2.2-0.2,3.3-0.5
		c1.1-0.3,2-0.9,2.8-1.7c0,0.3,0.1,0.6,0.1,0.9c0.1,0.3,0.1,0.6,0.2,0.9h5C330.3,26.6,330.1,26.1,330,25.3z M324.9,20
		c0,0.3,0,0.6-0.1,1.1c-0.1,0.5-0.2,0.9-0.5,1.4c-0.3,0.5-0.6,0.8-1.2,1.2s-1.3,0.5-2.3,0.5c-0.4,0-0.8,0-1.1-0.1
		c-0.4-0.1-0.7-0.2-1-0.4c-0.3-0.2-0.5-0.4-0.7-0.7c-0.2-0.3-0.2-0.7-0.2-1.1c0-0.5,0.1-0.8,0.2-1.1c0.2-0.3,0.4-0.6,0.6-0.7
		c0.3-0.2,0.6-0.4,0.9-0.5c0.4-0.1,0.7-0.2,1.1-0.3c0.4-0.1,0.8-0.1,1.2-0.2c0.4,0,0.8-0.1,1.1-0.2c0.4-0.1,0.7-0.2,1-0.3
		c0.3-0.1,0.6-0.2,0.8-0.4V20z"/>
	<path class="st0" d="M354.9,27.5c2,0,3.8-0.5,5.2-1.4c1.4-0.9,2.5-2.5,3.2-4.6H359c-0.2,0.6-0.6,1.1-1.3,1.6
		c-0.7,0.5-1.6,0.7-2.6,0.7c-1.4,0-2.5-0.4-3.2-1.1c-0.7-0.7-1.1-1.9-1.2-3.5h13c0.1-1.4,0-2.7-0.3-4c-0.3-1.3-0.9-2.4-1.6-3.4
		c-0.7-1-1.7-1.8-2.8-2.4c-1.1-0.6-2.5-0.9-4-0.9c-1.4,0-2.6,0.2-3.7,0.7c-1.1,0.5-2.1,1.2-2.9,2c-0.8,0.8-1.4,1.9-1.9,3
		c-0.4,1.2-0.7,2.4-0.7,3.8c0,1.4,0.2,2.7,0.6,3.8c0.4,1.2,1,2.2,1.8,3c0.8,0.8,1.8,1.5,2.9,1.9C352.2,27.2,353.5,27.5,354.9,27.5z
		 M350.9,14.9c0.1-0.4,0.3-0.9,0.7-1.3c0.3-0.4,0.7-0.7,1.3-1c0.5-0.3,1.2-0.4,2-0.4c1.2,0,2.1,0.3,2.7,1s1,1.6,1.2,2.9h-8
		C350.7,15.7,350.8,15.3,350.9,14.9z"/>
	<polygon class="st0" points="264.9,27 267.9,14.9 268,14.9 271.2,27 276.3,27 282,9 276.9,9 273.6,21.2 273.5,21.2 270.4,9 
		265.6,9 262.6,21.2 262.6,21.2 259.3,9 254,9 259.7,27 	"/>
</g>
</svg>
