<?xml version="1.0" encoding="utf-8"?>
<!-- Generator: Adobe Illustrator 16.0.3, SVG Export Plug-In . SVG Version: 6.00 Build 0)  -->
<!DOCTYPE svg PUBLIC "-//W3C//DTD SVG 1.1//EN" "http://www.w3.org/Graphics/SVG/1.1/DTD/svg11.dtd">
<svg version="1.1" id="Layer_1" xmlns="http://www.w3.org/2000/svg" xmlns:xlink="http://www.w3.org/1999/xlink" x="0px" y="0px"
	 width="583.154px" height="85px" viewBox="0 0 583.154 85" enable-background="new 0 0 583.154 85" xml:space="preserve">
<g>
	<g>
		<polygon fill="#000000" points="380.074,27.899 382.433,20.233 365.283,20.233 362.91,27.899 		"/>
		<polygon fill="#000000" points="404.536,11.34 368.043,11.34 365.674,18.982 382.845,18.982 384.645,13.169 388.21,18.982 
			409.234,18.982 		"/>
		<polygon fill="#000000" points="442.867,10.057 445.968,0.007 429.751,0.007 426.639,10.057 		"/>
		<polygon fill="#000000" points="410.015,20.233 388.974,20.233 393.677,27.899 414.705,27.899 		"/>
		<polygon fill="#000000" points="420.724,29.16 418.96,34.855 415.472,29.16 394.46,29.16 405.748,47.547 431.258,47.547 
			436.948,29.16 		"/>
		<polygon fill="#000000" points="362.537,29.16 356.842,47.547 374.002,47.547 379.691,29.16 		"/>
		<polygon fill="#000000" points="403.752,10.057 397.593,0.007 371.546,0.007 368.43,10.057 		"/>
		<polygon fill="#000000" points="426.243,11.34 423.884,18.982 440.1,18.982 442.455,11.34 		"/>
		<polygon fill="#000000" points="439.707,20.233 423.483,20.233 421.109,27.899 437.345,27.899 		"/>
	</g>
	<g>
		<path fill="#000000" d="M102.441,27.493L79.435,0H89.45l18.396,22.09L139.887,0h10.033l-40.025,27.493l-6.242,20.127h-7.433
			L102.441,27.493z"/>
		<path fill="#000000" d="M201.721,35.979c-1.277,4.198-4.464,6.366-11.376,6.366h-39.339l5.156-16.636h38.19
			c6.766,0,10.273,0.925,8.447,6.84L201.721,35.979z M206.22,14.586c-1.456,4.747-5.98,5.871-9.997,5.871h-38.438l4.695-15.211
			h38.813c2.284,0,7.626,0.659,6.264,5.007L206.22,14.586z M141.931,47.62h47.706c9.117,0,17.015-3.497,19.082-10.146l1.744-5.643
			c2.243-7.236-2.333-9.139-8.1-9.412l0.076-0.261c6.869-0.597,10.151-4.07,11.211-7.491l1.253-4.096
			C216.593,5.127,214.991,0,203.61,0h-46.942L141.931,47.62z"/>
		<path fill="#000000" d="M233.526,0h53.998l-1.627,5.247H239.34l-4.696,15.211h44.727l-1.62,5.252h-44.746l-5.143,16.636h64.536
			l-1.625,5.274h-71.972L233.526,0z"/>
		<path fill="#000000" d="M298.843,23.539l5.664-18.292h33.864c10.94,0,13.063,1.726,11.427,7.033l-1.355,4.36
			c-1.541,4.99-5.624,6.899-13.902,6.899H298.843z M283.949,47.62h7.441l5.827-18.812h36.298c6.759,0,10.662,0.918,8.354,8.347
			l-3.22,10.465h6.978l3.768-12.181c1.338-4.334,0.57-7.764-6.657-8.937l0.042-0.13c5.833-0.473,10.802-2.303,12.89-9.006
			l1.188-3.885C359.628,4.527,358.526,0,342.655,0h-43.958L283.949,47.62z"/>
		<path fill="#000000" d="M59.462,35.135c-1.991,6.441-5.447,8.284-15.476,8.284H17.939c-7.158,0-12.347-1.843-9.795-10.124
			l5.537-17.893C16.247,7.12,22.596,5.27,29.728,5.27h57.824V0.007H30.605c-14.883,0-21.388,5.784-25.112,17.825l-4.03,13.033
			c-3.721,12.033-0.804,17.821,14.089,17.821h28.09c15.419,0,20.054-4.662,22.726-13.289l0.991-3.215h-6.987L59.462,35.135z"/>
	</g>
	<g>
		<polygon fill="#000000" points="511.843,0.007 452.816,0.007 449.682,10.149 508.706,10.149 		"/>
		<polygon fill="#000000" points="503.522,20.329 446.533,20.329 444.172,27.974 501.147,27.974 		"/>
		<polygon fill="#000000" points="465.895,11.423 449.279,11.423 446.917,19.058 463.537,19.058 		"/>
		<path fill="#000000" d="M497.717,36.377h-39.39l2.203-7.127h-16.76l-5.652,18.297h47.62
			C489.052,43.167,493.125,39.393,497.717,36.377z"/>
		<polygon fill="#000000" points="555.541,11.42 538.56,11.42 536.215,19.058 553.167,19.058 		"/>
		<polygon fill="#000000" points="518.356,0.007 515.242,10.149 580.018,10.149 583.154,0.007 		"/>
		<path fill="#000000" d="M550.023,29.238h-16.958l-0.023,0.076c5.455,1.005,10.574,2.934,15.209,5.628L550.023,29.238z"/>
		<polygon fill="#000000" points="533.45,27.963 550.42,27.963 552.765,20.329 535.828,20.329 		"/>
		<path fill="#000000" d="M548.25,34.942l-1.458,4.725c14.295,8.058,24.296,22.877,25.555,40.143
			c0.06-1.014,0.114-2.041,0.114-3.078C572.461,58.866,562.72,43.283,548.25,34.942z"/>
		<path fill="#000000" d="M482.266,52.788c1.423-1.864,3.001-3.604,4.684-5.24h-1.211C484.467,49.204,483.306,50.964,482.266,52.788
			z"/>
		<path fill="#000000" d="M524.18,28.458c-9.771,0-18.857,2.929-26.463,7.92h3.961l-0.416,1.347
			c6.362-2.909,13.434-4.545,20.87-4.545c3.232,0,6.379,0.299,9.421,0.878l1.488-4.744C530.183,28.771,527.206,28.458,524.18,28.458
			z"/>
		<path fill="#000000" d="M497.717,36.377c-4.593,3.016-8.665,6.79-11.979,11.17h1.211c4.138-4.055,8.97-7.413,14.313-9.823
			l0.416-1.347H497.717z"/>
		<path fill="#000000" d="M533.042,29.314l-1.488,4.744c5.459,1.029,10.567,2.972,15.239,5.61l1.458-4.725
			C543.616,32.248,538.497,30.319,533.042,29.314z"/>
	</g>
	<path fill="#000000" d="M579.908,42.124c-2.316-6.782-17.1-8.255-36.393-4.605c14.265-1.552,24.528,0.306,26.373,5.75
		c3.09,9.019-18.196,24.479-47.588,34.521c-10.57,3.598-20.745,6.019-29.582,7.211c10.723-0.203,24.842-2.866,39.733-7.959
		C561.829,67.011,583.076,51.377,579.908,42.124z"/>
</g>
<g>
	<path fill="#000000" stroke="#000000" stroke-width="0.25" d="M6.53,60.821h2.314l0.481,9.282h-1.95L7.362,68.14h-2.47
		l-0.845,1.963h-1.95L6.53,60.821z M5.542,66.606h1.82l-0.013-4.173H7.323L5.542,66.606z"/>
	<path fill="#000000" stroke="#000000" stroke-width="0.25" d="M13.355,60.821h2.782l-0.065,6.552h0.026l2.73-6.552h2.769
		l-1.976,9.282h-1.716l1.573-7.41h-0.026l-3.224,7.41h-1.456l-0.078-7.41h-0.026l-1.573,7.41h-1.716L13.355,60.821z"/>
	<path fill="#000000" stroke="#000000" stroke-width="0.25" d="M24.301,60.821h3.276c1.898,0,2.249,1.391,1.95,2.782
		c-0.403,1.924-1.768,2.795-3.536,2.795H24.99l-0.793,3.705h-1.872L24.301,60.821z M25.276,65.02h0.832
		c0.741,0,1.339-0.442,1.547-1.392c0.195-0.91-0.065-1.43-1.001-1.43h-0.78L25.276,65.02z"/>
	<path fill="#000000" stroke="#000000" stroke-width="0.25" d="M30.437,70.103l1.976-9.282h1.872l-1.651,7.748h3.315l-0.325,1.534
		H30.437z"/>
	<path fill="#000000" stroke="#000000" stroke-width="0.25" d="M37.912,70.103l1.976-9.282h1.872l-1.976,9.282H37.912z"/>
	<path fill="#000000" stroke="#000000" stroke-width="0.25" d="M44.516,60.821h5.188l-0.325,1.534h-3.315l-0.468,2.184h3.12
		l-0.325,1.534h-3.12l-0.858,4.03H42.54L44.516,60.821z"/>
	<path fill="#000000" stroke="#000000" stroke-width="0.25" d="M53.395,60.821l0.455,3.588h0.026l2.067-3.588h2.028L54.37,66.45
		l-0.78,3.653h-1.872l0.78-3.653l-1.209-5.629H53.395z"/>
	<path fill="#000000" stroke="#000000" stroke-width="0.25" d="M58.14,70.103l1.976-9.282h1.872l-1.976,9.282H58.14z"/>
	<path fill="#000000" stroke="#000000" stroke-width="0.25" d="M66.902,60.821l0.91,6.357h0.026l1.352-6.357h1.716l-1.976,9.282
		h-2.132l-0.91-6.5h-0.026l-1.378,6.5h-1.716l1.976-9.282H66.902z"/>
	<path fill="#000000" stroke="#000000" stroke-width="0.25" d="M77.107,63.577c0.143-0.688,0.013-1.56-0.741-1.56
		c-0.91,0-1.469,0.936-1.963,3.25c-0.468,2.236-0.559,3.64,0.52,3.64c0.442,0,1.248-0.48,1.469-1.481l0.195-0.949h-1.235
		l0.299-1.378h3.029l-1.066,5.005h-1.378l0.182-0.858h-0.026c-0.598,0.729-1.3,1.04-2.171,1.04c-2.301,0-2.393-1.716-1.703-4.927
		c0.663-3.12,1.729-4.72,4.121-4.72c2.054,0,2.665,1.054,2.262,2.938H77.107z"/>
	<path fill="#000000" stroke="#000000" stroke-width="0.25" d="M86.648,60.821h1.872l-0.754,3.549h2.184l0.754-3.549h1.872
		l-1.976,9.282h-1.872l0.871-4.121h-2.184l-0.871,4.121h-1.872L86.648,60.821z"/>
	<path fill="#000000" stroke="#000000" stroke-width="0.25" d="M96.997,60.821l-1.378,6.474c-0.195,0.924-0.117,1.612,0.754,1.612
		s1.235-0.688,1.43-1.612l1.378-6.474h1.872l-1.378,6.474c-0.507,2.366-2.08,2.99-3.601,2.99s-2.86-0.507-2.327-2.99l1.378-6.474
		H96.997z"/>
	<path fill="#000000" stroke="#000000" stroke-width="0.25" d="M103.64,60.821h2.782l-0.065,6.552h0.026l2.73-6.552h2.769
		l-1.976,9.282h-1.716l1.573-7.41h-0.026l-3.224,7.41h-1.456l-0.078-7.41h-0.026l-1.573,7.41h-1.716L103.64,60.821z"/>
	<path fill="#000000" stroke="#000000" stroke-width="0.25" d="M116.392,60.821h2.314l0.481,9.282h-1.95l-0.013-1.963h-2.47
		l-0.845,1.963h-1.95L116.392,60.821z M115.404,66.606h1.82l-0.013-4.173h-0.026L115.404,66.606z"/>
	<path fill="#000000" stroke="#000000" stroke-width="0.25" d="M125.336,60.821l0.91,6.357h0.026l1.352-6.357h1.716l-1.976,9.282
		h-2.132l-0.91-6.5h-0.026l-1.378,6.5h-1.716l1.976-9.282H125.336z"/>
	<path fill="#000000" stroke="#000000" stroke-width="0.25" d="M136.49,60.821h3.276c1.898,0,2.249,1.391,1.95,2.782
		c-0.403,1.924-1.769,2.795-3.536,2.795h-1.001l-0.793,3.705h-1.872L136.49,60.821z M137.465,65.02h0.832
		c0.741,0,1.339-0.442,1.547-1.392c0.195-0.91-0.065-1.43-1.001-1.43h-0.78L137.465,65.02z"/>
	<path fill="#000000" stroke="#000000" stroke-width="0.25" d="M149.789,60.821l-0.325,1.534h-3.315l-0.468,2.184h3.12l-0.325,1.534
		h-3.12l-0.533,2.496h3.445l-0.325,1.534h-5.317l1.976-9.282H149.789z"/>
	<path fill="#000000" stroke="#000000" stroke-width="0.25" d="M152.22,60.821h3.458c1.534,0,2.301,0.806,1.963,2.392
		c-0.273,1.235-0.936,2.067-2.041,2.288v0.026c1.235,0.169,1.287,0.871,0.884,2.834c-0.182,0.976-0.247,1.482,0.065,1.664
		l-0.013,0.078h-2.028c-0.13-0.26-0.091-0.611-0.026-0.975l0.325-1.781c0.13-0.729-0.104-1.17-0.858-1.17h-1.001l-0.832,3.926
		h-1.872L152.22,60.821z M153.221,64.876h0.78c0.897,0,1.495-0.39,1.703-1.391c0.182-0.858-0.182-1.287-1.027-1.287h-0.884
		L153.221,64.876z"/>
	<path fill="#000000" stroke="#000000" stroke-width="0.25" d="M160.813,60.821H166l-0.325,1.534h-3.315l-0.468,2.184h3.12
		l-0.325,1.534h-3.12l-0.858,4.03h-1.872L160.813,60.821z"/>
	<path fill="#000000" stroke="#000000" stroke-width="0.25" d="M171.2,60.638c2.808,0,2.73,2.003,2.132,4.823
		c-0.598,2.821-1.378,4.823-4.186,4.823s-2.73-2.002-2.132-4.823C167.612,62.641,168.392,60.638,171.2,60.638z M169.445,68.907
		c1.105,0,1.482-0.949,2.015-3.445c0.52-2.482,0.546-3.444-0.559-3.444s-1.495,0.962-2.015,3.444
		C168.353,67.958,168.34,68.907,169.445,68.907z"/>
	<path fill="#000000" stroke="#000000" stroke-width="0.25" d="M176.79,60.821h3.458c1.534,0,2.301,0.806,1.963,2.392
		c-0.273,1.235-0.936,2.067-2.041,2.288v0.026c1.235,0.169,1.287,0.871,0.884,2.834c-0.182,0.976-0.247,1.482,0.065,1.664
		l-0.013,0.078h-2.028c-0.13-0.26-0.091-0.611-0.026-0.975l0.325-1.781c0.13-0.729-0.104-1.17-0.858-1.17h-1.001l-0.832,3.926
		h-1.872L176.79,60.821z M177.791,64.876h0.78c0.897,0,1.495-0.39,1.703-1.391c0.182-0.858-0.182-1.287-1.027-1.287h-0.884
		L177.791,64.876z"/>
	<path fill="#000000" stroke="#000000" stroke-width="0.25" d="M185.422,60.821h2.782l-0.065,6.552h0.026l2.73-6.552h2.769
		l-1.976,9.282h-1.716l1.573-7.41h-0.026l-3.224,7.41h-1.456l-0.078-7.41h-0.026l-1.573,7.41h-1.716L185.422,60.821z"/>
	<path fill="#000000" stroke="#000000" stroke-width="0.25" d="M198.175,60.821h2.314l0.481,9.282h-1.95l-0.013-1.963h-2.47
		l-0.845,1.963h-1.95L198.175,60.821z M197.187,66.606h1.82l-0.013-4.173h-0.026L197.187,66.606z"/>
	<path fill="#000000" stroke="#000000" stroke-width="0.25" d="M207.119,60.821l0.91,6.357h0.026l1.352-6.357h1.716l-1.977,9.282
		h-2.132l-0.91-6.5h-0.026l-1.378,6.5h-1.716l1.976-9.282H207.119z"/>
	<path fill="#000000" stroke="#000000" stroke-width="0.25" d="M217.09,63.954c0.286-1.352,0.13-1.937-0.715-1.937
		c-0.949,0-1.365,0.948-1.924,3.575c-0.598,2.808-0.312,3.314,0.494,3.314c0.676,0,1.235-0.351,1.664-2.353h1.872
		c-0.429,2.002-1.287,3.73-3.744,3.73c-2.808,0-2.73-2.002-2.132-4.823c0.598-2.82,1.378-4.823,4.187-4.823
		c2.678,0,2.457,1.964,2.171,3.315H217.09z"/>
	<path fill="#000000" stroke="#000000" stroke-width="0.25" d="M227.321,60.821l-0.325,1.534h-3.315l-0.468,2.184h3.12l-0.325,1.534
		h-3.12l-0.533,2.496h3.445l-0.325,1.534h-5.317l1.976-9.282H227.321z"/>
	<path fill="#000000" stroke="#000000" stroke-width="0.25" d="M239.671,60.821l-0.325,1.534h-2.028l-1.651,7.748h-1.872
		l1.651-7.748h-2.028l0.325-1.534H239.671z"/>
	<path fill="#000000" stroke="#000000" stroke-width="0.25" d="M241.842,60.821h1.872l-0.754,3.549h2.184l0.754-3.549h1.872
		l-1.976,9.282h-1.872l0.871-4.121h-2.184l-0.871,4.121h-1.872L241.842,60.821z"/>
	<path fill="#000000" stroke="#000000" stroke-width="0.25" d="M250.435,60.821h3.458c1.534,0,2.301,0.806,1.963,2.392
		c-0.273,1.235-0.936,2.067-2.041,2.288v0.026c1.235,0.169,1.287,0.871,0.884,2.834c-0.182,0.976-0.247,1.482,0.065,1.664
		l-0.013,0.078h-2.028c-0.13-0.26-0.091-0.611-0.026-0.975l0.325-1.781c0.13-0.729-0.104-1.17-0.858-1.17h-1.001l-0.832,3.926
		h-1.872L250.435,60.821z M251.436,64.876h0.78c0.897,0,1.495-0.39,1.703-1.391c0.182-0.858-0.182-1.287-1.027-1.287h-0.884
		L251.436,64.876z"/>
	<path fill="#000000" stroke="#000000" stroke-width="0.25" d="M262.031,60.638c2.808,0,2.73,2.003,2.132,4.823
		c-0.598,2.821-1.378,4.823-4.186,4.823s-2.73-2.002-2.132-4.823C258.443,62.641,259.223,60.638,262.031,60.638z M260.276,68.907
		c1.105,0,1.482-0.949,2.015-3.445c0.52-2.482,0.546-3.444-0.559-3.444s-1.495,0.962-2.015,3.444
		C259.184,67.958,259.171,68.907,260.276,68.907z"/>
	<path fill="#000000" stroke="#000000" stroke-width="0.25" d="M269.376,60.821l-1.378,6.474c-0.195,0.924-0.117,1.612,0.754,1.612
		c0.871,0,1.235-0.688,1.43-1.612l1.378-6.474h1.872l-1.378,6.474c-0.507,2.366-2.08,2.99-3.601,2.99s-2.86-0.507-2.327-2.99
		l1.378-6.474H269.376z"/>
	<path fill="#000000" stroke="#000000" stroke-width="0.25" d="M279.516,63.577c0.143-0.688,0.013-1.56-0.741-1.56
		c-0.91,0-1.469,0.936-1.963,3.25c-0.468,2.236-0.559,3.64,0.52,3.64c0.442,0,1.248-0.48,1.469-1.481l0.195-0.949h-1.235
		l0.299-1.378h3.029l-1.066,5.005h-1.378l0.182-0.858h-0.026c-0.598,0.729-1.3,1.04-2.171,1.04c-2.301,0-2.393-1.716-1.703-4.927
		c0.663-3.12,1.729-4.72,4.121-4.72c2.054,0,2.665,1.054,2.262,2.938H279.516z"/>
	<path fill="#000000" stroke="#000000" stroke-width="0.25" d="M284.573,60.821h1.872l-0.754,3.549h2.184l0.754-3.549h1.872
		l-1.976,9.282h-1.872l0.871-4.121h-2.184l-0.871,4.121h-1.872L284.573,60.821z"/>
	<path fill="#000000" stroke="#000000" stroke-width="0.25" d="M299.458,60.821h2.313l0.481,9.282h-1.95l-0.013-1.963h-2.471
		l-0.845,1.963h-1.95L299.458,60.821z M298.47,66.606h1.82l-0.014-4.173h-0.025L298.47,66.606z"/>
	<path fill="#000000" stroke="#000000" stroke-width="0.25" d="M306.334,60.821h3.068c2.601,0,2.691,1.781,2.106,4.511
		c-0.702,3.289-1.717,4.771-4.199,4.771h-2.951L306.334,60.821z M306.53,68.725h0.832c1.3,0,1.729-0.819,2.262-3.341
		c0.455-2.106,0.508-3.186-0.923-3.186h-0.793L306.53,68.725z"/>
	<path fill="#000000" stroke="#000000" stroke-width="0.25" d="M316.462,60.821l-0.144,6.864h0.039l2.834-6.864h1.938l-4.108,9.282
		h-2.405l-0.156-9.282H316.462z"/>
	<path fill="#000000" stroke="#000000" stroke-width="0.25" d="M324.509,60.821h2.313l0.481,9.282h-1.95l-0.013-1.963h-2.471
		l-0.845,1.963h-1.95L324.509,60.821z M323.521,66.606h1.82l-0.014-4.173h-0.025L323.521,66.606z"/>
	<path fill="#000000" stroke="#000000" stroke-width="0.25" d="M333.454,60.821l0.91,6.357h0.026l1.352-6.357h1.716l-1.976,9.282
		h-2.133l-0.909-6.5h-0.026l-1.378,6.5h-1.716l1.976-9.282H333.454z"/>
	<path fill="#000000" stroke="#000000" stroke-width="0.25" d="M343.423,63.954c0.286-1.352,0.131-1.937-0.715-1.937
		c-0.949,0-1.365,0.948-1.924,3.575c-0.598,2.808-0.312,3.314,0.494,3.314c0.676,0,1.235-0.351,1.664-2.353h1.872
		c-0.429,2.002-1.287,3.73-3.744,3.73c-2.809,0-2.73-2.002-2.132-4.823c0.598-2.82,1.378-4.823,4.186-4.823
		c2.679,0,2.457,1.964,2.172,3.315H343.423z"/>
	<path fill="#000000" stroke="#000000" stroke-width="0.25" d="M353.656,60.821l-0.325,1.534h-3.315l-0.468,2.184h3.12l-0.325,1.534
		h-3.12l-0.533,2.496h3.445l-0.325,1.534h-5.316l1.976-9.282H353.656z"/>
	<path fill="#000000" stroke="#000000" stroke-width="0.25" d="M356.176,60.821h3.068c2.601,0,2.691,1.781,2.106,4.511
		c-0.702,3.289-1.717,4.771-4.199,4.771h-2.951L356.176,60.821z M356.372,68.725h0.832c1.3,0,1.729-0.819,2.262-3.341
		c0.455-2.106,0.508-3.186-0.923-3.186h-0.793L356.372,68.725z"/>
	<path fill="#000000" stroke="#000000" stroke-width="0.25" d="M374.833,60.821l-0.325,1.534h-2.028l-1.651,7.748h-1.871l1.65-7.748
		h-2.028l0.325-1.534H374.833z"/>
	<path fill="#000000" stroke="#000000" stroke-width="0.25" d="M382.191,60.821l-0.325,1.534h-3.315l-0.468,2.184h3.12l-0.325,1.534
		h-3.12l-0.533,2.496h3.445l-0.325,1.534h-5.316l1.976-9.282H382.191z"/>
	<path fill="#000000" stroke="#000000" stroke-width="0.25" d="M387.923,63.954c0.285-1.352,0.13-1.937-0.716-1.937
		c-0.948,0-1.364,0.948-1.924,3.575c-0.598,2.808-0.312,3.314,0.494,3.314c0.676,0,1.235-0.351,1.664-2.353h1.872
		c-0.429,2.002-1.287,3.73-3.744,3.73c-2.809,0-2.73-2.002-2.132-4.823c0.598-2.82,1.378-4.823,4.186-4.823
		c2.679,0,2.457,1.964,2.171,3.315H387.923z"/>
	<path fill="#000000" stroke="#000000" stroke-width="0.25" d="M392.966,60.821h1.872l-0.754,3.549h2.185l0.754-3.549h1.872
		l-1.977,9.282h-1.872l0.871-4.121h-2.184l-0.871,4.121h-1.872L392.966,60.821z"/>
	<path fill="#000000" stroke="#000000" stroke-width="0.25" d="M403.717,60.821l0.91,6.357h0.026l1.352-6.357h1.716l-1.976,9.282
		h-2.133l-0.909-6.5h-0.026l-1.378,6.5h-1.716l1.976-9.282H403.717z"/>
	<path fill="#000000" stroke="#000000" stroke-width="0.25" d="M413.389,60.638c2.809,0,2.73,2.003,2.133,4.823
		c-0.599,2.821-1.379,4.823-4.187,4.823c-2.809,0-2.73-2.002-2.132-4.823C409.801,62.641,410.582,60.638,413.389,60.638z
		 M411.634,68.907c1.105,0,1.482-0.949,2.016-3.445c0.52-2.482,0.546-3.444-0.56-3.444c-1.104,0-1.495,0.962-2.015,3.444
		C410.542,67.958,410.53,68.907,411.634,68.907z"/>
	<path fill="#000000" stroke="#000000" stroke-width="0.25" d="M417.002,70.103l1.976-9.282h1.872l-1.651,7.748h3.315l-0.325,1.534
		H417.002z"/>
	<path fill="#000000" stroke="#000000" stroke-width="0.25" d="M429.365,60.638c2.809,0,2.73,2.003,2.133,4.823
		c-0.599,2.821-1.379,4.823-4.187,4.823c-2.809,0-2.73-2.002-2.132-4.823C425.777,62.641,426.557,60.638,429.365,60.638z
		 M427.61,68.907c1.105,0,1.482-0.949,2.016-3.445c0.52-2.482,0.546-3.444-0.56-3.444c-1.104,0-1.495,0.962-2.015,3.444
		C426.518,67.958,426.505,68.907,427.61,68.907z"/>
	<path fill="#000000" stroke="#000000" stroke-width="0.25" d="M438.491,63.577c0.144-0.688,0.013-1.56-0.741-1.56
		c-0.91,0-1.469,0.936-1.963,3.25c-0.468,2.236-0.559,3.64,0.521,3.64c0.441,0,1.248-0.48,1.469-1.481l0.195-0.949h-1.235
		l0.299-1.378h3.029l-1.066,5.005h-1.378l0.183-0.858h-0.026c-0.598,0.729-1.3,1.04-2.171,1.04c-2.302,0-2.393-1.716-1.703-4.927
		c0.663-3.12,1.729-4.72,4.121-4.72c2.054,0,2.665,1.054,2.262,2.938H438.491z"/>
	<path fill="#000000" stroke="#000000" stroke-width="0.25" d="M445.042,60.821l0.455,3.588h0.026l2.066-3.588h2.028l-3.602,5.629
		l-0.779,3.653h-1.872l0.78-3.653l-1.21-5.629H445.042z"/>
</g>
</svg>
