<?xml version="1.0" encoding="UTF-8" standalone="no"?>
<svg
   xmlns:i="http://ns.adobe.com/AdobeIllustrator/10.0/"
   xmlns:dc="http://purl.org/dc/elements/1.1/"
   xmlns:cc="http://creativecommons.org/ns#"
   xmlns:rdf="http://www.w3.org/1999/02/22-rdf-syntax-ns#"
   xmlns:svg="http://www.w3.org/2000/svg"
   xmlns="http://www.w3.org/2000/svg"
   viewBox="0 0 497.33588 801.18451"
   height="801.18451"
   width="497.33588"
   id="svg2"
   version="1.1">
  <metadata
     id="metadata8">
    <rdf:RDF>
      <cc:Work
         rdf:about="">
        <dc:format>image/svg+xml</dc:format>
        <dc:type
           rdf:resource="http://purl.org/dc/dcmitype/StillImage" />
        <dc:title></dc:title>
      </cc:Work>
    </rdf:RDF>
  </metadata>
  <defs
     id="defs6" />
  <g
     style="fill:#ffd101;fill-opacity:1"
     id="g4516"
     transform="matrix(1.3820477,0,0,1.3955443,-676.76993,-260.21545)">
    <path
       style="fill:#ffd101;fill-opacity:1;stroke-width:1.06666672"
       i:knockout="Off"
       d="m 587.8736,343.38794 c -2.19733,-6.87466 -5.33226,-11.0528 -18.68693,-24.90986 -15.8144,-16.40854 -19.13387,-22.21867 -19.13387,-33.49014 0,-6.1856 0.4928,-8.30506 2.8704,-12.35093 4.69547,-7.9872 13.5904,-12.71573 23.9168,-12.71573 h 5.66934 l -1.9616,4.576 c -1.0784,2.51626 -2.2912,6.08106 -2.69547,7.92106 -0.40427,1.84 -1.8944,4.1056 -3.312,5.03467 -6.24,4.08853 -7.89547,14.72747 -3.60853,23.18827 4.27306,8.43306 8.25173,12.61226 12.0096,12.6176 4.45653,0.005 9.456,3.16053 12.30186,7.7664 2.50027,4.04586 6.54187,18.4608 6.54187,23.33333 0,2.98667 -0.0885,3.02933 -6.3168,3.02933 h -6.3168 z m 30.29334,-4.90986 c -1.33974,-10.8096 -4.26027,-17.17974 -10.86187,-23.68854 -4.7072,-4.64 -4.8704,-4.98986 -2.97707,-6.3744 1.88587,-1.37813 1.61067,-1.88906 -4.68906,-8.71253 -10.1248,-10.96533 -12.784,-15.6256 -12.784,-22.40107 0,-7.1904 3.10613,-13.94986 8.75413,-19.05173 5.5296,-4.9952 10.73813,-7.13813 17.38987,-7.15413 6.49066,-0.0149 11.3664,2.3232 23.264,11.15626 4.79893,3.56267 10.40533,7.2416 12.45866,8.176 2.05334,0.93334 3.93494,1.83254 4.18027,1.99894 0.66987,0.4512 -4.42347,10.96213 -5.31093,10.96213 -0.42134,0 -5.49974,-2.496 -11.28427,-5.54667 -9.10293,-4.8 -11.35573,-5.55413 -16.74133,-5.6 -5.5296,-0.0469 -6.51094,0.28054 -8.8,2.93867 -1.89547,2.20053 -2.57707,4.256 -2.57707,7.76853 0,8.672 9.16587,22.64214 17.78347,27.10507 7.7984,4.0384 10.2272,9.70773 10.8224,25.2576 l 0.46186,12.07573 h -8.99306 -8.99307 z m 39.08693,4.288 c 0,-1.9552 -1.66933,-8.31467 -3.71093,-14.13334 -2.04054,-5.8176 -3.72054,-12.03093 -3.73334,-13.80693 -0.0309,-4.34027 2.41174,-7.55307 6.85867,-9.0208 l 3.67467,-1.2128 -2.07467,-3.4016 c -2.9184,-4.7872 -2.67093,-12.0416 0.6976,-20.4576 l 2.77973,-6.94507 h 5.70347 5.70347 l 2.2528,5.06667 c 1.23946,2.78613 2.7776,7.31733 3.4176,10.06827 1.0496,4.50453 0.90453,5.53066 -1.47307,10.33386 l -2.64,5.33227 2.56213,0.6432 c 1.41014,0.35413 3.72054,1.8016 5.13707,3.21813 3.59573,3.59467 3.3216,8.28587 -1.1584,19.88587 -2.05333,5.31627 -3.73333,11.53813 -3.73333,13.82613 v 4.15894 H 667.384 657.25067 v -3.5552 z m 40.77867,-7.97974 c 0.65066,-13.73226 3.00586,-20.29333 8.48213,-23.63306 1.94667,-1.18614 4.2592,-2.18667 5.1392,-2.22187 1.7088,-0.0683 9.75467,-10.5024 12.98453,-16.8384 1.09654,-2.15147 1.9488,-6.0928 1.9488,-9.01227 0,-4.36586 -0.51733,-5.70773 -3.2608,-8.4512 -3.03786,-3.0368 -3.65653,-3.22026 -8.99413,-2.6688 -4.03947,0.41707 -8.78507,2.19307 -16.05867,6.0096 -5.67786,2.9792 -10.6688,5.4176 -11.08906,5.4176 -0.88854,0 -5.9808,-10.51093 -5.312,-10.96213 0.24533,-0.16533 2.128,-1.0656 4.18133,-1.99893 2.05333,-0.93334 7.6608,-4.61227 12.45867,-8.176 14.85226,-11.02614 20.7136,-13.05174 29.88693,-10.32747 6.90347,2.05013 15.4144,9.52 17.91467,15.7216 2.46186,6.1088 2.34453,13.3184 -0.29867,18.47573 -1.184,2.30934 -5.59573,7.968 -9.80373,12.57494 -7.3856,8.0864 -7.57654,8.4288 -5.488,9.8912 2.10026,1.47093 2.0224,1.6448 -2.6816,5.9808 -7.03894,6.48746 -10.22827,13.4016 -10.832,23.4848 l -0.496,8.26666 h -9.61387 -9.61493 z m 34.97386,9.66827 c 0.0448,-4.5568 3.2544,-16.48213 5.77387,-21.45387 3.18187,-6.28053 6.57173,-8.86613 12.70293,-9.6928 3.67147,-0.49493 4.98667,-1.41973 8.41707,-5.92 4.9184,-6.4512 7.63627,-14.83413 6.60053,-20.3552 -0.4672,-2.49066 -2.2304,-5.42826 -4.80213,-8 -2.46187,-2.46186 -4.55147,-5.87413 -5.2992,-8.65386 -0.67947,-2.52374 -1.9168,-5.90934 -2.75093,-7.5232 l -1.51574,-2.93334 h 5.76 c 11.552,0 20.1472,5.00907 24.7552,14.42774 2.4864,5.0816 2.81814,6.84693 2.3584,12.5632 -0.8256,10.2912 -4.50133,16.24533 -19.6032,31.75573 -10.41493,10.69547 -13.9392,15.09547 -16.52693,20.624 l -3.2896,7.02933 H 739.288 c -5.296,-10e-4 -6.2976,-0.29866 -6.2816,-1.86773 z m -74.15253,-78.56 c -10.3584,-4.56533 -14.9568,-16.57493 -10.25067,-26.77333 6.49814,-14.07894 24.54187,-16.37654 35.00694,-4.45654 8.17706,9.31307 4.9024,25.0112 -6.35627,30.4608 -5.34933,2.58987 -13.4944,2.93014 -18.4,0.76907 z m 4.45653,-49.06453 0.58774,-3.62454 -5.99467,1.66827 c -5.09547,1.41867 -6.39787,1.4528 -8.68373,0.22827 -3.41547,-1.8272 -4.4928,-5.9328 -2.496,-9.5072 1.7696,-3.16694 7.48693,-4.17174 12.9344,-2.27307 1.80053,0.62827 3.4656,0.95147 3.69813,0.71893 0.23253,-0.23253 -0.32533,-2.21333 -1.23947,-4.40213 -2.24533,-5.37387 -2.09066,-8.62293 0.53334,-11.248 3.03893,-3.03893 8.14293,-2.41067 10.9344,1.34507 l 2.14186,2.88213 -2.2176,6.02027 -2.2176,6.02026 2.31467,-0.70293 c 6.26773,-1.90507 11.4432,-1.90933 13.54027,-0.0107 2.71253,2.4544 2.69973,7.38347 -0.0256,10.10987 -2.53014,2.53013 -4.39147,2.63573 -11.06027,0.62826 l -5.00053,-1.50506 0.6816,3.6384 0.68373,3.6384 h -4.8512 -4.8512 z"
       id="path2065" />
    <rect
       style="opacity:1;fill:#ffd101;fill-opacity:1;stroke:#000000;stroke-width:0;stroke-miterlimit:4;stroke-dasharray:none;stroke-dashoffset:0;stroke-opacity:1"
       id="rect3334"
       width="158.86667"
       height="36.333332"
       x="587.94104"
       y="355.80923" />
  </g>
  <path
     id="path4493-1-2"
     d="m 162.37547,326.33761 c 34.97828,-2.02599 0.31742,-0.045 32.84233,-0.92112 45.2218,-1.80807 198.3157,14.60234 259.33256,30.74676 13.53193,3.5804 28.69447,8.04346 33.69452,9.91788 l 9.09101,3.40808 -0.50719,4.97341 c -0.96409,9.45392 -9.23146,54.52938 -14.23351,73.16289 -8.75371,32.60916 -8.46886,32.48565 -29.01674,72.92167 -1.46652,-0.506 -20.93275,-20.30396 -49.78929,-50.63782 l -2.43919,-2.56405 -17.7648,32.1458 c 0,0 -1.2438,-0.88235 -2.70097,-2.66641 -8.96861,-10.98028 -44.13439,-40.22862 -62.48051,-51.96678 -15.38923,-9.84625 -47.49269,-26.06591 -62.03375,-31.34131 -14.77316,-5.35964 -45.99454,-14.04209 -60.6805,-16.87484 -6.97956,-1.34628 -19.55616,-2.95369 -27.948,-3.572 -25.18939,-1.85597 -24.81066,-2.20868 -24.81066,-2.20868 z"
     style="opacity:1;fill:#ffd101;fill-opacity:1;stroke:none;stroke-width:11.98486042;stroke-linecap:butt;stroke-linejoin:round;stroke-miterlimit:4;stroke-dasharray:none;stroke-dashoffset:0;stroke-opacity:1;paint-order:markers fill stroke" />
  <path
     id="path4493-1-2-4"
     d="m 450.45325,526.54621 c -14.77135,31.77093 -0.11061,0.30091 -14.73362,29.36644 -19.8118,40.69118 -106.73038,167.78249 -149.8325,213.89006 -9.5589,10.22544 -20.66714,21.46949 -24.68493,24.98677 l -7.30513,6.39505 -4.14096,-2.80081 c -7.87152,-5.32401 -43.66487,-33.94189 -57.71134,-47.1678 -24.58172,-23.14571 -24.60775,-22.83633 -50.50161,-60.07602 1.13986,-1.05234 27.79348,-8.8291 68.1727,-19.89081 l 3.41317,-0.93503 -19.9084,-30.86416 c 0,0 1.36597,-0.67801 3.62724,-1.11718 13.91746,-2.70313 56.32677,-19.83638 75.35042,-30.44133 15.95753,-8.89575 45.44055,-29.49821 56.97021,-39.8103 11.71372,-10.47667 34.13978,-33.86964 43.58632,-45.46553 4.48951,-5.51099 11.85825,-15.82876 16.37496,-22.92838 13.55762,-21.31058 13.68905,-20.81002 13.68905,-20.81002 z"
     style="opacity:1;fill:#ffd101;fill-opacity:1;stroke:none;stroke-width:11.98486042;stroke-linecap:butt;stroke-linejoin:round;stroke-miterlimit:4;stroke-dasharray:none;stroke-dashoffset:0;stroke-opacity:1;paint-order:markers fill stroke" />
  <path
     id="path4493-1-2-1"
     d="M 134.64801,678.92053 C 114.97872,649.92564 134.44667,678.67105 117.02228,651.19328 92.289305,613.29129 27.904501,473.42836 10.489605,412.76188 6.6274389,399.30766 2.6873034,384.0009 1.7337327,378.74689 L 0,369.19411 4.5303029,367.08025 c 8.6116101,-4.01824 51.5525831,-20.02512 70.1159051,-25.28167 32.486322,-9.19912 32.234262,-9.38039 77.486602,-12.46469 0.31727,1.51857 -6.70355,28.38121 -17.95738,68.70731 l -0.95125,3.40869 36.70751,-1.22441 c 0,0 -0.12005,1.52025 -0.90495,3.68592 -4.83073,13.32917 -11.91841,58.51614 -12.593,80.2856 -0.56584,18.2608 1.96356,54.13993 4.88763,69.32947 2.97071,15.43201 11.51964,46.69021 16.61532,60.75207 2.42173,6.68296 7.48827,18.30556 11.259,25.82799 11.31838,22.57973 10.82139,22.43534 10.82139,22.43534 z"
     style="opacity:1;fill:#ffd101;fill-opacity:1;stroke:none;stroke-width:11.98486042;stroke-linecap:butt;stroke-linejoin:round;stroke-miterlimit:4;stroke-dasharray:none;stroke-dashoffset:0;stroke-opacity:1;paint-order:markers fill stroke" />
</svg>
