<?xml version="1.0" encoding="UTF-8" standalone="no"?>
<svg
   xmlns:dc="http://purl.org/dc/elements/1.1/"
   xmlns:cc="http://creativecommons.org/ns#"
   xmlns:rdf="http://www.w3.org/1999/02/22-rdf-syntax-ns#"
   xmlns:svg="http://www.w3.org/2000/svg"
   xmlns="http://www.w3.org/2000/svg"
   xmlns:sodipodi="http://sodipodi.sourceforge.net/DTD/sodipodi-0.dtd"
   xmlns:inkscape="http://www.inkscape.org/namespaces/inkscape"
   id="Layer_1"
   viewBox="0 0 146 33"
   enable-background="new 0 0 146 33"
   version="1.1"
   sodipodi:docname="Politi logo print.svg"
   inkscape:version="0.92.4 (5da689c313, 2019-01-14)">
  <metadata
     id="metadata46">
    <rdf:RDF>
      <cc:Work
         rdf:about="">
        <dc:format>image/svg+xml</dc:format>
        <dc:type
           rdf:resource="http://purl.org/dc/dcmitype/StillImage" />
        <dc:title>logo</dc:title>
      </cc:Work>
    </rdf:RDF>
  </metadata>
  <defs
     id="defs44" />
  <sodipodi:namedview
     pagecolor="#ffffff"
     bordercolor="#666666"
     borderopacity="1"
     objecttolerance="10"
     gridtolerance="10"
     guidetolerance="10"
     inkscape:pageopacity="0"
     inkscape:pageshadow="2"
     inkscape:window-width="1920"
     inkscape:window-height="1001"
     id="namedview42"
     showgrid="false"
     inkscape:pagecheckerboard="true"
     inkscape:zoom="3.0410959"
     inkscape:cx="179.70495"
     inkscape:cy="16.5"
     inkscape:window-x="-9"
     inkscape:window-y="-9"
     inkscape:window-maximized="1"
     inkscape:current-layer="Layer_1" />
  <style
     id="style2">.st0{fill:#001e3c}.st1{filter:url(#Adobe_OpacityMaskFilter)}.st2{fill:#fff}.st3{mask:url(#mask-2_1_);fill:#001e3c}.st4{filter:url(#Adobe_OpacityMaskFilter_1_)}.st5{mask:url(#mask-2_2_);fill:#001e3c}.st6{filter:url(#Adobe_OpacityMaskFilter_2_)}.st7{mask:url(#mask-2_3_);fill:#001e3c}</style>
  <title
     id="title4">logo</title>
  <g
     id="Logo-versioner">
    <g
       id="logo"
       transform="translate(0 -1)">
      <path
         id="Fill-1"
         class="st0"
         d="M0 2h16.8C28.3 2 29 3.8 29 13.2c0 10.6-1.4 12.1-11.3 12.1h-5.1L15 18c3.9 0 3.9 0 3.9-4.5 0-4.2-.1-4.3-4-4.3h-4.7V33H0V2z" />
      <path
         id="Fill-3"
         class="st0"
         d="M47.2 26.5c4.5 0 4.7 0 4.7-9 0-9.1-.2-9-4.7-9-4.4 0-4.6 0-4.6 9 0 9.1.2 9 4.6 9m0-25.5c11.2 0 14.3.6 14.3 16.5S58.2 34 47.2 34C36.3 33.9 33 33.4 33 17.5S36.1 1 47.2 1" />
      <path
         id="Fill-6"
         class="st0"
         d="M85 33H66V2h9.5v23H85z" />
      <defs
         id="defs12">
        <filter
           id="Adobe_OpacityMaskFilter"
           filterUnits="userSpaceOnUse"
           x="89"
           y="2"
           width="11"
           height="31">
          <feColorMatrix
             values="1 0 0 0 0 0 1 0 0 0 0 0 1 0 0 0 0 0 1 0"
             id="feColorMatrix9" />
        </filter>
      </defs>
      <mask
         maskUnits="userSpaceOnUse"
         x="89"
         y="2"
         width="11"
         height="31"
         id="mask-2_1_">
        <g
           class="st1"
           id="g15">
          <path
             id="path-1_1_"
             class="st2"
             d="M0 33h146V0H0z" />
        </g>
      </mask>
      <path
         id="Fill-8"
         class="st3"
         d="M89 33h11V2H89z"
         mask="url(#mask-2_1_)" />
      <defs
         id="defs22">
        <filter
           id="Adobe_OpacityMaskFilter_1_"
           filterUnits="userSpaceOnUse"
           x="105"
           y="2"
           width="27"
           height="31">
          <feColorMatrix
             values="1 0 0 0 0 0 1 0 0 0 0 0 1 0 0 0 0 0 1 0"
             id="feColorMatrix19" />
        </filter>
      </defs>
      <mask
         maskUnits="userSpaceOnUse"
         x="105"
         y="2"
         width="27"
         height="31"
         id="mask-2_2_">
        <g
           class="st4"
           id="g25">
          <path
             id="path-1_2_"
             class="st2"
             d="M0 33h146V0H0z" />
        </g>
      </mask>
      <path
         id="Fill-10"
         class="st5"
         d="M123.5 10v23h-10V10H105V2h27v8z"
         mask="url(#mask-2_2_)" />
      <defs
         id="defs32">
        <filter
           id="Adobe_OpacityMaskFilter_2_"
           filterUnits="userSpaceOnUse"
           x="135"
           y="2"
           width="11"
           height="31">
          <feColorMatrix
             values="1 0 0 0 0 0 1 0 0 0 0 0 1 0 0 0 0 0 1 0"
             id="feColorMatrix29" />
        </filter>
      </defs>
      <mask
         maskUnits="userSpaceOnUse"
         x="135"
         y="2"
         width="11"
         height="31"
         id="mask-2_3_">
        <g
           class="st6"
           id="g35">
          <path
             id="path-1_3_"
             class="st2"
             d="M0 33h146V0H0z" />
        </g>
      </mask>
      <path
         id="Fill-11"
         class="st7"
         d="M135 33h11V2h-11z"
         mask="url(#mask-2_3_)" />
    </g>
  </g>
</svg>
