<?xml version="1.0" encoding="utf-8"?>
<!-- Generator: Adobe Illustrator 21.1.0, SVG Export Plug-In . SVG Version: 6.00 Build 0)  -->
<svg version="1.1" id="Layer_1" xmlns="http://www.w3.org/2000/svg" xmlns:xlink="http://www.w3.org/1999/xlink" x="0px" y="0px"
	 viewBox="0 0 373.3 84.2" style="enable-background:new 0 0 373.3 84.2;" xml:space="preserve">
<style type="text/css">
	.st0{fill:#CD1543;}
	.st1{clip-path:url(#SVGID_2_);}
	.st2{fill:url(#SVGID_3_);}
	.st3{fill:#0075BF;}
	.st4{fill:url(#SVGID_4_);}
	.st5{fill:url(#SVGID_5_);}
	.st6{fill:url(#SVGID_6_);}
	.st7{fill:url(#SVGID_7_);}
	.st8{fill:url(#SVGID_8_);}
	.st9{fill:url(#SVGID_9_);}
	.st10{fill:#A9A8A9;}
	.st11{clip-path:url(#SVGID_11_);}
	.st12{fill:none;}
	.st13{fill:url(#SVGID_12_);}
	.st14{fill:#55565A;}
</style>
<g>
	<g>
		<path class="st0" d="M248.2,59.6c0-10.8-10.4-16.8-21-21.2c-2.4-1-4.7-1.9-7-2.7c-0.6-0.2-1.3-0.5-1.9-0.7
			C208.2,31,202,28.1,202,22.9c0-6.3,5.5-7.1,10.8-7.1c7.2,0,11.8,2.4,14.1,7.2l1.5,3.2l18.1-4.2v-4.9c-5.8-9.1-18-14.1-34.7-14.1
			c-20.8,0-34.8,8.2-34.8,20.4c0,13,15.3,18.9,27.7,23.6c2.6,1,5,1.9,7.2,2.8c5.2,2.2,8.9,4.3,10.6,7c0.4,0.6,0.7,1.3,0.9,2.1
			c1.2,0.3,2.3,0.6,3.4,0.9c-1.1-0.3-2.2-0.6-3.4-0.9c0.2,0.6,0.2,1.2,0.2,1.8c0,7.2-5.9,8.2-11.6,8.2c-0.1,0-0.1,0-0.2,0
			c-7.4,0-12.3-3-14.7-8.7l-1.3-3.1l-21.1,4l0.8,2.4c3.6,11.2,17.5,18.2,36.3,18.2v0c0.1,0,0.1,0,0.2,0c15.1,0,26.3-3.8,32-10.5
			c-0.8,0-1.6-0.1-2.4-0.1c0.8,0,1.6,0,2.4,0.1c0.2,0,1.4,0,1.7,0.1c0-0.2,0-0.3,0-0.5c0-0.2,0-0.4,0-0.6c0-0.2,0-0.3,0-0.5
			c0-0.3-0.1-0.5-0.1-0.8C247.4,66.1,248.2,63,248.2,59.6z M232.8,63.6c0.6,0.3,1.2,0.5,1.7,0.8C234,64.1,233.4,63.9,232.8,63.6z
			 M226.7,62.3c0.2,0.2,0.5,0.4,0.7,0.6C227.2,62.7,227,62.5,226.7,62.3z M228.8,60.2c-0.1,0-0.1,0-0.2-0.1
			C228.7,60.2,228.7,60.2,228.8,60.2z"/>
		<path class="st0" d="M83.4,21.5c-1.6-4.4-4.7-8.1-9.3-11c-7-4.4-17.2-6.7-29.6-6.7H5.6v76.7h38.9c12.4,0,22.6-2.3,29.6-6.6
			c5.1-3.2,8.4-7.4,9.8-12.3c0.4-1.3,0.6-2.7,0.7-4.2c0-0.4,0-0.7,0-1.1v-4.7v-9.8v-6.7v-6.8C84.5,26,84.1,23.7,83.4,21.5z M59.4,40
			v7.9v7.6V56v0.2c0,10.1-7.5,11.5-14.9,11.5H30.7v-30v-1.2V23.7v-6.6h13.7c7.7,0,14.9,1.4,14.9,11.7v2.5V40z"/>
		<g>
			<defs>
				<path id="SVGID_1_" d="M138.4,35.7c-11.3-4.3-18.2-7.2-18.2-12.8c0-6.3,5.5-7.1,10.8-7.1c7.2,0,11.8,2.4,14.1,7.2l1.5,3.2
					l18.1-4.2v-4.9C159,7.9,146.8,2.9,130,2.9c-20.8,0-34.8,8.2-34.8,20.4c0,13,15.3,18.9,27.7,23.6c11.7,4.5,18.9,7.5,18.9,13.7
					c0,7.2-5.9,8.2-11.6,8.2c-7.5,0-12.5-2.9-14.8-8.7l-1.3-3.1l-21.1,4l0.8,2.4c3.6,11.2,17.6,18.2,36.5,18.2
					c22.3,0,36.2-8.4,36.2-22C166.4,46.4,150.9,40.4,138.4,35.7z"/>
			</defs>
			<use xlink:href="#SVGID_1_"  style="overflow:visible;fill:#CD1543;"/>
			<clipPath id="SVGID_2_">
				<use xlink:href="#SVGID_1_"  style="overflow:visible;"/>
			</clipPath>
			<g class="st1">
				<path class="st0" d="M150.9,57.3c4.2-0.2,9.1-0.5,12.8-0.8v-0.1C160.2,56.8,156,57.1,150.9,57.3z"/>
				<path class="st0" d="M149.1,57.4c-0.3,0-0.6,0-0.9,0C148.5,57.5,148.8,57.4,149.1,57.4z"/>
				<path class="st0" d="M150,66.8c-0.1,0-0.1,0-0.2,0C149.9,66.8,149.9,66.8,150,66.8z"/>
				<path class="st0" d="M152,54.3c-4.1,0-8.4,0-12.5-0.1C144,54.3,148.1,54.3,152,54.3z"/>
				<path class="st0" d="M150.1,57.4c-0.1,0-0.1,0-0.2,0C150,57.4,150,57.4,150.1,57.4z"/>
				<path class="st0" d="M148.9,66.8c-0.1,0-0.2,0-0.3,0C148.7,66.8,148.8,66.8,148.9,66.8z"/>
				<path class="st0" d="M149.1,57.4c0.3,0,0.5,0,0.8,0c0.1,0,0.1,0,0.2,0c0.2,0,0.5,0,0.8,0c5.2-0.3,9.4-0.6,12.8-0.9v0.1
					c0.8-0.1,1.5-0.1,2.2-0.2c-0.2-0.7-0.4-1.5-0.6-2.2c-3.6,0-8.3,0.1-13.3,0.1c-3.9,0-8.1,0-12.5-0.1c-0.5,0-0.9,0-1.3,0
					c1.3,1.1,2.3,2.2,2.9,3.5c2.3-0.1,4.7-0.2,7.1-0.3C148.5,57.5,148.8,57.4,149.1,57.4z"/>
				<path class="st0" d="M163.8,68.6c0.4-0.6,0.7-1.2,0.9-1.8c-4.2,0.1-10,0.1-14.8,0.1c-0.1,0-0.1,0-0.2,0c-0.3,0-0.6,0-0.9,0
					c-0.1,0-0.2,0-0.3,0c-0.3,0-0.7,0-1,0c-2.9,0-5.8-0.1-8.6-0.1c-2.2,1.7-5.6,2-9,2c-4.3,0-7.8-1-10.5-2.9
					c-9.8-0.7-18.5-1.6-26.1-2.7l0.1,0.2c3.6,11.2,17.6,18.2,36.5,18.2c11.3,0,20.4-2.2,26.7-6.1c-28.4-0.2-42.3-5.1-42.3-5.1
					S140.8,70.9,163.8,68.6z"/>
				<path class="st0" d="M138.2,54.2c0.4,0,0.9,0,1.3,0C139.1,54.2,138.7,54.2,138.2,54.2z"/>
				<path class="st0" d="M156.1,43.9c-9.7,0.2-23.3,0.1-42.2-0.6c3,1.3,6,2.4,8.8,3.5c6.9,2.6,12.3,4.8,15.5,7.4c0.5,0,0.9,0,1.3,0
					c4,0,8.3,0.1,12.5,0.1c5,0,9.6,0,13.3-0.1c0.5,0,0.9,0,1.3,0v-3.1C164.8,48.3,159.2,46,156.1,43.9z"/>
				<path class="st0" d="M149.8,66.8c-0.3,0-0.6,0-0.9,0C149.2,66.8,149.5,66.8,149.8,66.8z"/>
				<path class="st0" d="M149.9,57.4c-0.3,0-0.5,0-0.8,0C149.4,57.4,149.6,57.4,149.9,57.4z"/>
				<path class="st0" d="M150.9,57.3c-0.3,0-0.5,0-0.8,0C150.4,57.4,150.6,57.3,150.9,57.3z"/>
				<path class="st0" d="M165.9,56.4c-0.7,0.1-1.4,0.1-2.2,0.2c-3.8,0.3-8.6,0.5-12.8,0.8c-0.3,0-0.5,0-0.8,0c-0.1,0-0.1,0-0.2,0
					c-0.3,0-0.5,0-0.8,0c-0.3,0-0.6,0-0.9,0c-2.4,0.1-4.8,0.2-7.1,0.3c0.4,0.9,0.6,1.8,0.6,2.8c0,3-1,4.9-2.6,6.2
					c2.8,0.1,5.6,0.1,8.6,0.1c0.3,0,0.7,0,1,0c0.1,0,0.2,0,0.3,0c0.3,0,0.6,0,0.9,0c0.1,0,0.1,0,0.2,0c4.7,0,10.5,0,14.8-0.1
					c1-2.2,1.5-4.6,1.5-7.1C166.2,58.5,166.1,57.4,165.9,56.4z"/>
				<path class="st0" d="M148.6,66.8c-0.3,0-0.7,0-1,0C147.9,66.8,148.3,66.8,148.6,66.8z"/>
			</g>
		</g>
	</g>
	<g>
		<linearGradient id="SVGID_3_" gradientUnits="userSpaceOnUse" x1="2.2524" y1="41.9352" x2="80.5014" y2="41.9352">
			<stop  offset="5.376344e-03" style="stop-color:#000000"/>
			<stop  offset="0.1569" style="stop-color:#003754"/>
			<stop  offset="0.3891" style="stop-color:#00547F"/>
			<stop  offset="0.598" style="stop-color:#00659C"/>
			<stop  offset="0.7759" style="stop-color:#006EAF"/>
			<stop  offset="0.9156" style="stop-color:#0072B9"/>
			<stop  offset="1" style="stop-color:#0075BF"/>
		</linearGradient>
		<path class="st2" d="M56.1,55.9c0,10.1-7.5,11.5-14.9,11.5H27.4v-30c-1.6-1-2.4-1.6-2.4-1.6s0.8,0.1,2.4,0.4V23.4
			C3.1,14.2,2.3,3.6,2.3,3.6v76.7h38.9c12.4,0,22.6-2.3,29.6-6.6c5.1-3.2,8.4-7.4,9.8-12.3c-12.4-2.2-20.6-4.4-24.5-5.6V55.9z"/>
		<path class="st3" d="M81.2,41.6v-6.7c-8.6-1.2-17.1-2.5-25.1-4v8.8C63.2,40.3,71.5,41,81.2,41.6z"/>
		<path class="st3" d="M81.2,51.3c-9.9-0.9-18.2-2.3-25.1-3.8v7.6c4,0.5,12.7,1.3,25.1,2c0-0.4,0-0.7,0-1.1V51.3z"/>
		<linearGradient id="SVGID_4_" gradientUnits="userSpaceOnUse" x1="2.2524" y1="12.4015" x2="80.0347" y2="12.4015">
			<stop  offset="5.376344e-03" style="stop-color:#000000"/>
			<stop  offset="0.1569" style="stop-color:#003754"/>
			<stop  offset="0.3891" style="stop-color:#00547F"/>
			<stop  offset="0.598" style="stop-color:#00659C"/>
			<stop  offset="0.7759" style="stop-color:#006EAF"/>
			<stop  offset="0.9156" style="stop-color:#0072B9"/>
			<stop  offset="1" style="stop-color:#0075BF"/>
		</linearGradient>
		<path class="st4" d="M70.8,10.3c-7-4.4-17.2-6.7-29.6-6.7H2.3c0,0,26.4,9.3,77.8,17.6C78.5,16.8,75.3,13.1,70.8,10.3z"/>
		<linearGradient id="SVGID_5_" gradientUnits="userSpaceOnUse" x1="91.9052" y1="14.6047" x2="161.3918" y2="14.6047">
			<stop  offset="5.376344e-03" style="stop-color:#000000"/>
			<stop  offset="0.1569" style="stop-color:#003754"/>
			<stop  offset="0.3891" style="stop-color:#00547F"/>
			<stop  offset="0.598" style="stop-color:#00659C"/>
			<stop  offset="0.7759" style="stop-color:#006EAF"/>
			<stop  offset="0.9156" style="stop-color:#0072B9"/>
			<stop  offset="1" style="stop-color:#0075BF"/>
		</linearGradient>
		<path class="st5" d="M116.8,22.5c0-6.3,5.5-7.1,10.8-7.1c7.2,0,11.8,2.4,14.1,7.2l1.5,3.2l18.1-4.2v-4.9
			c-5.8-9.1-18-14.1-34.7-14.1c-20.8,0-34.8,8.2-34.8,20.4c0,0,0,0.1,0,0.1c8.3,1.2,17.1,2.4,26.4,3.5
			C117.4,25.4,116.8,24.1,116.8,22.5z"/>
		<linearGradient id="SVGID_6_" gradientUnits="userSpaceOnUse" x1="104.1433" y1="57.2552" x2="111.3112" y2="57.2552">
			<stop  offset="5.376344e-03" style="stop-color:#000000"/>
			<stop  offset="0.1776" style="stop-color:#00070D"/>
			<stop  offset="0.3085" style="stop-color:#001928"/>
			<stop  offset="0.426" style="stop-color:#002942"/>
			<stop  offset="0.5355" style="stop-color:#003755"/>
			<stop  offset="0.6395" style="stop-color:#004568"/>
			<stop  offset="0.7394" style="stop-color:#00537D"/>
			<stop  offset="0.836" style="stop-color:#006093"/>
			<stop  offset="0.9276" style="stop-color:#006CAB"/>
			<stop  offset="1" style="stop-color:#0075BF"/>
		</linearGradient>
		<path class="st6" d="M104.1,57.9c2.3,0,4.7,0,7.2,0.1l-0.5-1.3L104.1,57.9z"/>
		<linearGradient id="SVGID_7_" gradientUnits="userSpaceOnUse" x1="100.0933" y1="40.4332" x2="152.9402" y2="40.4332">
			<stop  offset="5.376344e-03" style="stop-color:#000000"/>
			<stop  offset="0.1569" style="stop-color:#003754"/>
			<stop  offset="0.3891" style="stop-color:#00547F"/>
			<stop  offset="0.598" style="stop-color:#00659C"/>
			<stop  offset="0.7759" style="stop-color:#006EAF"/>
			<stop  offset="0.9156" style="stop-color:#0072B9"/>
			<stop  offset="1" style="stop-color:#0075BF"/>
		</linearGradient>
		<path class="st7" d="M110.7,43c18.9,0.7,32.5,0.8,42.2,0.6c-1.5-1-3.1-1.9-4.8-2.7c-13.4-0.7-30.4-1.9-48.1-3.7
			C103.2,39.5,106.9,41.4,110.7,43z"/>
		<g>
			<g id="XMLID_1_">
				<path d="M222,60.8c4,1.1,7.1,2.2,9.1,3.2c-0.8,0.8-2.2,1.1-3.4,0.7C225.8,64.2,223.8,62.4,222,60.8z"/>
				<g>
					<linearGradient id="SVGID_8_" gradientUnits="userSpaceOnUse" x1="173.7619" y1="36.1664" x2="244.8989" y2="36.1664">
						<stop  offset="5.376344e-03" style="stop-color:#000000"/>
						<stop  offset="0.1569" style="stop-color:#003754"/>
						<stop  offset="0.3891" style="stop-color:#00547F"/>
						<stop  offset="0.598" style="stop-color:#00659C"/>
						<stop  offset="0.7759" style="stop-color:#006EAF"/>
						<stop  offset="0.9156" style="stop-color:#0072B9"/>
						<stop  offset="1" style="stop-color:#0075BF"/>
					</linearGradient>
					<path class="st8" d="M244.9,59.3c0-10.8-10.4-16.8-21-21.2c-2.4-1-4.7-1.9-7-2.7c-0.6-0.2-1.3-0.5-1.9-0.7
						c-10.2-3.9-16.3-6.8-16.3-12.1c0-6.3,5.5-7.1,10.8-7.1c7.2,0,11.8,2.4,14.1,7.2l1.5,3.2l18.1-4.2v-4.9
						c-5.8-9.1-18-14.1-34.7-14.1c-20.8,0-34.8,8.2-34.8,20.4c0,13,15.3,18.9,27.7,23.6c2.6,1,5,1.9,7.2,2.8c5.2,2.2,8.9,4.3,10.6,7
						c0.4,0.6,0.7,1.3,0.9,2.1c6.1,1.6,10.7,3.1,13,4.5c6.5,0.8,8.3,3.4,8.4,6.3c0,0.2,0,0.3,0,0.5
						C243.7,66.7,244.9,63.2,244.9,59.3z"/>
					<linearGradient id="SVGID_9_" gradientUnits="userSpaceOnUse" x1="208.572" y1="75.9747" x2="240.7033" y2="75.9747">
						<stop  offset="5.376344e-03" style="stop-color:#000000"/>
						<stop  offset="9.434929e-02" style="stop-color:#00314C"/>
						<stop  offset="0.2308" style="stop-color:#004B71"/>
						<stop  offset="0.368" style="stop-color:#005B8B"/>
						<stop  offset="0.5029" style="stop-color:#00669F"/>
						<stop  offset="0.6351" style="stop-color:#006DAD"/>
						<stop  offset="0.7637" style="stop-color:#0071B6"/>
						<stop  offset="0.8872" style="stop-color:#0073BB"/>
						<stop  offset="1" style="stop-color:#0075BF"/>
					</linearGradient>
					<path class="st9" d="M208.6,81.1v0.2c0.1,0,0.1,0,0.2,0c15.1,0,26.3-3.8,32-10.5C227.8,70,218.7,77.4,208.6,81.1z"/>
				</g>
				<path class="st10" d="M233.1,62.9c-2.3-1.4-6.9-2.9-13-4.5c0.2,0.6,0.2,1.2,0.2,1.8c0,7.2-5.9,8.2-11.6,8.2c-0.1,0-0.1,0-0.2,0
					c-7.4,0-12.3-3-14.7-8.7l-1.3-3.1l-21.1,4l0.8,2.4c3.6,11.2,17.5,18.2,36.3,18.2v-0.2c10.1-3.7,19.3-11.1,32.1-10.3
					c0.2,0,1.4,0,1.7,0.1c0-0.2,0-0.3,0-0.5c0-0.2,0-0.4,0-0.6c0-0.2,0-0.3,0-0.5C242.3,66.3,239.6,63.7,233.1,62.9z M227.8,64.8
					c-1.9-0.5-4-2.4-5.7-3.9c4,1.1,7.1,2.2,9.1,3.2C230.3,64.8,229,65.1,227.8,64.8z"/>
			</g>
		</g>
		<path class="st10" d="M27.4,23.4v-6.6h13.7c7.7,0,14.9,1.4,14.9,11.7v2.5c8.1,1.5,16.6,2.9,25.1,4v-6.8c0-2.4-0.4-4.7-1.2-6.9
			C28.7,12.8,2.3,3.6,2.3,3.6S3.1,14.2,27.4,23.4z"/>
		<path class="st10" d="M100.1,37.2c17.7,1.9,34.7,3,48.1,3.7c-4.2-2.2-8.9-3.9-13.1-5.6c-8.2-3.1-14.1-5.5-16.7-8.7
			c-9.4-1.1-18.2-2.3-26.4-3.5C91.9,29.1,95.3,33.6,100.1,37.2z"/>
		<path class="st10" d="M56.1,47.5c7,1.5,15.3,2.9,25.1,3.8v-9.8c-9.7-0.6-18-1.3-25.1-1.9V47.5z"/>
		<path class="st10" d="M25,35.8c0,0,0.7,0.6,2.4,1.6v-1.2C25.8,36,25,35.8,25,35.8z"/>
		<path class="st10" d="M160.6,68.2c-23,2.4-49.3,1.9-49.3,1.9s13.8,4.9,42.3,5.1C156.7,73.3,159,70.9,160.6,68.2z"/>
		<path class="st10" d="M56.1,55.2v0.5c3.9,1.2,12,3.5,24.5,5.6c0.4-1.3,0.6-2.7,0.7-4.2C68.7,56.5,60.1,55.6,56.1,55.2z"/>
		<path class="st10" d="M112,59.7l-0.7-1.8c-2.5,0-4.8,0-7.2-0.1l-14.5,2.7l0.7,2.3c7.6,1.1,16.2,2,26.1,2.7
			C114.5,64.1,113,62.2,112,59.7z"/>
		<g>
			<defs>
				<path id="SVGID_10_" d="M135.2,35.4C123.9,31,117,28.1,117,22.5c0-6.3,5.5-7.1,10.8-7.1c7.2,0,11.8,2.4,14.1,7.2l1.5,3.2
					l18.1-4.2v-4.9c-5.8-9.1-18-14.1-34.7-14.1c-20.8,0-34.8,8.2-34.8,20.4c0,13,15.3,18.9,27.7,23.6c11.7,4.5,18.9,7.5,18.9,13.7
					c0,7.2-5.9,8.2-11.6,8.2c-7.5,0-12.5-2.9-14.8-8.7l-1.3-3.1l-21.1,4l0.8,2.4c3.6,11.2,17.6,18.2,36.5,18.2
					c22.3,0,36.2-8.4,36.2-22C163.2,46,147.7,40.1,135.2,35.4z"/>
			</defs>
			<clipPath id="SVGID_11_">
				<use xlink:href="#SVGID_10_"  style="overflow:visible;"/>
			</clipPath>
			<g class="st11">
				<path class="st12" d="M147.7,57c4.2-0.2,9.1-0.5,12.8-0.8v-0.1C157.1,56.4,152.9,56.7,147.7,57z"/>
				<path class="st12" d="M146,57.1c-0.3,0-0.6,0-0.9,0C145.3,57.1,145.6,57.1,146,57.1z"/>
				<path class="st12" d="M146.8,66.5c-0.1,0-0.1,0-0.2,0C146.7,66.5,146.7,66.5,146.8,66.5z"/>
				<path class="st12" d="M148.8,54c-4.1,0-8.4,0-12.5-0.1C140.8,54,145,54,148.8,54z"/>
				<path class="st12" d="M147,57c-0.1,0-0.1,0-0.2,0C146.8,57.1,146.9,57.1,147,57z"/>
				<path class="st12" d="M145.8,66.5c-0.1,0-0.2,0-0.3,0C145.6,66.5,145.7,66.5,145.8,66.5z"/>
				<path class="st3" d="M146,57.1c0.3,0,0.5,0,0.8,0c0.1,0,0.1,0,0.2,0c0.2,0,0.5,0,0.8,0c5.2-0.3,9.4-0.6,12.8-0.9v0.1
					c0.8-0.1,1.5-0.1,2.2-0.2c-0.2-0.7-0.4-1.5-0.6-2.2c-3.6,0-8.3,0.1-13.3,0.1c-3.9,0-8.1,0-12.5-0.1c-0.5,0-0.9,0-1.3,0
					c1.3,1.1,2.3,2.2,2.9,3.5c2.3-0.1,4.7-0.2,7.1-0.3C145.3,57.1,145.7,57.1,146,57.1z"/>
				<linearGradient id="SVGID_12_" gradientUnits="userSpaceOnUse" x1="90.3692" y1="72.0591" x2="161.5855" y2="72.0591">
					<stop  offset="5.376344e-03" style="stop-color:#000000"/>
					<stop  offset="0.1569" style="stop-color:#003754"/>
					<stop  offset="0.3891" style="stop-color:#00547F"/>
					<stop  offset="0.598" style="stop-color:#00659C"/>
					<stop  offset="0.7759" style="stop-color:#006EAF"/>
					<stop  offset="0.9156" style="stop-color:#0072B9"/>
					<stop  offset="1" style="stop-color:#0075BF"/>
				</linearGradient>
				<path class="st13" d="M160.6,68.2c0.4-0.6,0.7-1.2,0.9-1.8c-4.2,0.1-10,0.1-14.8,0.1c-0.1,0-0.1,0-0.2,0c-0.3,0-0.6,0-0.9,0
					c-0.1,0-0.2,0-0.3,0c-0.3,0-0.7,0-1,0c-2.9,0-5.8-0.1-8.6-0.1c-2.2,1.7-5.6,2-9,2c-4.3,0-7.8-1-10.5-2.9
					c-9.8-0.7-18.5-1.6-26.1-2.7l0.1,0.2C94,74.3,108,81.3,126.9,81.3c11.3,0,20.4-2.2,26.7-6.1c-28.4-0.2-42.3-5.1-42.3-5.1
					S137.6,70.6,160.6,68.2z"/>
				<path class="st14" d="M135,53.9c0.4,0,0.9,0,1.3,0C135.9,53.9,135.5,53.9,135,53.9z"/>
				<path class="st10" d="M152.9,43.6c-9.7,0.2-23.3,0.1-42.2-0.6c3,1.3,6,2.4,8.8,3.5c6.9,2.6,12.3,4.8,15.5,7.4c0.5,0,0.9,0,1.3,0
					c4,0,8.3,0.1,12.5,0.1c5,0,9.6,0,13.3-0.1c0.5,0,0.9,0,1.3,0v-3.1C161.6,48,156,45.6,152.9,43.6z"/>
				<path class="st14" d="M146.6,66.5c-0.3,0-0.6,0-0.9,0C146.1,66.5,146.3,66.5,146.6,66.5z"/>
				<path class="st14" d="M146.7,57.1c-0.3,0-0.5,0-0.8,0C146.2,57.1,146.5,57.1,146.7,57.1z"/>
				<path class="st14" d="M147.7,57c-0.3,0-0.5,0-0.8,0C147.2,57,147.5,57,147.7,57z"/>
				<path class="st10" d="M162.7,56.1c-0.7,0.1-1.4,0.1-2.2,0.2c-3.8,0.3-8.6,0.5-12.8,0.8c-0.3,0-0.5,0-0.8,0c-0.1,0-0.1,0-0.2,0
					c-0.3,0-0.5,0-0.8,0c-0.3,0-0.6,0-0.9,0c-2.4,0.1-4.8,0.2-7.1,0.3c0.4,0.9,0.6,1.8,0.6,2.8c0,3-1,4.9-2.6,6.2
					c2.8,0.1,5.6,0.1,8.6,0.1c0.3,0,0.7,0,1,0c0.1,0,0.2,0,0.3,0c0.3,0,0.6,0,0.9,0c0.1,0,0.1,0,0.2,0c4.7,0,10.5,0,14.8-0.1
					c1-2.2,1.5-4.6,1.5-7.1C163,58.2,162.9,57.1,162.7,56.1z"/>
				<path class="st14" d="M145.4,66.5c-0.3,0-0.7,0-1,0C144.8,66.5,145.1,66.5,145.4,66.5z"/>
			</g>
		</g>
	</g>
	<g>
		<g>
			<path class="st3" d="M272.8,2.8h3.2c2.9,0,6.6,0.2,6.6,7.2v5.9c0,7-3.7,7.2-6.6,7.2h-3.2V2.8z M276.7,20.8c2.2,0,2.8-1,2.8-4.8
				V9.8c0-3.8-0.5-4.8-2.8-4.8h-0.8v15.8H276.7z"/>
			<path class="st3" d="M285.4,2.8h7.5v3.3h-4.4v5.1h3.4v2.4h-3.4v6.9h4.5V23h-7.6V2.8z"/>
			<path class="st3" d="M295.2,2.8h7.7v3.3h-4.7v5.1h3.7v2.4h-3.7V23h-3.1V2.8z"/>
			<path class="st3" d="M304.9,2.8h7.5v3.3H308v5.1h3.4v2.4H308v6.9h4.5V23h-7.6V2.8z"/>
			<path class="st3" d="M314.7,2.8h2.5l4.9,13.5h0.1c-0.1-1.3-0.3-3-0.3-6.1V2.8h2.7V23h-2.5l-4.9-13.2h-0.1
				c0.1,1.4,0.3,3.1,0.3,7.2V23h-2.7V2.8z"/>
			<path class="st3" d="M327.6,16.5h2.4v1c0,2.2,0.5,3.4,2,3.4c1.2,0,1.8-0.7,1.8-1.9c0-1.3-0.3-2-1.4-3.4l-3.2-3.8
				c-1.1-1.4-1.8-2.9-1.8-4.6c0-2.7,1.7-4.6,4.6-4.6c3.6,0,4.6,2.2,4.6,4.3c0,0.9-0.2,1.5-0.3,2.4h-2.4v-1c0-2.1-0.6-3.3-2-3.3
				c-1.1,0-1.7,0.7-1.7,1.8c0,1.1,0.4,1.7,1,2.5l3.6,4.3c1.3,1.7,2,3.2,2,4.9c0,2.9-1.9,4.7-4.8,4.7c-3.7,0-4.7-2.1-4.7-4.3
				C327.3,18,327.4,17.3,327.6,16.5z"/>
			<path class="st3" d="M339.4,2.8h7.5v3.3h-4.4v5.1h3.4v2.4h-3.4v6.9h4.5V23h-7.6V2.8z"/>
			<path class="st3" d="M272.3,45.5h2.4v1c0,2.2,0.5,3.4,2,3.4c1.2,0,1.8-0.7,1.8-1.9c0-1.3-0.3-2-1.4-3.4l-3.2-3.8
				c-1.1-1.4-1.8-2.9-1.8-4.6c0-2.7,1.7-4.6,4.6-4.6c3.6,0,4.6,2.2,4.6,4.3c0,0.9-0.2,1.5-0.3,2.4h-2.4v-1c0-2.1-0.6-3.3-2-3.3
				c-1.1,0-1.7,0.7-1.7,1.8c0,1.1,0.4,1.7,1,2.5l3.6,4.3c1.3,1.7,2,3.2,2,4.9c0,2.9-1.9,4.7-4.8,4.7c-3.7,0-4.7-2.1-4.7-4.3
				C272,47.1,272.1,46.4,272.3,45.5z"/>
			<path class="st3" d="M286.5,45.3l-4.1-13.5h3.1l2.5,9.7h0.1l2.4-9.7h3.1l-4.1,13.5V52h-3.1V45.3z"/>
			<path class="st3" d="M295,45.5h2.4v1c0,2.2,0.5,3.4,2,3.4c1.2,0,1.8-0.7,1.8-1.9c0-1.3-0.3-2-1.4-3.4l-3.2-3.8
				c-1.1-1.4-1.8-2.9-1.8-4.6c0-2.7,1.7-4.6,4.6-4.6c3.6,0,4.6,2.2,4.6,4.3c0,0.9-0.2,1.5-0.3,2.4h-2.4v-1c0-2.1-0.6-3.3-2-3.3
				c-1.1,0-1.7,0.7-1.7,1.8c0,1.1,0.4,1.7,1,2.5l3.6,4.3c1.3,1.7,2,3.2,2,4.9c0,2.9-1.9,4.7-4.8,4.7c-3.7,0-4.7-2.1-4.7-4.3
				C294.7,47.1,294.8,46.4,295,45.5z"/>
			<path class="st3" d="M308.6,35.2h-3.3v-3.3h9.6v3.3h-3.2V52h-3.1V35.2z"/>
			<path class="st3" d="M317,31.8h7.5v3.3h-4.4v5.1h3.4v2.4h-3.4v6.9h4.5V52H317V31.8z"/>
			<path class="st3" d="M326.8,31.8h4l1.9,7.8c0.4,1.7,0.6,3.3,0.8,4.7h0.1c0.2-1.4,0.4-3,0.8-4.7l2-7.8h3.9V52h-2.9v-6.7
				c0-4.1,0.2-7.7,0.3-9.1h-0.2l-3,13.2h-1.9l-3.1-13.2h-0.2c0.1,1.4,0.3,5,0.3,9.1V52h-2.9V31.8z"/>
			<path class="st3" d="M343.4,45.5h2.4v1c0,2.2,0.5,3.4,2,3.4c1.2,0,1.8-0.7,1.8-1.9c0-1.3-0.3-2-1.4-3.4l-3.2-3.8
				c-1.1-1.4-1.8-2.9-1.8-4.6c0-2.7,1.7-4.6,4.6-4.6c3.6,0,4.6,2.2,4.6,4.3c0,0.9-0.2,1.5-0.3,2.4h-2.4v-1c0-2.1-0.6-3.3-2-3.3
				c-1.1,0-1.7,0.7-1.7,1.8c0,1.1,0.4,1.7,1,2.5l3.6,4.3c1.3,1.7,2,3.2,2,4.9c0,2.9-1.9,4.7-4.8,4.7c-3.7,0-4.7-2.1-4.7-4.3
				C343.1,47.1,343.2,46.4,343.4,45.5z"/>
			<path class="st3" d="M272.3,74.6h2.4v1c0,2.2,0.5,3.4,2,3.4c1.2,0,1.8-0.7,1.8-1.9c0-1.3-0.3-2-1.4-3.4l-3.2-3.8
				c-1.1-1.4-1.8-2.9-1.8-4.6c0-2.7,1.7-4.6,4.6-4.6c3.6,0,4.6,2.2,4.6,4.3c0,0.9-0.2,1.5-0.3,2.4h-2.4v-1c0-2.1-0.6-3.3-2-3.3
				c-1.1,0-1.7,0.7-1.7,1.8c0,1.1,0.4,1.7,1,2.5l3.6,4.3c1.3,1.7,2,3.2,2,4.9c0,2.9-1.9,4.7-4.8,4.7c-3.7,0-4.7-2.1-4.7-4.3
				C272,76.1,272.1,75.4,272.3,74.6z"/>
			<path class="st3" d="M284.1,74.5v-7.2c0-6.1,3.1-6.6,5-6.6c1.8,0,5,0.5,5,6.6v7.2c0,6-3.2,6.7-5,6.7
				C287.2,81.3,284.1,80.6,284.1,74.5z M290.9,75.7v-9.2c0-2.6-0.6-3.4-1.8-3.4c-1.2,0-1.8,0.8-1.8,3.4v9.2c0,2.5,0.6,3.3,1.8,3.3
				C290.3,78.9,290.9,78.2,290.9,75.7z"/>
			<path class="st3" d="M296.7,60.9h3.1v17.8h4.2v2.4h-7.2V60.9z"/>
			<path class="st3" d="M306.5,60.9h3.1v14.8c0,2.5,0.5,3.3,1.7,3.3c1.2,0,1.8-0.8,1.8-3.3V60.9h3v14c0,5.9-3.1,6.4-4.8,6.4
				c-1.7,0-4.8-0.4-4.8-6.4V60.9z"/>
			<path class="st3" d="M322,64.2h-3.3v-3.3h9.6v3.3H325v16.8H322V64.2z"/>
			<path class="st3" d="M330.8,60.9h3.1v20.2h-3.1V60.9z"/>
			<path class="st3" d="M336.5,74.5v-7.2c0-6.1,3.1-6.6,5-6.6c1.8,0,5,0.5,5,6.6v7.2c0,6-3.2,6.7-5,6.7
				C339.5,81.3,336.5,80.6,336.5,74.5z M343.3,75.7v-9.2c0-2.6-0.6-3.4-1.8-3.4c-1.2,0-1.8,0.8-1.8,3.4v9.2c0,2.5,0.6,3.3,1.8,3.3
				C342.7,78.9,343.3,78.2,343.3,75.7z"/>
			<path class="st3" d="M349,60.9h2.5l4.9,13.5h0.1c-0.1-1.3-0.3-3-0.3-6.1v-7.4h2.7v20.2h-2.5l-4.9-13.2h-0.1
				c0.1,1.4,0.3,3.1,0.3,7.2v5.9H349V60.9z"/>
			<path class="st3" d="M361.8,74.6h2.4v1c0,2.2,0.5,3.4,2,3.4c1.2,0,1.8-0.7,1.8-1.9c0-1.3-0.3-2-1.4-3.4l-3.2-3.8
				c-1.1-1.4-1.8-2.9-1.8-4.6c0-2.7,1.7-4.6,4.6-4.6c3.6,0,4.6,2.2,4.6,4.3c0,0.9-0.2,1.5-0.3,2.4h-2.4v-1c0-2.1-0.6-3.3-2-3.3
				c-1.1,0-1.7,0.7-1.7,1.8c0,1.1,0.4,1.7,1,2.5l3.6,4.3c1.3,1.7,2,3.2,2,4.9c0,2.9-1.9,4.7-4.8,4.7c-3.7,0-4.7-2.1-4.7-4.3
				C361.5,76.1,361.6,75.4,361.8,74.6z"/>
			<g>
				<path class="st3" d="M361.8,41.6l0.3-0.3l-0.4-0.7c-0.8-1.4-1.5-3.1-1.5-4.8c0-2.6,1.9-4.3,4.3-4.3c3.1,0,3.9,2.1,3.9,3.5
					c0,2.8-2.1,4.8-3,5.9l-0.2,0.3l2.9,5.3c0.3-0.8,0.4-1.7,0.4-2.7c0-0.5,0-0.9,0-1.3h2.4c0.1,0.4,0.1,0.9,0.1,1.3
					c0,1.8-0.6,3.5-1.6,5l1.8,3.2h-3l-0.6-1.1c-1.1,0.8-2.3,1.3-3.5,1.3c-2.9,0-4.9-1.7-4.9-4.8C358.9,44.7,360.8,42.7,361.8,41.6z
					 M364.4,49.9c0.7,0,1.4-0.3,2-0.9l-3.2-5.8c-0.9,1.1-1.4,2.4-1.4,3.6C361.8,48.3,362.6,49.9,364.4,49.9z M364.2,39
					c0.6-0.7,1.7-1.9,1.7-3.5c0-1.1-0.7-1.7-1.4-1.7c-0.7,0-1.6,0.5-1.6,2c0,1,0.3,1.9,1.1,3.5L364.2,39z"/>
			</g>
		</g>
	</g>
	<rect x="257.7" y="2.6" class="st0" width="3.2" height="78.7"/>
</g>
</svg>
