<?xml version="1.0" encoding="UTF-8" standalone="no"?>
<svg
   viewBox="0.8 0.87 170.63 57.55"
   version="1.1"
   id="svg2"
   sodipodi:docname="markup-cropped(1).svg"
   inkscape:version="1.3 (0e150ed6c4, 2023-07-21)"
   xmlns:inkscape="http://www.inkscape.org/namespaces/inkscape"
   xmlns:sodipodi="http://sodipodi.sourceforge.net/DTD/sodipodi-0.dtd"
   xmlns="http://www.w3.org/2000/svg"
   xmlns:svg="http://www.w3.org/2000/svg">
  <defs
     id="defs2" />
  <sodipodi:namedview
     id="namedview2"
     pagecolor="#ffffff"
     bordercolor="#000000"
     borderopacity="0.25"
     inkscape:showpageshadow="2"
     inkscape:pageopacity="0.0"
     inkscape:pagecheckerboard="0"
     inkscape:deskcolor="#d1d1d1"
     inkscape:zoom="4.4306393"
     inkscape:cx="85.315002"
     inkscape:cy="28.776886"
     inkscape:window-width="1920"
     inkscape:window-height="1001"
     inkscape:window-x="-9"
     inkscape:window-y="-9"
     inkscape:window-maximized="1"
     inkscape:current-layer="svg2" />
  <path
     class="svg-inner-logo"
     fill="#fff"
     d="M1.1 30.2h27c9 0 12.1-2.9 12.1-10.2v-8.9C40.2 3.9 37.1.9 28.1.9h-27v29.3zm9-21.9H26c3.8 0 5.3 1.1 5.3 5.2v4c0 4.2-1.5 5.2-5.3 5.2H10.1V8.3zm36 21.9h9V1h-9v29.2zm15.4 0H94v-7H70.5v-4.7h21.8v-6.1H70.5V7.7h23V.9h-32v29.3zm38 0h9V19.1h18.9v11.1h9V1h-9v10.4h-18.9V1h-9v29.2zm42.8 0h29.1v-7.5h-20.1V1h-9v29.2z"
     style="fill:#6b7179;fill-opacity:1"
     data-darkreader-inline-fill=""
     id="path1" />
  <path
     class="svg-inner-claim"
     fill="#5b91cc"
     d="M.8 58h5.5c6.2 0 10-3.3 10-9.5 0-5.8-4.4-9.2-10-9.2H.8V58zm2.6-16.4h3.1c3.9 0 6.9 2.6 6.9 7 0 4.8-2.6 7.1-7.2 7.1H3.4V41.6zm27.2 13.3c-.6.5-2.6 1.4-4.2 1.4-2.4 0-4.5-1.9-4.5-4.6h9.8c0-4.4-1.5-7.7-6.1-7.7-3.9 0-6.4 2.9-6.4 6.9 0 4.5 2.2 7.4 7.1 7.4 2.3 0 3.4-.5 4.3-.9v-2.5zm-8.7-5.1c.2-1.8 1.2-3.8 3.7-3.8 2.2 0 3.4 1.7 3.4 3.8h-7.1zM36.6 58h2.5V46.3h3.6v-2h-3.6v-1.5c0-1.9.3-3.3 2.4-3.3.4 0 .9.1 1.2.2l.1-2c-.5-.1-1-.2-1.7-.2-3.7 0-4.6 2.2-4.6 5.5v1.3h-3.2v2h3.2V58h.1zm19.5-3.1c-.6.5-2.6 1.4-4.2 1.4-2.4 0-4.5-1.9-4.5-4.6h9.8c0-4.4-1.5-7.7-6.1-7.7-3.9 0-6.4 2.9-6.4 6.9 0 4.5 2.2 7.4 7.1 7.4 2.3 0 3.4-.5 4.3-.9v-2.5zm-8.8-5.1C47.5 48 48.5 46 51 46c2.2 0 3.4 1.7 3.4 3.8h-7.1zM60.5 58H63v-6.3c0-3.3 1.3-5.6 4.2-5.6 2.2.1 2.9 1.7 2.9 4.9v7.1h2.5V50c0-3.7-1.6-5.9-5.1-5.9-1.9 0-3.7.9-4.5 2.5h-.1v-2.2h-2.4V58zm25.4-13.5c-.7-.3-2-.5-3.1-.5-4.2 0-7 3-7 7.2 0 3.9 2.9 7.2 7 7.2.9 0 2.1-.1 3.2-.6l-.2-2.3c-.8.5-1.9.8-2.8.8-3.3 0-4.6-2.7-4.6-5.1 0-2.6 1.6-5.1 4.4-5.1.8 0 1.8.2 2.7.6l.4-2.2zm13.5 10.4c-.6.5-2.6 1.4-4.2 1.4-2.4 0-4.5-1.9-4.5-4.6h9.8c0-4.4-1.5-7.7-6.1-7.7-3.9 0-6.4 2.9-6.4 6.9 0 4.5 2.2 7.4 7.1 7.4 2.3 0 3.4-.5 4.3-.9v-2.5zm-8.8-5.1c.2-1.8 1.2-3.8 3.7-3.8 2.2 0 3.4 1.7 3.4 3.8h-7.1z"
     style="fill:#5f8fcc;fill-opacity:1"
     data-darkreader-inline-fill=""
     id="path2" />
</svg>
