<svg width="427" height="139" viewBox="0 0 427 139" fill="none" xmlns="http://www.w3.org/2000/svg">
<path d="M196.027 70.1415C196.027 65.4235 195.018 62.1876 192.989 60.4372C190.97 58.685 188.549 57.809 185.715 57.809C182.888 57.809 180.493 58.7161 178.539 60.5375C176.586 62.3552 175.541 65.5592 175.408 70.1415H196.027ZM150.341 68.7241C150.341 63.8746 151.249 59.2936 153.075 54.9813C154.889 50.6702 157.42 46.8926 160.651 43.6634C163.888 40.4241 167.658 37.8997 171.973 36.0799C176.285 34.2635 180.868 33.3501 185.715 33.3501C190.566 33.3501 195.148 34.2635 199.462 36.0799C203.775 37.8997 207.551 40.4241 210.78 43.6634C214.013 46.8926 216.54 50.6702 218.363 54.9813C220.183 59.2936 221.089 63.8746 221.089 68.7241V92.3745H175.408V103.087C175.408 105.919 176.415 108.344 178.44 110.363C180.461 112.388 182.888 113.399 185.715 113.399C189.084 113.399 191.509 112.76 192.989 111.475C194.471 110.196 195.52 108.782 196.127 107.231C196.733 105.685 197.067 104.271 197.138 102.983C197.202 101.707 197.51 101.068 198.049 101.068L221.089 105.515C221.089 109.69 220.183 113.77 218.363 117.748C216.54 121.72 214.013 125.223 210.78 128.253C207.551 131.286 203.775 133.744 199.462 135.635C195.148 137.52 190.566 138.463 185.715 138.463C180.868 138.463 176.285 137.556 171.973 135.736C167.658 133.914 163.888 131.385 160.651 128.155C157.42 124.92 154.889 121.147 153.075 116.839C151.249 112.52 150.341 107.937 150.341 103.087V68.7241Z" fill="#231F20"/>
<path d="M272.839 68.7241C272.839 65.8939 271.826 63.4685 269.804 61.4472C267.783 59.4292 265.357 58.4175 262.523 58.4175C259.698 58.4175 257.269 59.4292 255.25 61.4472C253.227 63.4685 252.218 65.8939 252.218 68.7241V103.087C252.218 105.919 253.227 108.344 255.25 110.363C257.269 112.388 259.698 113.399 262.523 113.399C265.357 113.399 267.783 112.388 269.804 110.363C271.826 108.344 272.839 105.919 272.839 103.087V68.7241ZM227.153 4.04096L252.218 -3.27419e-05V34.9699C256.796 33.8914 260.235 33.3501 262.523 33.3501C267.378 33.3501 271.957 34.2635 276.271 36.0799C280.582 37.8997 284.358 40.4241 287.593 43.6634C290.82 46.8926 293.35 50.6702 295.169 54.9813C296.99 59.2936 297.894 63.8746 297.894 68.7241V103.087C297.894 108.21 297.053 112.792 295.376 116.839C293.684 120.876 291.262 124.385 288.097 127.349C284.931 130.308 281.188 132.57 276.881 134.112C272.563 135.666 267.783 136.444 262.523 136.444H227.153V4.04096Z" fill="#231F20"/>
<path d="M303.963 68.7241C303.963 63.7465 304.799 59.1915 306.491 55.0808C308.168 50.9701 310.599 47.4339 313.766 44.4681C316.929 41.5043 320.668 39.2474 324.984 37.693C329.294 36.1484 334.077 35.3756 339.337 35.3756H345.597L349.641 58.4175H339.337C336.503 58.4175 334.077 59.4292 332.053 61.4472C330.035 63.4685 329.026 65.8939 329.026 68.7241V136.444H303.963V68.7241Z" fill="#231F20"/>
<path d="M355.707 68.7241C355.707 63.8746 356.619 59.2936 358.435 54.9813C360.257 50.6702 362.783 46.8926 366.02 43.6634C369.249 40.4241 373.023 37.8997 377.339 36.0799C381.646 34.2635 386.232 33.3501 391.082 33.3501C395.933 33.3501 400.515 34.2917 404.826 36.1803C409.134 38.0693 412.914 40.5627 416.151 43.6634C419.381 46.7569 421.908 50.2633 423.731 54.1686C425.549 58.0857 426.461 61.9869 426.461 65.8939L403.409 70.1415C402.328 66.2349 401.055 63.2997 399.575 61.3464C398.088 59.3956 395.598 58.4175 392.096 58.4175C388.587 58.4175 385.826 59.4292 383.802 61.4472C381.784 63.4685 380.775 65.8939 380.775 68.7241V103.087C380.775 105.919 381.784 108.344 383.802 110.363C385.826 112.388 388.25 113.399 391.082 113.399C394.314 113.399 396.674 112.76 398.156 111.475C399.638 110.196 400.712 108.782 401.391 107.231C402.068 105.685 402.469 104.271 402.602 102.983C402.736 101.707 403.007 101.068 403.409 101.068L426.461 105.515C426.461 109.828 425.549 113.967 423.731 117.945C421.908 121.924 419.381 125.425 416.151 128.456C412.914 131.486 409.134 133.914 404.826 135.736C400.515 137.556 395.933 138.463 391.082 138.463C386.232 138.463 381.646 137.556 377.339 135.736C373.023 133.914 369.249 131.385 366.02 128.155C362.783 124.92 360.257 121.147 358.435 116.839C356.619 112.52 355.707 107.937 355.707 103.087V68.7241Z" fill="#231F20"/>
<path d="M129.619 138.195H124.766V0.518675H129.619V138.195Z" fill="#231F20"/>
<path d="M63.259 4.61595C63.259 6.93925 61.3792 8.82367 59.0546 8.82367C56.7356 8.82367 54.8507 6.93925 54.8507 4.61595C54.8507 2.29811 56.7356 0.41159 59.0546 0.41159C61.3792 0.41159 63.259 2.29811 63.259 4.61595Z" fill="#231F20"/>
<path d="M49.5456 4.61595C49.5456 6.93925 47.6646 8.82367 45.3417 8.82367C43.0213 8.82367 41.1373 6.93925 41.1373 4.61595C41.1373 2.29811 43.0213 0.41159 45.3417 0.41159C47.6646 0.41159 49.5456 2.29811 49.5456 4.61595Z" fill="#231F20"/>
<path d="M63.259 23.1102C63.259 25.4335 61.3792 27.3145 59.0546 27.3145C56.7356 27.3145 54.8507 25.4335 54.8507 23.1102C54.8507 20.7915 56.7356 18.9062 59.0546 18.9062C61.3792 18.9062 63.259 20.7915 63.259 23.1102Z" fill="#231F20"/>
<path d="M63.259 41.6415C63.259 43.9644 61.3792 45.8459 59.0546 45.8459C56.7356 45.8459 54.8507 43.9644 54.8507 41.6415C54.8507 39.3228 56.7356 37.4371 59.0546 37.4371C61.3792 37.4371 63.259 39.3228 63.259 41.6415Z" fill="#0F80CC"/>
<path d="M49.5456 23.1102C49.5456 25.4335 47.6646 27.3145 45.3417 27.3145C43.0213 27.3145 41.1373 25.4335 41.1373 23.1102C41.1373 20.7915 43.0213 18.9062 45.3417 18.9062C47.6646 18.9062 49.5456 20.7915 49.5456 23.1102Z" fill="#231F20"/>
<path d="M104.398 41.6047C104.398 43.9284 102.514 45.809 100.19 45.809C97.8703 45.809 95.9855 43.9284 95.9855 41.6047C95.9855 39.2822 97.8703 37.4011 100.19 37.4011C102.514 37.4011 104.398 39.2822 104.398 41.6047Z" fill="#231F20"/>
<path d="M90.6847 41.6047C90.6847 43.9284 88.7994 45.809 86.4799 45.809C84.1562 45.809 82.2751 43.9284 82.2751 41.6047C82.2751 39.2822 84.1562 37.4011 86.4799 37.4011C88.7994 37.4011 90.6847 39.2822 90.6847 41.6047Z" fill="#231F20"/>
<path d="M76.9702 41.6047C76.9702 43.9284 75.0891 45.809 72.7658 45.809C70.4417 45.809 68.5619 43.9284 68.5619 41.6047C68.5619 39.2822 70.4417 37.4011 72.7658 37.4011C75.0891 37.4011 76.9702 39.2822 76.9702 41.6047Z" fill="#231F20"/>
<path d="M49.5456 41.6047C49.5456 43.9284 47.6646 45.809 45.3417 45.809C43.0213 45.809 41.1373 43.9284 41.1373 41.6047C41.1373 39.2822 43.0213 37.4011 45.3417 37.4011C47.6646 37.4011 49.5456 39.2822 49.5456 41.6047Z" fill="#231F20"/>
<path d="M35.836 41.6047C35.836 43.9284 33.9545 45.809 31.6313 45.809C29.3071 45.809 27.4277 43.9284 27.4277 41.6047C27.4277 39.2822 29.3071 37.4011 31.6313 37.4011C33.9545 37.4011 35.836 39.2822 35.836 41.6047Z" fill="#231F20"/>
<path d="M22.1214 41.6047C22.1214 43.9284 20.2404 45.809 17.9166 45.809C15.5967 45.809 13.7123 43.9284 13.7123 41.6047C13.7123 39.2822 15.5967 37.4011 17.9166 37.4011C20.2404 37.4011 22.1214 39.2822 22.1214 41.6047Z" fill="#231F20"/>
<path d="M8.40829 41.6046C8.40829 43.9262 6.52471 45.8073 4.20603 45.8073C1.88274 45.8073 0 43.9262 0 41.6046C0 39.2839 1.88274 37.4028 4.20603 37.4028C6.52471 37.4028 8.40829 39.2839 8.40829 41.6046Z" fill="#231F20"/>
<path d="M104.396 60.0995C104.396 62.4207 102.512 64.3026 100.19 64.3026C97.8709 64.3026 95.9882 62.4207 95.9882 60.0995C95.9882 57.7787 97.8709 55.8938 100.19 55.8938C102.512 55.8938 104.396 57.7787 104.396 60.0995Z" fill="#231F20"/>
<path d="M90.6822 60.0995C90.6822 62.4207 88.7995 64.3026 86.4799 64.3026C84.1591 64.3026 82.2781 62.4207 82.2781 60.0995C82.2781 57.7787 84.1591 55.8938 86.4799 55.8938C88.7995 55.8938 90.6822 57.7787 90.6822 60.0995Z" fill="#231F20"/>
<path d="M76.9682 60.0995C76.9682 62.4207 75.0872 64.3026 72.766 64.3026C70.4418 64.3026 68.5637 62.4207 68.5637 60.0995C68.5637 57.7787 70.4418 55.8938 72.766 55.8938C75.0872 55.8938 76.9682 57.7787 76.9682 60.0995Z" fill="#231F20"/>
<path d="M63.2582 60.0995C63.2582 62.4207 61.3771 64.3026 59.0555 64.3026C56.7368 64.3026 54.8536 62.4207 54.8536 60.0995C54.8536 57.7787 56.7368 55.8938 59.0555 55.8938C61.3771 55.8938 63.2582 57.7787 63.2582 60.0995Z" fill="#231F20"/>
<path d="M49.5439 60.0995C49.5439 62.4207 47.6637 64.3026 45.3417 64.3026C43.0221 64.3026 41.1394 62.4207 41.1394 60.0995C41.1394 57.7787 43.0221 55.8938 45.3417 55.8938C47.6637 55.8938 49.5439 57.7787 49.5439 60.0995Z" fill="#231F20"/>
<path d="M35.8338 60.0995C35.8338 62.4207 33.9527 64.3026 31.6311 64.3026C29.3082 64.3026 27.4297 62.4207 27.4297 60.0995C27.4297 57.7787 29.3082 55.8938 31.6311 55.8938C33.9527 55.8938 35.8338 57.7787 35.8338 60.0995Z" fill="#231F20"/>
<path d="M22.1196 60.0995C22.1196 62.4207 20.2385 64.3026 17.9173 64.3026C15.597 64.3026 13.7151 62.4207 13.7151 60.0995C13.7151 57.7787 15.597 55.8938 17.9173 55.8938C20.2385 55.8938 22.1196 57.7787 22.1196 60.0995Z" fill="#231F20"/>
<path d="M8.40953 60.0995C8.40953 62.4207 6.52469 64.3026 4.20685 64.3026C1.88271 64.3026 0.0012207 62.4207 0.0012207 60.0995C0.0012207 57.7787 1.88271 55.8938 4.20685 55.8938C6.52469 55.8938 8.40953 57.7787 8.40953 60.0995Z" fill="#231F20"/>
<path d="M90.6834 134.073C90.6834 136.395 88.7994 138.277 86.4791 138.277C84.1562 138.277 82.2751 136.395 82.2751 134.073C82.2751 131.75 84.1562 129.868 86.4791 129.868C88.7994 129.868 90.6834 131.75 90.6834 134.073Z" fill="#231F20"/>
<path d="M76.9695 134.073C76.9695 136.395 75.0893 138.277 72.7651 138.277C70.4419 138.277 68.5608 136.395 68.5608 134.073C68.5608 131.75 70.4419 129.868 72.7651 129.868C75.0893 129.868 76.9695 131.75 76.9695 134.073Z" fill="#231F20"/>
<path d="M35.8348 134.073C35.8348 136.395 33.9546 138.277 31.63 138.277C29.3072 138.277 27.4265 136.395 27.4265 134.073C27.4265 131.75 29.3072 129.868 31.63 129.868C33.9546 129.868 35.8348 131.75 35.8348 134.073Z" fill="#231F20"/>
<path d="M22.1203 134.073C22.1203 136.395 20.2405 138.277 17.9164 138.277C15.5969 138.277 13.712 136.395 13.712 134.073C13.712 131.75 15.5969 129.868 17.9164 129.868C20.2405 129.868 22.1203 131.75 22.1203 134.073Z" fill="#231F20"/>
<path d="M90.6847 115.582C90.6847 117.901 88.7994 119.782 86.4799 119.782C84.1562 119.782 82.2751 117.901 82.2751 115.582C82.2751 113.257 84.1562 111.374 86.4799 111.374C88.7994 111.374 90.6847 113.257 90.6847 115.582Z" fill="#231F20"/>
<path d="M76.9702 115.582C76.9702 117.901 75.0891 119.782 72.7658 119.782C70.4417 119.782 68.5619 117.901 68.5619 115.582C68.5619 113.257 70.4417 111.374 72.7658 111.374C75.0891 111.374 76.9702 113.257 76.9702 115.582Z" fill="#231F20"/>
<path d="M35.836 115.582C35.836 117.901 33.9545 119.782 31.6313 119.782C29.3071 119.782 27.4277 117.901 27.4277 115.582C27.4277 113.257 29.3071 111.374 31.6313 111.374C33.9545 111.374 35.836 113.257 35.836 115.582Z" fill="#231F20"/>
<path d="M22.1214 115.582C22.1214 117.901 20.2404 119.782 17.9166 119.782C15.5967 119.782 13.7123 117.901 13.7123 115.582C13.7123 113.257 15.5967 111.374 17.9166 111.374C20.2404 111.374 22.1214 113.257 22.1214 115.582Z" fill="#231F20"/>
<path d="M76.9695 78.5922C76.9695 80.916 75.0893 82.7966 72.7651 82.7966C70.4419 82.7966 68.5608 80.916 68.5608 78.5922C68.5608 76.2731 70.4419 74.3875 72.7651 74.3875C75.0893 74.3875 76.9695 76.2731 76.9695 78.5922Z" fill="#231F20"/>
<path d="M63.259 78.5922C63.259 80.916 61.3792 82.7966 59.0546 82.7966C56.7356 82.7966 54.8507 80.916 54.8507 78.5922C54.8507 76.2731 56.7356 74.3875 59.0546 74.3875C61.3792 74.3875 63.259 76.2731 63.259 78.5922Z" fill="#231F20"/>
<path d="M49.5456 78.5922C49.5456 80.916 47.6646 82.7966 45.3417 82.7966C43.0213 82.7966 41.1373 80.916 41.1373 78.5922C41.1373 76.2731 43.0213 74.3875 45.3417 74.3875C47.6646 74.3875 49.5456 76.2731 49.5456 78.5922Z" fill="#231F20"/>
<path d="M35.8348 78.5922C35.8348 80.916 33.9546 82.7966 31.63 82.7966C29.3072 82.7966 27.4265 80.916 27.4265 78.5922C27.4265 76.2731 29.3072 74.3875 31.63 74.3875C33.9546 74.3875 35.8348 76.2731 35.8348 78.5922Z" fill="#231F20"/>
<path d="M76.9661 97.0871C76.9661 99.4045 75.0884 101.292 72.766 101.292C70.4448 101.292 68.5637 99.4045 68.5637 97.0871C68.5637 94.7697 70.4448 92.8827 72.766 92.8827C75.0884 92.8827 76.9661 94.7697 76.9661 97.0871Z" fill="#231F20"/>
<path d="M63.2559 97.0871C63.2559 99.4045 61.3778 101.292 59.0558 101.292C56.7367 101.292 54.8535 99.4045 54.8535 97.0871C54.8535 94.7697 56.7367 92.8827 59.0558 92.8827C61.3778 92.8827 63.2559 94.7697 63.2559 97.0871Z" fill="#231F20"/>
<path d="M49.5422 97.0871C49.5422 99.4045 47.662 101.292 45.3399 101.292C43.0221 101.292 41.1398 99.4045 41.1398 97.0871C41.1398 94.7697 43.0221 92.8827 45.3399 92.8827C47.662 92.8827 49.5422 94.7697 49.5422 97.0871Z" fill="#231F20"/>
<path d="M35.836 97.0871C35.836 99.4062 33.9545 101.295 31.6313 101.295C29.3071 101.295 27.4277 99.4062 27.4277 97.0871C27.4277 94.7681 29.3071 92.8786 31.6313 92.8786C33.9545 92.8786 35.836 94.7681 35.836 97.0871Z" fill="#231F20"/>
</svg>
