<?xml version="1.0" encoding="UTF-8"?>
<svg xmlns="http://www.w3.org/2000/svg" width="89" height="39" viewBox="0 0 89 39" fill="none">
  <path d="M1.625 0.10437H12.0227V1.83865H3.47807V7.27113H11.5634V9.0054H3.47807V14.5488H12.0227V16.283H1.625V0.10437V0.10437Z" fill="#285ABB"></path>
  <path d="M15.2397 6.34464H13.3945V4.72915H15.2397V2.52765C15.2397 1.37147 16.0474 0.563721 17.3224 0.563721H19.4051V2.18713H17.6708C17.2115 2.18713 16.974 2.41678 16.974 2.88401V4.72915H20.783V2.52765C20.783 1.37147 21.5908 0.563721 22.8657 0.563721H24.9485V2.18713H23.2142C22.7549 2.18713 22.5173 2.41678 22.5173 2.88401V4.72915H24.9405V6.34464H22.5173V16.2752H20.783V6.34464H16.974V16.2752H15.2397V6.34464Z" fill="#285ABB"></path>
  <path d="M36.4998 13.0438C35.6921 15.2374 33.9578 16.5124 31.5346 16.5124C28.4144 16.5124 25.9912 14.0891 25.9912 10.5018C25.9912 6.91446 28.4144 4.49915 31.5346 4.49915C34.6547 4.49915 36.8483 6.81151 36.8483 10.0425C36.8483 10.969 36.7295 11.3095 36.7295 11.3095H27.7176C27.9472 13.5031 29.5865 14.889 31.5266 14.889C32.9125 14.889 34.0687 14.1921 34.6468 13.0438H36.4919H36.4998ZM35.114 9.69406C34.9952 7.61134 33.4985 6.11464 31.5346 6.11464C29.4518 6.11464 27.9551 7.61926 27.7255 9.69406H35.1219H35.114Z" fill="#285ABB"></path>
  <path d="M49.2036 12.4657C48.6255 15.0078 46.6615 16.5124 44.1195 16.5124C40.9994 16.5124 38.5762 14.0891 38.5762 10.5018C38.5762 6.91446 40.9994 4.49915 44.1195 4.49915C46.6615 4.49915 48.6255 6.00377 49.2036 8.427H47.4693C47.01 6.92238 45.735 6.11464 44.1195 6.11464C42.0368 6.11464 40.3105 7.84891 40.3105 10.5018C40.3105 13.1547 42.0447 14.889 44.1195 14.889C45.735 14.889 47.01 14.0812 47.4693 12.4657H49.2036Z" fill="#285ABB"></path>
  <path d="M52.0951 6.3445H50.25V4.72901H52.0951V1.49011H53.8294V4.72109H56.4823V6.33658H53.8294V13.9626C53.8294 14.422 54.0591 14.6595 54.5263 14.6595H56.4902V16.275H54.1779C52.9108 16.275 52.0951 15.4673 52.0951 14.3111V6.3445Z" fill="#285ABB"></path>
  <path d="M58.5312 0.333984H60.4952V2.29791H58.5312V0.333984ZM58.65 4.72115H60.3843V16.2751H58.65V4.72115Z" fill="#285ABB"></path>
  <path d="M62.1348 4.72144H63.9799L67.4485 14.4223H67.9078L71.3763 4.72144H73.2215L69.064 16.2754H66.2923L62.1348 4.72144V4.72144Z" fill="#285ABB"></path>
  <path d="M84.3797 13.0438C83.572 15.2374 81.8377 16.5124 79.4144 16.5124C76.2943 16.5124 73.8711 14.0891 73.8711 10.5018C73.8711 6.91446 76.2943 4.49915 79.4144 4.49915C82.5346 4.49915 84.7281 6.81151 84.7281 10.0425C84.7281 10.969 84.6094 11.3095 84.6094 11.3095H75.5974C75.8271 13.5031 77.4664 14.889 79.4065 14.889C80.7924 14.889 81.9485 14.1921 82.5266 13.0438H84.3718H84.3797ZM82.9939 9.69406C82.8751 7.61134 81.3784 6.11464 79.4144 6.11464C77.3317 6.11464 75.835 7.61926 75.6054 9.69406H83.0018H82.9939Z" fill="#285ABB"></path>
  <path d="M0.0107422 22.4047H1.97467L7.05871 36.6115H7.51802L12.6021 22.4047H14.566L8.6742 38.5754H5.90253L0.0107422 22.4047V22.4047Z" fill="#285ABB"></path>
  <path d="M25.0574 35.3441C24.2497 37.5377 22.5154 38.8127 20.0922 38.8127C16.9721 38.8127 14.5488 36.3894 14.5488 32.81C14.5488 29.2306 16.9721 26.7994 20.0922 26.7994C23.2123 26.7994 25.4059 29.1118 25.4059 32.3428C25.4059 33.2693 25.2871 33.6098 25.2871 33.6098H16.2752C16.5048 35.8034 18.1441 37.1893 20.0843 37.1893C21.4701 37.1893 22.6263 36.4924 23.2044 35.3441H25.0495H25.0574ZM23.6716 31.9943C23.5528 29.9116 22.0561 28.4149 20.0922 28.4149C18.0095 28.4149 16.5128 29.9196 16.2831 31.9943H23.6795H23.6716Z" fill="#285ABB"></path>
  <path d="M27.7871 27.0214H29.2917L29.5214 28.2884H29.6402C29.6402 28.2884 30.7964 26.7838 33.1087 26.7838C35.7616 26.7838 37.7255 28.7477 37.7255 31.6382V38.5674H35.9913V31.6382C35.9913 29.7931 34.6054 28.4072 32.8712 28.4072C31.026 28.4072 29.5214 29.9118 29.5214 31.6382V38.5674H27.7871V27.0135V27.0214Z" fill="#285ABB"></path>
  <path d="M41.1664 28.6447H39.3213V27.0292H41.1664V23.7982H42.9007V27.0292H45.5536V28.6447H42.9007V36.2708C42.9007 36.7301 43.1304 36.9676 43.5976 36.9676H45.5615V38.5831H43.2491C41.9821 38.5831 41.1664 37.7754 41.1664 36.6192V28.6447V28.6447Z" fill="#285ABB"></path>
  <path d="M47.6621 27.0214H49.3964V33.9505C49.3964 35.7957 50.7822 37.1815 52.5165 37.1815C54.3616 37.1815 55.8663 35.6769 55.8663 33.9505V27.0214H57.6005V38.5753H56.0959L55.8663 37.3082H55.7475C55.7475 37.3082 54.5913 38.8129 52.2789 38.8129C49.6181 38.8129 47.6621 36.8489 47.6621 33.9585V27.0293V27.0214Z" fill="#285ABB"></path>
  <path d="M60.624 27.0214H62.1286L62.3583 28.1775H62.4771C62.9364 27.4807 63.4036 27.0214 64.6707 27.0214H66.6346V28.6369H64.9003C63.2848 28.6369 62.3583 29.5634 62.3583 31.1789V38.5753H60.624V27.0214V27.0214Z" fill="#285ABB"></path>
  <path d="M77.9031 35.3441C77.0954 37.5377 75.3611 38.8127 72.9379 38.8127C69.8178 38.8127 67.3945 36.3894 67.3945 32.81C67.3945 29.2306 69.8178 26.7994 72.9379 26.7994C76.058 26.7994 78.2516 29.1118 78.2516 32.3428C78.2516 33.2693 78.1328 33.6098 78.1328 33.6098H69.1209C69.3505 35.8034 70.9898 37.1893 72.93 37.1893C74.3158 37.1893 75.472 36.4924 76.0501 35.3441H77.8952H77.9031ZM76.5173 31.9943C76.3985 29.9116 74.9018 28.4149 72.9379 28.4149C70.8552 28.4149 69.3585 29.9196 69.1288 31.9943H76.5252H76.5173Z" fill="#285ABB"></path>
  <path d="M81.5369 35.2254C81.5369 36.2628 82.5743 37.1894 84.4274 37.1894C86.2804 37.1894 87.199 36.3816 87.199 35.4551C87.199 34.5286 86.621 33.9505 85.2351 33.7208L83.2712 33.3724C81.1885 33.0239 80.0402 31.9865 80.0402 30.1414C80.0402 28.2962 81.426 26.7916 84.3165 26.7916C87.207 26.7916 88.8225 28.5259 88.8225 30.371H87.0882C87.0882 29.3336 86.0508 28.4071 84.3165 28.4071C82.5822 28.4071 81.7745 29.2149 81.7745 30.1414C81.7745 30.9491 82.2338 31.5035 83.6196 31.7569L85.5835 32.1053C87.8959 32.5171 88.9333 33.6099 88.9333 35.4551C88.9333 37.3002 87.4287 38.8049 84.4274 38.8049C81.426 38.8049 79.8105 37.0706 79.8105 35.2254H81.5448H81.5369Z" fill="#285ABB"></path>
</svg>
