<?xml version="1.0" encoding="utf-8"?>
<!-- Generator: Adobe Illustrator 28.0.0, SVG Export Plug-In . SVG Version: 6.00 Build 0)  -->
<svg version="1.1" id="Layer_1" xmlns="http://www.w3.org/2000/svg" xmlns:xlink="http://www.w3.org/1999/xlink" x="0px" y="0px"
	 viewBox="0 0 349 60.7" style="enable-background:new 0 0 349 60.7;" xml:space="preserve">
<style type="text/css">
	.st0{fill:#989898;}
	.st1{fill:#00CCFF;}
	.st2{fill:#0033FF;}
	.st3{fill:#0080FF;}
</style>
<g>
	<g>
		<path class="st0" d="M324.3,20.8l-12.9,27.3h-3.9L324,13.4h0.8l16.2,34.6h-3.7L324.3,20.8z"/>
		<path d="M81.2,12.7h23.4v6.5H87.8v8h14.5v6.5H87.8v8.1h16.8v6.5H81.2V12.7z"/>
		<path d="M115.7,25c2.5-2.1,4.7-3.3,7.6-3.3c4.8,0,8.8,3.3,8.8,8.8v17.5h-6.4V35.9c0-5.1-0.4-8.3-4.3-8.3c-1.8,0-3.3,0.9-4.3,2.5
			c-1.3,2.1-1.3,4.4-1.3,7v10.9h-6.4V22.4h6.4V25z"/>
		<path d="M169.1,42.3c-4.6,4.5-8.5,6.7-15,6.7c-10.9,0-18.3-7.6-18.3-18.2c0-10.9,8.5-18.1,18.4-18.1c5.7,0,11.3,2.5,15.1,6.9
			l-4.6,4.4c-3.1-3.3-6.6-5.1-10.6-5.1c-6.5,0-11.8,5-11.8,11.8c0,7.1,5.1,11.9,12,11.9c4.3,0,7.2-1.7,10.5-5L169.1,42.3z"/>
		<path d="M172.6,12.6h6.4V25c2.5-2.1,4.8-3.3,7.6-3.3c4.8,0,8.8,3.1,8.8,9.4v16.9h-6.4V35.9c0-5.2-0.6-8.3-4.4-8.3
			c-1.8,0-3.3,0.9-4.3,2.5c-1.3,2-1.2,4.3-1.2,7v10.9h-6.4V12.6z"/>
		<path d="M218.8,45.4c-2.3,2.2-4.7,3.4-7.9,3.4c-6.5,0-12.2-5.6-12.2-13.5c0-8,5.4-13.5,12.1-13.5c3.1,0,5.7,1.2,8.1,3.5v-2.8h6.4
			v25.6h-6.4V45.4z M205.1,35.2c0,4.4,2.9,7.6,6.9,7.6c4,0,7-3,7-7.7c0-4.5-3-7.5-7-7.5C207.8,27.7,205.1,31,205.1,35.2z"/>
		<path d="M236,25.7c1.2-2.7,3.3-3.9,5.4-3.9c1.4,0,2.2,0.4,2.8,0.7l-2,5.5c-0.5-0.2-1.2-0.5-1.9-0.5c-1.8,0-3.3,2.1-3.4,5.9
			c0,1.4,0,3,0,4.4v10.4h-6.4V22.4h5.5V25.7z"/>
		<path d="M300.1,43.1c-2.7,3.9-6.4,5.6-11.8,5.6c-8.2,0-13.4-6-13.4-13.5c0-7,5.1-13.5,13.3-13.5c8.1,0,13.6,5.8,13.6,13.9
			c0,0.6,0,0.9,0,1.4h-20.6c0.6,3.8,3.5,5.9,7.2,5.9c2.7,0,4.6-0.8,6.4-2.5L300.1,43.1z M295.4,32c-0.9-3-3.6-4.8-7-4.8
			c-3.2,0-5.6,1.6-6.9,4.8H295.4z"/>
		<path class="st0" d="M344.8,13.4h3.5v34.6h-3.5V13.4z"/>
		<path d="M271.3,44.4c0,5-1,8.3-3.9,10.8c-2.3,1.9-5.4,2.8-9.3,2.8c-7,0-11.5-2.7-13.3-8.1h7.1c1.3,1.5,3.2,2.2,5.9,2.2
			c2.4,0,4.3-0.6,5.5-1.7c1.5-1.4,1.6-3.2,1.6-5.6c-2.1,2.1-4.4,3.2-7.8,3.2c-6.9,0-12.3-5.5-12.3-13.2c0-7.9,5.5-13.1,12-13.1
			c3.2,0,5.7,1.2,8.1,3.5v-2.8h6.4V44.4z M251.3,34.9c0,4.2,3,7.2,7,7.2c4,0,6.9-2.8,6.9-7.2c0-4.1-2.8-7.3-7-7.3
			S251.3,31,251.3,34.9z"/>
	</g>
	<g>
		<g>
			<g>
				<rect x="24.5" y="24.4" class="st1" width="11.8" height="11.8"/>
			</g>
		</g>
		<g>
			<rect x="48.1" y="24.4" class="st2" width="11.8" height="11.8"/>
			<rect x="36.3" y="24.4" class="st3" width="11.8" height="11.8"/>
		</g>
	</g>
	<g>
		<polygon class="st1" points="12.8,12.7 48.1,12.7 48.1,0.9 1,0.9 		"/>
	</g>
	<g>
		<polygon class="st3" points="12.8,48 1,59.8 1,0.9 12.8,12.7 		"/>
	</g>
	<g>
		<polygon class="st2" points="12.8,48 48.1,48 48.1,59.8 1,59.8 		"/>
	</g>
</g>
</svg>
