<svg width="464" height="114" viewBox="0 0 464 114" fill="none" xmlns="http://www.w3.org/2000/svg">
<path d="M23.3425 62.46C23.4696 64.2746 24.0099 66.0362 24.9223 67.61C25.843 69.1221 27.1892 70.3291 28.7924 71.08C30.72 71.9483 32.819 72.3689 34.9323 72.31C36.5809 72.3516 38.2246 72.1115 39.7924 71.6C40.9782 71.221 42.0763 70.609 43.0224 69.8C43.7993 69.1118 44.4402 68.2842 44.9123 67.36L66.7224 71.8799C65.2266 75.6366 62.8702 78.9899 59.8425 81.67C56.6415 84.4856 52.898 86.616 48.8425 87.93C44.2425 89.425 39.429 90.158 34.5925 90.1C27.4458 90.1 21.2792 88.7266 16.0925 85.98C10.9892 83.3171 6.8252 79.1532 4.16231 74.05C1.38898 68.8367 0.00573963 62.62 0.0124063 55.4C-0.151697 48.7539 1.31436 42.1687 4.28243 36.22C7.00275 30.9252 11.2444 26.565 16.4624 23.7C22.1537 20.6849 28.5234 19.1803 34.9624 19.33C41.1168 19.1685 47.2122 20.565 52.6823 23.39C57.5217 25.9783 61.4724 29.9602 64.0224 34.8199C66.702 40.0795 68.0448 45.9182 67.9323 51.8199V62.42L23.3425 62.46ZM44.9724 47.65C45.0331 45.6255 44.5971 43.617 43.7023 41.8C42.923 40.2838 41.7028 39.0392 40.2023 38.23C38.5878 37.418 36.7993 37.0129 34.9924 37.05C33.0485 37.0255 31.1261 37.4606 29.3823 38.3199C27.7005 39.1822 26.2787 40.4765 25.2624 42.0699C24.1424 43.8833 23.4833 45.9432 23.3425 48.0699H44.9724V47.65Z" fill="#000034"/>
<path d="M103.222 21.62V32.0299C104.975 28.4801 107.692 25.4961 111.062 23.42C114.396 21.42 118.599 20.42 123.672 20.42C127.835 20.3095 131.959 21.2375 135.672 23.12C138.975 24.8793 141.641 27.6324 143.292 30.99C145.123 34.8931 146.013 39.1707 145.892 43.48V89.1499H126.992V49.1499C127.046 46.8993 126.669 44.6592 125.882 42.55C125.214 40.8039 123.996 39.3226 122.412 38.3299C120.588 37.2921 118.509 36.7895 116.412 36.8799C113.96 36.832 111.541 37.4507 109.412 38.67C107.426 39.8572 105.825 41.5936 104.802 43.67C103.697 45.9028 103.145 48.3688 103.192 50.86V89.2199H84.3525V21.62H103.222Z" fill="#000034"/>
<path d="M227.152 113.34H211.912V77.77C210.223 81.2933 207.539 84.2448 204.192 86.26C200.482 88.2751 196.301 89.2593 192.082 89.11C185.922 89.11 180.695 87.6833 176.402 84.83C172.035 81.8967 168.655 77.7146 166.702 72.83C164.442 67.2219 163.336 61.2154 163.452 55.17C163.333 49.1313 164.45 43.132 166.732 37.54C168.712 32.6713 172.086 28.4964 176.432 25.54C181.051 22.5688 186.462 21.0662 191.952 21.23C196.189 21.0748 200.389 22.0738 204.102 24.1201C207.47 26.2036 210.178 29.1994 211.912 32.76V22.55H227.152V113.34ZM204.282 73.59C206.844 71.81 208.818 69.3068 209.952 66.4C211.355 62.8397 212.034 59.0358 211.952 55.21C212.034 51.3875 211.355 47.5868 209.952 44.03C208.822 41.1214 206.847 38.6174 204.282 36.84C201.634 35.1128 198.522 34.2369 195.362 34.33C192.193 34.241 189.072 35.1162 186.412 36.84C183.824 38.6231 181.826 41.1367 180.672 44.0601C179.27 47.6067 178.59 51.3973 178.672 55.21C178.584 59.0362 179.264 62.8412 180.672 66.4C181.834 69.3103 183.831 71.8118 186.412 73.59C189.075 75.3057 192.195 76.177 195.362 76.09C198.52 76.1816 201.631 75.3097 204.282 73.59Z" fill="#000034"/>
<path d="M292.493 89.1098V78.6998C290.634 82.0412 288 84.8876 284.813 86.9998C281.673 89.0664 277.646 90.0998 272.733 90.0998C268.555 90.2295 264.416 89.2569 260.733 87.2798C257.478 85.4596 254.852 82.6944 253.203 79.3498C251.409 75.6091 250.524 71.4973 250.623 67.3498V23.2798H262.893V62.9398C262.827 65.8446 263.312 68.7356 264.323 71.4598C265.159 73.6891 266.691 75.5896 268.693 76.8798C270.852 78.1732 273.337 78.8189 275.853 78.7398C278.959 78.8046 282.016 77.9637 284.653 76.3198C287.173 74.7041 289.181 72.4045 290.443 69.6898C291.809 66.7402 292.493 63.5202 292.443 60.2698V23.2798H304.713V89.0898L292.493 89.1098Z" fill="#000034"/>
<path d="M339.062 12.51H329.332V0H339.062V12.51ZM338.442 89.11H329.952V24.17H338.442V89.11Z" fill="#000034"/>
<path d="M370.042 24.8498V41.0797C370.888 37.648 372.498 34.4517 374.752 31.7298C376.821 29.2679 379.447 27.3345 382.412 26.0898C385.528 24.8175 388.867 24.1849 392.232 24.2298C393.977 24.2292 395.718 24.3932 397.432 24.7198L397.062 29.9898C395.406 29.7552 393.735 29.6316 392.062 29.6198C387.833 29.4965 383.661 30.616 380.062 32.8398C376.673 35.0802 374.046 38.2997 372.532 42.0697C370.751 46.5629 369.887 51.3674 369.992 56.1997V89.1098H364.492V24.8498H370.042Z" fill="#000034"/>
<path d="M414.662 57.4399C414.536 62.8455 415.418 68.2274 417.262 73.31C418.771 77.4293 421.507 80.9862 425.102 83.4999C428.589 85.8799 432.922 87.0667 438.102 87.06C441.501 87.1131 444.874 86.4804 448.022 85.1999C450.87 84.0236 453.404 82.1985 455.422 79.87C457.474 77.4722 458.988 74.6623 459.862 71.6299L462.772 72.7499C461.696 76.158 459.934 79.3095 457.592 82.0099C455.3 84.6346 452.427 86.6889 449.202 88.0099C445.679 89.4391 441.904 90.1464 438.102 90.09C432.202 90.09 427.256 88.7566 423.262 86.09C419.199 83.3304 416.076 79.3945 414.312 74.81C412.22 69.3914 411.201 63.6176 411.312 57.81C411.172 51.6652 412.302 45.5576 414.632 39.87C416.593 35.1138 419.925 31.0481 424.202 28.1899C428.65 25.389 433.828 23.966 439.082 24.1C443.501 24.0159 447.869 25.0477 451.782 27.1C455.493 29.1144 458.498 32.2168 460.392 35.99C462.58 40.4706 463.644 45.4162 463.492 50.4V57.46L414.662 57.4399ZM460.272 49.8799C460.376 45.6837 459.481 41.5228 457.662 37.74C456.047 34.4296 453.467 31.6859 450.262 29.87C446.817 27.9886 442.937 27.0471 439.012 27.1399C434.521 27.0232 430.094 28.23 426.282 30.61C422.658 32.9797 419.786 36.3343 418.002 40.28C415.985 44.7476 414.87 49.57 414.722 54.47H460.272V49.8799Z" fill="#000034"/>
</svg>
