<?xml version="1.0" encoding="utf-8"?>
<!-- Generator: Adobe Illustrator 15.1.0, SVG Export Plug-In . SVG Version: 6.00 Build 0)  -->
<!DOCTYPE svg PUBLIC "-//W3C//DTD SVG 1.1//EN" "http://www.w3.org/Graphics/SVG/1.1/DTD/svg11.dtd" [
	<!ENTITY ns_extend "http://ns.adobe.com/Extensibility/1.0/">
	<!ENTITY ns_ai "http://ns.adobe.com/AdobeIllustrator/10.0/">
	<!ENTITY ns_graphs "http://ns.adobe.com/Graphs/1.0/">
	<!ENTITY ns_vars "http://ns.adobe.com/Variables/1.0/">
	<!ENTITY ns_imrep "http://ns.adobe.com/ImageReplacement/1.0/">
	<!ENTITY ns_sfw "http://ns.adobe.com/SaveForWeb/1.0/">
	<!ENTITY ns_custom "http://ns.adobe.com/GenericCustomNamespace/1.0/">
	<!ENTITY ns_adobe_xpath "http://ns.adobe.com/XPath/1.0/">
]>
<svg version="1.1" id="Layer_1" xmlns:x="&ns_extend;" xmlns:i="&ns_ai;" xmlns:graph="&ns_graphs;"
	 xmlns="http://www.w3.org/2000/svg" xmlns:xlink="http://www.w3.org/1999/xlink" x="0px" y="0px" width="185.623px" height="70px"
	 viewBox="0 0 185.623 70" enable-background="new 0 0 185.623 70" xml:space="preserve">
<metadata>
	<sfw  xmlns="&ns_sfw;">
		<slices></slices>
		<sliceSourceBounds  height="70" width="185.623" y="-135.545" x="43.251" bottomLeftOrigin="true"></sliceSourceBounds>
		<optimizationSettings>
			<targetSettings  fileFormat="PNG24Format" targetSettingsID="0">
				<PNG24Format  transparency="true" interlaced="false" matteColor="#FFFFFF" filtered="false" noMatteColor="false">
					</PNG24Format>
			</targetSettings>
		</optimizationSettings>
	</sfw>
</metadata>
<g>
	<path fill="#00704A" d="M179.642,35.892c0,0-4.282,20.345-17.468,21.6c19.063-11.966,13.186-42.658,13.186-42.658
		s0.165,27.864-15.232,31.955C175.884,33.316,170.878,3.299,168.907,0c1.926,25.739-38.247,39.45-5.772,70
		C173.839,63.926,181.963,54.452,179.642,35.892z"/>
	<path fill="#005596" d="M172.324,4.303c0,0,27.482,48.544-6.247,65.319C206.055,53.738,172.324,4.303,172.324,4.303z"/>
	<path fill="#005596" d="M0.207,21.978c0-2.22-0.104-4.465-0.207-6.658c1.548,0.077,3.071,0.129,4.62,0.129
		c1.548,0,3.071-0.052,4.593-0.129c-0.052,0.257-0.077,0.515-0.077,0.774c0,0.258,0.025,0.516,0.077,0.774
		c-2.168-0.155-3.432-0.336-6.787-0.336c-0.025,1.11-0.104,2.013-0.104,3.277c0,1.342,0.026,2.761,0.026,3.406
		c3.045,0,4.749-0.128,6.271-0.258c-0.051,0.258-0.077,0.542-0.077,0.8s0.025,0.517,0.077,0.774C6.839,24.351,3.587,24.3,2.348,24.3
		c-0.026,0.62-0.026,1.265-0.026,3.742c0,1.961,0.026,3.226,0.052,3.87c2.297,0,5.342-0.025,6.968-0.334
		c-0.051,0.232-0.077,0.567-0.077,0.799c0,0.233,0.026,0.516,0.077,0.748c-1.522-0.077-3.071-0.128-4.645-0.128
		c-1.575,0-3.123,0.052-4.697,0.128c0.103-2.245,0.207-4.489,0.207-6.709V21.978z"/>
	<path fill="#005596" d="M17.111,21.875c-2.4,0-3.483,1.548-3.483,4.232V28.3c0,1.549,0.051,3.355,0.205,4.825
		c-0.386-0.077-0.774-0.128-1.16-0.128c-0.387,0-0.774,0.052-1.162,0.128c0.155-1.47,0.207-3.276,0.207-4.825v-2.684
		c0-1.548-0.052-3.355-0.207-4.825c0.387,0.078,0.774,0.129,1.162,0.129c0.258,0,0.646-0.051,1.032-0.129
		c-0.051,0.697-0.077,1.367-0.077,2.064h0.051c0.955-1.471,2.271-2.322,4.129-2.322c1.91,0,4.129,0.929,4.129,4.49
		c0,1.472-0.104,3.02-0.104,4.774c0,1.136,0,2.219,0.052,3.328c-0.387-0.077-0.723-0.128-1.084-0.128
		c-0.361,0-0.696,0.052-1.058,0.128c0.052-1.884,0.181-3.767,0.181-5.754v-1.574C19.924,23.268,18.814,21.875,17.111,21.875z"/>
	<path fill="#005596" d="M23.1,20.791c0.438,0.078,0.852,0.129,1.291,0.129c0.387,0,0.748-0.051,1.135-0.129
		c1.059,3.355,2.349,6.684,3.845,10.064c1.394-2.813,2.735-6.709,3.949-10.064c0.258,0.078,0.541,0.129,0.8,0.129
		c0.283,0,0.542-0.051,0.799-0.129c-1.832,4.129-3.715,8.232-5.187,12.334c-0.258-0.077-0.542-0.128-0.8-0.128
		c-0.283,0-0.542,0.052-0.825,0.128C26.532,29.022,24.983,24.92,23.1,20.791z"/>
	<path fill="#005596" d="M38.017,14.984c0.723,0,1.316,0.593,1.316,1.316s-0.593,1.317-1.316,1.317
		c-0.722,0-1.316-0.594-1.316-1.317S37.295,14.984,38.017,14.984z M37.062,25.616c0-1.548-0.051-3.355-0.206-4.825
		c0.387,0.078,0.773,0.129,1.161,0.129c0.387,0,0.774-0.051,1.162-0.129c-0.155,1.47-0.207,3.277-0.207,4.825V28.3
		c0,1.549,0.051,3.355,0.207,4.825c-0.387-0.077-0.775-0.128-1.162-0.128c-0.388,0-0.774,0.052-1.161,0.128
		c0.155-1.47,0.206-3.276,0.206-4.825V25.616z"/>
	<path fill="#005596" d="M48.444,22.907c-0.181-0.207-0.749-0.414-1.265-0.414c-1.652,0-2.632,1.575-2.632,3.587
		c0,4.491,0,5.859,0.104,7.045c-0.335-0.077-0.697-0.128-1.033-0.128c-0.361,0-0.696,0.052-1.083,0.128
		c0.103-1.264,0.103-3.276,0.103-6.167v-0.826c0-1.342,0-3.123-0.103-5.342c0.387,0.078,0.722,0.129,1.083,0.129
		c0.336,0,0.697-0.051,1.033-0.129c-0.129,1.238-0.129,1.858-0.129,2.503l0.052,0.025c0.98-1.858,2.219-2.787,3.406-2.787
		c0.31,0,0.491,0.026,0.826,0.155c-0.18,0.413-0.18,1.394-0.18,2.09L48.444,22.907z"/>
	<path fill="#005596" d="M55.309,20.532c2.995,0,6.271,1.729,6.271,6.426c0,4.697-3.277,6.426-6.271,6.426
		c-2.993,0-6.271-1.729-6.271-6.426C49.038,22.261,52.315,20.532,55.309,20.532z M55.309,32.558c3.045,0,4-2.709,4-5.6
		c0-2.89-0.955-5.6-4-5.6c-3.045,0-4,2.71-4,5.6C51.309,29.849,52.264,32.558,55.309,32.558z"/>
	<path fill="#005596" d="M69.014,21.875c-2.4,0-3.484,1.548-3.484,4.232V28.3c0,1.549,0.052,3.355,0.207,4.825
		c-0.387-0.077-0.775-0.128-1.162-0.128c-0.387,0-0.774,0.052-1.162,0.128c0.155-1.47,0.207-3.276,0.207-4.825v-2.684
		c0-1.548-0.052-3.355-0.207-4.825c0.387,0.078,0.774,0.129,1.162,0.129c0.258,0,0.645-0.051,1.033-0.129
		c-0.052,0.697-0.078,1.367-0.078,2.064h0.052c0.955-1.471,2.271-2.322,4.129-2.322c1.909,0,4.128,0.929,4.128,4.49
		c0,1.472-0.103,3.02-0.103,4.774c0,1.136,0,2.219,0.052,3.328c-0.387-0.077-0.723-0.128-1.084-0.128s-0.697,0.052-1.059,0.128
		c0.052-1.884,0.181-3.767,0.181-5.754v-1.574C71.827,23.268,70.717,21.875,69.014,21.875z"/>
	<path fill="#005596" d="M76.783,25.616c0-1.548-0.051-3.355-0.206-4.825c0.387,0.078,0.774,0.129,1.161,0.129
		c0.258,0,0.646-0.051,1.033-0.129c-0.052,0.697-0.078,1.367-0.078,2.064h0.052c0.929-1.574,2.193-2.322,3.845-2.322
		c1.755,0,3.38,1.084,3.742,2.555h0.052c0.825-1.652,2.322-2.555,4.154-2.555c2.246,0,3.948,1.162,3.948,4.077
		c0,1.188-0.155,2.658-0.155,5.704c0,0.928,0,1.729,0.079,2.812c-0.362-0.077-0.724-0.128-1.11-0.128
		c-0.387,0-0.774,0.052-1.136,0.128c0.104-0.954,0.258-3.535,0.258-8.154c0-1.729-0.67-3.096-2.709-3.096
		c-1.239,0-2.116,0.567-2.581,1.213c-0.542,0.774-0.618,1.031-0.618,5.935c0,1.497,0.051,2.503,0.128,4.103
		c-0.388-0.077-0.774-0.128-1.136-0.128s-0.749,0.052-1.136,0.128c0.155-1.935,0.232-3.974,0.232-5.857
		c0-3.2-0.025-3.406-0.464-4.207c-0.361-0.645-1.291-1.187-2.142-1.187c-2.22,0-3.303,1.548-3.303,4.232V28.3
		c0,1.549,0.052,3.355,0.207,4.825c-0.387-0.077-0.774-0.128-1.162-0.128c-0.386,0-0.774,0.052-1.161,0.128
		c0.154-1.47,0.206-3.276,0.206-4.825V25.616z"/>
	<path fill="#005596" d="M102.051,20.532c3.612,0,5.341,2.4,5.341,5.265c0,0.335-0.026,0.671-0.051,1.006
		c-1.858-0.025-3.69-0.077-5.524-0.077c-1.135,0-2.245,0.052-3.379,0.077c-0.025,0.258-0.025,0.491-0.025,0.723
		c0,2.684,1.599,4.774,4.463,4.774c1.369,0,2.969-0.8,3.872-1.832l0.129,0.078l-0.154,1.264c-1.032,0.826-2.71,1.574-4.311,1.574
		c-3.715,0-6.271-2.632-6.271-6.064C96.14,23.139,98.257,20.532,102.051,20.532z M98.488,25.823
		c1.059,0.025,2.271,0.078,3.355,0.078c1.135,0,2.349-0.052,3.432-0.078c0-1.833-0.491-4.465-3.174-4.465
		C99.572,21.358,98.618,23.964,98.488,25.823z"/>
	<path fill="#005596" d="M114.672,21.875c-2.401,0-3.485,1.548-3.485,4.232V28.3c0,1.549,0.052,3.355,0.207,4.825
		c-0.388-0.077-0.775-0.128-1.161-0.128c-0.388,0-0.775,0.052-1.162,0.128c0.155-1.47,0.207-3.276,0.207-4.825v-2.684
		c0-1.548-0.052-3.355-0.207-4.825c0.387,0.078,0.774,0.129,1.162,0.129c0.257,0,0.645-0.051,1.031-0.129
		c-0.051,0.697-0.077,1.367-0.077,2.064h0.052c0.954-1.471,2.271-2.322,4.129-2.322c1.909,0,4.128,0.929,4.128,4.49
		c0,1.472-0.102,3.02-0.102,4.774c0,1.136,0,2.219,0.051,3.328c-0.387-0.077-0.723-0.128-1.083-0.128
		c-0.361,0-0.696,0.052-1.059,0.128c0.052-1.884,0.18-3.767,0.18-5.754v-1.574C117.482,23.268,116.373,21.875,114.672,21.875z"/>
	<path fill="#005596" d="M124.608,17.333h0.127c-0.102,1.29-0.152,2.555-0.205,3.819c0.361,0,1.549-0.025,2.735-0.077
		c-0.025,0.181-0.025,0.361-0.025,0.542s0,0.361,0.025,0.542c-0.902-0.051-2.116-0.051-2.735-0.051
		c-0.052,0.258-0.181,4.31-0.181,6.555c0,1.936,0.053,3.896,2.09,3.896c0.284,0,0.826-0.077,1.161-0.181v0.62
		c-0.593,0.207-1.342,0.387-1.986,0.387c-2.143,0-3.174-1.212-3.174-3.226c0-1.884,0.155-4.207,0.18-8.052
		c-0.516,0-1.083,0-1.754,0.051c0.025-0.207,0.051-0.386,0.051-0.593c0-0.181-0.025-0.335-0.051-0.517
		c0.773,0.052,1.342,0.078,1.702,0.078c-0.024-0.672-0.051-1.781-0.103-2.891L124.608,17.333z"/>
	<path fill="#005596" d="M129.606,22.029c1.549-1.161,2.787-1.497,4.154-1.497c2.479,0,4.181,1.523,4.181,3.819
		c0,1.936-0.103,3.845-0.103,6.013c0,0.852,0,1.91,1.006,1.91c0.155,0,0.361,0,0.543-0.103v0.567
		c-0.361,0.154-0.98,0.361-1.652,0.361c-1.11,0-1.678-0.723-1.78-1.6c-1.238,1.239-2.297,1.884-4.053,1.884
		c-1.729,0-3.433-1.212-3.433-3.174c0-2.064,1.396-3.174,3.641-3.535c3.742-0.595,3.869-0.801,3.869-1.807
		c0-1.729-0.773-3.251-2.837-3.251c-1.368,0-2.659,0.645-3.252,1.755h-0.284V22.029z M135.979,26.623
		c-1.78,0.594-5.393,0.413-5.393,3.226c0,1.625,1.109,2.451,2.245,2.451c1.316,0,2.451-0.852,3.046-1.807L135.979,26.623z"/>
	<path fill="#005596" d="M141.074,21.023c0-2.375-0.052-5.703-0.207-7.433c0.388,0.078,0.775,0.129,1.162,0.129
		s0.773-0.051,1.161-0.129c-0.155,1.729-0.206,5.058-0.206,7.433v4.67c0,2.375,0.051,5.704,0.206,7.432
		c-0.388-0.077-0.774-0.128-1.161-0.128s-0.774,0.052-1.162,0.128c0.155-1.728,0.207-5.057,0.207-7.432V21.023z"/>
	<path fill="#00704A" d="M0.979,47.199c0-3.271-0.152-6.581-0.304-9.852c0.647,0.112,1.256,0.189,1.863,0.189
		c0.609,0,1.218-0.077,1.865-0.189c-0.152,3.271-0.304,6.58-0.304,9.852v6.544c0,3.272,0.152,6.58,0.304,9.852
		c-0.646-0.114-1.256-0.19-1.865-0.19c-0.607,0-1.216,0.076-1.863,0.19c0.152-3.271,0.304-6.579,0.304-9.852V47.199z"/>
	<path fill="#00704A" d="M16.696,47.01c-3.538,0-5.136,2.281-5.136,6.238v3.234c0,2.281,0.077,4.945,0.305,7.112
		c-0.57-0.114-1.142-0.19-1.711-0.19c-0.571,0-1.142,0.076-1.712,0.19c0.228-2.167,0.304-4.831,0.304-7.112v-3.956
		c0-2.283-0.076-4.947-0.304-7.115c0.571,0.114,1.142,0.191,1.712,0.191c0.38,0,0.951-0.077,1.522-0.191
		c-0.076,1.028-0.115,2.016-0.115,3.044h0.077c1.407-2.168,3.348-3.424,6.086-3.424c2.815,0,6.086,1.369,6.086,6.619
		c0,2.169-0.151,4.45-0.151,7.038c0,1.674,0,3.272,0.076,4.906c-0.571-0.114-1.065-0.19-1.599-0.19c-0.531,0-1.026,0.076-1.559,0.19
		c0.076-2.776,0.266-5.554,0.266-8.483v-2.319C20.843,49.063,19.208,47.01,16.696,47.01z"/>
	<path fill="#00704A" d="M35.724,45.031c2.777,0,5.174,0.799,6.125,1.674c-0.342,0.761-0.646,1.598-0.836,2.511h-0.305
		c-0.723-1.293-2.473-2.968-4.869-2.968c-4.603,0-6.466,3.538-6.466,8.218c0,5.211,2.357,7.912,6.581,7.912
		c2.016,0,4.375-1.179,5.706-2.701l0.19,0.114c-0.113,0.608-0.19,1.256-0.229,1.864c-1.521,1.217-3.994,2.32-6.353,2.32
		c-4.412,0-9.244-2.663-9.244-9.473C26.023,47.923,30.855,45.031,35.724,45.031z"/>
	<path fill="#00704A" d="M51.97,45.031c5.325,0,7.875,3.537,7.875,7.761c0,0.493-0.038,0.988-0.076,1.483
		c-2.739-0.04-5.44-0.114-8.141-0.114c-1.674,0-3.31,0.074-4.983,0.114c-0.038,0.38-0.038,0.723-0.038,1.064
		c0,3.957,2.358,7.038,6.581,7.038c2.017,0,4.375-1.179,5.707-2.701l0.19,0.114l-0.228,1.864c-1.522,1.217-3.995,2.32-6.353,2.32
		c-5.479,0-9.245-3.88-9.245-8.939C43.257,48.873,46.377,45.031,51.97,45.031z M46.72,52.829c1.56,0.038,3.347,0.115,4.945,0.115
		c1.673,0,3.462-0.077,5.06-0.115c0-2.702-0.723-6.581-4.68-6.581C48.317,46.248,46.909,50.091,46.72,52.829z"/>
	<path fill="#00704A" d="M70.573,47.01c-3.538,0-5.136,2.281-5.136,6.238v3.234c0,2.281,0.077,4.945,0.304,7.112
		c-0.57-0.114-1.141-0.19-1.711-0.19c-0.571,0-1.141,0.076-1.711,0.19c0.228-2.167,0.304-4.831,0.304-7.112v-3.956
		c0-2.283-0.076-4.947-0.304-7.115c0.57,0.114,1.141,0.191,1.711,0.191c0.38,0,0.952-0.077,1.522-0.191
		c-0.076,1.028-0.115,2.016-0.115,3.044h0.077c1.407-2.168,3.348-3.424,6.087-3.424c2.814,0,6.086,1.369,6.086,6.619
		c0,2.169-0.152,4.45-0.152,7.038c0,1.674,0,3.272,0.076,4.906c-0.57-0.114-1.065-0.19-1.598-0.19c-0.532,0-1.027,0.076-1.56,0.19
		c0.076-2.776,0.267-5.554,0.267-8.483v-2.319C74.72,49.063,73.084,47.01,70.573,47.01z"/>
	<path fill="#00704A" d="M85.221,40.313h0.189c-0.151,1.902-0.228,3.767-0.304,5.63c0.533,0,2.282-0.038,4.032-0.113
		c-0.038,0.266-0.038,0.533-0.038,0.799c0,0.267,0,0.533,0.038,0.798c-1.331-0.075-3.119-0.075-4.032-0.075
		c-0.076,0.381-0.267,6.353-0.267,9.664c0,2.853,0.077,5.743,3.082,5.743c0.419,0,1.217-0.114,1.712-0.267v0.912
		c-0.875,0.305-1.979,0.571-2.929,0.571c-3.157,0-4.679-1.788-4.679-4.756c0-2.776,0.229-6.2,0.266-11.868
		c-0.76,0-1.597,0-2.586,0.075c0.038-0.304,0.076-0.57,0.076-0.874c0-0.266-0.038-0.494-0.076-0.762
		c1.141,0.077,1.979,0.114,2.51,0.114c-0.038-0.987-0.076-2.624-0.152-4.26L85.221,40.313z"/>
	<path fill="#00704A" d="M93.399,36.853c1.066,0,1.94,0.875,1.94,1.939c0,1.065-0.875,1.939-1.94,1.939
		c-1.064,0-1.939-0.874-1.939-1.939C91.46,37.728,92.335,36.853,93.399,36.853z M91.992,52.526c0-2.283-0.076-4.947-0.304-7.115
		c0.571,0.114,1.141,0.191,1.711,0.191c0.571,0,1.141-0.077,1.713-0.191c-0.229,2.168-0.304,4.832-0.304,7.115v3.956
		c0,2.281,0.075,4.945,0.304,7.112c-0.572-0.114-1.142-0.19-1.713-0.19c-0.57,0-1.141,0.076-1.711,0.19
		c0.229-2.167,0.304-4.831,0.304-7.112V52.526z"/>
	<path fill="#00704A" d="M97.282,45.411c0.646,0.114,1.255,0.191,1.902,0.191c0.571,0,1.103-0.077,1.673-0.191
		c1.56,4.946,3.463,9.854,5.668,14.837c2.056-4.147,4.033-9.891,5.82-14.837c0.381,0.114,0.799,0.191,1.181,0.191
		c0.417,0,0.799-0.077,1.179-0.191c-2.701,6.088-5.479,12.136-7.646,18.184c-0.381-0.114-0.798-0.19-1.18-0.19
		c-0.417,0-0.798,0.076-1.217,0.19C102.342,57.547,100.06,51.499,97.282,45.411z"/>
	<path fill="#00704A" d="M123.566,45.031c5.326,0,7.874,3.537,7.874,7.761c0,0.493-0.037,0.988-0.075,1.483
		c-2.739-0.04-5.44-0.114-8.141-0.114c-1.675,0-3.311,0.074-4.985,0.114c-0.036,0.38-0.036,0.723-0.036,1.064
		c0,3.957,2.358,7.038,6.581,7.038c2.016,0,4.375-1.179,5.705-2.701l0.19,0.114l-0.228,1.864c-1.522,1.217-3.996,2.32-6.354,2.32
		c-5.478,0-9.244-3.88-9.244-8.939C114.854,48.873,117.975,45.031,123.566,45.031z M118.316,52.829
		c1.562,0.038,3.347,0.115,4.946,0.115c1.673,0,3.46-0.077,5.059-0.115c0-2.702-0.723-6.581-4.679-6.581
		C119.914,46.248,118.507,50.091,118.316,52.829z"/>
	<path fill="#00704A" d="M134.481,59.943c0.532,1.028,2.167,2.624,4.297,2.624c1.902,0,3.69-1.179,3.69-3.423
		c0-4.717-8.978-1.939-8.978-8.369c0-3.31,2.282-5.744,6.315-5.744c1.863,0,3.042,0.684,4.222,1.064
		c-0.418,0.724-0.836,2.131-0.913,2.701h-0.456c-0.381-1.218-1.637-2.357-3.35-2.357c-1.481,0-3.232,0.951-3.232,3.195
		c0,4.945,8.979,1.9,8.979,8.331c0,2.891-2.625,6.01-6.848,6.01c-2.32,0-3.842-0.647-4.907-1.256
		c0.304-0.646,0.724-2.017,0.724-2.776H134.481z"/>
</g>
</svg>
