<svg xmlns="http://www.w3.org/2000/svg" width="1325.321" height="439.092" viewBox="0 0 1325.321 439.092">
  <path fill="none" d="M94.776 375.118c-21.265-28.383-33.34-65.914-34.503-106.897-8.322 16.673-13.732 32.926-16.176 48.498 7.198 11.015 15.298 21.708 24.253 31.94 8.277 9.457 17.137 18.307 26.426 26.46z"/>
  <path fill="none" d="M152.276 419.287c-12.445-4.784-23.77-11.42-33.888-19.58-19.012-12.89-37.237-28.893-53.77-47.78-7.86-8.983-15.015-18.267-21.47-27.733-.185 1.896-.335 3.79-.426 5.658-.973 19.838 3.285 37.516 12.652 52.54 18.237 29.24 54.36 45.523 101.725 45.845 5.408.038 10.902-.143 16.462-.52-6.206-2.154-12.417-4.63-18.606-7.434-.895-.323-1.79-.65-2.68-.996z"/>
  <path fill="#4F4F6A" d="M60.136 133.15l-.105 15.503-44.285-.302.48-70.456 43.79.297-.106 15.49-27.686-.188-.08 11.68 25.16.17-.103 15.306-25.16-.172-.084 12.483 28.18.19z"/>
  <path fill="#4F4F6A" d="M233.55 36.402c.14-20.75 16.648-36.54 36.884-36.4 20.244.138 36.526 16.15 36.385 36.9-.14 20.73-16.64 36.512-36.885 36.373-20.233-.136-36.527-16.14-36.386-36.873zm57.167.39c.085-12.586-8.928-21.006-20.39-21.085-11.475-.077-20.59 8.22-20.677 20.805-.085 12.58 8.917 20.988 20.393 21.066 11.46.08 20.587-8.208 20.674-20.787z"/>
  <path fill="none" d="M339.173 96.146c-24.88-.172-51.427 4.032-78.9 12.49-9.003 2.774-17.974 5.963-26.873 9.56 16.984 12.17 33.267 26.845 48.167 43.87 45.28 51.736 67.407 113.22 64.345 165.263 8.71-13.832 16.2-28.782 22.293-44.637 9.684-25.19 15.252-51.086 16.547-76.97 1.252-24.914-1.494-48.755-8.155-70.857-4.114-13.67-9.6-26.196-16.29-37.437-6.755-.804-13.808-1.234-21.13-1.284h-.004z"/>
  <path fill="none" d="M83.46 173.227c-8.366 21.76-13.65 44.043-15.777 66.393 23.822-36.102 59.644-71.036 104.6-99.067 15.782-9.844 31.832-18.298 47.875-25.368-6.985-4.51-14.107-8.63-21.315-12.313-18.62-9.515-37.642-16.042-56.137-19.38-25.424 23.903-45.743 54.598-59.247 89.735z"/>
  <path fill="none" d="M300.397 388.413c6.52-3.56 12.99-7.324 19.388-11.318 4.018-2.503 7.963-5.08 11.856-7.71 2.52-6.095 4.537-12.49 6.054-19.133-11.276 14.57-23.852 27.373-37.297 38.16z"/>
  <path fill="none" d="M207.4 431.153c7.745 1.213 15.392 1.875 22.858 1.927 29.286.197 55.036-8.682 74.463-25.684 7.954-6.96 14.574-15.03 19.904-23.97-.214.132-.426.272-.642.4-38.604 24.078-78.82 39.864-116.58 47.327z"/>
  <path fill="none" d="M277.834 165.332C262.83 148.19 245.92 133.02 227.95 120.45c-17.485 7.408-34.702 16.38-51.465 26.834-26.37 16.44-49.966 35.52-70.146 56.718-16.01 16.822-29.3 34.363-39.642 52.29-.55 22.708 2.256 44.47 8.37 64.76 13.547 44.96 41.788 77.71 79.526 92.22 13.448 5.168 27.698 7.84 42.353 7.94 16.636.113 33.613-3.06 50.454-9.433 16.72-6.328 32.897-15.646 48.083-27.69 16.9-13.406 31.927-29.605 44.67-48.028 6.314-52.505-15.295-117-62.32-170.73z"/>
  <g fill="#1589C6">
    <path d="M368.36 98.582c-1.66-3.002-3.4-5.927-5.228-8.78-10.953-17.07-24.89-31.404-41.52-41.97-.48 2.213-1.108 4.367-1.86 6.464 13.55 8.894 25.36 20.57 35.09 34.622 1.9 2.745 3.727 5.582 5.466 8.512 6.688 11.24 12.174 23.768 16.29 37.437 6.66 22.103 9.406 45.943 8.154 70.858-1.295 25.883-6.863 51.778-16.547 76.97-6.095 15.853-13.582 30.804-22.293 44.635-.274 4.658-.755 9.24-1.435 13.728 11.758-16.74 21.86-35.538 29.748-56.05C400.065 217.79 395.9 148.34 368.36 98.58z"/>
    <path d="M295.483 384.09c-15.186 12.045-31.363 21.362-48.082 27.69-16.84 6.37-33.817 9.545-50.453 9.43-14.655-.098-28.905-2.77-42.353-7.94-37.74-14.507-65.98-47.257-79.527-92.22-6.113-20.29-8.918-42.05-8.37-64.76-2.188 3.79-4.248 7.597-6.173 11.416-.085.17-.164.345-.25.515 1.162 40.984 13.237 78.516 34.502 106.898 6.917 9.23 14.807 17.49 23.612 24.59 10.12 8.16 21.443 14.795 33.888 19.58.89.344 1.785.672 2.68.994 9.284 3.33 18.77 5.495 28.37 6.57.99-.11 1.984-.216 2.98-.335 1.044.294 2.088.595 3.132.875 2.482.158 4.973.25 7.466.266 35.634.244 71.954-13.947 103.494-39.245 13.445-10.788 26.02-23.59 37.297-38.16 1.06-4.617 1.876-9.353 2.458-14.19-12.743 18.42-27.77 34.62-44.67 48.026z"/>
    <path d="M156.18 71.83c15.19-12.043 31.363-21.36 48.084-27.688 4.336-1.642 8.683-3.068 13.03-4.282-.077-1.225-.124-2.453-.115-3.7.005-.998.045-1.992.105-2.98-27.61 7.376-54.475 22.798-78.008 44.706 2.663.41 5.333.867 8.013 1.41 2.9-2.577 5.866-5.066 8.89-7.466z"/>
    <path d="M83.46 173.227c13.503-35.137 33.822-65.832 59.246-89.736-2.674-.48-5.336-.895-7.988-1.243-23.728 23.377-43.76 53.496-57.28 88.663-10.34 26.913-15.87 54.18-17.02 80.4 2.28-3.908 4.705-7.808 7.265-11.69 2.127-22.35 7.412-44.634 15.776-66.393z"/>
  </g>
  <g fill="#93D3EA">
    <path d="M220.158 115.184c1.817-.8 3.64-1.582 5.457-2.35-25.5-16.922-52.33-28.292-78.324-33.538-2.68-.542-5.35-1-8.012-1.41-7.888-1.22-15.68-1.882-23.312-1.935-12.906-.085-25.353 1.522-37.033 4.892 1.007 1.42 1.942 2.89 2.804 4.406 10.673-2.934 22.126-4.418 34.198-4.336h.002c6.156.043 12.43.502 18.78 1.334 2.653.348 5.315.763 7.99 1.244 18.494 3.338 37.515 9.865 56.136 19.38 7.208 3.684 14.33 7.804 21.315 12.314z"/>
    <path d="M281.567 162.067c-14.9-17.026-31.183-31.7-48.167-43.872-1.818.733-3.634 1.488-5.45 2.254 17.97 12.57 34.88 27.74 49.885 44.882 47.024 53.73 68.633 118.225 62.318 170.73-.582 4.838-1.397 9.573-2.458 14.19-1.518 6.643-3.534 13.037-6.053 19.133-2.017 4.883-4.356 9.57-7.017 14.04-5.33 8.94-11.95 17.01-19.903 23.97-19.427 17.003-45.177 25.882-74.463 25.685-7.467-.052-15.114-.714-22.858-1.927-4.657.926-9.278 1.71-13.86 2.377 12.467 2.905 24.77 4.428 36.683 4.51 29.563.2 56.698-8.476 77.762-26.91 10.7-9.366 19.103-20.626 25.273-33.274 2.108-4.32 3.96-8.796 5.545-13.422 2.56-7.444 4.446-15.263 5.672-23.377.68-4.488 1.16-9.07 1.435-13.728 3.062-52.045-19.066-113.527-64.345-165.263z"/>
    <path d="M94.776 375.118c-9.29-8.153-18.148-17.003-26.426-26.46-8.956-10.232-17.056-20.926-24.253-31.94-2.146-3.28-4.202-6.594-6.184-9.93-17.617-29.666-28.696-61.273-31.97-92.176-2.202-20.753-.75-40.03 4.117-57.165-1.494-.834-2.938-1.738-4.34-2.706-13.625 46.104-2.733 105.172 30.783 159.242 2.12 3.423 4.34 6.83 6.646 10.21 6.453 9.468 13.607 18.75 21.468 27.733 16.533 18.89 34.758 34.893 53.77 47.782-8.805-7.1-16.695-15.36-23.612-24.59z"/>
  </g>
  <g fill="#4F4F6A">
    <path d="M430.073 128.23c2.55-1.238 5.218-2.277 7.98-3.097-17.668-19.52-43.84-31.286-74.92-35.333 1.827 2.854 3.567 5.78 5.226 8.78 25.853 4.36 46.927 14.48 61.713 29.65z"/>
    <path d="M300.397 388.413c-31.54 25.298-67.86 39.49-103.494 39.245-2.493-.016-4.983-.107-7.466-.266-2.043-.135-4.08-.313-6.113-.54-3.28.358-6.533.647-9.763.862-5.56.38-11.053.56-16.462.52-47.364-.32-83.488-16.603-101.725-45.845-9.367-15.024-13.625-32.702-12.652-52.54.092-1.87.243-3.762.428-5.658-2.307-3.38-4.525-6.788-6.646-10.21-4.506 26.665-.89 51.714 12.14 72.605 20.43 32.77 60.215 49.255 108.4 49.584 11.723.08 23.947-.808 36.5-2.642 4.58-.668 9.2-1.45 13.858-2.377 37.762-7.462 77.977-23.248 116.58-47.324.216-.13.428-.27.643-.4 2.66-4.473 5-9.16 7.017-14.042-3.893 2.628-7.838 5.206-11.856 7.71-6.398 3.995-12.867 7.76-19.387 11.32z"/>
    <path d="M452.723 228.612c-1.823-.013-3.623-.115-5.4-.31-2.89 9.288-6.753 18.76-11.58 28.373-11.006 21.897-26.422 43.326-45.813 63.7-15.195 15.963-32.332 30.722-51.125 44.058-1.586 4.626-3.437 9.103-5.545 13.422 63.225-41.944 106.888-97.507 122.25-149.298-.925.045-1.85.06-2.787.055z"/>
    <path d="M60.272 268.22c.087-.17.167-.343.25-.514 1.926-3.82 3.986-7.626 6.175-11.415 10.342-17.925 23.63-35.466 39.64-52.288 20.18-21.198 43.778-40.277 70.147-56.718 16.764-10.455 33.98-19.426 51.465-26.835 1.814-.767 3.63-1.522 5.448-2.255 8.9-3.596 17.87-6.784 26.874-9.56 27.473-8.457 54.02-12.66 78.9-12.49h.004c7.322.05 14.374.48 21.13 1.284-1.74-2.93-3.564-5.768-5.467-8.513-5.097-.432-10.304-.674-15.62-.71-34.857-.233-74.112 7.99-113.608 24.625-1.817.77-3.64 1.55-5.457 2.35-16.043 7.07-32.094 15.525-47.876 25.37-44.956 28.03-80.778 62.965-104.6 99.066-2.56 3.883-4.986 7.782-7.264 11.69-10.876 18.604-18.5 37.353-22.506 55.48 1.982 3.334 4.038 6.647 6.184 9.928 2.447-15.57 7.857-31.823 16.178-48.495z"/>
  </g>
  <path fill="#4F4F6A" d="M425.58 194.947l13.947-7.962c2.46 5.853 6.766 9.815 14.73 9.87 7.646.052 9.577-2.96 9.596-5.682.03-4.327-3.977-6.068-14.534-9.05-10.443-2.994-20.68-8.098-20.59-21.593.093-13.587 11.623-21.356 23.802-21.274 11.58.08 20.604 5.68 25.654 16.084l-13.643 7.86c-2.376-5.05-5.676-8.194-12.12-8.238-5.04-.035-7.57 2.46-7.59 5.286-.022 3.21 1.673 5.448 12.62 8.84 10.657 3.29 22.616 7.102 22.515 22.002-.092 13.59-11.034 21.566-26.328 21.462-14.78-.1-24.21-7.21-28.06-17.605z"/>
  <path fill="#1589C6" d="M286.15 360.336c-11.856 5.535-13.716-2.843-11.937-12.854 1.956-11.006 6.733-21.054 7.244-32.374.37-8.086-1.464-18.353-9.41-22.674-9.037-4.935-20.77-3.1-29.055-9.62-11.54-9.087-15.246-30.483-9.223-43.194 10.013-21.118 40.14-17.788 58.497-9.728-18.51-25.978-47.806-43.697-81.37-46.512-2.03 6.314-8.82 12.735-13.85 13.612-7.997 1.388-5.272-7.613-4.823-13.615-7.964.657-15.694 2.148-23.1 4.4-5.02 2.73-11.378 6.148-12.533 7.373-7.35 7.813 5.062 5.64 9.406 3.296 3.63-1.95 10.3-6.926 14.177-2.6 3.347 3.725-.95 10.797-4.102 13.287-6.203 4.907-15.77 1.954-22.61 5.677-5.72 3.112-10.388 7.91-13.874 13.377-3.034 4.76-4.25 11.776-8.5 15.58-5.067 4.538-6.43-1.674-10.873-3.787-6.414-3.065-15.173 14.427-11.06 16.406 3.87 1.864 5.346-5.475 7.987-3.42 2.646 2.063-4.752 8.547-.485 10.823 3.915 2.092 3.763 8.967-.28 10.723-6.393 2.78-10.725-7.617-12.142-11.99-.835-2.594-1.36-5.07-1.572-6.818-.563-4.726-.227-9.44.723-14.06-8.458 15.646-13.325 33.55-13.454 52.6-.422 61.865 49.186 112.356 110.796 112.776 44.42.304 82.95-25.51 101.15-63.123-5.15 7.372-10.894 14.183-15.725 16.44zm-97.66-25.995c-7.732 14.875-31.344 21.842-26.877 42.04.69 3.122 5.542 14.325 1.78 16.77-.832.547-2.09.66-3.91.16-5.102-1.41-9.796-9.416-12.48-13.662-7.363-11.645-5.448-26.16-11.818-38.125-5.987-11.254-16.672-20.768-17.583-34.185-.362-5.39 1.723-10.532 1.733-15.886.012-3.698-3.02-7.8-1.874-11.475 1.496-4.762 7.768-4.342 11.843-4.602 13.86-.89 24.534 8.87 35.072 16.388 7.612 5.423 17.74 7.037 24.877 13.094 9.548 8.1 4.003 20.31-.762 29.484z"/>
  <g fill="#4F4F6A">
    <path d="M546.16 84.89l.465-68.374 68.378.465-.05 7.125-59.826-.407-.155 22.784 56.963.388-.05 7.124-56.962-.39-.164 24.22 59.827.407-.05 7.127-68.376-.467z"/>
    <path d="M694.926 70.233l-53.487-.364-9.03 15.607-9.89-.067 39.467-68.11 12.27.084 38.423 68.64-8.974-.06-8.78-15.73zm-4.006-7.143l-22.373-40.095-23.004 39.786 45.377.31z"/>
    <path d="M805.7 86.657l-8.55-.06.088-12.822c.014-2.072-.01-3.865-.077-5.36-.062-1.505-.298-2.787-.716-3.87-.437-1.06-1.116-1.923-2.027-2.585-.897-.662-2.21-1.164-3.898-1.532-1.69-.37-3.837-.634-6.428-.786-2.597-.153-5.8-.245-9.59-.27l-38.415-.263-.186 27.072-8.546-.06.465-68.374 48.385.328c5.232.036 9.624.252 13.2.655 3.57.386 6.51.957 8.844 1.724 2.32.76 4.11 1.687 5.367 2.79 1.237 1.108 2.167 2.406 2.735 3.895.55 1.49.88 3.148.984 4.992.096 1.844.128 3.876.113 6.104-.02 2.84-.237 5.34-.665 7.493-.4 2.147-1.096 3.977-2.043 5.48-.975 1.512-2.236 2.706-3.82 3.603-1.578.898-3.552 1.507-5.927 1.852 2.37.374 4.265 1.006 5.678 1.91 1.433.896 2.513 2.055 3.276 3.497.754 1.425 1.258 3.12 1.495 5.082.24 1.962.358 4.188.34 6.68l-.085 12.823zm-69.567-34.67l39.84.27c3.803.025 6.992-.017 9.59-.125 2.596-.123 4.757-.35 6.438-.696 1.693-.34 3-.84 3.932-1.494.92-.632 1.593-1.5 2.04-2.563.44-1.06.692-2.334.79-3.84.078-1.498.125-3.288.14-5.36.013-1.928-.01-3.592-.07-4.99-.077-1.4-.312-2.562-.74-3.515-.433-.955-1.095-1.724-2.007-2.292-.922-.573-2.223-1.013-3.91-1.345-1.676-.314-3.835-.535-6.43-.64-2.596-.11-5.784-.172-9.59-.198l-39.837-.27-.185 27.056z"/>
    <path d="M898.188 18.908l-.047 7.124-34.192-.233-.417 61.25-8.544-.058.417-61.252-34.193-.232.05-7.123 76.928.523z"/>
    <path d="M985.922 19.505l8.55.06-.466 68.374-8.55-.06.214-31.343L923 56.11l-.213 31.343-8.548-.058.463-68.376 8.547.058-.203 29.908 62.672.428.202-29.91z"/>
    <g>
      <path d="M602.822 138.96c5.223.035 9.62.38 13.188 1.044 3.577.652 6.512 1.648 8.808 2.957 2.305 1.3 4.088 2.937 5.32 4.908 1.23 1.96 2.122 4.275 2.69 6.915.558 2.644.888 5.624.96 8.948.083 3.33.103 7.012.075 11.05-.027 4.032-.098 7.715-.224 11.038-.12 3.317-.49 6.3-1.085 8.935-.604 2.64-1.527 4.935-2.783 6.876-1.258 1.963-3.065 3.573-5.388 4.845-2.313 1.28-5.263 2.22-8.847 2.83-3.576.607-7.98.908-13.202.873l-25.737-.175c-5.227-.036-9.625-.396-13.177-1.054-3.588-.66-6.52-1.64-8.822-2.95-2.313-1.302-4.075-2.94-5.33-4.92-1.247-1.957-2.157-4.265-2.713-6.91-.57-2.647-.88-5.632-.95-8.95-.06-3.325-.083-7.008-.055-11.04.027-4.037.1-7.72.205-11.047.116-3.323.467-6.3 1.073-8.935.59-2.634 1.532-4.935 2.806-6.88 1.28-1.953 3.064-3.563 5.396-4.833 2.32-1.276 5.265-2.23 8.862-2.837 3.56-.613 7.966-.9 13.19-.864l25.74.176zm-.436 64.097c3.764.025 6.946-.065 9.544-.27 2.6-.207 4.75-.65 6.442-1.314 1.7-.665 3.01-1.646 3.944-2.914.924-1.274 1.605-2.96 2.028-5.062.438-2.108.706-4.688.795-7.762.09-3.07.15-6.752.18-11.014.03-4.273.018-7.947-.03-11.016-.048-3.074-.28-5.658-.69-7.78-.395-2.112-1.052-3.805-1.958-5.08-.917-1.286-2.213-2.278-3.88-2.967-1.674-.7-3.805-1.16-6.4-1.405-2.593-.237-5.782-.362-9.586-.39l-25.737-.174c-3.786-.024-7 .056-9.593.26-2.597.208-4.74.638-6.432 1.314-1.707.667-3.018 1.642-3.944 2.916-.935 1.262-1.6 2.946-2.04 5.052-.426 2.115-.68 4.697-.758 7.77-.082 3.066-.14 6.74-.168 11.013-.03 4.264-.006 7.945.028 11.017.06 3.075.282 5.658.69 7.77.395 2.107 1.055 3.804 1.952 5.09.89 1.28 2.178 2.278 3.876 2.966 1.683.688 3.818 1.16 6.413 1.4 2.592.243 5.804.377 9.59.402l25.733.177z"/>
      <path d="M650.165 209.072l.466-68.37 57.023.388c4.27.03 7.7.395 10.313 1.117 2.612.724 4.605 1.75 6.014 3.113 1.39 1.362 2.33 3.05 2.798 5.065.454 2.032.688 4.35.67 6.95-.014 1.907-.192 3.577-.54 5.027-.328 1.46-.77 2.72-1.306 3.777-.55 1.065-1.167 1.954-1.84 2.675-.695.73-1.394 1.33-2.114 1.803-1.676 1.113-3.568 1.732-5.72 1.867 2.676.17 5.056.834 7.128 2.01.875.502 1.752 1.144 2.58 1.912.838.756 1.6 1.694 2.246 2.816.664 1.115 1.19 2.426 1.607 3.926.41 1.51.61 3.238.598 5.187-.017 2.38-.146 4.555-.384 6.52-.237 1.978-.71 3.748-1.4 5.314-.704 1.57-1.687 2.943-2.963 4.114-1.288 1.184-2.994 2.152-5.13 2.938-2.128.76-4.73 1.33-7.793 1.694-3.078.366-6.752.533-11.02.505l-51.232-.348zm48.654-39.546c2.91.02 5.423-.03 7.523-.13 2.105-.105 3.903-.318 5.392-.63 1.47-.315 2.698-.766 3.604-1.34.934-.565 1.653-1.313 2.187-2.222.52-.923.872-2.025 1.066-3.315.172-1.29.28-2.825.292-4.613.013-1.887-.173-3.437-.58-4.63-.413-1.187-1.147-2.103-2.228-2.74-1.06-.663-2.502-1.094-4.32-1.33-1.826-.237-4.154-.364-7.02-.383l-45.62-.312-.147 21.37 39.85.274zm-.224 32.76c3.32.023 6.197-.014 8.642-.1 2.42-.086 4.485-.295 6.195-.624 1.676-.326 3.054-.813 4.09-1.45 1.052-.628 1.854-1.455 2.448-2.516.585-1.043.995-2.33 1.202-3.835.22-1.515.34-3.347.354-5.48.01-1.66-.087-3.1-.287-4.335-.19-1.24-.584-2.275-1.155-3.13-.58-.848-1.375-1.537-2.417-2.058-1.028-.526-2.4-.945-4.07-1.252-1.707-.318-3.768-.528-6.188-.65-2.443-.122-5.318-.188-8.64-.21l-39.85-.273-.172 25.644 39.848.27z"/>
      <path d="M789.795 171.568c4.7.03 8.71.252 12.068.655 3.34.41 6.172 1.007 8.463 1.785 2.286.78 4.126 1.736 5.473 2.873 1.354 1.146 2.405 2.442 3.134 3.89.73 1.46 1.215 3.067 1.424 4.862.213 1.79.304 3.732.288 5.824-.013 2.063-.213 4.002-.59 5.816-.378 1.814-1.054 3.478-2.02 4.972-.96 1.496-2.25 2.832-3.9 4.016-1.642 1.166-3.724 2.15-6.245 2.964-2.54.81-5.57 1.422-9.12 1.824-3.547.395-7.69.6-12.448.568l-11.4-.078c-4.278-.028-8.005-.23-11.196-.58-3.216-.34-5.975-.855-8.28-1.55-2.308-.673-4.216-1.537-5.722-2.575-1.508-1.022-2.713-2.234-3.605-3.627-.897-1.386-1.505-2.963-1.872-4.734-.34-1.76-.504-3.713-.488-5.862l8.55.06c-.02 2.725.35 4.844 1.115 6.396.753 1.532 2.026 2.702 3.806 3.477 1.77.788 4.11 1.283 7 1.5 2.9.218 6.463.328 10.743.357l11.4.077c4.986.034 9.122-.17 12.423-.62 3.288-.458 5.928-1.203 7.894-2.24 1.98-1.025 3.365-2.39 4.17-4.065.81-1.69 1.23-3.734 1.246-6.152.016-2.43-.246-4.446-.782-6.064-.534-1.617-1.604-2.912-3.228-3.886-1.604-.96-3.89-1.646-6.82-2.075-2.932-.42-6.77-.657-11.525-.69l-11.753-.08c-5.213-.034-9.682-.255-13.414-.66-3.73-.422-6.836-1.003-9.353-1.738-2.526-.744-4.54-1.66-6.048-2.753-1.488-1.1-2.636-2.343-3.412-3.742-.776-1.398-1.295-2.957-1.504-4.656-.232-1.717-.342-3.558-.328-5.55.014-2.08.22-4.005.596-5.797.385-1.77 1.098-3.37 2.105-4.812 1.02-1.424 2.41-2.695 4.17-3.815 1.762-1.11 4.007-2.042 6.76-2.78 2.754-.738 6.058-1.283 9.907-1.646 3.867-.36 8.414-.516 13.636-.48l8.536.058c4.286.03 8.016.202 11.23.547 3.194.326 5.946.83 8.258 1.518 2.32.678 4.237 1.52 5.747 2.536 1.53 1.005 2.742 2.194 3.63 3.578.89 1.394 1.515 2.964 1.857 4.71.34 1.75.51 3.702.497 5.843l-8.544-.058c.02-2.683-.346-4.77-1.11-6.288-.774-1.52-2.038-2.664-3.817-3.438-1.77-.766-4.112-1.26-7.01-1.474-2.923-.21-6.5-.318-10.79-.348l-8.536-.058c-5.7-.04-10.376.112-14.08.496-3.677.378-6.595 1.027-8.724 1.965-2.133.937-3.642 2.194-4.467 3.8-.867 1.586-1.29 3.59-1.306 6-.01 1.48.087 2.806.292 3.966.198 1.155.606 2.182 1.243 3.054.627.885 1.516 1.62 2.668 2.22 1.163.602 2.688 1.11 4.587 1.504 1.9.39 4.225.688 6.964.86 2.743.195 6.004.298 9.805.324l11.75.076z"/>
      <path d="M837.037 210.345l.466-68.37 68.39.466-.048 7.123-59.83-.407-.154 22.794 56.977.39-.048 7.114-56.978-.39-.164 24.225 59.83.406-.05 7.114-68.39-.465z"/>
      <path d="M997.454 211.437l-8.562-.058.088-12.814c.015-2.078-.008-3.87-.067-5.367-.066-1.504-.314-2.784-.74-3.86-.413-1.067-1.09-1.93-2.003-2.59-.92-.667-2.232-1.176-3.907-1.545-1.69-.363-3.838-.62-6.432-.783-2.597-.15-5.796-.237-9.577-.264l-38.43-.26-.184 27.062-8.548-.057.467-68.37 48.38.328c5.23.036 9.627.257 13.205.65 3.557.395 6.512.972 8.842 1.73 2.316.76 4.12 1.69 5.372 2.787 1.248 1.112 2.167 2.408 2.72 3.904.59 1.484.906 3.147 1 4.985.09 1.844.122 3.874.106 6.093-.02 2.854-.23 5.357-.632 7.507-.43 2.144-1.122 3.97-2.07 5.48-.965 1.513-2.23 2.704-3.804 3.604-1.596.892-3.56 1.507-5.943 1.84 2.38.382 4.264 1.016 5.69 1.905 1.402.916 2.51 2.078 3.263 3.503.768 1.438 1.258 3.13 1.506 5.09.246 1.964.36 4.19.344 6.686l-.086 12.813zm-69.58-34.656l39.834.272c3.804.026 6.998-.02 9.594-.133 2.612-.124 4.758-.36 6.44-.7 1.693-.34 3-.835 3.933-1.484.92-.645 1.61-1.506 2.045-2.563.446-1.062.702-2.345.792-3.848.077-1.495.125-3.282.14-5.372.014-1.918-.012-3.578-.07-4.977-.07-1.398-.31-2.568-.738-3.527-.427-.954-1.104-1.712-2.016-2.287-.922-.563-2.223-1.01-3.912-1.34-1.678-.323-3.82-.53-6.432-.643-2.596-.105-5.785-.17-9.593-.196l-39.834-.27-.182 27.067z"/>
      <path d="M1085.652 143.663l8.808.06-36.345 68.127-12.527-.085-35.438-68.614 9.92.068 32.375 62.876 33.207-62.43z"/>
      <path d="M1109.298 143.823l8.534.06-.465 68.37-8.533-.06.464-68.37z"/>
      <path d="M1145.288 212.442l-8.545-.058.464-68.37 15.004.1 62.266 60.26.406-59.83 8.557.057-.464 68.372-11.413-.078-65.858-61.7-.417 61.248z"/>
      <path d="M1316.782 166.6c.025-3.55-.35-6.385-1.112-8.46-.75-2.09-2.01-3.667-3.785-4.75-1.787-1.076-4.12-1.775-7.03-2.09-2.898-.315-6.475-.48-10.767-.508l-22.864-.155c-3.805-.026-7 .055-9.607.258-2.597.21-4.75.64-6.44 1.316-1.688.666-3.005 1.64-3.935 2.915-.935 1.262-1.604 2.947-2.043 5.052-.427 2.116-.675 4.698-.768 7.77-.08 3.067-.128 6.742-.157 11.015-.027 4.263-.008 7.944.027 11.016.063 3.073.296 5.658.69 7.77.397 2.108 1.054 3.804 1.937 5.088.908 1.28 2.202 2.28 3.88 2.968 1.684.688 3.83 1.16 6.423 1.4 2.604.243 5.798.376 9.603.402l22.918.155c3.318.023 6.186-.046 8.594-.21 2.396-.165 4.454-.48 6.15-.933 1.69-.467 3.057-1.104 4.106-1.94 1.038-.814 1.855-1.858 2.452-3.117.587-1.257.982-2.766 1.208-4.534.22-1.76.34-3.825.354-6.204l.03-4.28-34.285-.232.05-7.116 42.82.292-.078 11.395c-.018 2.847-.2 5.423-.58 7.716-.38 2.298-1.014 4.35-1.93 6.135-.92 1.785-2.147 3.333-3.674 4.62-1.51 1.312-3.428 2.363-5.752 3.2-2.33.82-5.093 1.435-8.296 1.812-3.212.375-6.946.552-11.217.522l-22.917-.155c-5.24-.037-9.63-.398-13.207-1.055-3.562-.658-6.5-1.64-8.806-2.95-2.306-1.303-4.088-2.937-5.333-4.92-1.25-1.957-2.152-4.265-2.72-6.91-.56-2.646-.868-5.632-.94-8.95-.062-3.325-.078-7.008-.052-11.04.028-4.037.096-7.72.203-11.047.116-3.322.467-6.298 1.062-8.934.602-2.633 1.536-4.934 2.815-6.88 1.273-1.953 3.078-3.563 5.398-4.834 2.323-1.275 5.276-2.23 8.846-2.836 3.59-.613 7.98-.9 13.22-.863l22.865.156c4.292.028 8.02.25 11.227.67 3.2.416 5.953 1.054 8.252 1.884 2.316.83 4.236 1.88 5.755 3.13 1.518 1.257 2.727 2.735 3.62 4.434.894 1.694 1.5 3.62 1.85 5.753.35 2.138.497 4.514.48 7.123l-8.538-.06z"/>
    </g>
    <g>
      <path d="M590.682 293.786c4.7.032 8.713.253 12.057.662 3.35.416 6.175 1.002 8.474 1.782 2.286.768 4.118 1.735 5.474 2.877 1.354 1.135 2.4 2.436 3.132 3.89.743 1.45 1.2 3.067 1.412 4.866.21 1.783.315 3.726.302 5.806-.014 2.067-.217 4.014-.604 5.83-.374 1.81-1.06 3.47-2.006 4.97-.96 1.498-2.26 2.84-3.9 4.004-1.653 1.175-3.727 2.157-6.258 2.976-2.53.803-5.572 1.418-9.12 1.82-3.54.404-7.7.592-12.44.56l-11.386-.08c-4.288-.028-8.022-.222-11.222-.565-3.217-.344-5.96-.852-8.267-1.55-2.32-.668-4.218-1.542-5.736-2.585-1.506-1.023-2.697-2.23-3.588-3.62-.907-1.388-1.52-2.96-1.88-4.736-.334-1.763-.496-3.71-.48-5.862l8.548.06c-.018 2.726.342 4.852 1.105 6.395.766 1.54 2.025 2.697 3.804 3.483 1.78.782 4.12 1.28 7.01 1.497 2.876.21 6.468.33 10.754.36l11.387.076c4.977.033 9.124-.176 12.414-.623 3.3-.46 5.928-1.2 7.903-2.235 1.97-1.034 3.352-2.39 4.162-4.068.812-1.692 1.227-3.74 1.242-6.165.018-2.425-.245-4.44-.772-6.058-.55-1.623-1.622-2.91-3.213-3.876-1.627-.965-3.91-1.654-6.83-2.075-2.933-.43-6.78-.662-11.528-.694l-11.75-.08c-5.222-.036-9.695-.26-13.414-.667-3.73-.407-6.842-.99-9.362-1.735-2.52-.74-4.53-1.664-6.037-2.75-1.493-1.102-2.636-2.346-3.416-3.747-.78-1.398-1.29-2.955-1.518-4.65-.223-1.727-.327-3.56-.314-5.554.015-2.078.217-4.003.592-5.785.38-1.77 1.094-3.377 2.12-4.81 1.01-1.438 2.395-2.712 4.138-3.824 1.77-1.115 4.018-2.05 6.783-2.784 2.752-.73 6.056-1.283 9.912-1.64 3.86-.36 8.397-.523 13.616-.488l8.563.06c4.263.028 8.017.207 11.21.544 3.203.328 5.96.838 8.28 1.524 2.292.673 4.212 1.527 5.734 2.535 1.52 1.002 2.73 2.19 3.627 3.59.895 1.375 1.52 2.943 1.858 4.695.35 1.76.516 3.7.5 5.838l-8.556-.06c.018-2.67-.357-4.763-1.113-6.28-.754-1.513-2.023-2.662-3.802-3.43-1.78-.765-4.128-1.264-7.023-1.478-2.897-.213-6.502-.328-10.766-.356l-8.562-.06c-5.678-.04-10.375.123-14.052.497-3.692.387-6.61 1.035-8.738 1.97-2.156.938-3.642 2.207-4.488 3.797-.83 1.594-1.268 3.596-1.284 6.004-.01 1.48.083 2.806.288 3.96.192 1.167.61 2.18 1.25 3.067.615.88 1.515 1.612 2.683 2.218 1.134.598 2.67 1.107 4.572 1.495 1.882.393 4.207.69 6.944.88 2.752.18 6.016.28 9.82.306l11.752.076z"/>
      <path d="M635.534 264.175l11.41.078 31.11 33.677 31.55-33.25 11.403.077-38.736 39.622-.19 28.495-8.55-.06.194-28.494-38.19-40.145z"/>
      <path d="M781.493 295.085c4.682.032 8.705.253 12.038.66 3.373.417 6.185 1.003 8.48 1.783 2.295.77 4.118 1.735 5.486 2.878 1.342 1.134 2.402 2.436 3.12 3.89.727 1.45 1.198 3.067 1.42 4.865.213 1.784.306 3.727.29 5.808-.014 2.067-.215 4.015-.604 5.83-.376 1.81-1.058 3.472-2.006 4.97-.96 1.498-2.248 2.84-3.902 4.005-1.637 1.174-3.715 2.157-6.244 2.976-2.528.8-5.574 1.416-9.12 1.82-3.548.403-7.694.59-12.448.558l-11.392-.078c-4.274-.03-8.007-.223-11.218-.566-3.21-.344-5.947-.853-8.27-1.55-2.305-.67-4.216-1.542-5.724-2.585-1.507-1.025-2.707-2.233-3.604-3.622-.898-1.386-1.515-2.96-1.868-4.735-.342-1.764-.502-3.712-.486-5.86l8.545.056c-.02 2.726.354 4.852 1.123 6.396.76 1.54 2.03 2.696 3.803 3.482 1.765.782 4.11 1.28 6.997 1.498 2.9.21 6.48.33 10.75.358l11.394.076c4.987.034 9.136-.175 12.425-.62 3.303-.462 5.926-1.202 7.893-2.238 1.97-1.034 3.363-2.388 4.162-4.067.82-1.692 1.234-3.74 1.25-6.165.018-2.425-.24-4.44-.78-6.058-.526-1.623-1.613-2.91-3.214-3.876-1.623-.966-3.89-1.654-6.832-2.076-2.93-.427-6.768-.66-11.51-.694l-11.756-.08c-5.232-.034-9.707-.26-13.425-.665-3.722-.406-6.837-.99-9.36-1.735-2.518-.74-4.52-1.664-6.024-2.75-1.516-1.1-2.655-2.346-3.44-3.746-.768-1.4-1.272-2.958-1.5-4.652-.217-1.727-.333-3.562-.32-5.555.017-2.078.222-4.003.603-5.784.376-1.772 1.09-3.38 2.11-4.812 1.01-1.44 2.392-2.712 4.157-3.825 1.762-1.113 4.007-2.05 6.762-2.783 2.752-.732 6.053-1.283 9.917-1.64 3.853-.362 8.396-.523 13.623-.49l8.55.06c4.27.03 8.003.21 11.206.547 3.204.326 5.976.836 8.28 1.524 2.306.673 4.215 1.526 5.746 2.534 1.522 1.003 2.723 2.192 3.627 3.59.887 1.375 1.506 2.944 1.86 4.696.353 1.76.5 3.7.487 5.838l-8.547-.06c.018-2.67-.343-4.763-1.125-6.282-.748-1.51-2.02-2.66-3.8-3.428-1.767-.766-4.113-1.265-7.01-1.48-2.913-.212-6.503-.327-10.775-.356l-8.55-.06c-5.696-.038-10.39.124-14.068.497-3.69.387-6.593 1.034-8.74 1.97-2.14.938-3.642 2.208-4.484 3.797-.833 1.593-1.268 3.596-1.284 6.004-.01 1.48.088 2.807.288 3.96.204 1.168.622 2.18 1.26 3.067.618.878 1.52 1.612 2.657 2.218 1.152.597 2.69 1.107 4.6 1.494 1.884.394 4.208.69 6.944.878 2.748.18 6.02.282 9.824.307l11.755.08z"/>
      <path d="M903.27 265.997l-.05 7.13-34.188-.234-.418 61.25-8.557-.057.416-61.25-34.18-.234.048-7.128 76.93.523z"/>
      <path d="M919.32 334.488l.465-68.38 68.37.467-.05 7.13-59.82-.408-.156 22.785 56.978.39-.048 7.12-56.98-.39-.164 24.223 59.82.407-.048 7.12-68.367-.464z"/>
      <path d="M1010.348 272.43l-.427 62.676-8.56-.06.468-68.378 13.748.094 39.433 60.11 40.274-59.567 14.09.095-.468 68.38-8.534-.06.42-61.744-41.016 61.47-8.646-.06-40.782-62.957z"/>
    </g>
  </g>
  <g fill="#4F4F6A">
    <path d="M537.2 426.78v-43.062h3.873v39.368h16.486v3.693H537.2z"/>
    <path d="M561.877 388.644v-4.925h4.294v4.924h-4.293zm.3 38.136v-30.75h3.693v30.75h-3.693z"/>
    <path d="M594.09 418.973c0 1.24-.25 2.377-.75 3.408s-1.18 1.92-2.04 2.658c-.862.74-1.858 1.317-2.99 1.728-1.13.41-2.316.615-3.557.615h-2.462c-1.24 0-2.427-.234-3.558-.705-1.13-.47-2.122-1.115-2.973-1.937-.852-.82-1.532-1.78-2.043-2.883-.51-1.1-.766-2.27-.766-3.513v-1.23l3.695-.602v2.042c0 .74.155 1.437.465 2.086.31.65.726 1.217 1.246 1.697s1.12.86 1.802 1.142c.68.28 1.39.42 2.132.42h2.462c.74 0 1.45-.11 2.132-.33.68-.22 1.286-.535 1.817-.946.53-.41.952-.904 1.262-1.485.31-.58.465-1.24.465-1.982 0-1.1-.24-2-.72-2.702-.48-.7-1.118-1.284-1.908-1.756-.792-.47-1.692-.86-2.703-1.17-1.01-.31-2.047-.62-3.108-.932-1.063-.31-2.098-.665-3.11-1.066-1.01-.4-1.91-.925-2.7-1.576-.793-.65-1.428-1.466-1.908-2.447-.48-.98-.72-2.2-.72-3.664 0-1.24.24-2.377.72-3.408.48-1.03 1.13-1.917 1.952-2.658.82-.74 1.776-1.315 2.868-1.727 1.09-.41 2.257-.616 3.498-.616h2.163c1.24 0 2.412.237 3.513.707 1.1.47 2.062 1.116 2.883 1.938.82.82 1.465 1.782 1.936 2.883s.706 2.27.706 3.513v.12l-3.694.602v-.93c0-.74-.14-1.438-.42-2.088s-.66-1.216-1.14-1.696c-.48-.48-1.047-.86-1.697-1.142-.65-.28-1.346-.42-2.086-.42h-2.163c-.74 0-1.436.11-2.086.33s-1.216.535-1.696.945c-.48.412-.86.907-1.14 1.487-.282.58-.42 1.242-.42 1.982 0 1.06.24 1.926.72 2.597.48.67 1.115 1.236 1.906 1.696.79.46 1.69.847 2.703 1.156 1.01.31 2.042.63 3.093.96s2.082.706 3.093 1.126c1.01.42 1.912.96 2.702 1.62.79.662 1.427 1.488 1.907 2.48.48.99.72 2.216.72 3.677z"/>
    <path d="M610.84 426.78c-1.12 0-2.176-.21-3.167-.63-.99-.42-1.852-1.002-2.583-1.742s-1.312-1.602-1.742-2.582c-.43-.98-.646-2.032-.646-3.153v-19.128h-5.525v-3.514h5.525v-7.387l3.694-.6v7.987h7.807v3.514h-7.807v19.31c0 .62.115 1.195.345 1.725.23.53.546.996.947 1.396.4.4.87.715 1.41.945s1.122.347 1.743.347h3.363v3.513h-3.362z"/>
    <path d="M639.288 421.855c-.47 1.102-1.117 2.063-1.937 2.883-.82.82-1.78 1.467-2.882 1.937s-2.272.706-3.513.706h-2.462c-1.242 0-2.413-.234-3.514-.705-1.102-.47-2.063-1.115-2.884-1.937-.82-.82-1.467-1.78-1.937-2.883-.472-1.1-.707-2.27-.707-3.513v-13.874c0-1.24.235-2.412.706-3.513.47-1.1 1.115-2.062 1.936-2.883s1.782-1.467 2.883-1.938c1.1-.47 2.27-.706 3.513-.706h2.462c1.24 0 2.412.236 3.513.706 1.1.47 2.062 1.116 2.883 1.938.82.82 1.467 1.782 1.938 2.883.47 1.1.706 2.27.706 3.513v7.236h-16.846v6.848c0 .74.14 1.437.42 2.086.28.65.66 1.217 1.14 1.697s1.047.86 1.698 1.142c.65.28 1.346.42 2.087.42h2.462c.74 0 1.436-.14 2.086-.42.652-.28 1.218-.66 1.698-1.142.48-.48.86-1.046 1.14-1.697.28-.65.42-1.346.42-2.086v-2.042l3.695.6v1.232c0 1.242-.235 2.413-.705 3.513zM636.3 404.26c0-.74-.14-1.438-.42-2.088s-.66-1.216-1.14-1.696c-.48-.48-1.047-.86-1.698-1.142-.65-.28-1.346-.42-2.086-.42h-2.462c-.74 0-1.437.14-2.087.42-.65.28-1.216.66-1.697 1.142-.48.48-.86 1.046-1.14 1.696-.28.65-.42 1.347-.42 2.087v4.563h13.15v-4.564z"/>
    <path d="M662.69 426.78v-22.52c0-.74-.14-1.438-.422-2.088-.28-.65-.66-1.216-1.14-1.696-.48-.48-1.047-.86-1.698-1.142-.65-.28-1.346-.42-2.086-.42h-2.462c-.74 0-1.437.14-2.087.42-.65.28-1.217.66-1.697 1.142-.48.48-.86 1.046-1.14 1.696-.282.65-.42 1.347-.42 2.087v22.52h-3.695v-30.75h1.23l2.013 3.124c.84-1.142 1.896-2.047 3.168-2.718 1.27-.67 2.657-1.007 4.16-1.007h.93c1.24 0 2.412.235 3.514.705 1.1.47 2.06 1.116 2.883 1.938.82.82 1.466 1.782 1.938 2.883.47 1.1.706 2.27.706 3.513v22.31h-3.695z"/>
    <path d="M673.163 388.644v-4.925h4.295v4.924h-4.295zm.3 38.136v-30.75h3.693v30.75h-3.693z"/>
    <path d="M701.083 426.78v-22.52c0-.74-.14-1.438-.42-2.088-.28-.65-.66-1.216-1.142-1.696-.48-.48-1.045-.86-1.695-1.142-.65-.28-1.347-.42-2.087-.42h-2.463c-.74 0-1.436.14-2.086.42-.652.28-1.218.66-1.698 1.142-.48.48-.86 1.046-1.14 1.696-.282.65-.422 1.347-.422 2.087v22.52h-3.694v-30.75h1.232l2.012 3.124c.84-1.142 1.896-2.047 3.168-2.718s2.657-1.007 4.158-1.007h.932c1.24 0 2.412.235 3.514.705 1.1.47 2.062 1.116 2.883 1.938.82.82 1.466 1.782 1.937 2.883.47 1.1.706 2.27.706 3.513v22.31h-3.695z"/>
    <path d="M730.76 434.077c-.47 1.04-1.115 1.932-1.936 2.673-.822.74-1.783 1.316-2.883 1.727-1.1.41-2.272.615-3.513.615h-1.53c-1.243 0-2.414-.205-3.515-.615-1.102-.41-2.063-.986-2.883-1.727-.822-.74-1.468-1.632-1.94-2.673s-.704-2.182-.704-3.423v-.12c0-1.2.22-2.303.66-3.304.44-1 1.04-1.87 1.803-2.612-.962-.58-1.728-1.366-2.3-2.357-.57-.99-.855-2.086-.855-3.287 0-1.08.23-2.087.69-3.018s1.092-1.687 1.894-2.268c-.963-.84-1.724-1.85-2.284-3.032s-.84-2.473-.84-3.874v-2.312c0-1.24.234-2.412.705-3.513.47-1.1 1.116-2.062 1.938-2.883s1.782-1.467 2.883-1.938c1.102-.47 2.273-.706 3.515-.706h1.53c1.502 0 2.89.336 4.16 1.007s2.327 1.576 3.168 2.718l2.012-3.123h1.23v10.75c0 1.242-.234 2.412-.705 3.514-.47 1.1-1.115 2.062-1.937 2.882-.82.82-1.782 1.468-2.883 1.938-1.1.47-2.272.706-3.513.706h-5.346c-.42 0-.82.085-1.2.255-.38.17-.716.396-1.006.676-.29.28-.516.616-.676 1.007s-.24.796-.24 1.216c0 .42.08.82.24 1.2.16.382.385.717.676 1.007.29.29.625.516 1.006.676.38.16.78.24 1.2.24h5.046c1.24 0 2.412.206 3.514.616 1.1.41 2.06.986 2.883 1.726.82.74 1.466 1.633 1.936 2.674.47 1.04.706 2.18.706 3.423v.12c0 1.24-.235 2.38-.706 3.422zm-2.656-29.818c0-.74-.14-1.438-.42-2.088s-.666-1.216-1.157-1.696c-.49-.48-1.062-.86-1.712-1.142-.65-.28-1.346-.42-2.086-.42h-3.064c-.74 0-1.437.14-2.087.42-.65.28-1.218.66-1.698 1.142-.48.48-.86 1.046-1.14 1.696-.28.65-.42 1.347-.42 2.087v2.732c0 .74.14 1.436.42 2.086.278.65.66 1.217 1.14 1.697s1.047.86 1.697 1.14c.65.282 1.345.422 2.086.422h3.063c.74 0 1.435-.14 2.085-.42.65-.28 1.22-.66 1.712-1.142s.876-1.046 1.156-1.697c.28-.65.42-1.346.42-2.086v-2.733zm-.15 26.094c0-.74-.14-1.406-.42-1.996-.28-.592-.662-1.087-1.143-1.487-.48-.398-1.044-.71-1.694-.93-.65-.22-1.348-.33-2.088-.33h-1.892c-.74 0-1.437.11-2.087.33s-1.218.53-1.697.93c-.48.4-.86.897-1.142 1.488-.28.59-.42 1.256-.42 1.996v.48c0 .74.14 1.4.42 1.982.28.58.66 1.076 1.143 1.486.48.41 1.046.726 1.696.945.65.22 1.345.33 2.086.33h1.892c.74 0 1.437-.11 2.088-.33.65-.22 1.215-.535 1.695-.945s.862-.906 1.144-1.486c.28-.582.42-1.242.42-1.982v-.48z"/>
    <path d="M761.303 387.412v39.368h-3.873v-39.368h-10.27v-3.693h24.413v3.692h-10.27z"/>
    <path d="M792.333 421.855c-.47 1.102-1.117 2.063-1.938 2.883-.82.82-1.78 1.467-2.883 1.937-1.102.47-2.27.706-3.514.706h-2.462c-1.24 0-2.413-.234-3.513-.705-1.102-.47-2.063-1.115-2.883-1.937-.82-.82-1.467-1.78-1.938-2.883-.47-1.1-.705-2.27-.705-3.513v-13.874c0-1.24.234-2.412.705-3.513s1.116-2.062 1.938-2.883c.82-.82 1.78-1.467 2.883-1.938 1.1-.47 2.27-.706 3.513-.706h2.462c1.242 0 2.412.236 3.514.706 1.102.47 2.063 1.116 2.883 1.938s1.467 1.782 1.938 2.883c.47 1.1.705 2.27.705 3.513v13.874c0 1.242-.236 2.413-.705 3.513zm-2.99-17.596c0-.74-.14-1.438-.42-2.088s-.66-1.216-1.14-1.696c-.48-.48-1.047-.86-1.697-1.142-.65-.28-1.347-.42-2.088-.42h-2.462c-.74 0-1.437.14-2.087.42-.65.28-1.218.66-1.698 1.142-.48.48-.86 1.046-1.14 1.696s-.42 1.347-.42 2.087v14.293c0 .74.14 1.437.42 2.086.28.65.66 1.216 1.14 1.696s1.047.86 1.697 1.142 1.345.42 2.086.42h2.462c.74 0 1.438-.14 2.088-.42s1.216-.66 1.696-1.142.86-1.046 1.14-1.697c.28-.65.422-1.347.422-2.087V404.26z"/>
    <path d="M823.174 387.412v39.368H819.3v-39.368h-10.27v-3.693h24.413v3.692h-10.27z"/>
    <path d="M853.678 426.78v-22.52c0-.74-.14-1.438-.42-2.088s-.662-1.216-1.143-1.696c-.48-.48-1.045-.86-1.696-1.142-.65-.28-1.348-.42-2.088-.42h-2.462c-.74 0-1.437.14-2.087.42-.65.28-1.217.66-1.697 1.142-.48.48-.86 1.046-1.14 1.696-.282.65-.42 1.347-.42 2.087v22.52h-3.695v-43.062h3.695v14.895c.84-1 1.85-1.78 3.032-2.342 1.18-.56 2.462-.84 3.844-.84h.932c1.24 0 2.412.235 3.514.705 1.1.47 2.062 1.116 2.883 1.938.82.82 1.465 1.782 1.936 2.883.47 1.1.706 2.27.706 3.513v22.31h-3.694z"/>
    <path d="M883.055 421.855c-.47 1.102-1.117 2.063-1.938 2.883-.82.82-1.78 1.467-2.883 1.937-1.102.47-2.27.706-3.513.706h-2.46c-1.243 0-2.415-.234-3.515-.705-1.102-.47-2.063-1.115-2.883-1.937-.82-.82-1.467-1.78-1.938-2.883-.47-1.1-.705-2.27-.705-3.513v-13.874c0-1.24.233-2.412.704-3.513s1.116-2.062 1.938-2.883c.82-.82 1.78-1.467 2.883-1.938 1.1-.47 2.27-.706 3.514-.706h2.46c1.242 0 2.412.236 3.514.706 1.102.47 2.063 1.116 2.883 1.938s1.467 1.782 1.938 2.883c.47 1.1.705 2.27.705 3.513v7.236h-16.846v6.848c0 .74.14 1.437.42 2.086.28.65.66 1.217 1.14 1.697.48.48 1.048.86 1.698 1.142s1.346.42 2.088.42h2.462c.74 0 1.437-.14 2.087-.42s1.215-.66 1.695-1.142.86-1.046 1.142-1.697c.28-.65.42-1.346.42-2.086v-2.042l3.693.6v1.232c0 1.242-.235 2.413-.705 3.513zm-2.988-17.596c0-.74-.14-1.438-.42-2.088-.28-.65-.66-1.216-1.142-1.696-.48-.48-1.046-.86-1.696-1.142-.65-.28-1.348-.42-2.088-.42h-2.462c-.742 0-1.438.14-2.088.42-.65.28-1.217.66-1.697 1.142-.48.48-.86 1.046-1.14 1.696s-.42 1.347-.42 2.087v4.563h13.15v-4.564z"/>
    <path d="M926.854 403.778c-.55 1.28-1.306 2.402-2.266 3.363-.962.962-2.088 1.718-3.38 2.27-1.29.55-2.667.824-4.128.824h-9.76v16.546h-3.873v-43.062h13.633c1.46 0 2.838.275 4.13.826s2.416 1.307 3.378 2.268c.96.96 1.716 2.086 2.266 3.378.55 1.292.826 2.668.826 4.13v5.344c0 1.462-.275 2.833-.826 4.114zm-3.047-9.46c0-.96-.18-1.855-.54-2.687-.36-.83-.856-1.56-1.487-2.19s-1.36-1.126-2.19-1.486c-.833-.36-1.728-.54-2.69-.54h-9.578v19.128h9.58c.96 0 1.855-.18 2.687-.54.83-.36 1.56-.85 2.19-1.472s1.126-1.346 1.486-2.178c.36-.83.54-1.727.54-2.688v-5.345z"/>
    <path d="M951.608 426.78l-2.043-3.123c-.84 1.142-1.892 2.047-3.152 2.718-1.262.67-2.643 1.006-4.145 1.006h-.93c-1.242 0-2.414-.234-3.514-.705-1.102-.47-2.063-1.115-2.883-1.937-.82-.82-1.466-1.78-1.937-2.883-.47-1.1-.705-2.27-.705-3.513V396.03h3.693v22.52c0 .74.14 1.438.42 2.087.28.65.662 1.217 1.143 1.697.48.48 1.046.86 1.696 1.142s1.345.42 2.087.42h2.46c.742 0 1.44-.14 2.09-.42s1.215-.66 1.695-1.142c.48-.48.86-1.046 1.142-1.697.28-.65.42-1.346.42-2.086v-22.52h3.693v30.75h-1.23z"/>
    <path d="M959.92 426.78v-43.062h3.692v43.062h-3.693z"/>
    <path d="M991.833 418.973c0 1.24-.25 2.377-.75 3.408s-1.183 1.92-2.042 2.658c-.86.74-1.856 1.317-2.987 1.728s-2.318.615-3.56.615h-2.462c-1.24 0-2.426-.234-3.557-.705-1.132-.47-2.122-1.115-2.973-1.937-.85-.82-1.532-1.78-2.042-2.883-.51-1.1-.766-2.27-.766-3.513v-1.23l3.693-.602v2.042c0 .74.154 1.437.465 2.086.31.65.727 1.217 1.246 1.697.52.48 1.12.86 1.803 1.142.68.28 1.39.42 2.13.42h2.463c.74 0 1.45-.11 2.133-.33.68-.22 1.285-.535 1.816-.946.53-.41.95-.904 1.26-1.485.31-.58.467-1.24.467-1.982 0-1.1-.24-2-.722-2.702-.48-.7-1.116-1.284-1.906-1.756-.792-.47-1.693-.86-2.703-1.17-1.013-.31-2.05-.62-3.11-.932-1.06-.31-2.096-.665-3.107-1.066-1.01-.4-1.912-.925-2.702-1.576-.79-.65-1.426-1.466-1.906-2.447-.48-.98-.72-2.2-.72-3.664 0-1.24.24-2.377.72-3.408s1.13-1.917 1.952-2.658c.82-.74 1.776-1.315 2.868-1.727 1.09-.41 2.257-.616 3.498-.616h2.162c1.24 0 2.412.237 3.514.707 1.1.47 2.062 1.116 2.883 1.938.82.82 1.467 1.782 1.94 2.883.468 1.1.703 2.27.703 3.513v.12l-3.693.602v-.93c0-.74-.14-1.438-.42-2.088s-.66-1.216-1.142-1.696c-.48-.48-1.047-.86-1.696-1.142-.65-.28-1.347-.42-2.087-.42h-2.162c-.74 0-1.437.11-2.087.33-.65.22-1.216.535-1.696.945-.48.412-.86.907-1.142 1.487-.28.58-.42 1.242-.42 1.982 0 1.06.24 1.926.72 2.597.48.67 1.116 1.236 1.907 1.696.79.46 1.69.847 2.702 1.156 1.012.31 2.043.63 3.094.96s2.083.706 3.094 1.126c1.01.42 1.91.96 2.702 1.62.79.662 1.426 1.488 1.907 2.48.48.99.72 2.216.72 3.677z"/>
    <path d="M1017.217 421.855c-.47 1.102-1.116 2.063-1.938 2.883-.822.82-1.782 1.467-2.884 1.937-1.102.47-2.27.706-3.514.706h-2.46c-1.243 0-2.415-.234-3.515-.705-1.102-.47-2.063-1.115-2.883-1.937-.82-.82-1.467-1.78-1.938-2.883-.47-1.1-.705-2.27-.705-3.513v-13.874c0-1.24.235-2.412.706-3.513s1.116-2.062 1.938-2.883c.82-.82 1.78-1.467 2.883-1.938 1.1-.47 2.27-.706 3.514-.706h2.462c1.242 0 2.412.236 3.514.706 1.102.47 2.062 1.116 2.883 1.938s1.466 1.782 1.937 2.883c.47 1.1.705 2.27.705 3.513v7.236h-16.846v6.848c0 .74.14 1.437.42 2.086.28.65.66 1.217 1.142 1.697.48.48 1.046.86 1.696 1.142s1.346.42 2.088.42h2.46c.742 0 1.44-.14 2.09-.42s1.215-.66 1.695-1.142c.48-.48.86-1.046 1.142-1.697.28-.65.42-1.346.42-2.086v-2.042l3.692.6v1.232c0 1.242-.235 2.413-.705 3.513zm-2.988-17.596c0-.74-.14-1.438-.42-2.088-.282-.65-.66-1.216-1.143-1.696-.48-.48-1.046-.86-1.696-1.142-.65-.28-1.346-.42-2.087-.42h-2.46c-.743 0-1.44.14-2.09.42-.65.28-1.215.66-1.695 1.142-.48.48-.86 1.046-1.142 1.696s-.42 1.347-.42 2.087v4.563h13.152v-4.564z"/>
    <path d="M1060.386 420.925c-.55 1.28-1.306 2.402-2.268 3.363-.96.96-2.08 1.717-3.362 2.268-1.28.55-2.653.825-4.115.825h-3.06c-1.463 0-2.84-.274-4.13-.824-1.292-.55-2.417-1.307-3.38-2.268-.96-.96-1.716-2.082-2.266-3.363-.55-1.28-.826-2.652-.826-4.114v-23.12c0-1.462.275-2.834.826-4.115.55-1.28 1.306-2.4 2.267-3.362.963-.962 2.088-1.717 3.38-2.268 1.29-.55 2.667-.825 4.13-.825h3.06c1.463 0 2.835.275 4.116.825 1.28.55 2.402 1.306 3.362 2.268.962.96 1.717 2.082 2.268 3.362.55 1.28.825 2.653.825 4.115v23.12c0 1.462-.273 2.834-.824 4.115zm-3.048-27.236c0-.963-.18-1.858-.54-2.69-.36-.83-.852-1.555-1.472-2.176-.62-.62-1.348-1.11-2.178-1.472s-1.727-.54-2.688-.54h-2.7c-.963 0-1.858.18-2.69.54s-1.56.85-2.19 1.472-1.126 1.347-1.487 2.177c-.36.832-.54 1.728-.54 2.69v23.12c0 .96.18 1.857.54 2.688.36.83.855 1.563 1.486 2.192.63.63 1.36 1.126 2.19 1.486s1.728.54 2.69.54h2.7c.96 0 1.857-.18 2.688-.54s1.557-.855 2.178-1.486c.62-.63 1.11-1.36 1.47-2.192.362-.83.542-1.727.542-2.688v-23.12z"/>
    <path d="M1078.262 387.232c-.62 0-1.196.115-1.727.346s-.996.545-1.396.945c-.4.4-.717.87-.946 1.412-.23.54-.346 1.12-.346 1.74v4.355h7.177v3.514h-7.177v27.235h-3.693v-27.236h-5.556v-3.514h5.555v-4.174c0-1.12.21-2.178.63-3.17.42-.99 1-1.855 1.742-2.596.74-.74 1.6-1.32 2.583-1.742.98-.42 2.03-.63 3.152-.63h3.394v3.513h-3.394z"/>
    <path d="M1108.1 387.412v39.368h-3.875v-39.368h-10.27v-3.693h24.414v3.692h-10.27z"/>
    <path d="M1138.602 426.78v-22.52c0-.74-.14-1.438-.42-2.088s-.66-1.216-1.142-1.696c-.48-.48-1.046-.86-1.696-1.142-.65-.28-1.347-.42-2.088-.42h-2.462c-.74 0-1.437.14-2.087.42-.65.28-1.216.66-1.697 1.142-.48.48-.86 1.046-1.14 1.696s-.42 1.347-.42 2.087v22.52h-3.694v-43.062h3.693v14.895c.84-1 1.85-1.78 3.032-2.342 1.18-.56 2.462-.84 3.843-.84h.93c1.243 0 2.413.235 3.515.705 1.102.47 2.062 1.116 2.883 1.938s1.467 1.782 1.938 2.883c.47 1.1.706 2.27.706 3.513v22.31h-3.694z"/>
    <path d="M1167.98 421.855c-.472 1.102-1.117 2.063-1.94 2.883-.82.82-1.78 1.467-2.88 1.937-1.103.47-2.273.706-3.515.706h-2.462c-1.242 0-2.413-.234-3.514-.705-1.103-.47-2.064-1.115-2.884-1.937-.82-.82-1.467-1.78-1.938-2.883-.47-1.1-.705-2.27-.705-3.513v-13.874c0-1.24.234-2.412.705-3.513s1.116-2.062 1.938-2.883c.82-.82 1.78-1.467 2.883-1.938 1.1-.47 2.27-.706 3.513-.706h2.462c1.24 0 2.412.236 3.514.706 1.1.47 2.06 1.116 2.88 1.938.822.82 1.468 1.782 1.94 2.883s.704 2.27.704 3.513v7.236h-16.846v6.848c0 .74.14 1.437.42 2.086.28.65.66 1.217 1.142 1.697.48.48 1.046.86 1.696 1.142s1.346.42 2.088.42h2.462c.74 0 1.437-.14 2.087-.42s1.216-.66 1.697-1.142c.48-.48.86-1.046 1.14-1.697.28-.65.42-1.346.42-2.086v-2.042l3.694.6v1.232c0 1.242-.234 2.413-.705 3.513zm-2.99-17.596c0-.74-.14-1.438-.42-2.088-.28-.65-.66-1.216-1.14-1.696-.48-.48-1.047-.86-1.697-1.142-.65-.28-1.347-.42-2.087-.42h-2.462c-.742 0-1.438.14-2.088.42-.65.28-1.215.66-1.696 1.142-.48.48-.86 1.046-1.14 1.696s-.422 1.347-.422 2.087v4.563h13.152v-4.564z"/>
    <path d="M1211.78 403.778c-.552 1.28-1.307 2.402-2.268 3.363s-2.088 1.718-3.38 2.27c-1.29.55-2.667.824-4.128.824h-9.76v16.546h-3.873v-43.062h13.634c1.46 0 2.838.275 4.13.826s2.417 1.307 3.378 2.268 1.716 2.086 2.267 3.378c.55 1.292.825 2.668.825 4.13v5.344c0 1.462-.276 2.833-.826 4.114zm-3.05-9.46c0-.96-.18-1.855-.54-2.687-.36-.83-.855-1.56-1.486-2.19-.63-.63-1.36-1.126-2.19-1.486-.832-.36-1.728-.54-2.69-.54h-9.58v19.128h9.58c.962 0 1.857-.18 2.69-.54.83-.36 1.56-.85 2.19-1.472.63-.62 1.127-1.346 1.487-2.178.36-.83.54-1.727.54-2.688v-5.345z"/>
    <path d="M1218.455 426.78v-43.062h3.693v43.062h-3.693z"/>
    <path d="M1248.538 426.78l-2.042-3.063c-.84 1.102-1.893 1.987-3.153 2.658-1.262.67-2.643 1.006-4.145 1.006h-.93c-1.242 0-2.414-.234-3.514-.705-1.102-.47-2.063-1.115-2.883-1.937-.82-.82-1.466-1.78-1.937-2.883-.47-1.1-.705-2.27-.705-3.513v-.3c0-1.242.234-2.413.705-3.514.47-1.102 1.116-2.063 1.938-2.884.82-.82 1.782-1.466 2.884-1.937 1.1-.47 2.27-.705 3.514-.705h7.807v-4.745c0-.74-.14-1.437-.42-2.087-.28-.65-.66-1.216-1.142-1.696-.48-.48-1.046-.86-1.696-1.142-.65-.28-1.347-.42-2.088-.42h-2.163c-.74 0-1.436.14-2.086.42-.65.28-1.216.66-1.696 1.142-.48.48-.86 1.046-1.14 1.696-.282.65-.42 1.347-.42 2.087v1.11l-3.694-.6v-.3c0-1.242.234-2.413.705-3.514s1.115-2.062 1.937-2.883 1.782-1.467 2.883-1.938c1.1-.47 2.272-.706 3.513-.706h2.162c1.242 0 2.412.236 3.514.706 1.102.47 2.063 1.116 2.883 1.938.82.82 1.467 1.782 1.938 2.883.47 1.1.705 2.27.705 3.513v22.312h-1.232zm-2.463-14.894h-7.807c-.742 0-1.438.14-2.088.42-.65.282-1.216.667-1.696 1.157s-.86 1.06-1.142 1.71c-.28.652-.42 1.348-.42 2.09v1.29c0 .74.14 1.437.42 2.086.28.65.66 1.216 1.142 1.696.48.48 1.046.86 1.696 1.142s1.346.42 2.088.42h2.46c.742 0 1.44-.14 2.09-.42s1.215-.66 1.695-1.142c.48-.48.86-1.046 1.142-1.697.28-.65.42-1.347.42-2.087v-6.667z"/>
    <path d="M1272.464 426.78v-22.52c0-.74-.14-1.438-.42-2.088-.282-.65-.66-1.216-1.142-1.696-.48-.48-1.047-.86-1.697-1.142-.65-.28-1.346-.42-2.087-.42h-2.462c-.74 0-1.438.14-2.088.42-.65.28-1.215.66-1.695 1.142-.48.48-.86 1.046-1.142 1.696s-.42 1.347-.42 2.087v22.52h-3.693v-30.75h1.23l2.013 3.124c.84-1.142 1.896-2.047 3.168-2.718 1.27-.67 2.657-1.007 4.16-1.007h.93c1.24 0 2.412.235 3.513.705 1.103.47 2.064 1.116 2.884 1.938.822.82 1.467 1.782 1.938 2.883s.706 2.27.706 3.513v22.31h-3.694z"/>
    <path d="M1301.84 421.855c-.47 1.102-1.115 2.063-1.937 2.883-.82.82-1.782 1.467-2.883 1.937-1.102.47-2.27.706-3.514.706h-2.462c-1.24 0-2.412-.234-3.513-.705-1.102-.47-2.062-1.115-2.882-1.937-.82-.82-1.468-1.78-1.938-2.883-.47-1.1-.706-2.27-.706-3.513v-13.874c0-1.24.235-2.412.706-3.513.47-1.1 1.116-2.062 1.938-2.883.82-.82 1.78-1.467 2.883-1.938 1.102-.47 2.272-.706 3.514-.706h2.462c1.242 0 2.412.236 3.514.706 1.1.47 2.062 1.116 2.883 1.938s1.467 1.782 1.938 2.883c.47 1.1.706 2.27.706 3.513v7.236H1285.7v6.848c0 .74.14 1.437.422 2.086.28.65.66 1.217 1.14 1.697s1.047.86 1.697 1.142c.648.28 1.345.42 2.086.42h2.462c.74 0 1.437-.14 2.088-.42.65-.28 1.216-.66 1.696-1.142s.86-1.046 1.14-1.697c.282-.65.422-1.346.422-2.086v-2.042l3.693.6v1.232c0 1.242-.236 2.413-.706 3.513zm-2.987-17.596c0-.74-.14-1.438-.42-2.088-.28-.65-.66-1.216-1.142-1.696-.48-.48-1.045-.86-1.695-1.142-.65-.28-1.347-.42-2.088-.42h-2.462c-.74 0-1.438.14-2.087.42-.65.28-1.216.66-1.696 1.142-.48.48-.86 1.046-1.14 1.696-.282.65-.423 1.347-.423 2.087v4.563h13.152v-4.564z"/>
    <path d="M1319.597 426.78c-1.122 0-2.178-.21-3.17-.63-.99-.42-1.85-1.002-2.58-1.742s-1.313-1.602-1.742-2.582c-.43-.98-.646-2.032-.646-3.153v-19.128h-5.525v-3.514h5.524v-7.387l3.692-.6v7.987h7.808v3.514h-7.808v19.31c0 .62.116 1.195.346 1.725.23.53.546.996.946 1.396.4.4.87.715 1.41.945.542.23 1.122.347 1.743.347h3.362v3.513h-3.363z"/>
  </g>
</svg>
