<?xml version="1.0" encoding="utf-8"?>
<!-- Generator: Adobe Illustrator 14.0.0, SVG Export Plug-In . SVG Version: 6.00 Build 43363)  -->
<!DOCTYPE svg PUBLIC "-//W3C//DTD SVG 1.0//EN" "http://www.w3.org/TR/2001/REC-SVG-20010904/DTD/svg10.dtd">
<svg version="1.0" id="Vrstva_1" xmlns="http://www.w3.org/2000/svg" xmlns:xlink="http://www.w3.org/1999/xlink" x="0px" y="0px"
	 width="81.999px" height="35.124px" viewBox="0 0 81.999 35.124" enable-background="new 0 0 81.999 35.124" xml:space="preserve">
<g>
	<g>
		<path fill="#A4182B" d="M58.003,34.687V17.894h20.262v16.793H81.5V0.438h-3.235v14.697H58.003V0.438h-3.234v34.249H58.003z
			 M30.749,16.8V3.197h8.372c3.073,0,5.316,0.555,6.73,1.664c1.41,1.111,2.116,2.743,2.116,4.899c0,1.459-0.231,2.64-0.69,3.543
			c-0.461,0.904-1.11,1.618-1.95,2.142c-0.84,0.522-1.863,0.879-3.067,1.069c-1.205,0.191-2.567,0.285-4.09,0.285H30.749z
			 M30.749,34.687V19.56h7.325c1.586,0,3.163-0.145,4.732-0.428c1.569-0.285,2.974-0.787,4.21-1.5
			c1.235-0.712,2.242-1.688,3.019-2.925c0.777-1.236,1.165-2.806,1.165-4.708c0-1.268-0.165-2.481-0.498-3.639
			c-0.333-1.157-0.92-2.18-1.76-3.068c-0.841-0.887-1.983-1.585-3.425-2.092c-1.443-0.507-3.273-0.761-5.493-0.761H27.516v34.249
			H30.749z M23.758,34.687v-2.762H3.733V18.323H21.38v-2.76H3.733V3.197h19.549V0.438H0.499v34.249H23.758z"/>
	</g>
</g>
</svg>
