<?xml version="1.0" encoding="utf-8"?>
<!-- Generator: Adobe Illustrator 14.0.0, SVG Export Plug-In . SVG Version: 6.00 Build 43363)  -->
<!DOCTYPE svg PUBLIC "-//W3C//DTD SVG 1.1//EN" "http://www.w3.org/Graphics/SVG/1.1/DTD/svg11.dtd">
<svg version="1.1" id="Layer_1" xmlns="http://www.w3.org/2000/svg" xmlns:xlink="http://www.w3.org/1999/xlink" x="0px" y="0px"
	 width="355px" height="450px" viewBox="-104.25 -133.854 355 450" enable-background="new -104.25 -133.854 355 450"
	 xml:space="preserve">
<path fill="#017DC3" d="M248.378-91.478c-32.923-16.336-67.573-26.431-104.699-32.619c-23.396-4.489-46.94-6.418-70.301-6.219
	c-23.36-0.2-46.904,1.73-70.3,6.219c-37.126,6.188-71.777,16.283-104.7,32.619l0.038,0.095c-0.012,0.006-0.024,0.011-0.037,0.016
	v142.96c1.638,15.939,4.634,93.347,54.165,163.68c15.995,22.714,40.57,51.292,65.991,69.779
	c26.648,19.379,52.471,28.142,54.84,28.366c0,0,0.004,0,0.005,0c2.37-0.225,28.191-8.987,54.84-28.366
	c25.422-18.487,49.995-47.065,65.99-69.779c49.531-70.333,52.527-147.741,54.164-163.68v-142.96
	c-0.017-0.007-0.034-0.015-0.052-0.022L248.378-91.478z"/>
<path fill="#EEE9E7" d="M230.541-55.271c-5.577-7.758-13.098-15.763-24.012-15.036c-7.273,1.212-15.523,6.07-20.615,12.132
	c-26.677,33.222-25.861,87.869-10.339,127.154c-3.156,3.638-8.004,0.97-11.401,0c-11.639-5.577-17.465-16.489-20.136-27.645
	c-4.604,12.124,0.653,25.38,5.987,35.081c8.797,15.448,25.234,16.203,34.98,22.978c1.211,2.18,2.794,7.027-1.102,6.938
	c-3.393-4.29-6.416-7.604-12.965-6.391c-2.91,1.148-5.819,3.27-6.788,6.67c-1.94,5.094,0,10.181,2.67,13.822l3.635-6.058
	c3.396-2.671,7.521-4.611,12.126-2.671c3.635,1.455,4.972,5.879,4.241,10.484c-1.454,6.549-7.692,11.283-12.91,13.83
	c-12.013,3.521-19.687-0.162-25.022-6.712c-14.928-29.465-38.963-38.192-26.438-73.339c-5.819-5.578-8.517-12.572-10.942-20.573
	c-2.183,4.607-3.161,11.312-3.058,16.697c-3.906-0.116-5.454-1.374-6.906-2.01c-9.944-5.82-12.544-15.371-13.269-26.042
	c-12.64,20.459-38.023,8.792-47.616,8.782c3.737-5.625,12.15-15.157,13.244-18.238c-9.7,4.609-20.081,8.292-32.448,7.081
	C8.607,40.582-17.049,33.573-32.087,48.125c-6.305-6.063-12.612-12.853-20.335-15.708c-7.759-2.183-15.202,2.164-19.326,7.741
	l7.425-1.605c4.609,2.667-0.841,5.837,1.585,8.748c5.093,4.608,14.888-3.507,14.888,5.224c-6.752,6.381-13.37-4.71-24.159,2.334
	c-3.133,3.617-5.13,9.382-3.431,14.473l7.444-5.782c9.948,14.487,15.479-2,26.246-2.835c4.253-1.455,4.887,1.606,4.14,4.05
	c-4.144,2.947-14.29,3.636-18,9.868c-2.479,4.812,2.911,12.982,7.276,16.622c-0.484-3.881,0.486-6.791,3.637-8.974
	c1.938-0.595,5.67-0.561,8.336,0.412c8.601-0.074,2.927-9.946,8.883-12.109c9.047,3.564,7.809-15.052,17.399-12.029
	c4.067,6.228-10.632,11.324-9.888,23.43c0.189,1.824,5.997-1.13,8.352-1.578c2.672-0.506,4.657-1.055,5.151-2.13
	c4.469-6.84,6.517-18.404,13.605-23.845c1.045,0.169,1.691,0.737,1.939,1.697c-1.939,7.519-9.011,13.487-9.011,21.25
	c3.638-0.486,7.031-1.455,10.185-3.154c1.361-8.266,7.037-17.947,13.132-24.644c1.237-0.258,2.937,0.079,3.451,1.288
	c-1.262,4.093-11.24,12.104-11.435,22.477c4.426-1.667,8.921-1.876,11.104-4.123c6.295-6.479,3.662-17.854,12.463-23.008
	c2.303-1.735,3.424,0.069,3.924,1.01c0.212,6.823-10.015,10.771-10.711,20.859c2.909-0.969,9.461,0.964,12.854-1.46
	c3.64-8.001,4.729-17.694,12.004-24.244c9.042,1.624-4.483,9.034-3.267,15.342l12.992-2.566c1.207-5.618,0.104-12.232,6.098-14.48
	l2.773,1c1.938,5.578-2.184,9.7-4.124,14.552c-3.881,5.091-11.391,3.27-16.241,6.178c4.608,10.488,17.18,27.251,29.212,34.359
	c20.127,23.281-8.152,45.29-7.462,65.499c-0.177,7.486,8.468,6.969,12.255,7.481c1.085,0.147,1.255,1.578,0.986,2.752
	c-0.999,1.178-3.082,1.079-5.525,0.809c-2.441-0.271-5.24-0.715-7.666-0.232c-1.208,0.481-3.706,1.66-3.463,3.358
	c0.401,1.785,4.055,3.191,5.961,5.319c6.68,2.618,15.381-6.534,19.501-0.472c0.972,1.696-0.602,1.884-1.326,2.609
	c-3.772,0.476-12.23-0.43-15.212,2.84c1.887,2.106,4.885,5.316,7.208,5.321c3.525,0.005,7.579-2.524,11.273-2.524
	c7.589,6.903-6.549,2.668-8.246,6.79l5.334,7.03c2.182,1.454,4.85,0.244,6.551-0.972c4.739-2.293,7.274,0.123,10.445,1.842
	c2.426,2.907,1.418,6.672,0.688,9.582c-4.431,4.744-14.325,12.718-17.854,16.382c-6.367,6.44-6.034,11.604-18.622,15.33
	c-8.816,5.375-11.454-4.946-19.212-4.466c-2.912,0.39-7.762,1.213-8.49,5.336c-0.242,3.635-1.588,7.937,0.862,12.239l2.894-3.01
	c5.819-3.882,12.612-0.481,17.944,1.945c0.485,1.21,1.046,0.498,0.561,1.464c-3.835,2.22-6.179,0.27-7.977-0.409
	c-3.396,0-6.548,0-8.49,2.427c-3.395,3.637-5.334,8.733-3.88,14.064c5.414-7.348,15.124,0.406,18.407-3.472
	c3.878-0.969,5.534-7.229,9.901-4.078c1.696,4.364-2.422,5.318-4.364,8.23c-1.687,1.864-1.79,5.868,1.455,7.516
	c1.698,1.454,1.698,5.094,0,6.307c4.605-1.213,9.699-2.185,13.098-5.577c4.122-2.668,2.564-7.905,2.078-12.27
	c0.975-2.668,2.981-3.656,6.448-3.279c5.018,0.296-2.241-12.055,3.637-14.069c7.42,1.087,0.397,13.319,5.003,17.442
	c3.016-2.411,5.178-3.407,5.884-5.612c2.12-6.623-4.937-19.582,1.139-22.019c7.072-1.716-0.734,11.771,4.843,16.865
	c3.304-2.11,5.355-3.575,6.683-3.935c4.546-5.968-3.245-14.119,1.2-22.813c0.483-0.972,1.699-2.909,3.396-2.185
	c4.364,6.065-3.396,12.299,1.455,17.635c2.616-4.369,7.713-6.159,8.358-9.946c-0.476-3.063-7.75-14.957-2.851-21.092
	c4.646-1.041,4.133,8.59,4.853,13.803c0.262,1.889,1.657,3.428,2.269,5.095c2.089-4.572,5.336-5.583,6.105-8.201
	c1.316-4.503-0.476-8.487-2.157-12.595c-2.163-5.282-6.214-12.997-1.473-15.909c5.819,1.94,3.258,10.425,5.908,12.229
	c3.965-1.198,6.149-6.149,8.975-9.456c3.615-7.089-6.151-5.496-8.664-9.34c-3.881-9.944-14.116-18.409-22.359-24.473
	c1.452-14.306,2.382-29.3-1.499-42.874c-0.241-2.185-4.246-2.485-3.274-5.153c-0.483-1.696,0.365-4.063,2.55-3.092
	c5.818,4.364,6.302,12.122,6.788,19.154c4.122,5.094,10.04,9.049,15.62,11.717c13.096,3.151,27.764,2.313,38.445-9.7
	c9.035-10.366,11.091-25.949,7.94-40.256c-6.306-34.435-23.829-64.18-20.194-102.74c3.639-14.791,7.278-32.342,17.223-44.466
	c4.123-4.608,9.372-6.784,15.677-5.813c3.154,1.212,7.119,4.6,7.603,8.239c4.122,15.762-2.656,36.648-14.622,41.714
	c-5.821,1.454-11.155-2.182-15.036-5.577c-0.241,8.001-0.005,15.361,5.572,20.454c6.269,7.004,13.395-0.949,16.008,1.697
	c-1.943,6.305-9.702,5.238-12.856,10.815c-12.368,23.04,14.878,32.773,24.421,50.698c3.876,3.636,7.471,14.503,10.819,12.279
	c2.55-0.807-4.196-12.438-6.381-18.5C211.902,26.415,249.532-11.787,230.541-55.271L230.541-55.271z M62.816-76.76
	c14.26,3.448,32.155,0.162,35.279,17.875c-1.526-1.525-4.786-7.421-16.134-8.678c-6.048-0.67-24.588,0.064-28.573-1.729
	c-4.231-2.409-6.83-9.083-6.522-15.031c0.485-2.465,2.061-6.414,5.97-7.194C56.002-85.546,55.265-79.366,62.816-76.76L62.816-76.76z
	 M162.62-79.431c-3.847-1.563-2.821,3.125-4.616,4.688c-1.282-0.521-2.566,0.26-3.082-1.043c2.564-4.426,3.849-9.635,3.849-15.366
	c-2.049-4.951-10.079-8.815-16.493-8.292c-4.359-0.52-2.159,5.731-5.493,5.472c-2.054-1.302-2.188-3.159-2.441-4.461
	c-5.646-5.992-11.998-10.082-21.229-9.827c-5.131,0.26-3.048,5.438-4.044,8.042c-10.519-4.949-22.562-5.437-34.105-5.437
	c-0.257,4.169,3.092,7.022,4.892,10.147c-0.77,1.303-2.836,0.228-4.377,0.228c0.513,5.991,1.282,11.72,4.618,16.148
	c3.847,1.303,2.863-3.646,5.942-4.428c5.132-2.863,14.952-2.59,17.625-0.27c2.325,4.383,2.626,8.201-2.429,12.627
	c-3.59,5.472,2.555,13.68-1.733,16.949c-2.327,0.864-5.812-1.807-9.256-1.484c-7.121,0.669-12.087,0.438-13.443-6.787
	c-5.642,1.303-6.563,8.595-8.043,13.85c2.392,2.739,8.09-0.33,10.351,0.996c10.263,8.075,21.156,4.972,32.447,1.847
	c8.208-2.083,12.03-9.648,19.723-13.294c3.694-1.086,2.055,3.159,1.795,4.722c-21.574,22.084-55.02,14.271-82.467,25.211
	C32.651-19.036,30.433,1.214,22.993,18.667c12.058,0.522,23.844-1.541,33.589-9.355C69.154-3.712,80.864-14.39,95.998-22.725
	c2.823,0,5.901-2.866,8.209,0c-0.513,1.041-0.513,1.824-1.282,2.603c-23.991,6.303-40.858,25.921-55.818,49.12l8.305,2.821
	c33.69,8.872,35.667-28.506,55.42-39.447c1.536,0.52,3.591,2.082,2.821,3.906C101.599,2.27,93.708,12.046,91.91,25.069
	c-1.028,9.638,5.388,18.755,12.568,22.661c1.025-10.678,7.441-19.274,13.598-27.87c1.282-1.042,3.213-2.328,4.752,0.539
	l-6.288,8.057c-4.854,7.206,4.315,24.201,14.575,30.192c-0.259-14.067,4.754-18.478,8.604-31.241
	c3.592-10.417-0.06-22.061-4.108-31.763c0.254-1.563,1.279-4.168,3.844-3.125c3.805,9.183,5.753,19.356,14.22,23.785
	c-3.239-18.016,6.317-26.444,2.22-41.285c-1.025-4.688-6.672-14.839-2.024-15.706c4.569-0.424,4.362,13.805,12.058,13.805
	C162.861-45.615,175.802-65.804,162.62-79.431z M116.619-85.133c-0.479,0.43-1.913,0.048-2.589,0.462
	c-1.805-3.507,0.315-6.913,1.879-9.519c0.609-0.061,1.903-0.361,2.411,0.602c3.107,5.845,8.246,4.438,10.088,9.438
	C121.798-81.765,122.587-90.501,116.619-85.133z M151.976-85.032c-2.343-1.043-1.822-4.949-5.21-3.646
	c-3.122,0.263,0,4.949-3.906,4.166c-1.822-2.863,0-7.031,2.604-8.334c3.648-1.3,5.474,1.825,7.816,4.168
	C153.28-87.375,153.541-86.071,151.976-85.032z M40.039-26.34c-5.85,7.035-10.226,14.198-13.493,22.79
	C15.869-14.751,13.992-29.832,14.775-44.939C22.848-37.286,31.967-32.446,40.039-26.34L40.039-26.34z M72.171,101.034
	c-1.921,12.413,5.017,3.948,12.187,16.582l1.243,2.49l-9.147,25.116c-9.948-0.996-19.451-10.839-30.038-8.354
	c-2.387,6.271,4.128,2.28,6.365,4.773c0.247,5.099-0.43,10.494-3.611,14.523c-3.358,4.251-0.694,10.292,2.159,15.612
	c0.995,3.235-1.041,5.968-3.826,7.614c-1.429,0.881-1.737,0.239-2.896,1.201c0.043-2.261,0.258-4.611-0.26-5.955
	c-0.34-0.895-1.5-0.974-3.27,0.577c-1.492,4.729,0.691,9.804-6.211,13.33l-9.976,2.096c3.469-7.979,8.479-10.193,9.473-14.923
	c-0.497-1.489-2.734-1.489-3.73-0.744c-5.18,3.57-9.514,11.021-12.388,15.526c-2.934,0.776-8.136-0.123-11.397-0.315
	c2.156-2.939,3.578-5.37,5.213-7.021c3.796-3.839,5.907-6.272,7.28-8.635c-1.498-2.143-3.038-1.305-4.23-0.498
	c-5.38,2.278-7.999,11.017-13.49,15.332c-2.508,1.965-6.353-1.418-11.095-0.022c8.584-11.424,13.236-11.31,14.14-16.555
	c-1.985-3.363-5.428-0.271-7.158,1.038c-6.262,3.994-8.678,16.355-14.884,13.995c-1.205-0.458-3.604,2.222-3.881,0.084
	c0.598-7.786,9.242-9.566,7.923-13.478c-0.995-1.494-2.187-1.903-3.679-1.297c-8.35,2.909-9.037,18.567-20.849,14.972
	c-3.233-0.246-4.481,1.031-6.223,3.27c-3.482-2.983-2.831-9.902-1.735-12.619c1.508-5.572,14.764-0.284,17.995-7.745
	c0-3.486-3.727-3.918-5.313-2.695c-3.732,1.99-5.722,6.471-10.943,3.733c-1.771-1.107-4.535-5.986-8.413-3.433l-2.974,3.575
	c-1.74-3.486,1.704-8.807,4.19-11.293c6.398-4.25,5.957-3.176,8.681-3.116c4.384-0.804,4.714,4.68,11.35,4.107
	c1.099-0.099,2.053-0.532,2.682-1.868c-1.737-8.909-18.619-1.329-16.858-10.84c-0.488-2.155-2.681-2.338-4.727-1.987
	c-0.995,1.243-2.238,1.987-3.98,1.987c-0.497-5.721,5.472-6.717,8.206-9.944c5.97-1.242,12.933-0.998,17.159,4.227
	c6.257,8.578,15.048,10.391,25.078,10.745c3.922,0.141,8.052-0.175,12.316-0.806c3.731,1.63,6.666,8.47,10.847,5.178
	c0.278-0.222,0.064-0.888,0.358-1.198c0.475-5.397-11.488-7.792-11.975-9.217c-0.058-1.391-0.629-4.438-0.209-7.451
	c8.869,0.956,13.083,13.182,14.482,5.631c-2.679-4.813-8.449-7.771-13.827-9.778c-0.407-2.387-0.058-5.475-0.058-7.96
	c4.409-0.631,7.958,6.105,12.847,6.283c3.115,0.113,3.411-0.952,1.968-3.502c-2.729-4.808-10.461-4.214-14.309-8.058
	c-0.12-4.029-1.233-13.261,1.241-14.923c7.211,1.489,8.277,12.886,14.913,12.536c0.995-6.465-8.704-9.202-4.227-16.165
	c12.933-17.162,32.683-2.747,50.488-11.194L72.171,101.034L72.171,101.034z M83.979,102.927c0.857,2.197,2.361,4.227,2.956,6.954
	l-0.281,4.3c-1.302-0.781-2.39-2.744-3.691-4.305c-2.17-4.621-6.588-3.216-7.225-6.015c-0.241-1.055,0.04-3.703-0.024-6.203
	l-0.325-1.98C80.911,97.431,82.178,101.234,83.979,102.927L83.979,102.927z"/>
<g>
	<path fill="#FCD100" d="M-22.275-88.006c6.512-0.522,13.349,2.342,20.12,4.429c5.209,1.043,10.158,1.497,13.807,0.715
		c0.06,2.391,8.286,8.824,14.651,18.164c-4.429-2.083-9.183-0.648-12.309,5.862c-1.043,3.387-2.02,7.227-2.8,11.656
		c-1.563,12.241,1.238,25.592,4.623,33.665C19.204-5.442,21.68-2.508,25.847,1.138c-0.324,4.418-1.601,7.037-2.734,10.482
		c-4.688,9.572-10.155,15.495-19.539,19.862c-11.46,4.167-24.221,3.126-35.161,13.547C-44.611,31.745-47.153,27.771-62.912,29.53
		c-5.867,3.055-14.646,0.917-24.158-19.862c-0.263-2.083-2.863-8.262-3.123-10.345c7.736-5.866,16.553-17.588,13.22-45.458
		c-0.521-7.553-2.8-13.804-5.667-17.45c-2.865-3.385-6.512-4.168-9.637-2.865c1.629-6.054,7.158-6.056,11.13-8.076
		c2.603-2.346,4.168-4.691,6.25-8.597c5.992,1.042,11.721,0.519,17.453-1.823c7.815-2.865,17.775-5.667,26.111,1.106
		C-28.724-85.923-25.401-87.483-22.275-88.006L-22.275-88.006z M-89.284-63.873c1.879,0,3.414,1.489,3.414,3.315
		c0,1.824-1.533,3.315-3.414,3.315s-3.414-1.488-3.414-3.315C-92.697-62.386-91.165-63.873-89.284-63.873L-89.284-63.873z
		 M23.812-62.506c1.879,0,3.414,1.489,3.414,3.315c0,1.825-1.532,3.315-3.414,3.315s-3.414-1.488-3.414-3.315
		C20.398-61.02,21.931-62.506,23.812-62.506L23.812-62.506z"/>
	<path fill="#017DC3" d="M-33.448-69.878c-0.121-1.762-0.525-3.306,2.276-4.785c1.65-0.533,3.747-0.318,5.397-0.053
		c1.652,0.266,3.303,0.799,4.954,0.534v0.265c-1.101,0.532-1.658,1.02-3.034,1.552c-0.826,0.265-1.652,0.532-2.477,0.532
		c-0.826,0.265-0.826,1.066-1.927,1.066c-0.55,0.265-0.826,0.265-1.101,0.265c0,0-0.275,0-0.275-0.265
		c0.275-0.266,0.55-0.799,0-1.066c-0.275-0.265-0.275-0.265-0.551-0.265c-0.275,0-0.275,0-0.55,0
		c-0.551,0.265-0.551,0.533-0.551,1.065c-0.061,0.43,0.604,1.695,1.705,1.963c1.585,0.783,4.385,0.479,6.819-0.313
		c2.876-0.482,8.952-2.869,14.082-3.871c0,0-3.431,2.069-4.057,3c0-0.024-0.434,0.859-0.629,0.498
		c-0.826,0.265-1.812,0.159-2.638,0.427c-3.601,0.441-6.921,3.164-13.692,2.391C-32.001-67.527-33.312-69.153-33.448-69.878z
		 M-44.722-65.11h-0.275c0-0.268,0.275-0.798-0.276-1.065c-0.275,0-0.275,0-0.275,0c-0.825,0.267-0.275,0.8-0.55,1.065
		c-0.275,0-0.275,0-0.275,0c-0.276-0.265,0-0.265-0.276-0.265l-0.275,0.533c0.275,0.533,0,1.065,0.551,1.598
		c0.275,0,0.275,0,0.275,0h0.275c0.275,0,0.275,0,0.275,0c0.275,0,0.551,0.267,0.826,0c0.528-0.764,0.576-2.118,0.275-2.13
		C-44.722-65.375-44.722-65.375-44.722-65.11z M-46.649-62.179c-0.275,0.268-0.275,0.268-0.275,0.533
		c0.275,0.268,0.551,0.533,1.101,0.795c0.275,0,0.826,0,1.101-0.265c0.55-0.265,0.275-0.533,0.275-0.798
		C-44.997-62.179-45.823-62.179-46.649-62.179z M4.673-52.864c0.275,1.598-0.031,3.679,0.771,5.151
		c0.037,0.684-0.276,1.33-1.377,1.863c-1.1,0-1.984,0.152-2.532,0.684c-0.275,0.265-0.275,0.533-0.55,0.798
		c-0.275-0.265-0.275-0.533-0.275-0.798c0-0.265,0.275-0.797,0-0.797c-0.046-0.046-0.309-0.702-0.178-0.573
		c-1.101,0.265-2.901,0.151-3.729,0.949c-0.275,0.265-0.275,0.265-0.55,0.533c-0.275,0-0.275,0-0.275,0
		c-0.826-0.533,0.825-1.331,0-1.863c-0.276-0.268-0.276-0.268-0.276-0.268c-0.275,0-0.275,0-0.275,0
		c-0.825,0.265-1.101,0.797-1.65,0.797c-0.275-0.265,0-0.532,0-0.797c0.826-0.798,0.881-0.814,0.881-1.879
		c0.239-0.715,0.275-1.065,1.376-1.331c1.101-0.265,2.048,0.056,3.146-0.209c1.061,0.01,1.694-0.826,1.512-1.78
		c-0.275-0.533,0-0.797-0.55-1.065c-0.551,0-1.101,0-1.652,0c-1.424-0.109-1.371,0.701-2.128,1.108l-0.431,0.06
		c0-0.533,0.012-0.838-1.364-1.368c-1.927-0.533-3.028-1.333-3.303-2.665c-0.622-1.729-0.207-3.26-1.033-4.325
		c-1.101,0.265-1.74,1.603-2.84,2.137c-3.59,1.617-1.533,4.337-3.482,5.397c-0.345,0.189-0.237-2.538-0.724-2.257
		c-0.847,0.488,0.052,3.09-0.375,3.351c-0.141,0.183-0.523,0.8-0.613,0.542c-0.275-0.777-0.415-2.858-0.896-2.133
		c-0.96,0.863,0.656,2.901-0.344,4.115c-0.275,0.265-0.46,0.651-0.735,0.917c0-1.077,0.023-1.069-0.608-1.92
		c-1.377,1.298-2.891,1.985-3.109,3.05c-0.825,0.533-1.365,0.523-2.466,0.523c-0.551,0.532-0.584,1.075-1.409,1.075
		c-0.826,0-1.593-0.167-2.146-0.167c-0.55,0-0.709-0.055-0.988,0.21c-0.275,0.265-0.275,0.532-0.55,0.532c0,0,0,0-0.272,0
		c-0.276-0.265,0.376-0.843-0.172-1.108c-0.55-0.265-1.104,0-1.376,0c-0.826,0.265-0.929,0.088-1.205,0.621
		c-0.275,0-0.275,0-0.275,0c-0.55-0.797,0.884-0.942,0.333-1.74c0,0-0.056-0.111-0.333-0.111c0,0-0.321-0.111-0.596-0.111
		c-0.551,0.265-0.551,0.533-1.101,0.533c0-0.265,0-0.798,0-1.063c1.375-0.801,1.525-0.654,1.525-1.72
		c0.55-0.533,1.376-1.065,2.202-1.333c1.926,0,2.797,1.342,4.723,1.077c1.377-0.265,1.826-0.477,1.826-1.009
		c0-0.265,0.563-0.81,0.563-1.079c0-0.268,0.745-0.989,0.469-0.989c-0.275,0-1.399,0.277-1.949,0.277c0-0.265,0-0.265,0-0.265
		c1.103-0.532,0.699-0.944,1.25-1.742c0.55-1.599,1.272-3.409,4.301-4.472c1.652-0.265,3.91-0.111,5.286-1.177
		c0.55-0.533,0.666-1.732,0.391-2.265c-0.275-0.265-0.55-0.265-0.825-0.265c-2.109-0.124-8.157,4.062-13.101,5.649
		c-1.376,0.532-3.969,1.509-3.691,2.575c0,0.265-0.07,0.533,0.479,0.533c0.276,0,0.276,0,0.551,0c0,0.53-1.101,0.798-1.927,1.33
		c-1.101,0-0.954-0.499-1.506,0.034c-0.826,0.265-0.467,0.285-0.744,0.552c-0.789,0.171-2.959-1.369-2.974-1.737
		c0.977-3.775,4.462-4.524,1.513-6.671c-0.674-0.174,1.135,2.614-2.197,5.156c-0.152-1.644,0.166-2.848-0.41-2.454
		c-1.469,1.007,0.634,2.338-0.252,4.204c-0.085,0.181,1.44,1.07,2.108,2.429c-1.446,0.47-3.877-0.33-4.06-1.585
		c0.682-1.835-0.253-2.361-0.878-2.536c-1.397,0.626,0.666,2.169-0.18,2.937c-0.08,0.074-0.537,0.735,2.036,1.853
		c-0.551,0.266-2.113,0.286-2.667,0.019c-0.154-0.026-1.113-0.197-0.949-1.205c0.164-1.015-0.03-1.515-0.179-2.182
		c-0.101-0.446-0.758-0.03-0.74,0.041c0.189,0.735,0.364,1.788-0.286,2.541c-0.5-0.172-1.065-0.857-1.229-1.298
		c-0.121,0.22,0.056-0.646,0.451-1.315c0.458-0.775,0.443-1.151-0.59-1.436c-0.085-0.023-0.571,3.067-0.263,3.784
		c-0.825,1.023-1.231,2.242-3.159,2.775c-0.262-0.555,0.723-1.663,0.631-2.154c-1.277,0.313-1.171,2.306-3.464,2.228
		c-0.641,0.294-0.966,0.6-1.366,0.532c-0.275,0-0.781,0.01-0.781,0.01l-0.261-0.277c0.55-0.533,0.538-0.788,0.261-1.053
		c-0.55-0.268-0.825-0.129-1.102-0.129c-0.276,0-0.551,0-0.551,0.265c-1.103,0.798,0.25,2.434-1.401,3.232
		c-1.651,0-0.825,0.926-1.926,1.193h-0.551c0.551-0.532,0.826-0.797,0-1.33c-0.275,0-0.55,0-0.825,0
		c-0.826,0.265-0.515,0.697-1.616,0.432c-0.826,0-1.376,0.265-1.927,0.533c-0.275,0.265-0.275,0.534-0.275,0.534
		c-0.275,0-0.275,0-0.275,0c-0.272-0.534,0.55-1.066,0.275-1.599c-0.015-0.785-0.624-0.449-1.159-0.2c-0.55,0-0.55,0-0.55,0
		c-0.551,0-0.826,0.265-1.377,0.531v0.268c-0.275,0-0.275-0.268-0.275-0.268c0-1.064,1.263-1.586,0.713-2.652
		c0.275-0.533,0.653-1.219,1.205-1.752c0-0.532,0.55-1.065,1.375-1.599c0.55,0,1.651-0.265,2.477,0.265
		c0.55,0.265,1.263,0.145,2.088-0.121c2.477-0.8,4.681-2.13,6.33-3.462c-0.826-0.533-1.243-1.09-1.792-2.156
		c0.889-0.285,2.739-0.131,2.565-0.199c-0.296-0.112-0.636-0.674-0.973-0.611c-3.739,0.735-4.979-0.876-4.565-1.505
		c0.385-0.578,2.568,0.053,3.315,0.053c0.303,0-0.477-0.472-0.838-0.644c-0.078-0.326-2.511,0.311-3.785-0.265
		c-0.203-0.094-1.198-1.111-1.072-1.26c0.419-0.501,2.606-0.436,3.5-0.048c-0.157-0.315-0.53-0.456-0.785-0.617
		c-0.609-0.378-2.773,0.289-4.291-0.249c-0.55-0.532-0.402-0.811-0.952-1.611c0.55,0,0.55,0,0.55,0s0.276,0.265,0.551,0.265
		c0.826-0.265,0.826-0.265,1.101-0.533c0.275-0.532,0.053-0.831-0.222-1.363c0-0.265-0.973-0.407-0.973-0.407
		c-0.55,0.268-0.454,0.53-1.279,0.799c-0.275,0-0.778,0.141-1.053-0.127c-0.826-0.533-0.826-1.192-1.927-1.458
		c-0.55-0.532-0.55-0.797-0.55-1.33l0.825,0.265c0.551,0,0.551-0.265,0.551-0.265c0-0.533,0-0.704,0.275-0.704l0.551-0.265
		c0.275,0,0.275,0.265,0.55,0.265c0.551,0,0.826-0.265,0.826-0.265c0-0.532,0-1.036-0.275-1.3h-0.276c0,0,0,0-0.275,0
		s-0.55,0.265-0.826,0.265c-0.55-0.265-0.906-0.484-1.181-0.752c-1.101-1.332,1.328-2.101-0.323-3.166c-0.275,0-0.275,0-0.275-0.266
		c0-0.265,0.55-0.265,0.825-0.265c0.551,0,0.551,0.534,1.101,0.534h0.275c0.551-0.266,0.359-0.578,0.908-0.846
		c0.55-0.799,0.55-1.334-0.276-1.866c0-0.265-0.272-0.265-0.272-0.265c0-0.265,0.272-0.265,0.551-0.265h0.275
		c1.101,0.265,1.101,1.065,1.651,1.33c0.551,0,0.291-0.138,0.841,0.127h0.551c0.275-0.53,0-1.064,0-1.596
		c0.275,0,0.55,0.265,0.825,0.265c0.551,0.533,0.551,1.066,0.551,1.599c1.926,1.863,0,3.729-0.551,5.592
		c0.554,2.323,3.32,4.072,5.798,5.719c0.275,0,0.275,0,0.275,0h0.55c0.276-1.207,2.144-2.747,2.245-3.49
		c-0.556,0.359-0.78,0.361-1.217,0.43c-0.286-2.002,0.043-2.038,0.421-3.134c0.55-1.598-0.551-3.812,0.608-5.115
		c0.826-0.265,1.652,0.265,2.202,0c1.101-1.066,3.131-0.715,4.232-1.515c0.825-0.265,1.306-0.224,1.853,0.041
		c0.826,0.532,2.101,0.713,3.477,0.981c0.826,0.265,1.101,0.799,1.927,0.799h1.101c0.275,0,0.275,0,0.275,0
		c0.55,0,0.55,0.265,0.55,0.533c0.248,1.906-0.771,2.976,0.084,4.925c0.33,0.645,0.552,1.611,0.048,3.103
		c-0.187,0.551-1.366-2.631-1.409-1.701c-0.217,1.031,1.272,3.096,1.73,3.207c0.449,0.298,1.674,0.444,2.52,0.609
		c0.826,0.265,2.619,0.315,3.443,0.581c3.987,0.111,6.794-0.17,10.388-0.985c0.825-0.265,1.65-0.565,2.751-0.831
		c4.378-0.937,6.55-1.605,10.128-0.805c1.651,0.265,4.118,1.07,5.771,0.538c1-0.369,2.139-0.978,1.864-1.51
		c0-0.533-0.669-1.017-1.219-1.244c-0.546-0.296-0.922-0.197-0.922-0.197c-0.55,0-1.053,0.227-1.053,0.492
		c-0.275,0.265-0.205,0.27-0.205,0.537c-0.275,0-0.34,0.034-0.619,0.034c-1.952-0.472-0.684-2.083-0.805-2.207
		c-0.347,0.104-0.766,0.867-1.091,1.132c-0.747,0.613-0.957,0.174-1.506-0.241c-0.229-0.168,1.186-1.426,0.598-1.222
		c-0.662,0.232-0.626,0.656-1.243,1.126c-0.355,0.272-0.679,0.164-1.055,0.328c-0.487,0.209-0.955,0.053-1.82,0.324
		c-0.546,0.268,1.853-2.624,1.581-2.356c1.029-0.867,2.024-1.306,2.186-1.328c0.327-0.715,0.286-1.108,0.563-1.642
		c1.058-0.451,1.099-0.947,2.409-0.947c-0.826,0.534-0.573,1.351-0.298,2.151c1.652,1.332,5.749,1.821,6.435,3.886
		c0.555,1.727-0.064,3.091-1.209,4.23c-1.324,0.961-3.194,1.111-4.531,1.362c0,0.799,1.126,2.645,1.679,3.177
		c1.101,0.532,3.187-0.104,4.013,0.429c0.232,0.225,1.104,1.149,0.944,1.518c-0.269,0.619-2.536,0-1.932,0.669
		c0.754,0.83,2.643-0.536,4.317,1.389c0.687,1.164-3.961-0.626-2.445,1.3c1.698,0.472,3.649,1.562,3.77,2.13
		c0,0.568,0.113,0.718,0.113,1.152h-0.55C5.07-53.076,5.17-52.864,4.673-52.864z M-41.419-72.564c-0.826,0.265-2.202,0-3.028,0.265
		c0,0,0,0-0.275,0c0,0.269,0,0.269,0,0.533c0,0.266,0.275,0.266,0.547,0.269c0.276,0.53-0.275,1.065,0.276,1.33
		c0.275,0,0.55,0,0.55,0c0.551-0.265,0.551-0.8,0.551-1.065v-0.265c0.275,0,0.55,0,0.825,0c0.829-0.265,1.104-1.066,1.104-1.599
		C-41.144-73.097-41.144-72.832-41.419-72.564z M-44.158-75.858c0,0.53,0.275,1.063,0.825,1.598c0.276,0,0.826,0,0.826,0
		c0.275,0,0.275,0,0.275,0 M-46.244-75.808c0,0.533,0.275,1.065,0.826,1.598c0.275,0,0.825,0,0.825,0c0.276,0,0.276,0,0.276,0
		C-44.869-74.743-45.144-75.543-46.244-75.808z M-48.492-75.781c0,0.533,0.276,1.065,0.826,1.599c0.275,0,0.826,0,0.826,0
		c0.275,0,0.275,0,0.275,0C-47.115-74.715-47.391-75.516-48.492-75.781z M-49.4-73.099c0.275,0.532,0.275,1.065,0.55,1.599h1.101
		c0.276,0,0.276,0,0.276,0c0.275,0.265,0,0.533,0,1.065c0.275,0,0.55,0.265,0.825,0.265c0,0,0,0,0-0.265
		c0.551-0.268,0.276-0.535,0-0.8c0-0.265,0.276-0.265,0.276-0.265h0.275c0.275-0.266,0.275-0.534,0-0.799h-2.477L-49.4-73.099z
		 M-52.431-74.697c0.551,0,0.551,0.265,0.551,0.533c0.275,0.533-0.275,0.798,0,1.065c0.55,0,0.826-0.533,0.826-0.798
		c0.275-0.533,0.275-1.065-0.276-1.33c-0.41-0.2-0.636-0.202-0.931-0.329C-52.475-75.412-52.609-75.114-52.431-74.697z
		 M-49.971-58.899c-0.292-0.563-0.34-1.639-0.721-1.528c-0.438,0.126-0.584,0.969-0.435,2.129C-52.46-58.2-52.744-59.167-53-59.598
		c-0.975-1.646,1.151-2.959-0.491-4.563c-0.412,1.677-0.725,1.533-0.846,3.063c-0.149,1.982,0.952,2.846,1.263,3.156
		c0.45,0.513,1.417,1.245,1.917,0.371c0.573,1.687,0.989,2.633,1.489,2.616C-49.593-56.571-49.456-57.167-49.971-58.899z
		 M-39.768-72.034c0,0,0,0-0.275,0c0,0.799,0.275,1.599-0.275,2.397c0,0.797-1.101,1.065-2.202,1.33c0,0.265,0,0.798-0.275,1.332
		c-0.276,0.268-0.551,0.533-1.101,0.533c-0.551,0-0.826,0-1.101-0.265c-0.275-0.533,0-0.798,0.55-1.332c0-0.268,0.275-0.8,0-1.065
		c-0.55-0.265-1.376-0.265-1.926,0c-0.276,0-0.276,0-0.276,0c-0.275,0.533,0.276,1.065,0.826,1.599c0.275,0.268,0,0.8-0.55,1.065
		c-0.276,0-0.826,0-1.101,0c-1.101-0.533-0.551-1.332-1.101-1.864c-0.551,0-0.826-0.268-1.376-0.533
		c-1.652-0.797-1.101-2.13-1.101-3.462h-0.276c-0.55,0.533-0.55,0.802-0.55,1.332c0.272,0.265,0,0.8,0.272,1.063
		c0.275,0.8,0.829,1.598,2.205,2.13c0.55,0.265,0.275,0.799,0.55,1.332c2.478,1.598,0.276,3.997,1.927,5.86
		c0.275,0.267,0.826,0.532,1.651,0.532c1.101-0.265,1.652-0.797,1.652-1.33c-0.275-2.128,0.275-4.262,1.927-6.125
		c0.55-0.534,1.651-0.801,2.201-1.599C-39.217-69.902-38.667-71.235-39.768-72.034z M-38.114-74.165
		c0.022-0.045,0.586-1.149,0.121-1.017c-0.773,0.22-1.515,0.251-1.773,0.752c-0.275,0.533,0,0.873,0.551,1.407
		c0.148,0.157,0.275,0.265,0.275,0.265C-38.665-73.291-39.214-73.632-38.114-74.165z"/>
	<path fill="#017DC3" d="M-33.448-34.4c-0.121-1.762-0.525-3.306,2.276-4.785c1.65-0.532,3.747-0.318,5.397-0.053
		c1.652,0.266,3.303,0.799,4.954,0.534v0.265c-1.101,0.533-1.658,1.02-3.034,1.552c-0.826,0.265-1.652,0.532-2.477,0.532
		c-0.826,0.265-0.826,1.066-1.927,1.066c-0.55,0.265-0.826,0.265-1.101,0.265c0,0-0.275,0-0.275-0.265
		c0.275-0.266,0.55-0.799,0-1.066c-0.275-0.265-0.275-0.265-0.551-0.265c-0.275,0-0.275,0-0.55,0
		c-0.551,0.265-0.551,0.532-0.551,1.065c-0.061,0.43,0.604,1.695,1.705,1.963c1.585,0.783,4.385,0.479,6.819-0.313
		c2.876-0.482,8.952-2.869,14.082-3.871c0,0-3.431,2.069-4.057,3c0-0.024-0.434,0.859-0.629,0.498
		c-0.826,0.265-1.812,0.159-2.638,0.427c-3.601,0.441-6.921,3.164-13.692,2.391C-32.001-32.049-33.312-33.675-33.448-34.4z
		 M-44.722-29.632h-0.275c0-0.268,0.275-0.797-0.276-1.065c-0.275,0-0.275,0-0.275,0c-0.825,0.268-0.275,0.8-0.55,1.065
		c-0.275,0-0.275,0-0.275,0c-0.276-0.265,0-0.265-0.276-0.265l-0.275,0.533c0.275,0.533,0,1.065,0.551,1.598
		c0.275,0,0.275,0,0.275,0h0.275c0.275,0,0.275,0,0.275,0c0.275,0,0.551,0.267,0.826,0c0.528-0.764,0.576-2.118,0.275-2.13
		C-44.722-29.897-44.722-29.897-44.722-29.632z M-46.649-26.701c-0.275,0.268-0.275,0.268-0.275,0.533
		c0.275,0.268,0.551,0.533,1.101,0.795c0.275,0,0.826,0,1.101-0.265c0.55-0.265,0.275-0.533,0.275-0.798
		C-44.997-26.701-45.823-26.701-46.649-26.701z M4.673-17.386c0.275,1.598-0.031,3.679,0.771,5.151
		c0.037,0.684-0.276,1.331-1.377,1.863c-1.1,0-1.984,0.152-2.532,0.685c-0.275,0.265-0.275,0.532-0.55,0.797
		C0.709-9.156,0.709-9.423,0.709-9.688c0-0.265,0.275-0.798,0-0.798c-0.046-0.045-0.309-0.702-0.178-0.573
		c-1.101,0.265-2.901,0.151-3.729,0.949c-0.275,0.265-0.275,0.265-0.55,0.533c-0.275,0-0.275,0-0.275,0
		c-0.826-0.533,0.825-1.331,0-1.863c-0.276-0.268-0.276-0.268-0.276-0.268c-0.275,0-0.275,0-0.275,0
		c-0.825,0.265-1.101,0.797-1.65,0.797c-0.275-0.265,0-0.532,0-0.797c0.826-0.798,0.881-0.814,0.881-1.879
		c0.239-0.715,0.275-1.065,1.376-1.33c1.101-0.265,2.048,0.055,3.146-0.21c1.061,0.01,1.694-0.826,1.512-1.78
		c-0.275-0.532,0-0.797-0.55-1.065c-0.551,0-1.101,0-1.652,0c-1.424-0.108-1.371,0.701-2.128,1.108l-0.431,0.06
		c0-0.532,0.012-0.838-1.364-1.368c-1.927-0.533-3.028-1.333-3.303-2.665c-0.622-1.729-0.207-3.259-1.033-4.325
		c-1.101,0.265-1.74,1.603-2.84,2.137c-3.59,1.617-1.533,4.337-3.482,5.397c-0.345,0.19-0.237-2.537-0.724-2.257
		c-0.847,0.488,0.052,3.091-0.375,3.351c-0.141,0.183-0.523,0.8-0.613,0.542c-0.275-0.776-0.415-2.857-0.896-2.133
		c-0.96,0.863,0.656,2.901-0.344,4.115c-0.275,0.265-0.46,0.651-0.735,0.917c0-1.076,0.023-1.069-0.608-1.919
		c-1.377,1.298-2.891,1.985-3.109,3.05c-0.825,0.533-1.365,0.523-2.466,0.523c-0.551,0.533-0.584,1.075-1.409,1.075
		c-0.826,0-1.593-0.166-2.146-0.166c-0.55,0-0.709-0.056-0.988,0.209c-0.275,0.265-0.275,0.533-0.55,0.533c0,0,0,0-0.272,0
		c-0.276-0.265,0.376-0.843-0.172-1.108c-0.55-0.265-1.104,0-1.376,0c-0.826,0.265-0.929,0.089-1.205,0.621
		c-0.275,0-0.275,0-0.275,0c-0.55-0.797,0.884-0.942,0.333-1.739c0,0-0.056-0.111-0.333-0.111c0,0-0.321-0.111-0.596-0.111
		c-0.551,0.265-0.551,0.533-1.101,0.533c0-0.265,0-0.798,0-1.063c1.375-0.801,1.525-0.654,1.525-1.72
		c0.55-0.533,1.376-1.065,2.202-1.333c1.926,0,2.797,1.342,4.723,1.078c1.377-0.265,1.826-0.478,1.826-1.01
		c0-0.265,0.563-0.81,0.563-1.079c0-0.268,0.745-0.989,0.469-0.989c-0.275,0-1.399,0.277-1.949,0.277c0-0.265,0-0.265,0-0.265
		c1.103-0.533,0.699-0.944,1.25-1.742c0.55-1.599,1.272-3.409,4.301-4.472c1.652-0.265,3.91-0.111,5.286-1.177
		c0.55-0.533,0.666-1.732,0.391-2.265c-0.275-0.265-0.55-0.265-0.825-0.265c-2.109-0.124-8.157,4.062-13.101,5.649
		c-1.376,0.533-3.969,1.509-3.691,2.575c0,0.265-0.07,0.533,0.479,0.533c0.276,0,0.276,0,0.551,0c0,0.53-1.101,0.798-1.927,1.33
		c-1.101,0-0.954-0.499-1.506,0.034c-0.826,0.265-0.467,0.285-0.744,0.552c-0.789,0.171-2.959-1.369-2.974-1.737
		c0.977-3.775,4.462-4.524,1.513-6.671c-0.674-0.174,1.135,2.614-2.197,5.156c-0.152-1.644,0.166-2.848-0.41-2.453
		c-1.469,1.007,0.634,2.337-0.252,4.204c-0.085,0.182,1.44,1.07,2.108,2.429c-1.446,0.47-3.877-0.331-4.06-1.585
		c0.682-1.836-0.253-2.361-0.878-2.536c-1.397,0.626,0.666,2.17-0.18,2.937c-0.08,0.074-0.537,0.735,2.036,1.853
		c-0.551,0.266-2.113,0.286-2.667,0.019c-0.154-0.026-1.113-0.197-0.949-1.205c0.164-1.015-0.03-1.515-0.179-2.182
		c-0.101-0.446-0.758-0.03-0.74,0.041c0.189,0.735,0.364,1.788-0.286,2.541c-0.5-0.172-1.065-0.857-1.229-1.298
		c-0.121,0.22,0.056-0.646,0.451-1.315c0.458-0.775,0.443-1.151-0.59-1.436c-0.085-0.023-0.571,3.067-0.263,3.784
		c-0.825,1.023-1.231,2.243-3.159,2.775c-0.262-0.555,0.723-1.663,0.631-2.154c-1.277,0.313-1.171,2.306-3.464,2.228
		c-0.641,0.294-0.966,0.6-1.366,0.533c-0.275,0-0.781,0.01-0.781,0.01l-0.261-0.277c0.55-0.533,0.538-0.788,0.261-1.053
		c-0.55-0.267-0.825-0.129-1.102-0.129c-0.276,0-0.551,0-0.551,0.265c-1.103,0.798,0.25,2.434-1.401,3.232
		c-1.651,0-0.825,0.926-1.926,1.194h-0.551c0.551-0.533,0.826-0.798,0-1.331c-0.275,0-0.55,0-0.825,0
		c-0.826,0.265-0.515,0.697-1.616,0.432c-0.826,0-1.376,0.265-1.927,0.533c-0.275,0.265-0.275,0.534-0.275,0.534
		c-0.275,0-0.275,0-0.275,0c-0.272-0.534,0.55-1.066,0.275-1.599c-0.015-0.785-0.624-0.449-1.159-0.2c-0.55,0-0.55,0-0.55,0
		c-0.551,0-0.826,0.265-1.377,0.531v0.268c-0.275,0-0.275-0.268-0.275-0.268c0-1.064,1.263-1.586,0.713-2.652
		c0.275-0.532,0.653-1.219,1.205-1.752c0-0.532,0.55-1.065,1.375-1.599c0.55,0,1.651-0.265,2.477,0.265
		c0.55,0.265,1.263,0.145,2.088-0.121c2.477-0.8,4.681-2.13,6.33-3.462c-0.826-0.533-1.243-1.09-1.792-2.156
		c0.889-0.285,2.739-0.131,2.565-0.198c-0.296-0.112-0.636-0.675-0.973-0.612c-3.739,0.735-4.979-0.876-4.565-1.505
		c0.385-0.578,2.568,0.053,3.315,0.053c0.303,0-0.477-0.472-0.838-0.644c-0.078-0.326-2.511,0.311-3.785-0.265
		c-0.203-0.094-1.198-1.111-1.072-1.26c0.419-0.502,2.606-0.437,3.5-0.048c-0.157-0.315-0.53-0.456-0.785-0.616
		c-0.609-0.379-2.773,0.288-4.291-0.249c-0.55-0.533-0.402-0.812-0.952-1.611c0.55,0,0.55,0,0.55,0s0.276,0.265,0.551,0.265
		c0.826-0.265,0.826-0.265,1.101-0.532c0.275-0.533,0.053-0.831-0.222-1.364c0-0.265-0.973-0.407-0.973-0.407
		c-0.55,0.268-0.454,0.53-1.279,0.799c-0.275,0-0.778,0.141-1.053-0.127c-0.826-0.533-0.826-1.192-1.927-1.458
		c-0.55-0.532-0.55-0.797-0.55-1.33l0.825,0.265c0.551,0,0.551-0.265,0.551-0.265c0-0.533,0-0.704,0.275-0.704l0.551-0.265
		c0.275,0,0.275,0.265,0.55,0.265c0.551,0,0.826-0.265,0.826-0.265c0-0.533,0-1.036-0.275-1.301h-0.276c0,0,0,0-0.275,0
		s-0.55,0.265-0.826,0.265c-0.55-0.265-0.906-0.485-1.181-0.752c-1.101-1.331,1.328-2.101-0.323-3.166c-0.275,0-0.275,0-0.275-0.266
		c0-0.265,0.55-0.265,0.825-0.265c0.551,0,0.551,0.534,1.101,0.534h0.275c0.551-0.267,0.359-0.579,0.908-0.846
		c0.55-0.799,0.55-1.333-0.276-1.866c0-0.265-0.272-0.265-0.272-0.265c0-0.265,0.272-0.265,0.551-0.265h0.275
		c1.101,0.265,1.101,1.065,1.651,1.33c0.551,0,0.291-0.138,0.841,0.127h0.551c0.275-0.53,0-1.064,0-1.596
		c0.275,0,0.55,0.265,0.825,0.265c0.551,0.532,0.551,1.066,0.551,1.599c1.926,1.863,0,3.729-0.551,5.592
		c0.554,2.323,3.32,4.072,5.798,5.719c0.275,0,0.275,0,0.275,0h0.55c0.276-1.207,2.144-2.747,2.245-3.49
		c-0.556,0.359-0.78,0.361-1.217,0.431c-0.286-2.002,0.043-2.038,0.421-3.134c0.55-1.598-0.551-3.812,0.608-5.115
		c0.826-0.265,1.652,0.265,2.202,0c1.101-1.066,3.131-0.715,4.232-1.515c0.825-0.265,1.306-0.224,1.853,0.041
		c0.826,0.532,2.101,0.714,3.477,0.981c0.826,0.265,1.101,0.799,1.927,0.799h1.101c0.275,0,0.275,0,0.275,0
		c0.55,0,0.55,0.265,0.55,0.532c0.248,1.906-0.771,2.976,0.084,4.925c0.33,0.645,0.552,1.611,0.048,3.104
		c-0.187,0.551-1.366-2.631-1.409-1.702c-0.217,1.031,1.272,3.096,1.73,3.207c0.449,0.298,1.674,0.444,2.52,0.609
		c0.826,0.265,2.619,0.315,3.443,0.581c3.987,0.111,6.794-0.17,10.388-0.985c0.825-0.265,1.65-0.566,2.751-0.831
		c4.378-0.937,6.55-1.605,10.128-0.805c1.651,0.265,4.118,1.07,5.771,0.538c1-0.369,2.139-0.978,1.864-1.51
		c0-0.533-0.669-1.017-1.219-1.244c-0.546-0.296-0.922-0.197-0.922-0.197c-0.55,0-1.053,0.227-1.053,0.492
		c-0.275,0.265-0.205,0.27-0.205,0.538c-0.275,0-0.34,0.033-0.619,0.033c-1.952-0.472-0.684-2.083-0.805-2.207
		c-0.347,0.104-0.766,0.867-1.091,1.132c-0.747,0.613-0.957,0.174-1.506-0.24c-0.229-0.169,1.186-1.427,0.598-1.222
		c-0.662,0.231-0.626,0.656-1.243,1.125c-0.355,0.272-0.679,0.164-1.055,0.328c-0.487,0.21-0.955,0.053-1.82,0.324
		c-0.546,0.268,1.853-2.624,1.581-2.356c1.029-0.867,2.024-1.306,2.186-1.328c0.327-0.715,0.286-1.108,0.563-1.642
		c1.058-0.451,1.099-0.947,2.409-0.947c-0.826,0.534-0.573,1.351-0.298,2.151c1.652,1.332,5.749,1.821,6.435,3.886
		c0.555,1.728-0.064,3.091-1.209,4.23c-1.324,0.961-3.194,1.111-4.531,1.362c0,0.799,1.126,2.645,1.679,3.177
		c1.101,0.533,3.187-0.104,4.013,0.429c0.232,0.225,1.104,1.149,0.944,1.518c-0.269,0.619-2.536,0-1.932,0.669
		c0.754,0.83,2.643-0.537,4.317,1.388c0.687,1.164-3.961-0.626-2.445,1.3c1.698,0.473,3.649,1.563,3.77,2.13
		c0,0.568,0.113,0.718,0.113,1.152h-0.55C5.07-17.598,5.17-17.386,4.673-17.386z M-41.419-37.086c-0.826,0.265-2.202,0-3.028,0.265
		c0,0,0,0-0.275,0c0,0.269,0,0.269,0,0.532c0,0.267,0.275,0.267,0.547,0.269c0.276,0.53-0.275,1.065,0.276,1.33
		c0.275,0,0.55,0,0.55,0c0.551-0.265,0.551-0.8,0.551-1.065v-0.265c0.275,0,0.55,0,0.825,0c0.829-0.265,1.104-1.066,1.104-1.599
		C-41.144-37.619-41.144-37.354-41.419-37.086z M-44.158-40.38c0,0.53,0.275,1.063,0.825,1.598c0.276,0,0.826,0,0.826,0
		c0.275,0,0.275,0,0.275,0 M-46.244-40.33c0,0.532,0.275,1.065,0.826,1.598c0.275,0,0.825,0,0.825,0c0.276,0,0.276,0,0.276,0
		C-44.869-39.265-45.144-40.065-46.244-40.33z M-48.492-40.303c0,0.533,0.276,1.065,0.826,1.599c0.275,0,0.826,0,0.826,0
		c0.275,0,0.275,0,0.275,0C-47.115-39.237-47.391-40.038-48.492-40.303z M-49.4-37.621c0.275,0.533,0.275,1.065,0.55,1.599h1.101
		c0.276,0,0.276,0,0.276,0c0.275,0.265,0,0.532,0,1.065c0.275,0,0.55,0.265,0.825,0.265c0,0,0,0,0-0.265
		c0.551-0.268,0.276-0.535,0-0.8c0-0.265,0.276-0.265,0.276-0.265h0.275c0.275-0.267,0.275-0.534,0-0.799h-2.477L-49.4-37.621z
		 M-52.431-39.219c0.551,0,0.551,0.265,0.551,0.532c0.275,0.533-0.275,0.798,0,1.065c0.55,0,0.826-0.533,0.826-0.798
		c0.275-0.533,0.275-1.065-0.276-1.33c-0.41-0.2-0.636-0.202-0.931-0.329C-52.475-39.934-52.609-39.636-52.431-39.219z
		 M-49.971-23.421c-0.292-0.563-0.34-1.639-0.721-1.528c-0.438,0.126-0.584,0.969-0.435,2.129c-1.333,0.097-1.617-0.869-1.873-1.301
		c-0.975-1.646,1.151-2.959-0.491-4.563c-0.412,1.677-0.725,1.533-0.846,3.063c-0.149,1.982,0.952,2.846,1.263,3.156
		c0.45,0.513,1.417,1.245,1.917,0.371c0.573,1.687,0.989,2.633,1.489,2.616C-49.593-21.093-49.456-21.689-49.971-23.421z
		 M-39.768-36.556c0,0,0,0-0.275,0c0,0.799,0.275,1.599-0.275,2.397c0,0.797-1.101,1.065-2.202,1.33c0,0.265,0,0.798-0.275,1.332
		c-0.276,0.268-0.551,0.533-1.101,0.533c-0.551,0-0.826,0-1.101-0.265c-0.275-0.533,0-0.798,0.55-1.332c0-0.268,0.275-0.8,0-1.065
		c-0.55-0.265-1.376-0.265-1.926,0c-0.276,0-0.276,0-0.276,0c-0.275,0.532,0.276,1.065,0.826,1.599c0.275,0.268,0,0.8-0.55,1.065
		c-0.276,0-0.826,0-1.101,0c-1.101-0.533-0.551-1.332-1.101-1.864c-0.551,0-0.826-0.268-1.376-0.533
		c-1.652-0.797-1.101-2.13-1.101-3.461h-0.276c-0.55,0.532-0.55,0.801-0.55,1.331c0.272,0.265,0,0.8,0.272,1.063
		c0.275,0.8,0.829,1.598,2.205,2.13c0.55,0.265,0.275,0.799,0.55,1.332c2.478,1.598,0.276,3.997,1.927,5.86
		c0.275,0.268,0.826,0.532,1.651,0.532c1.101-0.265,1.652-0.797,1.652-1.33c-0.275-2.128,0.275-4.262,1.927-6.125
		c0.55-0.534,1.651-0.801,2.201-1.599C-39.217-34.424-38.667-35.757-39.768-36.556z M-38.114-38.687
		c0.022-0.045,0.586-1.149,0.121-1.017c-0.773,0.22-1.515,0.251-1.773,0.752c-0.275,0.533,0,0.873,0.551,1.407
		c0.148,0.157,0.275,0.265,0.275,0.265C-38.665-37.812-39.214-38.154-38.114-38.687z"/>
	<path fill="#017DC3" d="M-33.297,1.302c-0.121-1.762-0.525-3.307,2.276-4.785c1.651-0.532,3.747-0.318,5.397-0.053
		c1.652,0.266,3.303,0.799,4.954,0.534v0.265c-1.101,0.533-1.658,1.02-3.034,1.552c-0.826,0.265-1.652,0.533-2.477,0.533
		c-0.826,0.265-0.826,1.066-1.927,1.066c-0.55,0.265-0.826,0.265-1.101,0.265c0,0-0.275,0-0.275-0.265
		c0.275-0.267,0.55-0.799,0-1.066c-0.275-0.265-0.275-0.265-0.551-0.265c-0.275,0-0.275,0-0.55,0
		c-0.551,0.265-0.551,0.533-0.551,1.065c-0.06,0.43,0.604,1.695,1.705,1.963c1.585,0.783,4.385,0.479,6.819-0.313
		c2.876-0.482,8.952-2.869,14.082-3.872c0,0-3.431,2.069-4.057,3c0-0.024-0.434,0.859-0.629,0.499
		c-0.826,0.265-1.813,0.159-2.638,0.426c-3.602,0.441-6.921,3.164-13.692,2.391C-31.85,3.653-33.16,2.026-33.297,1.302z
		 M-44.57,6.069h-0.275c0-0.268,0.275-0.797-0.276-1.065c-0.275,0-0.275,0-0.275,0c-0.825,0.268-0.275,0.8-0.55,1.065
		c-0.275,0-0.275,0-0.275,0c-0.276-0.265,0-0.265-0.276-0.265l-0.275,0.532c0.275,0.533,0,1.065,0.551,1.598
		c0.275,0,0.275,0,0.275,0h0.275c0.275,0,0.275,0,0.275,0c0.275,0,0.551,0.266,0.826,0c0.528-0.765,0.576-2.118,0.275-2.13
		C-44.57,5.804-44.57,5.804-44.57,6.069z M-46.497,9.001c-0.275,0.268-0.275,0.268-0.275,0.532c0.275,0.268,0.551,0.533,1.101,0.795
		c0.275,0,0.826,0,1.101-0.265c0.55-0.265,0.275-0.533,0.275-0.797C-44.845,9.001-45.671,9.001-46.497,9.001z M4.825,18.315
		c0.275,1.598-0.031,3.679,0.771,5.151c0.037,0.685-0.276,1.331-1.377,1.863c-1.1,0-1.983,0.152-2.532,0.685
		c-0.275,0.265-0.275,0.533-0.55,0.797c-0.275-0.265-0.275-0.532-0.275-0.797s0.275-0.798,0-0.798
		c-0.045-0.045-0.308-0.701-0.177-0.573c-1.101,0.265-2.901,0.152-3.729,0.949c-0.275,0.265-0.275,0.265-0.55,0.533
		c-0.275,0-0.275,0-0.275,0c-0.826-0.533,0.825-1.33,0-1.863c-0.276-0.268-0.276-0.268-0.276-0.268c-0.275,0-0.275,0-0.275,0
		c-0.825,0.265-1.101,0.798-1.651,0.798c-0.275-0.265,0-0.533,0-0.798c0.826-0.798,0.881-0.813,0.881-1.879
		c0.239-0.715,0.275-1.065,1.376-1.33s2.048,0.055,3.146-0.21c1.06,0.01,1.694-0.826,1.511-1.78c-0.275-0.532,0-0.797-0.55-1.065
		c-0.551,0-1.101,0-1.652,0c-1.424-0.108-1.371,0.702-2.128,1.108l-0.432,0.061c0-0.533,0.012-0.838-1.363-1.369
		c-1.927-0.533-3.028-1.333-3.303-2.664c-0.621-1.73-0.207-3.26-1.033-4.325c-1.101,0.265-1.739,1.603-2.84,2.137
		c-3.59,1.618-1.532,4.337-3.481,5.397c-0.345,0.19-0.237-2.537-0.724-2.257c-0.847,0.488,0.052,3.091-0.375,3.351
		c-0.141,0.182-0.522,0.8-0.613,0.542c-0.275-0.776-0.414-2.857-0.896-2.133c-0.96,0.863,0.656,2.901-0.344,4.116
		c-0.275,0.265-0.46,0.651-0.735,0.917c0-1.076,0.023-1.069-0.607-1.919c-1.377,1.298-2.891,1.985-3.109,3.05
		c-0.825,0.533-1.365,0.523-2.466,0.523c-0.551,0.533-0.584,1.075-1.409,1.075c-0.826,0-1.593-0.167-2.146-0.167
		c-0.55,0-0.709-0.056-0.987,0.209c-0.275,0.265-0.275,0.533-0.55,0.533c0,0,0,0-0.272,0c-0.276-0.265,0.376-0.843-0.173-1.108
		c-0.55-0.265-1.104,0-1.376,0c-0.826,0.265-0.928,0.089-1.205,0.621c-0.275,0-0.275,0-0.275,0c-0.55-0.797,0.884-0.942,0.333-1.739
		c0,0-0.056-0.111-0.333-0.111c0,0-0.32-0.111-0.595-0.111c-0.551,0.265-0.551,0.533-1.101,0.533c0-0.265,0-0.798,0-1.063
		c1.376-0.802,1.525-0.655,1.525-1.72c0.55-0.532,1.376-1.065,2.202-1.333c1.926,0,2.797,1.343,4.723,1.078
		c1.377-0.265,1.826-0.477,1.826-1.01c0-0.265,0.563-0.81,0.563-1.079c0-0.268,0.745-0.989,0.47-0.989s-1.399,0.277-1.949,0.277
		c0-0.265,0-0.265,0-0.265c1.104-0.533,0.699-0.944,1.25-1.742c0.55-1.599,1.272-3.409,4.302-4.472
		c1.652-0.265,3.909-0.111,5.285-1.177c0.55-0.533,0.666-1.732,0.391-2.265c-0.275-0.265-0.55-0.265-0.825-0.265
		c-2.109-0.124-8.156,4.062-13.1,5.649c-1.376,0.533-3.969,1.509-3.691,2.576c0,0.265-0.07,0.532,0.479,0.532
		c0.276,0,0.276,0,0.551,0c0,0.53-1.101,0.798-1.927,1.331c-1.101,0-0.955-0.5-1.507,0.033c-0.826,0.265-0.467,0.285-0.743,0.552
		c-0.789,0.171-2.959-1.369-2.974-1.737c0.976-3.775,4.461-4.524,1.513-6.671c-0.675-0.174,1.135,2.614-2.197,5.156
		c-0.151-1.643,0.167-2.848-0.409-2.453c-1.47,1.007,0.634,2.337-0.253,4.204c-0.085,0.181,1.44,1.07,2.108,2.429
		c-1.446,0.47-3.877-0.331-4.06-1.585c0.682-1.836-0.252-2.361-0.877-2.536c-1.397,0.626,0.666,2.17-0.18,2.937
		c-0.08,0.074-0.538,0.735,2.036,1.853c-0.551,0.267-2.113,0.286-2.667,0.019c-0.154-0.026-1.113-0.197-0.949-1.205
		c0.164-1.015-0.029-1.515-0.179-2.182c-0.101-0.446-0.758-0.029-0.74,0.041c0.188,0.735,0.364,1.788-0.286,2.541
		c-0.499-0.172-1.065-0.856-1.229-1.298c-0.121,0.219,0.056-0.646,0.451-1.315c0.458-0.776,0.442-1.152-0.59-1.437
		c-0.085-0.023-0.571,3.067-0.263,3.784c-0.825,1.023-1.232,2.243-3.159,2.775c-0.263-0.555,0.723-1.664,0.631-2.154
		c-1.277,0.313-1.171,2.305-3.464,2.228c-0.641,0.294-0.967,0.601-1.366,0.533c-0.275,0-0.78,0.01-0.78,0.01l-0.261-0.277
		c0.55-0.533,0.538-0.788,0.261-1.053c-0.55-0.268-0.825-0.129-1.102-0.129c-0.276,0-0.551,0-0.551,0.265
		c-1.104,0.798,0.25,2.434-1.402,3.233c-1.651,0-0.825,0.926-1.926,1.193h-0.551c0.551-0.533,0.826-0.798,0-1.331
		c-0.275,0-0.55,0-0.825,0c-0.826,0.265-0.516,0.697-1.617,0.432c-0.826,0-1.375,0.265-1.927,0.533
		c-0.275,0.265-0.275,0.534-0.275,0.534c-0.275,0-0.275,0-0.275,0c-0.272-0.534,0.55-1.066,0.275-1.599
		c-0.015-0.785-0.624-0.449-1.159-0.2c-0.55,0-0.55,0-0.55,0c-0.551,0-0.826,0.265-1.377,0.532v0.267
		c-0.275,0-0.275-0.267-0.275-0.267c0-1.064,1.263-1.587,0.712-2.652c0.275-0.532,0.654-1.219,1.205-1.751
		c0-0.533,0.55-1.065,1.376-1.599c0.55,0,1.651-0.265,2.477,0.265c0.55,0.265,1.262,0.144,2.088-0.121
		c2.477-0.8,4.681-2.13,6.33-3.462c-0.826-0.532-1.243-1.09-1.793-2.156c0.889-0.285,2.74-0.13,2.566-0.198
		c-0.296-0.112-0.636-0.674-0.973-0.612c-3.739,0.735-4.98-0.876-4.565-1.505c0.385-0.578,2.568,0.053,3.315,0.053
		c0.303,0-0.477-0.472-0.838-0.644c-0.078-0.326-2.511,0.311-3.785-0.265c-0.204-0.094-1.198-1.111-1.073-1.26
		c0.419-0.502,2.606-0.437,3.5-0.048c-0.156-0.315-0.53-0.456-0.785-0.616c-0.609-0.378-2.772,0.289-4.291-0.249
		c-0.55-0.533-0.402-0.812-0.952-1.611c0.55,0,0.55,0,0.55,0s0.276,0.265,0.551,0.265c0.826-0.265,0.826-0.265,1.101-0.533
		c0.275-0.533,0.053-0.831-0.222-1.364c0-0.265-0.973-0.407-0.973-0.407c-0.55,0.268-0.454,0.53-1.28,0.799
		c-0.275,0-0.778,0.141-1.053-0.127c-0.826-0.533-0.826-1.192-1.927-1.457c-0.55-0.533-0.55-0.798-0.55-1.331l0.825,0.265
		c0.551,0,0.551-0.265,0.551-0.265c0-0.532,0-0.704,0.275-0.704l0.551-0.265c0.275,0,0.275,0.265,0.55,0.265
		c0.551,0,0.826-0.265,0.826-0.265c0-0.533,0-1.036-0.275-1.301h-0.276c0,0,0,0-0.275,0s-0.55,0.265-0.826,0.265
		c-0.55-0.265-0.906-0.485-1.181-0.752c-1.101-1.332,1.328-2.101-0.323-3.166c-0.275,0-0.275,0-0.275-0.267
		c0-0.265,0.55-0.265,0.825-0.265c0.551,0,0.551,0.534,1.101,0.534h0.275c0.551-0.267,0.359-0.578,0.907-0.846
		c0.55-0.799,0.55-1.334-0.276-1.867c0-0.265-0.272-0.265-0.272-0.265c0-0.265,0.272-0.265,0.551-0.265h0.275
		c1.101,0.265,1.101,1.065,1.651,1.331c0.551,0,0.291-0.138,0.841,0.127h0.551c0.275-0.53,0-1.064,0-1.597
		c0.275,0,0.55,0.265,0.825,0.265c0.551,0.533,0.551,1.066,0.551,1.599c1.925,1.863,0,3.729-0.551,5.592
		c0.554,2.323,3.32,4.072,5.798,5.72c0.275,0,0.275,0,0.275,0h0.55c0.276-1.207,2.144-2.747,2.245-3.49
		c-0.556,0.358-0.781,0.361-1.217,0.43c-0.286-2.002,0.043-2.038,0.422-3.134c0.55-1.598-0.551-3.812,0.608-5.115
		c0.826-0.265,1.652,0.265,2.202,0c1.101-1.066,3.131-0.715,4.232-1.515c0.825-0.265,1.306-0.225,1.853,0.041
		c0.826,0.533,2.101,0.714,3.477,0.981c0.826,0.265,1.101,0.799,1.927,0.799h1.101c0.275,0,0.275,0,0.275,0
		c0.55,0,0.55,0.265,0.55,0.533c0.248,1.906-0.772,2.976,0.083,4.925c0.331,0.645,0.553,1.611,0.048,3.103
		c-0.188,0.551-1.366-2.631-1.409-1.702c-0.217,1.031,1.272,3.096,1.729,3.207c0.449,0.298,1.674,0.444,2.52,0.609
		c0.826,0.265,2.619,0.315,3.443,0.581c3.987,0.111,6.794-0.17,10.388-0.985c0.825-0.265,1.651-0.566,2.752-0.831
		c4.378-0.937,6.55-1.605,10.128-0.805c1.651,0.265,4.118,1.07,5.771,0.538c1-0.369,2.139-0.978,1.864-1.51
		c0-0.533-0.669-1.017-1.22-1.244C-1.531,1.12-1.907,1.219-1.907,1.219c-0.55,0-1.053,0.227-1.053,0.492
		c-0.275,0.265-0.205,0.27-0.205,0.538c-0.275,0-0.34,0.033-0.619,0.033C-5.735,1.81-4.467,0.198-4.588,0.075
		c-0.346,0.104-0.766,0.867-1.091,1.132c-0.748,0.613-0.957,0.174-1.507-0.24C-7.414,0.797-6-0.46-6.588-0.255
		C-7.25-0.024-7.214,0.4-7.831,0.87c-0.355,0.272-0.68,0.164-1.056,0.328c-0.487,0.209-0.954,0.053-1.819,0.324
		c-0.546,0.267,1.853-2.624,1.58-2.356c1.03-0.867,2.024-1.305,2.186-1.328c0.327-0.715,0.286-1.108,0.563-1.642
		C-5.318-4.255-5.277-4.75-3.967-4.75C-4.793-4.217-4.54-3.399-4.265-2.599c1.652,1.332,5.749,1.821,6.434,3.886
		c0.555,1.728-0.064,3.091-1.209,4.23c-1.324,0.962-3.194,1.111-4.531,1.362c0,0.799,1.127,2.645,1.679,3.177
		c1.101,0.533,3.187-0.104,4.013,0.429c0.231,0.224,1.103,1.149,0.944,1.518c-0.269,0.619-2.536,0-1.932,0.669
		c0.754,0.83,2.644-0.537,4.317,1.388c0.687,1.164-3.961-0.626-2.444,1.301c1.697,0.472,3.649,1.562,3.77,2.13
		c0,0.568,0.113,0.717,0.113,1.151H6.34C5.222,18.103,5.321,18.315,4.825,18.315z M-41.267-1.385c-0.826,0.265-2.202,0-3.028,0.265
		c0,0,0,0-0.275,0c0,0.269,0,0.269,0,0.532c0,0.267,0.275,0.267,0.548,0.269c0.276,0.53-0.275,1.065,0.276,1.33
		c0.275,0,0.55,0,0.55,0c0.551-0.265,0.551-0.8,0.551-1.065v-0.265c0.275,0,0.55,0,0.825,0c0.829-0.265,1.104-1.066,1.104-1.599
		C-40.992-1.917-40.992-1.652-41.267-1.385z M-44.007-4.679c0,0.53,0.275,1.063,0.825,1.598c0.276,0,0.826,0,0.826,0
		c0.275,0,0.275,0,0.275,0 M-46.093-4.628c0,0.533,0.275,1.065,0.826,1.598c0.275,0,0.825,0,0.825,0c0.276,0,0.276,0,0.276,0
		C-44.717-3.563-44.992-4.363-46.093-4.628z M-48.34-4.602c0,0.533,0.276,1.065,0.826,1.599c0.275,0,0.826,0,0.826,0
		c0.275,0,0.275,0,0.275,0C-46.963-3.536-47.239-4.336-48.34-4.602z M-49.249-1.92c0.275,0.533,0.275,1.065,0.55,1.599h1.101
		c0.276,0,0.276,0,0.276,0c0.275,0.265,0,0.533,0,1.065c0.275,0,0.55,0.265,0.825,0.265c0,0,0,0,0-0.265
		c0.551-0.268,0.276-0.535,0-0.8c0-0.265,0.276-0.265,0.276-0.265h0.275c0.275-0.267,0.275-0.534,0-0.799h-2.477L-49.249-1.92z
		 M-52.279-3.518c0.551,0,0.551,0.265,0.551,0.533c0.275,0.532-0.275,0.797,0,1.065c0.55,0,0.826-0.533,0.826-0.798
		c0.275-0.532,0.275-1.065-0.276-1.33c-0.411-0.2-0.636-0.202-0.931-0.329C-52.324-4.233-52.458-3.935-52.279-3.518z M-49.82,12.28
		c-0.292-0.563-0.34-1.639-0.721-1.527c-0.438,0.125-0.584,0.969-0.435,2.129c-1.333,0.097-1.616-0.869-1.873-1.301
		c-0.975-1.646,1.151-2.958-0.491-4.563c-0.412,1.676-0.725,1.532-0.846,3.062c-0.149,1.982,0.952,2.846,1.262,3.156
		c0.45,0.513,1.417,1.245,1.917,0.371c0.574,1.687,0.989,2.633,1.49,2.616C-49.441,14.608-49.304,14.012-49.82,12.28z
		 M-39.616-0.854c0,0,0,0-0.275,0c0,0.799,0.275,1.599-0.275,2.396c0,0.798-1.101,1.065-2.202,1.33c0,0.265,0,0.798-0.275,1.332
		c-0.276,0.268-0.551,0.533-1.101,0.533c-0.551,0-0.826,0-1.101-0.265c-0.275-0.533,0-0.797,0.55-1.332c0-0.268,0.275-0.8,0-1.065
		c-0.55-0.265-1.376-0.265-1.926,0c-0.276,0-0.276,0-0.276,0c-0.275,0.532,0.276,1.065,0.826,1.599c0.275,0.267,0,0.8-0.55,1.065
		c-0.276,0-0.826,0-1.101,0c-1.101-0.533-0.551-1.332-1.101-1.864c-0.551,0-0.826-0.268-1.376-0.532
		c-1.652-0.798-1.101-2.13-1.101-3.462h-0.276c-0.55,0.532-0.55,0.801-0.55,1.332c0.272,0.265,0,0.8,0.272,1.063
		c0.275,0.8,0.829,1.598,2.204,2.13c0.55,0.265,0.275,0.799,0.55,1.332c2.478,1.598,0.276,3.997,1.927,5.86
		c0.275,0.268,0.826,0.533,1.651,0.533c1.101-0.265,1.652-0.798,1.652-1.331c-0.275-2.128,0.275-4.262,1.927-6.125
		c0.55-0.534,1.65-0.802,2.201-1.599C-39.065,1.277-38.516-0.056-39.616-0.854z M-37.962-2.985c0.022-0.046,0.585-1.149,0.121-1.018
		c-0.773,0.22-1.515,0.252-1.772,0.752c-0.275,0.532,0,0.873,0.551,1.407c0.148,0.156,0.275,0.265,0.275,0.265
		C-38.513-2.111-39.063-2.453-37.962-2.985z"/>
</g>
</svg>
