<?xml version="1.0" encoding="utf-8"?>
<!-- Generator: Adobe Illustrator 14.0.0, SVG Export Plug-In . SVG Version: 6.00 Build 43363)  -->
<!DOCTYPE svg PUBLIC "-//W3C//DTD SVG 1.1//EN" "http://www.w3.org/Graphics/SVG/1.1/DTD/svg11.dtd">
<svg version="1.1" xmlns="http://www.w3.org/2000/svg" width="451.918px" height="486.781px">
<g>
	<polygon fill="#3A75C4" points="340.209,406.641 248.315,353.195 247.293,458.474"/>
	<polygon points="319.534,406.097 258.365,370.675 258.2,441.36"/>
	<polygon fill="#FFFFFF" points="298.604,405.889 268.415,388.155 268.551,423.167"/>
</g>
<path d="M440.778,27.69c-4.211,5.706-9.363,12.175-11.447,14.375l-3.793,4l-0.943-4.25c-0.887-3.984-2.66-5.908-2.66-2.885
	c0,0.751-1.561,4.464-3.466,8.25c-2.734,5.433-5.489,8.756-13.06,15.759c-5.277,4.882-14.033,14.106-19.457,20.5
	c-13.588,16.017-31.348,32.029-50.919,45.91c-25.2,17.874-38.485,31.566-40.472,41.716c-0.324,1.649-1.053,8.573-1.621,15.386
	c-1.156,13.876-5.618,29.398-11.262,39.184l-3.133,5.431l-0.799-4.5c-3.361-18.926-8.273-30.848-16.469-39.962
	c-6.328-7.038-11.137-9.367-19.845-9.61c-3.85-0.108-9.25-0.512-12-0.896c-7.154-1.001-12.301,0.958-14.695,5.596
	c-1.562,3.024-1.675,4.063-0.678,6.25c1.429,3.136,2.513,3.336,3.374,0.623c0.349-1.101,1.438-2,2.418-2
	c3.209,0,8.104,2.172,9.103,4.039c1.515,2.831,1.187,3.143-1.478,1.397c-3.507-2.298-5.258-0.826-2.504,2.104
	c2.165,2.304,2.165,2.325,0.108,1.787c-1.145-0.3-2.602-1.171-3.237-1.937c-1.869-2.252-2.595-1.615-2.115,1.858
	c0.568,4.114,2.548,6.378,6.81,7.784c11.112,3.668,9.582,18.878-3.108,30.879c-5.956,5.634-16.283,11.085-20.998,11.085
	c-4.747,0-15.07-5.473-20.427-10.83c-10.229-10.229-12.389-18.83-10.839-43.168c1.504-23.624-0.776-35.436-8.993-46.582
	c-3.907-5.299-28.934-27.859-41.741-37.626c-10.85-8.275-12.939-10.276-16.895-16.182c-2.572-3.841-2.605-3.855-2.605-1.128
	c0,3.309,2.4,4.834-22.176-14.098c-17.655-13.6-30.494-25.634-34.395-32.235c-1.911-3.236-3.316-3.858-4.979-2.206
	c-0.598,0.594-2.804-1.257-5.95-4.989c-2.75-3.264-9.146-9.78-14.215-14.482C14.15,17.335,8.562,11.481,6.8,9.028
	C6.042,7.973,5.251,6.938,4.386,5.97C3.631,5.125,3.168,4.028,2.714,3.001C2.316,2.102,1.948,0.565,0.71,0.565
	c-0.639,0-0.861,3.678-0.607,10.017c0.392,9.766,0.532,10.269,5.546,20c2.829,5.491,4.928,9.983,4.664,9.983
	c-0.263,0-1.849-0.709-3.522-1.574s-3.271-1.346-3.55-1.067c-0.768,0.769,1.529,7.12,6.287,17.386l4.285,9.244l-3.032-1.568
	c-1.668-0.862-3.214-1.386-3.438-1.163c-0.84,0.841,4.612,14.984,7.334,19.026c5.04,7.481,5.015,7.093,0.41,6.356
	c-3.312-0.529-4.153-0.361-4.153,0.828c0,4.192,6.968,17.112,12.252,22.717c2.035,2.158,2.24,2.796,1.049,3.253
	c-0.815,0.313-1.902,0.309-2.416-0.009c-0.514-0.317-2.278-0.282-3.92,0.078l-2.985,0.656l2.246,3.168
	c1.235,1.743,5.327,6.166,9.093,9.829c6.076,5.909,6.722,6.894,5.735,8.738c-0.612,1.143-2.224,2.356-3.583,2.698
	c-1.359,0.341-2.471,1.188-2.471,1.884c0,1.588,8.159,9.179,11.502,10.702c3.063,1.396,3.134,2.738,0.333,6.3
	c-2.086,2.652-2.098,2.794-0.309,3.885c1.021,0.623,4.131,2.054,6.911,3.18c5.792,2.347,6.632,4.278,3.561,8.182l-2.148,2.731
	l2.195,1.777c1.208,0.978,5.264,2.71,9.014,3.849c7.278,2.211,7.903,3.398,3.357,6.377c-1.329,0.87-2.416,2.18-2.416,2.91
	c0,1.521,11.374,6.634,14.75,6.63c3.314-0.005,2.763,1.898-1.938,6.688c-2.303,2.347-3.888,4.566-3.522,4.933
	s3.038,0.851,5.938,1.076c2.9,0.227,6.335,0.633,7.634,0.903c2.137,0.444,2.219,0.654,0.867,2.194
	c-3.079,3.505-5.618,10.073-6.963,18.013c-1.568,9.256-1.291,9.612,4.72,6.066c1.98-1.169,3.786-1.938,4.013-1.711
	s-0.696,3.996-2.053,8.374c-1.356,4.378-2.749,10.323-3.094,13.211c-0.564,4.724-0.436,5.25,1.288,5.25
	c1.053,0,2.964-0.735,4.248-1.634c2.206-1.546,2.3-1.532,1.74,0.25c-1.489,4.736-4.436,17.336-5.06,21.634
	c-0.648,4.462-0.554,4.75,1.557,4.75c1.236,0,3.287-0.978,4.557-2.171c1.271-1.194,2.54-1.941,2.819-1.662
	c0.28,0.28,0.076,2.792-0.454,5.583c-0.529,2.79-1.271,9.163-1.648,14.161c-0.779,10.317-0.192,10.978,6.233,7.007
	c3.672-2.27,3.996-2.018,4.611,3.581c0.036,0.326,0.072,0.6,0.109,0.823c-0.611,2.787-1.531,9.167-1.854,11.563l-0.724,5.387
	l2.863-0.688c1.574-0.379,4.746-2.022,7.049-3.653l4.186-2.964l0.642,4.279c0.353,2.354,0.494,6.975,0.313,10.267
	c-0.322,5.885-0.286,5.98,2.172,5.632c3.152-0.446,7.871-2.805,10.604-5.299l2.104-1.92l0.646,6.184
	c0.355,3.4,0.646,8.116,0.646,10.478c0,2.362,0.441,4.566,0.979,4.899c1.377,0.852,4.596-1.054,9.652-5.715
	c4.915-4.529,4.913-4.531,5.877,5.478c0.358,3.713,1.083,6.75,1.611,6.75c1.308,0,8.738-3.808,12.227-6.267l2.846-2.007
	l-1.536,2.972c-0.845,1.634-3.356,5.273-5.581,8.087c-2.317,2.932-3.613,5.383-3.034,5.741c0.596,0.368-0.026,1.855-1.516,3.626
	c-2.971,3.53-3.18,4.84-0.776,4.87c1.139,0.016-0.681,2.263-5.215,6.44c-7.566,6.97-10.535,8.521-10.535,5.503
	c0-1.016,0.458-2.13,1.017-2.476c1.459-0.901,0.192-2.49-1.986-2.49c-1.739,0-5.164,3.407-7.612,7.573
	c-0.951,1.619-1.624,1.717-5.57,0.814c-9.759-2.233-12.88,3.894-4.884,9.587c5.083,3.62,3.583,6.717-9.819,20.275l-11.614,11.75
	l3.984-0.023c2.191-0.013,5.668-0.415,7.727-0.893c3.685-0.856,3.733-0.829,3.112,1.773c-0.347,1.454-1.038,3.438-1.535,4.408
	c-1.299,2.533,1.286,3.231,7.676,2.073l5.282-0.957l-1.388,3.935c-0.764,2.165-1.389,4.104-1.389,4.31
	c0,1.055,8.165,0.08,12.83-1.531c3.688-1.274,5.444-1.495,5.701-0.718c0.204,0.618,0.843,2.924,1.42,5.123
	c1.639,6.249,2.449,7.095,5.476,5.716c1.414-0.645,4.544-2.99,6.957-5.214l4.386-4.044l0.668,3.771
	c1.533,8.644,2.531,9.101,8.364,3.831l3.808-3.44l1.821,3.382c2.76,5.126,4.24,5.087,7.592-0.199
	c1.625-2.563,3.231-5.529,3.568-6.592c0.513-1.615,0.954-1.26,2.7,2.18c3.279,6.455,5.697,5.205,8.555-4.419l1.664-5.604
	l15.495,7.69c23.165,11.497,56.131,27.002,60.429,28.42c2.082,0.688,6.999,1.855,10.926,2.596
	c7.215,1.359,19.941,1.458,21.234,0.165c1.057-1.057-3.978-7.803-8.818-11.821c-6.572-5.453-15.525-11.269-23.629-15.346
	c-4.043-2.035-7.193-3.841-7-4.012c0.193-0.172,4.472-2.622,9.506-5.445l9.153-5.133l3.024,1.735c2.63,1.51,3.623,1.576,7.611,0.51
	c2.522-0.675,5.592-1.229,6.822-1.23c3.048-0.006,8.735-3.608,8.735-5.534c0-0.861,1.353-2.038,3.007-2.614
	c3.177-1.107,4.346-3.615,3.809-8.166c-0.295-2.487,0.75-3.258,15.685-11.568c8.8-4.897,15.896-9.289,15.769-9.759
	c-0.221-0.819-16.357-10.453-36.051-21.524c-5.105-2.87-9.107-5.693-8.893-6.274s0.989-3.419,1.722-6.307
	c0.732-2.887,1.65-5.25,2.04-5.25c0.391,0,2.668,1.12,5.061,2.488c2.395,1.368,5.163,2.493,6.154,2.5
	c2.598,0.018,4.698-5.813,4.698-13.039c0-3.363,0.338-5.956,0.75-5.761c0.413,0.195,3.325,1.67,6.472,3.277
	c3.147,1.608,5.962,2.685,6.254,2.392c1.431-1.43,2.418-12.058,1.716-18.466l-0.778-7.108l4.043,1.836
	c4.705,2.138,9.098,2.412,10.195,0.637c1.131-1.829,0.559-12.385-1.033-19.067c-1.264-5.309-1.242-5.758,0.249-5.18
	c0.897,0.349,3.838,0.897,6.532,1.22l4.9,0.586l-0.517-6.427c-0.331-4.125-1.459-8.287-3.149-11.623
	c-1.448-2.858-2.634-5.438-2.634-5.73c0-0.294,1.958-0.533,4.351-0.533c5.829,0,10.649-1.767,10.649-3.902
	c0-2.085-4.901-9.894-7.849-12.503c-2.942-2.605-2.7-3.595,0.881-3.595c3.988,0,9.836-2.492,10.615-4.522
	c0.757-1.974-0.961-5.316-5.395-10.496l-3.361-3.926l4.524-1.14c6.33-1.594,7.146-2.899,4.741-7.59
	c-1.08-2.104-3.124-4.911-4.544-6.236l-2.581-2.409l5.67-2.305c3.119-1.268,6.494-3.129,7.502-4.136
	c1.775-1.775,1.76-1.975-0.529-6.496l-2.361-4.664l6.4-3.743c7.717-4.513,14.512-10.163,13.734-11.421
	c-0.312-0.504-1.777-0.923-3.258-0.932c-5.209-0.029-5.829-1.618-1.494-3.829c4.273-2.181,13.426-11.557,15.843-16.23
	c1.46-2.823,1.452-2.836-2.093-3.501l-3.557-0.668l7.447-6.861c7.955-7.33,12.561-13.684,10.4-14.348
	c-0.68-0.209-2.508-0.659-4.061-1.001l-2.822-0.621l5.605-6.055c5.632-6.083,11.809-15.626,10.982-16.965
	c-0.244-0.395-1.336-0.484-2.428-0.199c-1.09,0.285-3.072,0.245-4.404-0.09l-2.422-0.607l2.883-3.085
	c3.229-3.457,9.342-13.261,10.361-16.617c0.611-2.012,0.283-2.219-3.957-2.5l-4.625-0.307l3.498-4.5c3.967-5.103,11.064-20,9.529-20
	c-0.555,0-1.918,0.486-3.029,1.081c-3.146,1.684-3.371,0.308-0.629-3.839c1.383-2.088,4.125-7.283,6.094-11.543
	c1.967-4.261,4.502-8.921,5.633-10.357c2.725-3.466,2.592-4.678-0.455-4.096c-2.748,0.525-2.814,0.683,2.391-5.746
	c1.334-1.65,3.707-5.7,5.271-9c2.518-5.31,2.842-7.095,2.813-15.5C451.862,11.56,453.102,10.989,440.778,27.69z M245.183,448.5
	c-0.61-0.052-27.839-10.627-48.25-18.739c-4.38-1.741-4.491-1.895-4.177-5.743c0.626-7.669,3.379-16.083,9.146-27.954
	c3.206-6.6,7.171-13.27,8.811-14.822l2.981-2.822l2.108,6.94c2.554,8.407,4.133,10.088,7.445,7.918
	c2.308-1.513,2.333-1.483,3.502,4.179c1.922,9.306,4.674,10.363,11.34,4.357c2.289-2.063,4.988-5.1,5.998-6.75
	c1.811-2.956,1.838-2.585,1.842,25.25C245.932,435.852,245.596,448.535,245.183,448.5z M314.933,393.074
	c5.775,3.417,13.562,7.901,17.302,9.966c3.741,2.064,6.666,3.872,6.5,4.017s-7.104,4.068-15.417,8.72
	c-13.346,7.467-15.329,8.301-16.941,7.122c-1.004-0.734-2.89-1.335-4.19-1.335c-2.246,0-2.287,0.114-0.81,2.223
	c1.954,2.79,1.95,3.413-0.032,4.174c-0.881,0.338-2.722-0.282-4.135-1.394c-3.393-2.669-5.723-2.706-4.312-0.068
	c1.665,3.111,1.202,5.669-1.224,6.774c-1.886,0.858-2.557,0.637-4.047-1.34c-2.558-3.39-3.536-2.946-3.887,1.759
	c-0.293,3.94-0.604,4.296-6.808,7.801c-21.198,11.978-21.124,11.947-25.286,10.18l-3.787-1.608l0.672-47
	c0.369-25.85,0.791-47.143,0.938-47.317C249.727,355.438,293.659,380.488,314.933,393.074z"/>
<path fill="#B3B3B3" d="M241.733,256.764c0.66,0.66,1.2,2.157,1.2,3.326s-1.062,3.124-2.36,4.344l-2.361,2.218l-1.279-3.089
	C234.778,258.36,238.317,253.348,241.733,256.764z M242.229,266.29c-2.548,1.669-2.996,5.179-1.059,8.281
	c1.203,1.929,1.311,1.906,4.055-0.837c2.797-2.798,2.805-2.84,1.059-5.883C244.618,264.949,244.402,264.866,242.229,266.29z
	 M245.896,277.098c-2.384,2.157-2.448,3.328-0.351,6.323l1.613,2.302l2.844-2.726c2.304-2.206,2.65-3.089,1.822-4.636
	C250.323,275.554,248.121,275.085,245.896,277.098z M255.921,287.05c-2.817-3.395-6.988-0.979-6.988,4.048
	c0,5.485,1.349,5.707,5.36,0.88C256.637,289.159,256.932,288.267,255.921,287.05z M243.546,288.159
	c-0.396-1.578-1.349-2.595-2.433-2.595c-3.783,0-5.301,4.038-3.078,8.19c1.092,2.042,1.123,2.038,3.632-0.471
	C243.603,291.349,244.044,290.144,243.546,288.159z M248.532,314.299c0.158-0.158,1.38-1.897,2.715-3.865
	c1.744-2.569,2.169-4.043,1.508-5.225c-1.16-2.072-3.652-2.108-5.889-0.085c-1.592,1.44-1.604,1.865-0.172,5.511
	C247.547,312.808,248.374,314.456,248.532,314.299z M246.267,301.738c2.688-2.806,2.693-2.839,0.724-4.621
	c-3.47-3.14-6.918-0.117-5.646,4.95C242.147,305.262,242.942,305.208,246.267,301.738z M216.244,322.165
	c-2.15,1.307-2.88,6.466-1.326,9.37c1.096,2.048,1.13,2.043,4.56-0.573c1.901-1.449,3.456-3.007,3.456-3.461
	s-1.098-2.088-2.439-3.632C218.488,321.563,217.732,321.26,216.244,322.165z M239.933,308.081c0-0.624-0.599-1.953-1.329-2.953
	c-1.102-1.506-1.701-1.618-3.5-0.655c-2.419,1.295-2.656,2.684-1.141,6.672l1.031,2.71l2.469-2.319
	C238.823,310.259,239.933,308.705,239.933,308.081z M221.315,302.764c-2.63,2.595-2.684,2.854-1.409,6.717
	c1.383,4.19,1.893,4.258,5.777,0.761c2.761-2.486,2.851-4.727,0.309-7.816l-1.941-2.361L221.315,302.764z M273.493,275.565
	c-3.285,0-4.006,1.509-2.479,5.196c1.168,2.817,1.338,2.905,2.027,1.042c0.413-1.119,1.232-2.332,1.822-2.695
	C276.881,277.861,275.993,275.565,273.493,275.565z M224.814,284.926c-0.838,1.839-0.702,3.084,0.616,5.633l1.691,3.271l2.426-2.426
	c2.165-2.165,2.306-2.771,1.309-5.633C229.506,281.901,226.392,281.465,224.814,284.926z M230.446,294.554
	c-1.474,1.223-1.386,5.628,0.166,8.263c0.553,0.938,3.543-0.609,5.324-2.755c1.146-1.383,0.965-1.984-1.275-4.225
	C232.427,293.604,231.815,293.417,230.446,294.554z M233.385,275.604c-1.916,1.591-1.838,4.441,0.207,7.563l1.66,2.532l2.543-2.542
	c2.162-2.163,2.396-2.955,1.569-5.309C238.283,274.773,235.6,273.766,233.385,275.604z M255.883,266.169l-2.125,2.126
	c-1.906,1.906-1.995,2.444-0.854,5.198c0.7,1.688,1.583,3.071,1.964,3.071s1.905-1.268,3.389-2.816l2.698-2.815l-2.536-2.382
	L255.883,266.169z M214.933,358.512c0-2.324-3.988-3.56-6.739-2.088c-3.579,1.916-4.35,3.586-3.191,6.911l1.069,3.067l4.43-2.99
	C213.153,361.623,214.933,359.656,214.933,358.512z M201.4,381.287c0.626,2.494,0.652,2.484,4.519-1.831
	c2.895-3.23,3.618-4.666,2.829-5.616C205.719,370.192,200.056,375.932,201.4,381.287z M260.933,321.175
	c0,3.155,0.626,3.014,2.475-0.562c0.839-1.622,1.511-3.76,1.492-4.75C264.846,312.983,260.933,318.223,260.933,321.175z
	 M261.499,304.692c-2.578,2.027-2.608,2.168-0.891,4.065c1.766,1.95,1.793,1.948,3.553-0.225c0.975-1.204,1.772-2.788,1.772-3.521
	C265.933,302.659,264.237,302.537,261.499,304.692z M275.091,285.565c0,1.375,0.228,1.938,0.505,1.25s0.277-1.813,0-2.5
	S275.091,284.19,275.091,285.565z M208.288,338.906c0.63-0.355,1.903-1.297,2.83-2.091c1.388-1.189,1.487-1.911,0.56-4.098
	c-1.7-4.01-2.49-4.61-4.203-3.189C204.985,331.596,205.743,340.342,208.288,338.906z M256.933,280.135c0,1.71,2.173,5.43,3.173,5.43
	c0.38,0,1.621-1.308,2.76-2.904c2.547-3.578,2.59-4.746,0.223-6.014C260.932,275.493,256.933,277.759,256.933,280.135z
	 M218.465,337.742c0.8,2.606,2.363,4.821,3.403,4.821c0.38,0,1.899-1.262,3.377-2.805c2.918-3.046,3.36-5.122,1.487-6.995
	C223.488,329.519,217.119,333.354,218.465,337.742z M208.933,324.123c0-0.666-1.148-2.29-2.552-3.608
	c-2.156-2.025-2.7-2.169-3.499-0.925c-0.846,1.319-0.41,6.29,0.721,8.213C204.216,328.846,208.933,325.59,208.933,324.123z
	 M233.389,332.186c1.125-0.742,2.18-2.686,2.346-4.32c0.464-4.585-1.948-5.939-5.356-3.008l-2.757,2.371l1.863,3.152
	C231.175,333.244,231.534,333.409,233.389,332.186z M231.933,316.552c0-4.016-4.968-5.301-7.348-1.9
	c-1.424,2.032-1.025,5.882,0.938,9.059C226.425,325.168,231.933,319.017,231.933,316.552z M212.961,349.557
	c0.29,0.004,1.527-0.693,2.75-1.55c2.533-1.773,2.927-5.613,0.761-7.411c-1.129-0.937-2.266-0.947-5-0.045
	c-1.946,0.643-3.539,1.443-3.539,1.778C207.933,343.217,212.338,349.549,212.961,349.557z M221.215,355.364
	c1.734-1.234,2.625-2.6,2.282-3.494c-0.31-0.808-0.563-1.657-0.563-1.887c0-0.922-5.672-0.346-6.697,0.679
	c-0.797,0.797-0.655,1.869,0.518,3.913l1.616,2.815L221.215,355.364z M212.906,372.578c1.089-0.583,2.441-1.92,3.004-2.972
	c2.596-4.849-0.566-6.815-5.08-3.16c-2.063,1.671-2.188,2.182-1.115,4.537C210.738,373.23,211.23,373.476,212.906,372.578z
	 M233.196,252.067c1.014,3.306,1.076,3.337,3.343,1.683c1.271-0.927,2.563-2.311,2.875-3.076c0.311-0.765-0.158-2.495-1.042-3.844
	l-1.608-2.454l-2.301,2.161C232.439,248.438,232.286,249.105,233.196,252.067z M229.563,272.315
	c0.768,2.859,1.372,2.772,4.011-0.582c2.106-2.678,2.11-2.758,0.253-5.053C230.379,262.424,227.82,265.808,229.563,272.315z
	 M204.181,315.174c1.471-1.116,1.574-1.824,0.652-4.469c-1.21-3.471-1.099-3.386-3.318-2.534c-1.068,0.409-1.582,1.872-1.582,4.5
	C199.933,316.814,201.108,317.506,204.181,315.174z M237.497,233.047c0.75,4.002,1.425,4.293,3.819,1.646
	c1.415-1.563,1.496-2.302,0.495-4.5C239.545,225.224,236.417,227.294,237.497,233.047z M245.28,236.437
	c-1.332-1.105-1.857-0.96-3.398,0.942c-1.486,1.836-1.631,2.797-0.787,5.218c1.199,3.439,2.814,3.758,5.274,1.039
	C248.292,241.511,247.846,238.567,245.28,236.437z M235.588,226.11c0.557,1.45,0.866,1.308,2.045-0.942
	c0.764-1.458,1.097-3.123,0.74-3.7C237.379,219.86,234.825,224.119,235.588,226.11z M221.93,279.052l1.287,4.597l2.761-3.292
	c2.058-2.453,2.487-3.625,1.69-4.597c-0.589-0.718-1.943-1.772-3.01-2.343C221.433,271.691,220.442,273.738,221.93,279.052z
	 M221.958,389.564c1.253,0,2.396-0.977,3-2.564c1.373-3.611,1.239-15.154-0.187-16.035c-0.659-0.407-1.959,0.266-3,1.552
	c-1.414,1.745-1.838,3.977-1.838,9.659C219.933,388.928,220.108,389.564,221.958,389.564z M205.933,299.655
	c0,1.548,3.806-0.859,5.058-3.199c0.607-1.134,0.804-2.361,0.438-2.727C210.688,292.989,205.933,298.115,205.933,299.655z
	 M217.968,293.498c-1.666,3.112-1.239,10.065,0.618,10.065c0.175,0,1.49-1.77,2.922-3.933c1.738-2.626,2.385-4.62,1.947-6
	C222.627,291.026,219.335,290.946,217.968,293.498z M244.327,247.738c-0.76,1.229,1.575,9.827,2.668,9.827
	c0.441,0,1.781-1.375,2.977-3.054c2.041-2.865,2.072-3.168,0.504-4.9C248.459,247.383,245.166,246.379,244.327,247.738z
	 M199.811,305.564c0.482,0,1.425-0.659,2.094-1.466c1.892-2.28,0.771-4.135-1.267-2.097
	C198.798,303.842,198.398,305.564,199.811,305.564z M210.942,313.053c-1.53,1.843-0.473,8.511,1.349,8.511
	c0.697,0,2.517-1.304,4.044-2.897c2.349-2.452,2.603-3.223,1.652-5C216.674,311.211,212.754,310.87,210.942,313.053z
	 M214.933,286.402v5.624l3.122-3.121l3.121-3.121l-1.782-3.017C216.722,278.243,214.933,279.701,214.933,286.402z M210.519,301.916
	c-2.541,1.665-3.178,3.939-1.979,7.066c0.797,2.076,1.318,2.001,4.079-0.593c2.441-2.294,2.873-4.396,1.385-6.747
	C213.238,300.434,212.72,300.474,210.519,301.916z M250.433,328.564c1.747-1.93,1.747-2.069,0-4c-0.995-1.1-2.36-2-3.032-2
	c-2.131,0-3.722,2.853-3.061,5.487C245.11,331.117,247.909,331.354,250.433,328.564z M243.358,320.647
	c2.277-2.516,1.711-6.492-0.98-6.877c-1.13-0.161-2.86,0.597-3.846,1.685c-1.721,1.903-1.719,2.077,0.056,4.513
	C240.824,323.037,241.153,323.084,243.358,320.647z M254.19,321.884l2.366-3.91c1.302-2.15,2.369-4.192,2.372-4.537
	c0.01-1.242-2.996-3.086-4.248-2.605c-0.703,0.27-1.9,1.649-2.658,3.066c-1.209,2.26-1.16,2.908,0.395,5.281L254.19,321.884z
	 M261.933,297.33c0-0.444-1.178-1.346-2.617-2.002c-2.31-1.052-2.839-0.919-4.495,1.126c-1.798,2.221-1.803,2.444-0.133,5.287
	l1.745,2.968l2.75-3.285C260.696,299.617,261.933,297.776,261.933,297.33z M230.104,345.909c3.77-3.411,0.523-6.686-3.812-3.845
	c-2.562,1.678-3.102,4.033-1.109,4.837C227.362,347.781,228.229,347.607,230.104,345.909z M232.638,402.564
	c0.187,0,2.39-1.889,4.894-4.198c5.307-4.891,7.401-8.5,7.401-12.752c0-2.834-1.956-4.563-2.036-1.8
	c-0.02,0.688-1.187-0.1-2.594-1.75c-1.871-2.194-2.703-2.624-3.098-1.599c-0.393,1.021-0.902,0.748-1.871-1
	c-0.731-1.32-1.346-1.809-1.365-1.084c-0.023,0.829-0.732,1.097-1.912,0.723c-2.219-0.704-3.09,1.64-3.11,8.372
	C228.935,391.311,231.688,402.564,232.638,402.564z M238.065,337.937c1.578-1.511,2.868-3.338,2.868-4.06
	c0-1.847-2.395-1.632-4.884,0.437c-1.504,1.25-1.927,2.411-1.479,4.061l0.627,2.311L238.065,337.937z M269.597,287.131
	c-1.055-2.749-3.614-2.962-6.215-0.519c-2.897,2.722-3.015,3.67-0.759,6.163c1.641,1.813,1.78,1.779,4.643-1.082
	C269.139,289.821,269.991,288.155,269.597,287.131z M261.995,258.009c-2.287,2.069-2.697,5.519-0.875,7.342
	c1.576,1.576,4.82-1.256,4.799-4.191c-0.009-1.152-0.432-2.752-0.939-3.556C264.188,256.355,263.758,256.412,261.995,258.009z
	 M259.426,247.716c-2.428,0.479-3.359,3.679-2.263,7.772l0.917,3.424l2.391-2.924c1.314-1.608,2.399-3.6,2.41-4.424
	C262.916,249.12,261.319,247.343,259.426,247.716z M249.601,259.628c-1.14,1.628-1.212,2.685-0.337,5
	c1.348,3.57,1.693,3.604,4.66,0.446c2.011-2.141,2.178-2.843,1.195-5C253.731,257.027,251.547,256.851,249.601,259.628z
	 M252.106,239.999c-0.338,2.878,1.52,8.565,2.797,8.565c0.399,0,1.563-1.855,2.586-4.123l1.859-4.123l-2.359-1.91
	C254,235.989,252.521,236.471,252.106,239.999z M271.36,296.625c1.072-2.211,1.637-4.331,1.256-4.711
	c-0.834-0.836-5.683,3.535-5.683,5.124c0,0.619,0.558,1.684,1.24,2.366C269.161,300.391,269.811,299.823,271.36,296.625z
	 M273.734,305.262l-0.301-5.198l-2.25,4.211c-2.246,4.202-2.837,8.598-1.591,11.843
	C270.875,319.462,274.071,311.088,273.734,305.262z M225.933,259.687c0,4.467,0.499,4.697,3.686,1.703
	c2.677-2.515,2.851-3.71,0.923-6.347C228.452,252.185,225.933,254.723,225.933,259.687z M201.486,278.205
	c0.555-1.386-0.692-0.905-4.904,1.892c-5.427,3.604-5.649,3.922-5.649,8.109c0,2.396,0.352,4.358,0.781,4.358
	s3.298-1.575,6.375-3.499c3.346-2.093,6.222-4.796,7.157-6.728c1.93-3.986,1.332-4.843-1.362-1.951
	c-2.203,2.364-4.477,2.941-3.653,0.928C200.511,280.627,201.077,279.228,201.486,278.205z M166.16,418.725
	c1.988,1.262,2.585,1.01,3.343-1.411c0.387-1.237,3.567-8.447,7.067-16.021c3.5-7.575,6.363-14.213,6.363-14.75
	c0-2.25-1.768-0.444-6.201,6.334c-5.716,8.739-7.799,13.548-7.799,18.001c0,2.12-0.753,4.059-2.023,5.208
	C165.364,417.485,165.187,418.108,166.16,418.725z M206.556,293.797c2.272-3.372,3.965-9.996,2.833-11.085
	c-0.371-0.356-1.412,0.478-2.314,1.853c-2.09,3.184-4.742,5.618-9.099,8.353c-3.453,2.167-10.042,9.91-10.042,11.802
	C187.933,306.682,204.368,297.043,206.556,293.797z M187.322,254.565c-0.258,0-2.181,1.8-4.274,4c-2.485,2.612-4.684,4-6.338,4
	c-2.942,0-5.386,4.504-4.3,7.926c0.826,2.603,5.948,2.829,9.551,0.423c5.453-3.642,8.972-7.75,8.972-10.474
	C190.933,258.087,188.768,254.565,187.322,254.565z M173.746,421.519c0.928,0.542,1.972,0.998,2.319,1.015s1.792-3.682,3.209-8.22
	c1.417-4.537,3.858-10.274,5.425-12.75c4.154-6.564,4.55-8.048,2.537-9.52c-1.55-1.134-2.144-0.412-5.665,6.877
	c-2.164,4.479-5.189,11.174-6.723,14.878C172.292,419.973,172.2,420.617,173.746,421.519z M193.591,319.889
	c1.154,1.153,3.45-1.571,3.14-3.728c-0.164-1.142-1.085-2.227-2.048-2.41c-1.342-0.256-1.75,0.344-1.75,2.573
	C192.933,317.923,193.229,319.527,193.591,319.889z M196.353,307.914c0.395-1.03,0.034-1.392-1.161-1.161
	c-0.955,0.184-1.886,1.114-2.069,2.069C192.712,310.952,195.486,310.173,196.353,307.914z M192.957,271.043
	c-1.763,1.595-2.024,1.624-2.024,0.228c0-1.465-0.326-1.469-3.75-0.043c-2.063,0.858-4.081,2.073-4.484,2.699
	c-0.957,1.48-0.979,8.09-0.031,9.038c1.552,1.553,7.567-0.605,10.138-3.637C197.539,273.746,197.667,266.781,192.957,271.043z
	 M156.685,205.152c-0.688-0.193-3.223-0.946-5.633-1.673c-4.319-1.303-4.416-1.279-6.745,1.632c-1.3,1.625-2.366,3.245-2.368,3.603
	c-0.003,0.356,1.907,1.829,4.245,3.272c3.526,2.179,5.082,2.541,9.136,2.133c2.687-0.271,5.13-0.736,5.429-1.035
	C161.564,212.267,158.125,205.556,156.685,205.152z M270.733,256.365c1.613-1.613,1.521-5.289-0.167-6.69
	c-2.108-1.749-3.962,1.112-3.142,4.85C268.148,257.819,268.875,258.223,270.733,256.365z M157.933,218.074
	c-3.025-0.097-6.46-0.49-7.634-0.874c-1.731-0.565-2.256-0.211-2.781,1.879c-0.765,3.05-0.138,4.304,2.767,5.535
	c2.193,0.93,12.173,0.294,14.356-0.914c0.944-0.523,0.944-1.191,0-3.06C163.608,218.596,162.637,218.225,157.933,218.074z
	 M158.522,227.883c-8.452-0.244-8.589-0.21-8.589,2.135c0,1.311-0.264,3.071-0.587,3.913c-1.148,2.992,9.667,4.589,16.737,2.471
	c3.274-0.981,3.782-1.489,3.245-3.25C167.866,228.357,167.42,228.14,158.522,227.883z M165.583,240.085
	c-6.405,0.686-6.597,0.79-7.726,4.21c-0.933,2.827-0.892,3.675,0.209,4.373c2.521,1.597,8.189,0.933,11.557-1.354
	c3.601-2.445,5.085-5.375,3.519-6.942C172.54,239.771,169.571,239.658,165.583,240.085z M175.425,247.978
	c-1.175,0.77-3.98,1.952-6.233,2.627c-4.258,1.275-5.219,2.795-5.246,8.289c-0.013,2.657,0.184,2.791,3.236,2.195
	c1.788-0.35,4.466-0.866,5.952-1.148c1.486-0.283,4.499-2.365,6.695-4.629l3.994-4.114l-3.131-2.311
	C177.902,246.828,177.331,246.73,175.425,247.978z M149.267,397.898c-0.726,0.726,1.51,3.666,2.789,3.666
	c0.483,0,0.877-0.395,0.877-0.877C152.933,399.407,149.993,397.171,149.267,397.898z M155.313,412.564
	c0.327,0,2.175-3.139,4.107-6.975c3.639-7.226,4.42-11.03,2.262-11.018c-1.3,0.008-6.354,7.895-5.95,9.287
	c0.548,1.894,0.414,5.34-0.271,6.955C155.053,411.777,154.987,412.564,155.313,412.564z M164.732,414.906
	c2.886-2.647,2.703-2.65-2.965-0.061c-2.644,1.208-3.847,2.499-4.314,4.628c-0.356,1.624-1.285,3.481-2.063,4.127
	c-1.019,0.846-1.141,1.687-0.436,3.004c0.539,1.006,0.979,2.785,0.979,3.953c0,1.169,0.45,1.847,1,1.507c0.55-0.34,1-1.401,1-2.358
	c0-0.958-0.525-2.267-1.167-2.908c-0.89-0.89-0.711-1.312,0.75-1.772c3.914-1.235,4.914-2.283,4.716-4.941
	C162.097,418.257,162.907,416.581,164.732,414.906z M162.609,410.857c1.433-0.938,3.892-4.426,5.464-7.75
	c3.137-6.63,3.848-10.433,1.329-7.102c-0.808,1.067-1.486,1.518-1.508,1s-0.858,0.634-1.859,2.559c-1,1.926-3.046,5.638-4.545,8.25
	C158.515,412.995,158.676,413.434,162.609,410.857z M162.611,381.134c-2.288,0.878-2.12,2.43,0.263,2.43
	c1.068,0,2.275,0.541,2.683,1.201c0.565,0.914,0.846,0.891,1.175-0.099c0.238-0.714-0.214-1.946-1.005-2.737
	C164.932,381.134,163.538,380.779,162.611,381.134z M153.733,421.365c0.66-0.66,1.147-2.348,1.084-3.75
	c-0.094-2.07-0.208-2.174-0.604-0.551c-0.268,1.101-1.186,2.788-2.039,3.75C150.447,422.763,151.842,423.255,153.733,421.365z
	 M278.944,255.646c0.015,8.318,0.99,14.085,2.311,13.645c0.575-0.191,1.865-1.928,2.867-3.857
	c2.157-4.156,3.738-15.211,3.781-26.439c0.033-8.62,1.941-18.808,7.576-40.429c2.711-10.398,5.035-16.487,10.118-26.5
	c8.734-17.206,11.854-21.758,20.6-30.041c10.175-9.638,18.417-15.92,26.232-19.993c9.144-4.766,10.964-4.645,8.004,0.534
	c-2.019,3.532-1.844,4.081,0.964,3.014c6.59-2.506,15.592-9.455,21.691-16.745c7.012-8.38,13.271-17.177,12.658-17.789
	c-0.781-0.781-16.49,6.183-21.055,9.332c-2.607,1.799-10.257,7.986-17,13.748c-6.742,5.763-19.233,15.299-27.759,21.192
	c-8.524,5.894-18.454,13.647-22.063,17.231c-8.545,8.483-11.656,16.316-12.994,32.722c-1.049,12.866-1.981,17.65-5.61,28.795
	c-3.256,9.999-4.695,12.906-9.053,18.285l-3.472,4.286l1.096,6.296C278.44,246.395,278.938,252.116,278.944,255.646z
	 M388.854,90.132c8.157-2.806,9.243-3.496,12.691-8.067c2.074-2.75,5.746-7.593,8.159-10.761
	c5.005-6.57,11.255-18.068,11.177-20.563c-0.041-1.299-0.431-1.134-1.729,0.734c-0.922,1.325-10.124,10.907-20.448,21.293
	c-10.323,10.385-18.771,19.23-18.771,19.656S383.948,91.82,388.854,90.132z M158.324,385.656c-1.433,1.188-1.407,1.384,0.263,2.041
	c2.99,1.177,4.347,0.97,4.347-0.664C162.933,384.892,160.221,384.081,158.324,385.656z M147.933,406.157
	c0,0.843,1.027,1.406,2.559,1.406c1.408,0,2.314-0.396,2.016-0.879C151.509,405.07,147.933,404.657,147.933,406.157z
	 M149.959,420.036c2.603-2.771,3.245-8.603,1.174-10.672c-0.933-0.934-1.2-0.408-1.2,2.364c0,2.052-0.849,4.646-2,6.108
	C144.229,422.545,145.899,424.359,149.959,420.036z M131.436,167.96c5.036,1.843,6.397,1.865,9.482,0.158l2.484-1.376l-3.717-3.506
	c-2.045-1.928-5.068-3.803-6.718-4.165c-2.49-0.547-3.417-0.178-5.454,2.167C124.623,164.567,125.291,165.711,131.436,167.96z
	 M153.183,396.902c2.176,0.878,2.75,0.703,2.75-0.838c0-0.833-0.889-1.5-2-1.5C151.72,394.564,151.224,396.111,153.183,396.902z
	 M155.531,390.165c-1.517,0.582-1.506,0.749,0.123,1.985c2.111,1.602,2.97,1.724,3.709,0.526
	C160.211,391.305,157.386,389.453,155.531,390.165z M150.539,190.742c-4.652-1.484-4.771-1.468-7.26,1.022l-2.531,2.531l2.843,1.991
	c3.502,2.454,7.99,4.094,11.487,4.198c2.637,0.078,2.641,0.066,1.417-4.077C155.393,192.676,154.786,192.099,150.539,190.742z
	 M128.19,234.521c3.441-0.356,8.504-1.641,11.25-2.854c2.746-1.214,6.064-2.907,7.374-3.764l2.381-1.557l-3.144-1.522
	c-2.518-1.22-2.914-1.801-1.988-2.916c1.786-2.152,0.818-2.297-5.099-0.762c-3.006,0.779-6.269,1.418-7.249,1.418
	c-2.603,0-9.782,7.561-9.782,10.302C121.933,235.092,122.139,235.147,128.19,234.521z M125.697,254.405l4.368-0.969
	c2.402-0.533,6.077-2.094,8.166-3.467c5.418-3.562,11.702-9.417,11.702-10.904c0-0.697-0.958-1.518-2.13-1.824
	c-1.422-0.372-1.931-1.074-1.531-2.116c0.774-2.017,0.379-1.969-3.564,0.437c-1.801,1.098-4.669,1.998-6.375,2
	c-2.656,0.003-3.567,0.753-6.35,5.23c-1.787,2.875-3.482,6.664-3.767,8.42L125.697,254.405z M132.683,269.206
	c0.963-0.271,3.325-0.8,5.25-1.175c5.335-1.041,9.218-3.848,14.338-10.364c5.109-6.503,5.376-7.103,3.162-7.103
	c-1.831,0-1.837-0.443-0.079-5.498c1.389-3.992,1.266-5.502-0.448-5.502c-0.5,0-2.788,2.488-5.084,5.529
	c-3.138,4.157-5.625,6.206-10.014,8.25c-5.186,2.416-6.008,3.216-7.357,7.148C130.351,266.618,130.437,269.839,132.683,269.206z
	 M132.667,206.496c5.54,0.061,6.598-0.26,9.5-2.872c3.069-2.763,3.164-3.043,1.579-4.651c-2.795-2.835-13.091-2.045-17.93,1.376
	c-2.112,1.493-3.85,2.984-3.862,3.313C121.903,205.105,126.925,206.434,132.667,206.496z M121.65,220.373
	c2.3,1.717,6.633,1.024,16.783-2.682l8-2.921l-3.78-1.803c-2.079-0.992-3.586-2.309-3.349-2.928
	c0.586-1.527-10.252-0.636-12.68,1.043c-0.995,0.688-2.922,2.761-4.283,4.605C119.999,218.865,119.962,219.114,121.65,220.373z
	 M115.933,188.682c0,0.423,1.913,1.915,4.25,3.316c3.417,2.048,5.561,2.549,10.941,2.557c3.68,0.005,6.929-0.375,7.219-0.845
	c0.291-0.47-1.476-2.944-3.924-5.5c-4.062-4.238-4.865-4.646-9.154-4.646c-3.452,0-5.318,0.578-7.017,2.174
	C116.975,186.935,115.933,188.259,115.933,188.682z M142.183,285.001c1.238-0.384,4.725-1.948,7.75-3.477
	c5.859-2.961,10.332-7.188,13.856-13.099l2.169-3.639l-2.513-0.631c-2.76-0.692-3.285-3.432-1.537-8.027
	c1.461-3.843-0.501-3.163-3.423,1.186c-1.386,2.063-5.115,5.584-8.286,7.825c-7.676,5.426-10.266,9.371-10.266,15.64
	C139.933,285.421,140.06,285.659,142.183,285.001z M266.211,274.315c1.458,1.885,2.644,1.516,3.885-1.209
	c0.907-1.991,0.781-2.979-0.664-5.184l-1.785-2.724l-1.807,2.231C264.084,269.6,264.198,271.713,266.211,274.315z M161.995,293.498
	c3.363-1.683,4.821-3.451,11.283-13.684c2.39-3.786,2.485-4.25,0.87-4.25c-3.869,0-5.483-4.761-3.114-9.187
	c2.502-4.677-1.43-0.32-5.639,6.247c-2.736,4.269-5.63,7.479-7.676,8.517c-6.813,3.451-8.335,6.926-5.633,12.856
	C153.38,296.84,155.535,296.731,161.995,293.498z M186.807,321.458c2.03-0.708,2.821-1.526,2.438-2.523
	c-0.87-2.268-4.759-1.243-5.127,1.351C183.825,322.345,184.02,322.43,186.807,321.458z M123.976,180.358
	c7.676,1.177,9.032,0.467,5.207-2.727c-2.555-2.133-2.914-2.915-2.047-4.464c0.618-1.104,0.648-1.628,0.072-1.272
	c-0.539,0.333-4.494,0.211-8.79-0.271c-6.105-0.685-8.103-0.584-9.147,0.461c-0.735,0.734-1.337,1.618-1.337,1.963
	C107.933,175.318,118.685,179.547,123.976,180.358z M185.933,314.564c1.1-0.588,2-1.729,2-2.535c0-1.864-0.478-1.844-2.428,0.106
	C183.256,314.384,183.516,315.858,185.933,314.564z M138.926,155.59c1.235-0.781,0.854-1.598-2.21-4.735
	c-2.036-2.086-5.277-4.64-7.201-5.677l-3.499-1.884l-3.464,2.885c-1.905,1.587-3.367,3.335-3.248,3.886
	c0.119,0.55,2.64,2.237,5.602,3.75C130.34,156.589,136.177,157.328,138.926,155.59z M163.512,309.564
	c0.276,0,2.171-0.852,4.211-1.894c4.812-2.455,6.121-4.05,10.882-13.25c3.417-6.603,3.777-7.889,2.642-9.44
	c-0.723-0.989-1.317-3.174-1.319-4.856l-0.005-3.059l-1.745,2.617c-5.538,8.309-7.791,10.988-11.258,13.392
	c-4.793,3.321-6.371,7.351-4.948,12.637C162.543,307.83,163.236,309.564,163.512,309.564z M179.188,312.814
	c3.162-3.307,10.977-17.249,9.668-17.249c-0.508,0-0.944-2.138-0.97-4.75l-0.046-4.75l-3.476,7.197
	c-2.203,4.563-4.658,8.022-6.704,9.451c-4.103,2.865-4.694,3.746-4.713,7.02C172.913,316.044,175.078,317.114,179.188,312.814z
	 M149.242,169.633c-4.946-1.373-5.163-1.356-7.058,0.538c-2.139,2.139-0.645,4.509,3.845,6.099c4.939,1.749,6.359,1.241,6.712-2.4
	C153.025,170.949,152.74,170.605,149.242,169.633z M146.178,157.698c-3.862-1.408-4.402-1.405-5.838,0.03
	c-1.915,1.915-0.603,4.613,3.498,7.191c4.151,2.611,6.595,1.772,6.595-2.263C150.433,159.558,150.049,159.11,146.178,157.698z
	 M149.343,180.954c-3.89-0.902-4.911-0.806-6.694,0.639l-2.104,1.704l2.944,1.594c1.619,0.876,4.631,1.611,6.694,1.634
	c3.245,0.034,3.75-0.267,3.75-2.233C153.933,182.413,153.138,181.834,149.343,180.954z M137.6,187.984
	c3.684,2.504,5.333,2.56,5.333,0.183c0-0.705-1.125-1.794-2.5-2.42c-1.375-0.627-2.5-1.824-2.5-2.66c0-0.855-0.876-1.521-2-1.521
	C132.587,181.565,133.537,185.223,137.6,187.984z M145.376,147.663c-5.926-3.497-10.489-2.298-6.162,1.619
	c4.948,4.479,9.719,5.647,9.719,2.381C148.933,150.544,147.469,148.898,145.376,147.663z M133.771,177.043
	c2.564,1.335,5.73,2.449,7.035,2.475c2.235,0.044,2.287-0.083,0.885-2.203c-1.545-2.339-5.714-5.081-9.383-6.174
	c-1.604-0.478-2.258-0.129-2.663,1.421C129.212,174.216,130.013,175.086,133.771,177.043z M68.043,105.848l4.934,5.673
	c5.207,5.986,16.022,12.79,28.841,18.141c8.365,3.492,9.736,3.628,7.731,0.766c-1.37-1.956-1.311-2.294,0.693-3.967
	c1.6-1.336,1.786-1.84,0.69-1.869c-0.825-0.021-2.687-0.658-4.137-1.415c-1.45-0.757-4.901-2.128-7.669-3.048
	c-5.628-1.869-17.864-10.059-21.017-14.066c-1.949-2.479-2.264-2.552-6.062-1.414L68.043,105.848z M72.433,124.219l2.5,1.325
	c1.375,0.729,4.851,3.462,7.724,6.075c5.458,4.963,13.826,8.806,26.276,12.066c8.065,2.112,10.018,2.181,12.324,0.433
	c1.695-1.285,1.512-1.565-2.588-3.969c-2.426-1.422-4.895-2.585-5.485-2.585c-1.953,0-17.669-7.074-22.293-10.035
	c-7.129-4.563-11.962-5.973-15.503-4.521L72.433,124.219z M98.427,162.902c4.171,2.635,18.966,6.298,26.506,6.562
	c2.483,0.087,2.479,0.074-0.5-1.893c-1.65-1.09-3.001-2.756-3.002-3.703c-0.002-1.281-1.409-2.015-5.5-2.865
	c-3.023-0.628-8.81-2.167-12.857-3.421c-6.127-1.896-7.507-2.048-8.235-0.897C93.311,159.096,93.831,159.997,98.427,162.902z
	 M89.041,149.14c4.254,2.996,7.598,4.531,10.78,4.949c6.892,0.904,18.27,3.458,20.048,4.499c2.413,1.411,7.064,1.172,7.064-0.364
	c0-0.736-1.836-1.945-4.081-2.687c-2.245-0.74-5.282-2.777-6.75-4.524c-1.941-2.312-3.546-3.196-5.886-3.246
	c-1.77-0.036-7.106-1.628-11.859-3.537l-8.642-3.47l-3.421,2.019l-3.421,2.019L89.041,149.14z M105.933,109.409
	c0-0.465-0.929-0.845-2.065-0.845c-2.41,0-19.219-8.91-23.071-12.229c-1.449-1.249-4.513-4.874-6.807-8.056
	c-4.066-5.64-4.264-5.768-7.864-5.117c-4.712,0.852-4.754,0.902-2.95,3.621c7.34,11.059,26.584,26.905,38.571,31.761
	c4.227,1.713,8.586,3.486,9.686,3.942c1.1,0.456,2.136,0.712,2.302,0.568c0.167-0.145-1.521-3.083-3.75-6.531
	C107.757,113.075,105.933,109.874,105.933,109.409z M130.933,136.739c-1.375-0.621-4.877-3.213-7.784-5.76
	c-5.016-4.394-5.435-4.566-8.25-3.4c-3.445,1.427-3.589,2.006-1.216,4.897c2.438,2.972,18.148,11.023,21.576,11.06l2.826,0.029
	l-2.326-2.848C134.48,139.151,132.308,137.361,130.933,136.739z M138.479,136.565c-3.287,0-3.207,0.579,0.561,4.099
	c3.063,2.861,6.894,3.893,6.894,1.855C145.933,140.505,141,136.565,138.479,136.565z M60.933,141.472
	c15.374,2.249,19.472,2.445,22.066,1.058c3.087-1.652,2.25-2.965-1.891-2.965c-4.767,0-22.984-5.375-29.675-8.756
	c-2.75-1.39-8.31-4.826-12.355-7.636c-11.625-8.074-11.402-7.971-15.452-7.211c-2.031,0.381-3.692,1.156-3.692,1.722
	c0,1.989,10.984,12.518,15.218,14.586C46.179,137.657,54.043,140.464,60.933,141.472z M137.568,415.781
	c0.634,1.026,4.201,2.621,6.08,2.719c0.668,0.035,1.706-0.854,2.306-1.974c0.6-1.121,0.795-2.969,0.435-4.105
	c-0.542-1.709-1.202-1.96-3.806-1.448C139.286,411.62,136.592,414.203,137.568,415.781z M129.501,412.881
	c0.876,2.283,1.133,2.161,2.98-1.41c1.96-3.791,1.104-5.004-1.615-2.284C129.633,410.42,129.105,411.849,129.501,412.881z
	 M133.219,401.564c0.943,0,1.714,0.45,1.714,1c0,1.34,1.712,1.275,2.56-0.096c0.373-0.603-0.051-1.824-0.941-2.714
	c-1.491-1.491-1.753-1.484-3.333,0.096C131.6,401.469,131.6,401.564,133.219,401.564z M132.559,418.786
	c0.667,1.955,0.864,1.682,1.388-1.937c0.336-2.317,1.37-5.053,2.298-6.078c1.877-2.074,2.151-3.208,0.777-3.208
	C135.248,407.564,131.739,416.386,132.559,418.786z M156.433,376.564c4.663-2.377,5.806-1.814,2.153,1.059
	c-1.459,1.147-2.653,3.038-2.653,4.201c0,2.002,0.155,1.967,2.892-0.656c3.852-3.69,7.073-3.215,9.229,1.36l1.632,3.464l0.74-4.382
	c0.595-3.521,0.929-4.044,1.703-2.66c0.906,1.619,0.61,3.164-1.7,8.864c-1.368,3.375,1.293,1.716,2.993-1.865
	c0.98-2.065,1.486-4.766,1.179-6.297c-0.295-1.476-0.164-3.284,0.291-4.02c1.224-1.98,3.03,1.89,3.089,6.616l0.047,3.815l2.905-5.5
	c1.598-3.024,2.927-6.512,2.953-7.75c0.072-3.455,1.873-2.668,2.286,1l0.366,3.25l1.698-3.718c0.934-2.045,1.697-5.982,1.697-8.75
	c0-5.515,1.305-6.592,2.766-2.282c0.888,2.619,0.987,2.498,2.083-2.549c0.633-2.915,1.203-6.965,1.267-9
	c0.066-2.117,0.322-2.845,0.597-1.701c1.592,6.62,4.026-0.086,2.932-8.075c-0.567-4.138,0.463-5.987,1.769-3.175
	c0.319,0.688,0.435-1.296,0.259-4.407c-0.178-3.131-1.08-6.816-2.02-8.25c-1.454-2.219-2.42-2.593-6.708-2.593
	c-5.594,0-11.272,2.021-14.681,5.223c-2.988,2.807-2.876,4.014,0.241,2.594c3.428-1.562,4.584,0.017,1.496,2.042
	c-1.375,0.901-4.3,3.359-6.5,5.461c-3.769,3.603-3.478,3.6,2.838-0.02c3.037-1.739,3.624-0.379,0.662,1.532
	c-1.375,0.888-4.3,3.424-6.5,5.636l-4,4.021l2.81,0.328c3.478,0.405,3.183,1.398-1.31,4.407c-1.925,1.289-4.911,4.495-6.636,7.124
	c-1.725,2.629-4.164,5.874-5.42,7.212s-2.076,2.641-1.82,2.896c0.447,0.447,2.617-0.821,8.283-4.842
	c7.297-5.18,1.124,2.793-6.763,8.732C150.906,378.429,151.297,379.183,156.433,376.564z M146.571,404.479
	c1.856-1.147,3.12-2.497,2.809-3c-0.732-1.186-7.516-1.157-9.407,0.04c-1.25,0.79-1.191,1.221,0.405,2.984
	C142.66,407.025,142.45,407.026,146.571,404.479z M202.552,357.56c0.485-0.003,2.375-1.404,4.199-3.114l3.317-3.109l-2.261-2.406
	c-1.925-2.049-2.467-2.201-3.644-1.024C202.574,349.495,201.227,357.567,202.552,357.56z M172.542,329.977
	c5.35-9.018,7.064-14.047,3.891-11.413c-2.192,1.82-4.374-0.357-5.137-5.13c-0.34-2.128-0.829-3.87-1.086-3.87
	c-2.441,0-6.368,4.108-8.236,8.616c-1.216,2.934-5.432,10.183-9.369,16.108l-7.159,10.775l-0.357,8.795l-0.357,8.794l2.851-0.685
	c1.568-0.376,3.976-1.254,5.351-1.949c3.85-1.947,6.452-5.281,10.502-13.455C165.479,342.439,169.578,334.975,172.542,329.977z
	 M139.933,422.375c0-2.189-6.357,0.702-17.009,7.738c-6.203,4.098-11.62,7.45-12.037,7.45c-0.581,0-2.954,5.249-2.954,6.533
	c0,0.129,3.229-0.38,7.174-1.132c5.862-1.117,8.191-2.17,12.734-5.755C132.992,433.147,139.933,424.63,139.933,422.375z
	 M129.724,419.41c0.221-1.146-0.794-1.751-3.729-2.221c-5.139-0.821-8.697,1.025-19.12,9.924
	c-7.747,6.615-10.843,10.456-7.203,8.938c0.969-0.403,2.886-1.097,4.261-1.539s4.986-1.503,8.025-2.357
	C117.773,430.523,129.157,422.356,129.724,419.41z M146.412,431.248c5.15-8.896-1.73-8.643-7.451,0.273
	c-3.307,5.152-9.625,10.309-14.873,12.139c-1.703,0.593-3.477,2.356-4.472,4.443c-1.605,3.367-1.594,3.46,0.431,3.46
	c1.145,0,5.641-1.852,9.991-4.115C138.188,443.208,141.228,440.2,146.412,431.248z M117.595,413.503
	c-2.036,3.542-2.037,3.552-0.025,1.811c1.112-0.962,2.499-1.75,3.082-1.75s1.353-1.562,1.711-3.47
	c0.358-1.909,1.808-4.847,3.223-6.527c2.67-3.173,4.862-10.003,3.21-10.003c-0.511,0-1.836,1.538-2.945,3.418
	s-3.164,4.17-4.567,5.089c-2.053,1.346-2.461,2.275-2.095,4.771C119.48,408.835,118.911,411.214,117.595,413.503z M127.223,404.814
	c-2.574,2.813-3.62,6.134-2.772,8.806c0.936,2.947,2.703,1.9,2.992-1.773c0.136-1.722,1.232-4.514,2.437-6.206
	C132.529,401.918,130.461,401.276,127.223,404.814z M117.727,403.524c1.736-2.78,0.737-3.96-3.353-3.96
	c-4.046,0-4.585,1.958-1.191,4.326C116.112,405.933,116.228,405.923,117.727,403.524z M121.606,196.065
	c0.174-0.551-1.369-1.702-3.429-2.561c-4.073-1.697-6.08-1.358-19.745,3.334c-3.539,1.216-8.748,2.095-12.699,2.144
	c-6.415,0.079-6.873,0.252-10.776,4.061c-3.555,3.47-3.849,4.076-2.3,4.743c3.589,1.546,21.497,0.192,29.01-2.192
	C109.767,203.021,121.124,197.594,121.606,196.065z M153.808,433.98l-1.063-4.224l-6.576,8.653
	c-3.617,4.761-6.949,8.805-7.405,8.988c-0.959,0.386-1.119,7.249-0.223,9.585c0.831,2.164,1.484,2.022,6.103-1.323
	C151.929,450.381,155.695,441.474,153.808,433.98z M84.183,165.877c5.363-0.891,9.75-1.996,9.75-2.457
	c0-0.462-0.882-1.39-1.96-2.063c-1.815-1.134-1.84-1.356-0.339-3.015c2.155-2.381,1.022-3.304-2.418-1.969
	c-1.53,0.593-8.501,1.63-15.492,2.303c-13.291,1.279-20.609,0.539-26.991-2.729c-3.705-1.897-4.126-1.793-6.073,1.503
	c-1.401,2.372-1.469,3.082-0.382,3.984c1.089,0.904,11.046,4.09,20.156,6.448C63.189,168.597,72.575,167.804,84.183,165.877z
	 M159.983,306.716c-0.723-2.192-1.085-5.186-0.805-6.653c0.447-2.338,0.248-2.593-1.618-2.059c-1.17,0.334-3.328,0.871-4.796,1.192
	c-2.189,0.479-3.068,1.689-4.89,6.727c-3.172,8.77-6.295,13.888-12.958,21.241c-5.144,5.676-5.925,7.091-6.513,11.791
	c-0.378,3.028-0.164,7.768,0.496,10.943l1.163,5.601l5.456-3.622c3.562-2.365,6.674-5.564,8.965-9.218
	c1.93-3.077,6.503-11.527,10.163-18.777C161.24,310.817,161.287,310.665,159.983,306.716z M76.933,180.237
	c11.177-0.2,14.752-0.659,20.778-2.663c4.726-1.572,7.111-2.856,6.801-3.664c-0.262-0.684,0.4-1.521,1.472-1.861
	c2.979-0.945,2.343-2.049-1.917-3.325c-5.145-1.542-9.733-1.461-15.703,0.277c-2.712,0.789-8.547,1.952-12.965,2.583
	c-6.754,0.965-9.006,0.896-14.144-0.436c-7.982-2.068-7.93-2.076-9.674,1.421c-1.414,2.834-1.375,3.071,0.671,4.166
	C57.598,179.596,63.776,180.472,76.933,180.237z M48.336,126.665c10.172,4.761,34.597,11.386,34.597,9.385
	c0-1.321-6.725-6.431-8.5-6.457c-7.091-0.106-29.339-14.89-43.299-28.77C20.68,90.428,18.303,88.565,15.499,88.565
	c-2.553,0-1.816,3.102,2.499,10.516C24.571,110.374,36.289,121.028,48.336,126.665z M83.267,154.426
	c3.117-0.626,5.667-1.442,5.667-1.815s-1.761-1.668-3.913-2.878c-2.765-1.554-6.801-2.475-13.75-3.138
	c-5.41-0.517-11.806-1.635-14.212-2.485c-2.407-0.85-5.373-1.545-6.59-1.545c-1.218,0-4.974-1.379-8.347-3.064l-6.132-3.064
	l-3.498,2.79l-3.498,2.791l2.711,2.829c3.854,4.023,13.706,8.588,20.729,9.605C61.306,155.737,76.805,155.724,83.267,154.426z
	 M97.806,193.532c10.61-2.94,23.001-9.746,21.668-11.902c-0.273-0.441-3.621-1.111-7.439-1.487
	c-5.516-0.543-8.347-0.27-13.772,1.335c-4.673,1.381-10.728,2.146-19.178,2.421c-12.252,0.398-12.373,0.426-15.449,3.502
	c-1.705,1.704-2.875,3.325-2.6,3.6c1.162,1.162,17.875,4.333,23.417,4.443C87.809,195.511,93.719,194.665,97.806,193.532z
	 M114.744,289.565c4.531-6.972,17.189-31.816,17.189-33.739c0-0.288-1.8-0.283-4,0.012l-4,0.537v-3.583v-3.583l-4.776,6.928
	c-8.425,12.221-11.626,16.063-16.224,19.475c-7.988,5.927-10.017,8.271-11.512,13.306c-1.78,5.993-3.175,21.096-1.893,20.49
	c0.498-0.236,4.055-1.901,7.905-3.702C106.272,301.571,107.964,299.993,114.744,289.565z M129.968,294.741
	c1.163-3.109,2.556-6.184,3.094-6.832c1.404-1.692,7.927-17.623,7.422-18.128c-0.901-0.9-13.551,4.014-13.551,5.264
	c0,0.725-1.462,3.59-3.25,6.367c-1.787,2.776-4.825,7.582-6.75,10.678c-3.821,6.146-10.164,12.227-13.672,13.106
	c-1.756,0.44-2.493,1.753-3.49,6.213c-0.345,1.542-0.604,2.618-0.808,3.292c0.015,1.796-0.282,5.137-0.561,6.59
	c-0.34,1.775-0.33,4.135,0.021,5.243c0.602,1.896,0.979,1.781,6.325-1.913c3.126-2.161,6.872-4.971,8.323-6.243
	C118.177,313.899,127.877,300.33,129.968,294.741z M148.933,289.678c0-2.263-0.17-4.113-0.378-4.113
	c-0.208,0-2.041,0.694-4.073,1.544c-2.033,0.849-4.505,1.287-5.495,0.973c-1.33-0.422-2.2,0.284-3.333,2.706
	c-8.28,17.706-8.799,18.504-15.721,24.191c-7.045,5.789-8,7.97-8,18.279c0,5.118,0.248,9.306,0.55,9.306s1.99-0.741,3.75-1.647
	c9.711-5.002,16.319-13.442,25.825-32.988C147.153,297.451,148.933,292.727,148.933,289.678z M100.433,224.871
	c6.704-4.274,22.5-16.519,22.5-17.44c0-0.477-0.873-0.866-1.941-0.866c-3.056,0-3.473-1.931-0.989-4.574
	c3.201-3.407,1.156-3.019-5.638,1.073c-7.574,4.561-15.631,7.543-22.254,8.237c-5.066,0.531-5.488,0.804-8.775,5.661
	c-2.939,4.344-7.402,15.659-7.402,18.767c0,1.009,0.542,0.746,5.812-2.818c1.821-1.231,5.871-2.971,9-3.864
	S98.233,226.274,100.433,224.871z M113.945,234.875c10.474-10.037,11.971-12.292,8.179-12.326c-0.93-0.009-2.349-0.432-3.154-0.941
	c-1.268-0.802-1.226-1.424,0.321-4.667l1.784-3.742l-3.321,2.664c-6.979,5.599-19.513,13.532-23.999,15.189
	c-6.501,2.402-8.205,4.685-11.207,15.013c-3.682,12.666-3.399,16.232,0.91,11.472c1.01-1.115,5.812-4.304,10.672-7.085
	C100.344,246.896,106.225,242.273,113.945,234.875z M113.433,257.048c1.65-3.266,5.052-8.648,7.56-11.961
	c6.862-9.063,6.813-8.909,2.585-8.116c-2.304,0.433-3.645,0.3-3.645-0.361c0-2.282-2.259-0.742-8.663,5.905
	c-4.392,4.56-8.809,7.992-12.839,9.976c-6.476,3.188-8.864,5.285-9.763,8.574c-0.3,1.1-1.714,5.254-3.141,9.23
	c-1.427,3.978-2.595,8.885-2.595,10.905c0,3.41,0.125,3.565,1.75,2.155c0.963-0.835,3.886-2.314,6.496-3.289
	C97.24,277.805,109.193,265.442,113.433,257.048z M339.84,287.53c-3.221-1.204-9.43-4.39-13.798-7.077
	c-6.474-3.984-8.79-4.888-12.526-4.888c-5.489,0-5.702,0.892-1.684,7.054c8.568,13.138,29.229,27.793,39.351,27.913
	c1.513,0.018,2.75-0.17,2.75-0.418c0-3.39-2.892-12.073-5.235-15.722C346.209,290.518,344.698,289.346,339.84,287.53z
	 M335.14,231.527c-2.897-1.045-3.86-0.896-8,1.234c-2.589,1.332-4.707,3.021-4.707,3.755c0,2.394,5.157,5.259,14.665,8.147
	c7.695,2.338,10.828,2.787,17.835,2.557c4.675-0.153,9.524-0.836,10.777-1.517c2.24-1.219,2.248-1.287,0.5-4.249
	c-3.799-6.434-5.408-7.189-17.033-7.995C343.268,233.05,336.952,232.18,335.14,231.527z M370.619,220.739
	c-2.165-2.033-2.7-2.101-8.25-1.036c-8.608,1.65-23.03,1.488-28.936-0.325c-2.75-0.845-5.81-1.247-6.798-0.895
	c-1.625,0.58-1.545,0.88,0.845,3.111c1.454,1.358,3.269,3.673,4.033,5.142c1.104,2.123,2.472,2.868,6.655,3.631
	c10.138,1.849,18.438,1.396,26.894-1.468C373.676,225.982,374.661,224.536,370.619,220.739z M375.792,201.637
	c-7.699,3.928-12.298,5.047-24.858,6.05l-12.5,0.999l-3.636,3.94l-3.635,3.94l3.135,0.908c4.943,1.433,14.043,1.229,22.421-0.501
	c4.235-0.875,10.216-2.612,13.29-3.861c7.416-3.014,17.168-9.32,16.68-10.786c-0.215-0.644-1.818-1.54-3.563-1.992
	C380.696,199.704,378.983,200.009,375.792,201.637z M345.643,269.534c-6.182-1.436-12.774-4.556-18.702-8.85
	c-5.701-4.13-7.149-4.1-5.938,0.123c0.512,1.784,0.931,5.548,0.931,8.364c0,4.79,0.242,5.287,3.75,7.708
	c3.704,2.556,17.069,8.973,20.817,9.994c2.57,0.7,13.703-0.296,14.796-1.324c0.476-0.447-1.681-3.961-4.79-7.809
	C351.397,271.416,350.354,270.628,345.643,269.534z M35.68,102.305c12.828,9.976,30.304,20.074,34.957,20.2
	c1.211,0.032,3.296-0.438,4.631-1.047l2.428-1.106l-4.175-4.357c-2.36-2.464-6.732-5.489-10.057-6.959
	c-13.723-6.069-30.438-19.855-42.726-35.24c-4.616-5.778-8.384-8.985-9.384-7.985c-0.876,0.877,4.538,12.802,8.342,18.375
	C26.228,93.754,29.598,97.574,35.68,102.305z M351.418,250.565c-2.379,0-8.15-1.351-12.826-3c-9.828-3.47-11.117-3.638-10.232-1.332
	c0.42,1.095-0.421,2.762-2.445,4.851l-3.085,3.184l2.317,1.518c5.404,3.541,17.279,8.948,22.574,10.279
	c6.545,1.646,13.969,1.172,16.172-1.03c1.039-1.04,1.201-1.917,0.523-2.832C355.345,249.969,356.01,250.565,351.418,250.565z
	 M386.774,182.568c-8.983,5.527-39.355,14.955-48.341,15.005c-5.216,0.029-7.179,1.184-5.035,2.962
	c7.032,5.838,13.116,6.147,29.973,1.527c15.628-4.283,25.103-9.08,31.093-15.743c2.453-2.729,4.211-5.364,3.906-5.857
	C397.231,178.62,391.496,179.662,386.774,182.568z M164.363,433.889c-0.997-0.729-2.099-1.325-2.449-1.325
	c-0.855,0-6.685,15.594-7.48,20.011c-0.348,1.931-0.141,4.805,0.46,6.387l1.094,2.877l4.582-4.647
	c4.111-4.171,4.518-4.992,3.954-7.998c-0.346-1.843-0.116-5.742,0.511-8.665C166.055,435.768,165.985,435.075,164.363,433.889z
	 M336.247,309.502c-2.992-0.987-9.602-6.435-22.063-18.183l-4.25-4.007v3.003c0,1.652-0.687,3.573-1.524,4.27
	c-1.32,1.095-1.334,1.483-0.109,2.872c0.778,0.884,3.452,5.657,5.941,10.606c6.028,11.986,12.768,20.151,19.56,23.699
	c6.698,3.499,10.093,3.683,10.234,0.551c0.257-5.705-0.345-9.716-2.321-15.481C339.855,311.413,339.143,310.458,336.247,309.502z
	 M431.811,61.798c-3.508,3.471-10.426,9.001-15.373,12.289c-11.166,7.421-15.505,11.178-15.505,13.426
	c0,0.958-0.923,2.577-2.052,3.599s-4.166,5.479-6.75,9.905c-2.584,4.426-7.141,10.43-10.127,13.341
	c-4.693,4.576-5.033,5.144-2.5,4.188c1.611-0.607,5.404-3.025,8.429-5.373c3.025-2.347,8.425-6.225,12-8.616
	c8.349-5.585,20.044-16.833,25.466-24.492c4.943-6.982,13.98-23.388,13.273-24.095C438.407,55.703,435.319,58.326,431.811,61.798z
	 M414.942,96.851c-6.467,6.794-11.333,10.902-15.912,13.432c-13.052,7.212-17.756,10.96-21.508,17.136
	c-1.969,3.242-4.258,6.456-5.084,7.143c-2.1,1.742-1.92,3.297,0.245,2.133c0.963-0.517,7.329-4.147,14.148-8.066
	c14.153-8.135,21.784-13.935,31.212-23.719c6.24-6.477,11.891-15.414,11.891-18.811C429.934,82.435,425.93,85.307,414.942,96.851z
	 M412.14,114.674c-6.011,6.525-22.198,17.33-33.427,22.312c-4.795,2.127-8.477,4.262-8.179,4.743
	c0.743,1.202-5.479,9.487-10.754,14.315c-4.014,3.675-4.175,4.007-2.098,4.32c1.237,0.187,2.25,0.693,2.25,1.126
	c0,1.593-7.073,9.983-12.21,14.482l-5.29,4.634l3.5-0.667c1.925-0.367,11.825-3.998,22-8.068c12.534-5.013,21.081-9.128,26.5-12.757
	c10.074-6.746,21.685-18.247,23.765-23.54l1.574-4.01h-3.886c-3.208,0-4.802,0.813-9.126,4.653
	c-9.865,8.762-25.391,17.552-39.691,22.472c-10.17,3.499-6.631,0.118,4.864-4.646c10.349-4.289,33.333-19.221,40.991-26.629
	c5.57-5.388,12.01-14.673,12.01-17.316c0-0.294-1.82-0.533-4.044-0.533C417.307,109.565,416.311,110.147,412.14,114.674z
	 M400.065,158.757c-5.09,4.475-39.267,20.809-46.382,22.167c-4.194,0.801-5.75,1.538-5.75,2.726c0,0.895-1.595,3.717-3.546,6.271
	c-1.949,2.555-3.187,4.645-2.748,4.645c0.439,0,5.072-1.066,10.297-2.37c9.759-2.435,26.303-9.069,38.272-15.35
	c4.767-2.501,8.989-5.909,14.25-11.501c4.11-4.37,7.475-8.358,7.475-8.862c0-0.505-1.853-0.917-4.118-0.917
	C404.61,155.565,402.893,156.272,400.065,158.757z M442.387,29.565c-2.68,3.574-7.4,9.199-10.494,12.5
	c-3.092,3.3-7.568,9.6-9.945,14c-2.379,4.399-5.83,9.977-7.67,12.394c-3.207,4.213-4.053,6.106-2.727,6.106
	c0.34,0,3.826-2.434,7.75-5.407c10.854-8.228,19.57-18.052,25.629-28.884c2.457-4.39,3.361-7.414,3.742-12.5
	C449.237,20.244,449.407,20.196,442.387,29.565z M167.117,420.445c-2.084-0.793-2.285-0.624-2,1.682
	c0.289,2.341,3.436,3.953,36.316,18.612c19.8,8.826,48.825,21.813,64.5,28.86s28.886,12.847,29.356,12.889s-0.654-1.338-2.5-3.065
	c-11.322-10.601-21.942-17.478-36.883-23.881C248.743,452.471,183.424,426.653,167.117,420.445z M164.141,426.141
	c-0.939-0.292-2.383-0.107-3.208,0.41c-1.333,0.836-1.333,1.099,0,2.359c1.646,1.558,95.119,47.547,102.759,50.559
	c5.859,2.31,31.984,6.392,30.158,4.712C293.254,483.634,166.2,426.781,164.141,426.141z M288.004,440.999
	c-1.23,1.114-2.676,1.508-4,1.088c-1.986-0.631-2.799,0.416-1.404,1.811c1.068,1.068,2.727,0.779,5.111-0.891
	c1.222-0.855,2.222-2.051,2.222-2.654C289.933,439.748,289.065,440.039,288.004,440.999z M286.381,440.123
	c0.854-1.068,1.538-2.868,1.521-4c-0.024-1.645-0.201-1.757-0.879-0.56c-0.467,0.825-1.151,2.625-1.521,4
	C284.856,441.966,284.891,441.989,286.381,440.123z M182.933,442.564l-4-2.04v3.993c0,4.166,3.77,13.308,5.139,12.462
	c0.433-0.268,1.251-2.158,1.819-4.201C187.71,446.226,187.294,444.789,182.933,442.564z M172.034,437.336l-3.899-1.532l-0.601,3.005
	c-0.994,4.972-0.678,16.235,0.555,19.772l1.156,3.316l1.835-2.267c1.009-1.246,2.514-4.553,3.344-7.348
	c0.83-2.796,1.509-6.957,1.509-9.249C175.933,439.119,175.697,438.775,172.034,437.336z M305.93,430.957
	c-3.036-0.107-4.036,1.012-1.747,1.956c1.8,0.742,4.03,0.313,4.415-0.85C308.78,431.514,307.579,431.016,305.93,430.957z
	 M307.784,428.047c0.283-0.284-0.016-1.049-0.667-1.699c-0.718-0.718-1.184-0.777-1.184-0.15
	C305.933,427.532,307.116,428.715,307.784,428.047z M300.56,324.432c-3.231-10.648-6.234-17.521-6.868-15.717
	c-0.379,1.079-1.104,0.987-3.619-0.459l-3.145-1.809l-0.998,2.623c-3.93,10.337,4.791,41.287,15.185,53.897
	c2.884,3.498,8.28,7.583,10.03,7.593c0.391,0.002,1.266-1.909,1.944-4.247c2.232-7.692,1.589-12.997-2.356-19.441
	C305.305,338.008,303.413,333.832,300.56,324.432z M297.933,436.564c0.55,0,0.969-0.787,0.93-1.75
	c-0.038-0.962-0.457-2.649-0.93-3.75c-0.689-1.604-0.873-1.258-0.93,1.75C296.965,434.876,297.383,436.564,297.933,436.564z
	 M300.661,433.064l-0.434,2.25c-0.445,2.317-3.623,3.146-4.794,1.25c-1.003-1.623-2.5-1.144-2.5,0.801
	c0,4.056,5.116,5.72,6.965,2.266c0.569-1.064,0.974-2.977,0.899-4.25L300.661,433.064z M308.422,305.389
	c-6.465-9.874-9.615-13.03-11.314-11.334c-1.734,1.732-0.406,12.372,2.498,20.009c4.37,11.488,11.588,26.565,15.303,31.966
	c3.184,4.627,10.219,10.534,12.545,10.534c0.749,0,1.481-2.297,1.894-5.939c1.028-9.091-1.393-16.872-8.263-26.561
	C317.963,319.664,312.266,311.26,308.422,305.389z M149.683,392.926c3.76-4.275,3.928-4.951,1.389-5.615
	c-1.288-0.337-3.446,1.114-7.006,4.711c-2.83,2.858-4.883,5.459-4.563,5.778C140.845,399.142,146.667,396.355,149.683,392.926z
	 M293.485,220.214c-0.631,2.516-0.524,2.595,2.646,1.969c1.816-0.359,5.688-2.291,8.604-4.292c5.753-3.951,9.492-8.044,8.627-9.444
	c-0.709-1.146-5.147-1.145-5.856,0.004c-0.302,0.487-3.365,1.648-6.81,2.581c-5.415,1.466-6.281,2.024-6.407,4.128
	C294.208,216.497,293.847,218.772,293.485,220.214z M291.933,229.653c0,3.426,0.288,3.912,2.321,3.912
	c1.277,0,4.434-0.72,7.013-1.599c6.09-2.075,10.21-7.401,5.726-7.401c-1.068,0-2.221-0.451-2.561-1.003
	c-0.381-0.614-1.274-0.659-2.31-0.116c-0.929,0.487-3.602,1.203-5.939,1.591C292.028,225.725,291.933,225.826,291.933,229.653z
	 M290.933,239.481c0,2.271,0.608,3.139,2.75,3.921c4.239,1.549,5.431,1.344,9.94-1.715c5.563-3.771,4.141-5.122-5.391-5.122h-7.3
	V239.481z M294.933,208.745c0,1.3,2.116,0.891,7.643-1.478c2.931-1.256,8.172-5.032,12.182-8.777l7.039-6.574l-3.253-1.176
	c-1.789-0.646-4.178-1.176-5.311-1.176c-2.468,0-12.689,4.552-14.098,6.277C298.19,197,294.933,207.001,294.933,208.745z
	 M338.929,156.315c0.007-1.102-3.715-0.915-8.13,0.408c-4.282,1.282-4.895,2.38-1.866,3.342c3.05,0.968,2.454,2.177-3,6.095
	c-2.75,1.976-5,4.009-5,4.518c0,1.404,5.077-0.139,8.88-2.699C332.866,165.923,338.918,158.179,338.929,156.315z M310.127,167.315
	c-1.817,3.438-3.125,6.25-2.906,6.25c0.22,0,2.957-0.881,6.085-1.957c5.854-2.014,13.184-6.593,14.06-8.783
	c0.658-1.642-2.893-2.459-8.998-2.072l-4.935,0.313L310.127,167.315z M301.428,186.582c-1.605,6.09-1.489,6.09,7.444,0.023
	c5.448-3.7,10.88-9.555,9.835-10.601c-0.244-0.245-3.253-0.151-6.686,0.208C304.868,176.96,303.653,178.151,301.428,186.582z
	 M288.997,261.747c-1.125,3.755-1.068,4.34,0.53,5.509c2.284,1.67,3.663,1.646,7.938-0.141c1.907-0.797,3.468-1.896,3.468-2.443
	c0-1.297-4.033-4.107-5.894-4.107c-0.797,0-2.199-0.68-3.117-1.51C290.401,257.677,290.145,257.912,288.997,261.747z
	 M319.286,271.727c1.207-1.333,1.484-2.773,1.012-5.25c-1.185-6.219-2.859-8.327-7.766-9.775c-4.063-1.199-5.021-1.164-8.104,0.298
	c-4.043,1.919-3.979,1.727-1.9,5.747c1.289,2.492,1.344,3.238,0.289,3.89c-1.023,0.633-0.882,1.275,0.656,2.985
	c2.557,2.843,5.043,3.802,10.055,3.88C316.293,273.544,318.164,272.967,319.286,271.727z M327.035,248.544l-1.792-3.033
	c-2.151-3.642-5.506-5.976-10.065-7.005c-3.079-0.694-3.747-0.386-7.679,3.546l-4.306,4.306l2.12,2.574
	c2.459,2.985,7.219,5.617,10.174,5.626c1.131,0.004,4.191-1.348,6.801-3.004L327.035,248.544z M328.993,226.674
	c-1.719-3.21-3.773-4.175-9.704-4.558c-3.22-0.208-7.093-0.69-8.605-1.073c-3.272-0.828-3.739,0.886-0.75,2.753
	c2.745,1.715,2.514,3.013-1,5.61c-3.577,2.645-3.806,4.463-0.75,5.938c4.917,2.371,10.093,1.458,16.091-2.838
	C328.965,229.148,329.778,228.143,328.993,226.674z M300.385,292.158c5.043,2.197,6.222,1.797,6.906-2.344
	c1.372-8.302,0.801-12-2.42-15.668c-3.4-3.872-5.941-5.033-8.938-4.083c-1.598,0.507-1.799,1.011-1,2.502
	c1.48,2.766,1.213,5.702-0.58,6.391c-1.211,0.465-1.414,1.361-0.869,3.843C294.499,287.412,296.868,290.626,300.385,292.158z
	 M320.11,178.089c-1.473,1.249-3.49,3.667-4.482,5.373c-1.803,3.095-1.803,3.103,0.5,3.099c1.268-0.002,3.755-0.888,5.525-1.967
	c3.49-2.129,9.28-9.457,9.28-11.747c0-0.871-0.675-1.228-1.75-0.925c-0.962,0.271-3.257,0.797-5.099,1.169
	c-2.287,0.461-3.023,1-2.324,1.701C322.461,175.492,321.938,176.537,320.11,178.089z M284.305,271.071
	c-1.846,2.523-1.748,3.003,0.878,4.297c3.602,1.775,8.25,1.064,8.25-1.262c0-1.354-1.196-2.414-3.878-3.435
	C285.955,269.301,285.579,269.329,284.305,271.071z M290.933,249.894c0,3.575,0.479,4.893,2.223,6.114
	c2.989,2.094,5.39,1.96,9.409-0.525c1.853-1.145,3.368-2.41,3.368-2.813c0-2.171-5.917-6.002-10.25-6.637l-4.75-0.696V249.894z
	 M187.683,426.457c0.742,0.063,1.25-1.093,1.25-2.842c0-1.621,1.084-6.459,2.41-10.75s3.166-10.501,4.089-13.802
	c0.923-3.3,2.837-7.527,4.252-9.395c2.457-3.243,2.49-3.455,0.743-4.733c-1.34-0.98-2.182-1.045-3.147-0.244
	c-3.261,2.706-16.347,33.354-16.347,38.285C180.933,424.121,185.025,426.232,187.683,426.457z M246.872,360.351l0.562-8.714
	l6.651,3.863c4.652,2.703,6.966,3.547,7.701,2.811c0.736-0.736,0.457-1.809-0.93-3.572c-1.548-1.968-1.701-2.707-0.703-3.376
	c0.943-0.631,0.158-1.875-2.97-4.714c-4.598-4.172-5.085-5.085-2.715-5.085c1.22,0,1.317-0.406,0.478-1.977
	c-2.65-4.952-7.764-4.937-13.434,0.041c-3.4,2.986-4.821,6.016-6.064,12.936l-0.63,3.5l2.13-2.5l2.131-2.5l-0.557,3.5
	c-0.621,3.909,0.683,7.342,1.74,4.584c1.284-3.345,2.691-1.563,2.031,2.569c-0.482,3.016-0.35,3.958,0.487,3.441
	c0.634-0.392,1.159-1.474,1.168-2.403c0.024-2.638,1.902,0.677,2.158,3.809C246.219,367.939,246.563,365.143,246.872,360.351z
	 M188.433,377.996c-1.925,2.521-3.5,4.807-3.5,5.076c0,1.384,1.795,0.03,4.25-3.206c1.513-1.993,2.75-4.262,2.75-5.04
	S190.358,375.474,188.433,377.996z M199.724,365.306c-3.064,3.513-3.842,5.994-2.764,8.828l1.027,2.701l3.432-3.886
	c1.887-2.137,3.45-4.378,3.473-4.98s-0.785-1.844-1.796-2.758C201.38,363.658,201.156,363.664,199.724,365.306z M190.898,382.147
	c-2.702,6.303-2.651,8.348,0.143,5.822c1.16-1.048,3.001-3.158,4.093-4.69c1.592-2.232,1.744-3.075,0.77-4.25
	C193.952,376.676,192.984,377.279,190.898,382.147z M280.895,292.065c-0.248-7.227-1.562-6.45-3.309,1.954
	c-1.9,9.146-1.625,11.733,1.637,15.295c2.653,2.899,3.049,2.84,4.369-0.656c0.877-2.322,0.727-3.98-0.748-8.25
	C281.829,297.469,280.952,293.714,280.895,292.065z M289.15,305.003c2.947,2.064,3.464,1.978,4.119-0.689
	c1.851-7.539,1.827-12.506-0.083-16.823c-1.076-2.435-2.213-5.154-2.523-6.044s-1.727-1.84-3.146-2.111
	c-2.291-0.438-2.583-0.169-2.583,2.368c0,1.94-0.508,2.861-1.579,2.861c-1.189,0-1.445,0.681-1.034,2.75
	c0.3,1.512,0.846,4.55,1.213,6.75C284.395,299.227,286.356,303.046,289.15,305.003z M319.003,152.137
	c-5.286,6.021-4.542,6.313,7.45,2.924c6.168-1.743,13.221-6.304,16.4-10.603c2.084-2.82,2.145-3.124,0.481-2.421
	c-1.046,0.442-4.827,1.226-8.402,1.74C327.651,144.825,323.52,146.993,319.003,152.137z M282.933,279.623
	c0-2.954-1.707-3.37-2.247-0.547c-0.318,1.665-0.025,2.488,0.886,2.488C282.321,281.565,282.933,280.691,282.933,279.623z
	 M287.889,375.082c3.049,1.886,6.051,3.44,6.669,3.455c0.619,0.015,1.406-1.38,1.75-3.099c1.425-7.123,0.665-10.831-4.229-20.643
	c-4.769-9.561-10.146-28.71-10.146-36.128c0-2.134-0.815-3.549-2.902-5.035l-2.903-2.066l-1.117,3.206
	c-0.614,1.763-2.031,4.179-3.148,5.368c-2.297,2.445-2.136,4.15,2.65,27.923C277.874,364.764,280.818,370.711,287.889,375.082z
	 M346.864,135.218c4.889-3.003,13.871-13.185,12.682-14.375c-0.211-0.211-3.36,1.022-6.998,2.741
	c-5.6,2.646-11.134,6.961-22.54,17.576C327.37,143.615,341.036,138.797,346.864,135.218z M268.778,363.99
	c4.092,2.616,5.162,2.464,5.143-0.735c-0.008-1.205-0.866-4.913-1.91-8.239c-1.604-5.115-3.646-16.248-5.749-31.347l-0.474-3.396
	l-1.846,3.036c-1.016,1.67-2.36,3.354-2.988,3.741c-1.554,0.961-0.423,14.442,2.165,25.808
	C264.973,361.002,265.391,361.826,268.778,363.99z M270.916,260.111c-0.728,1.915-0.569,3.154,0.64,5
	c2.112,3.224,2.959,3.096,4.263-0.645C277.784,258.825,273.015,254.589,270.916,260.111z M223.933,249.671
	c0,4.32,0.49,4.665,3.171,2.238c2.072-1.875,2.367-4.407,0.707-6.067C225.765,243.796,223.933,245.605,223.933,249.671z
	 M225.065,242.436c1.003-1.304,1.834-2.934,1.846-3.621c0.032-1.8-1.406-1.539-3.347,0.604c-1.013,1.12-1.41,2.556-1.001,3.622
	C223.176,244.639,223.415,244.581,225.065,242.436z M216.55,254.855c-1.526,1.116-1.595,1.663-0.51,4.046l1.255,2.756l2.489-2.489
	c2.092-2.092,2.283-2.736,1.196-4.046C219.411,253.23,218.822,253.195,216.55,254.855z M218.695,267.792
	c0.383,3.163,0.713,3.588,2.177,2.805c0.949-0.508,2.282-1.594,2.962-2.414c1.424-1.716-0.103-5.63-2.187-5.604
	C219.131,262.612,218.254,264.158,218.695,267.792z M231.52,234.844c0.742-0.979,1.35-2.68,1.348-3.779
	c-0.001-1.896-0.101-1.881-1.918,0.299c-1.054,1.264-1.66,2.965-1.348,3.779C230.081,236.39,230.383,236.342,231.52,234.844z
	 M231.409,242.453c0.822,3.746,1.032,3.792,3.072,0.678c1.279-1.95,1.363-2.865,0.426-4.616c-1.041-1.945-1.334-2.02-2.675-0.678
	C231.18,238.889,230.932,240.281,231.409,242.453z M56.643,67.287l3.856,7.139c3.788,7.013,5.088,7.976,8.828,6.541
	c1.408-0.541,1.408-0.887-0.009-3.627l-1.567-3.029l3.119,0.457c7.432,1.091-2.406-5.371-10.331-6.785L56.643,67.287z
	 M229.52,201.165c-2.152-0.291-4.389-1.003-4.969-1.583c-0.74-0.74-0.096-0.863,2.158-0.413c1.773,0.354,4.494,0.112,6.073-0.542
	l2.859-1.185l-1.604-4.561c-2.607-7.414-11.727-12.553-15.528-8.751c-1.937,1.938-2.909,1.465-1.979-0.961
	c0.921-2.399,6.205-4.872,8.943-4.185c1.279,0.32,2.611,1.482,2.96,2.581c0.893,2.811,2.499,2.487,2.499-0.502
	c0-1.617,0.562-2.5,1.588-2.5c1.299,0,1.476,0.774,0.969,4.25c-0.618,4.246-0.618,4.247,0.931,1.524
	c1.998-3.51,4.459-4.781,9.197-4.749c5.334,0.037,10.677,2.795,14.264,7.361c3.098,3.945,3.998,8.131,1.898,8.831
	c-0.791,0.263-0.605,1.219,0.586,3.039c0.957,1.46,1.461,3.106,1.119,3.658c-0.34,0.552-0.041,1.936,0.664,3.074
	c1.055,1.701,1.043,2.222-0.068,2.914c-1.039,0.646-1.098,1.32-0.25,2.903c1.311,2.45,1.481,10.193,0.225,10.193
	c-0.484,0-1.438,1.35-2.122,3c-1.269,3.062-2.928,4.001-3.09,1.75c-0.05-0.688-0.509,0.194-1.019,1.961
	c-0.647,2.239-1.379,3.039-2.414,2.642c-1.055-0.405-1.665,0.335-2.109,2.56c-0.981,4.904-1.955,4.475-3.387-1.494
	c-1.533-6.388-2.981-7.98-2.981-3.277c0,5.107-1.875,2.134-3.124-4.952c-0.598-3.397-1.43-5.965-1.849-5.706
	c-0.823,0.509-2.027-6.684-2.027-12.104C237.933,202.361,237.795,202.283,229.52,201.165z M239.933,186.13
	c0,3.839,1.78,6.435,4.413,6.435c2.984,0,3.968,1.319,5.587,7.5c0.721,2.75,2.218,7.475,3.327,10.5
	c1.945,5.304,2.044,5.399,2.777,2.682c0.469-1.738,0.236-4.3-0.606-6.688c-0.938-2.659-1.028-3.983-0.288-4.23
	c0.732-0.244,0.656-1.143-0.239-2.811c-0.724-1.349-1.443-3.577-1.599-4.952c-0.156-1.375-0.58-3.738-0.943-5.25
	c-0.521-2.169-0.308-2.75,1.014-2.75c0.922,0,1.385-0.473,1.027-1.049c-0.443-0.718-1.092-0.681-2.053,0.117
	c-1.082,0.898-2.184,0.796-4.812-0.452C242.383,182.736,239.933,183.041,239.933,186.13z M71.247,76.917
	c-1.065,1.065,3.019,7.544,8.778,13.925c6.07,6.726,11.701,10.758,19.36,13.864c5.007,2.03,5.604,0.848,2.573-5.094
	c-2.257-4.425-11.661-13.853-18.255-18.302C79.697,78.608,72.201,75.964,71.247,76.917z M60.118,80.533
	c0.377,0.018-0.861-3.314-2.75-7.403s-3.435-7.661-3.435-7.938s1.688-0.244,3.75,0.072l3.75,0.575l-8.601-8.888
	c-4.731-4.889-9.172-9.973-9.871-11.298c-1.152-2.188-1.36-2.249-2.245-0.668c-2.161,3.861,1.497,13.145,10.353,26.275
	C55.422,77.717,58.084,80.444,60.118,80.533z M218.96,248.499c1.534-3.704,0.723-4.674-2.476-2.963
	c-3.062,1.639-3.851,3.601-2.478,6.165C215.309,254.134,217.108,252.971,218.96,248.499z M114.211,118.129
	c6.255,7.736,18.646,15.384,24.998,15.43c1.889,0.014-2.738-6.245-8.413-11.381c-3.412-3.087-5.776-5.613-5.255-5.613
	c1.984,0,7.444,4.721,11.954,10.334c10.289,12.81,14.725,23.039,15.949,36.782c1.679,18.848,6.418,41.118,11.146,52.384
	c9.24,22.013,13.373,28.605,21.648,34.531c5.665,4.057,6.414,5.35,6.925,11.955c0.23,2.976,0.636,3.488,2.77,3.5
	c2.324,0.013,2.496,0.349,2.437,4.777c-0.043,3.219,0.265,4.435,0.95,3.75c1.541-1.54,4.614-1.211,4.614,0.494
	c0,1.264,0.334,1.305,2.056,0.25c1.74-1.064,2.208-0.989,3.05,0.492c1.59,2.8,2.866,2.069,5.064-2.9
	c3.972-8.979,0.029-14.538-16.289-22.966c-15.167-7.834-24.729-18.865-27.485-31.711c-1.631-7.599-1.771-24.069-0.289-34.034
	c2.018-13.566-1.889-27.01-11.467-39.457c-6.242-8.111-22.35-23.235-33.568-31.517c-5.264-3.886-12.45-9.788-15.967-13.115
	c-6.033-5.708-6.356-5.881-5.696-3.05C104.62,102.542,109.932,112.837,114.211,118.129z M208.138,251.754
	c2.907,2.236,2.795,2.264,2.795-0.689c0-1.758-0.544-2.5-1.833-2.5C206.091,248.565,205.696,249.874,208.138,251.754z
	 M369.433,143.065l-2.929-0.334c-1.626-0.186-4.517,0.545-6.5,1.642c-1.964,1.086-5.146,2.304-7.071,2.705
	c-5.026,1.05-11.203,4.39-10.708,5.791c0.232,0.657-0.353,2.321-1.3,3.696c-0.948,1.375-2.505,4.028-3.46,5.897l-1.736,3.396
	l3.624-0.588c1.993-0.323,6.426-2.271,9.852-4.33s9.379-6.923,13.229-10.81L369.433,143.065z M336.738,205.899
	c-0.167-0.81-1.5-2.194-2.961-3.078c-2.462-1.488-3.264-1.462-10.928,0.352c-8.295,1.963-11.737,4.386-6.249,4.398
	c2.797,0.007,2.773,0.058-1.929,4.088c-2.619,2.245-5.26,5.012-5.868,6.148c-1.082,2.022-0.951,2.055,5.98,1.474
	c3.896-0.327,9.013-1.447,11.367-2.488C330.893,214.695,337.213,208.192,336.738,205.899z M272.935,240.063
	c-1.271,0.786-1.259,1.694,0.068,5.187c0.919,2.416,1.203,2.578,2.005,1.145c0.589-1.051,0.563-2.65-0.068-4.311
	C274.389,240.632,273.487,239.723,272.935,240.063z M53.433,97.421c10.065,6.181,11.614,6.67,17.423,5.509l3.174-0.635l-3.299-3.115
	c-1.814-1.714-5.42-5.908-8.013-9.322c-2.593-3.413-6.19-6.969-7.993-7.901c-8.022-4.148-28.336-21.688-35.481-30.636
	c-4.822-6.038-9.458-9.756-12.167-9.756c-1.475,0,6.613,17.715,11.413,25C26.234,78.318,35.166,86.205,53.433,97.421z
	 M276.012,270.148c0.048,1.165,0.285,1.401,0.604,0.604c0.289-0.723,0.254-1.585-0.078-1.917S275.969,269.093,276.012,270.148z
	 M354.088,163.809c-1.291-0.225-4.523,0.528-7.186,1.674c-2.662,1.145-6.249,2.082-7.971,2.082c-4.402,0-6.928,1.559-6.314,3.898
	c0.278,1.067-0.654,3.899-2.091,6.352c-1.427,2.434-2.594,4.724-2.594,5.088c0,1.376,3.784,0.573,8.595-1.823
	c2.742-1.367,8.343-5.72,12.445-9.674C355.745,164.881,356.217,164.18,354.088,163.809z M344.031,184.262
	c-0.593-0.594-3.3-0.531-7.271,0.166c-3.48,0.611-7.969,1.354-9.977,1.65c-4.819,0.712-6.764,2.927-3.909,4.454
	c1.96,1.05,1.767,1.4-3.686,6.635l-5.756,5.526l3.918-0.642c2.155-0.353,6.43-1.58,9.5-2.727
	C333.121,196.983,345.711,185.943,344.031,184.262z M377.04,121.766c-0.527-0.175-2.678,0.558-4.781,1.629
	c-2.104,1.07-5.755,2.523-8.113,3.228c-5.806,1.734-14.664,9.698-18.141,16.308l-2.831,5.381l8.596-3.466
	c4.728-1.906,10.519-4.848,12.869-6.535C369.112,135.097,378.692,122.317,377.04,121.766z M244.933,188.565c0.55,0,1-0.45,1-1
	c0-0.551-0.45-1-1-1s-1,0.449-1,1C243.933,188.115,244.383,188.565,244.933,188.565z M270.245,239.898l1.845-2.277
	c1.015-1.253,1.844-3.058,1.844-4.012c0-2.188-3.521-5.458-4.937-4.583c-1.379,0.853-1.348,3.424,0.093,7.556L270.245,239.898z
	 M246.868,190.143c0.973-1.171,0.799-1.321-0.979-0.856c-1.29,0.338-2.515,0.004-3.042-0.829c-0.726-1.146-0.885-1.111-0.897,0.19
	C241.918,191.736,244.815,192.616,246.868,190.143z M251.758,194.698c0.189-1.301-0.145-2.853-0.74-3.449
	c-1.295-1.295-1.504,1.117-0.344,3.983C251.327,196.845,251.456,196.781,251.758,194.698z M260.342,229.019
	c-1.686,2.306-1.799,4.949-0.328,7.696c1.033,1.932,1.186,1.878,3.5-1.26c1.33-1.804,2.419-3.572,2.419-3.931
	c0-0.357-0.94-1.502-2.091-2.542C261.792,227.126,261.726,227.127,260.342,229.019z M263.917,239.083
	c-1.016,1.226-1.035,2.364-0.092,5.513c1.252,4.18,2.49,5.023,3.502,2.387C269.245,241.984,266.598,235.853,263.917,239.083z
	 M40.34,67.666c8.901,6.313,10.825,6.357,6.308,0.148c-4.911-6.75-6.4-10.018-7.654-16.793c-1.088-5.877-1.305-6.167-16.086-21.457
	c-2.495-2.581-4.979-5.186-7.398-7.838c-3.169-3.474-6.415-7.028-9.165-10.85C5.559,9.785,4.679,8.701,3.99,7.545
	c-0.295-0.494-0.499-1.02-0.682-1.563C3.106,5.386,2.461,3.943,2.381,3.969C1.825,4.155,2.203,9.26,2.264,9.87
	C2.96,16.939,4.717,24.67,7.876,31.065C13.128,41.696,29.081,59.683,40.34,67.666z"/>
</svg>
