<?xml version="1.0" encoding="UTF-8" standalone="no"?>
<svg
   xmlns:dc="http://purl.org/dc/elements/1.1/"
   xmlns:cc="http://creativecommons.org/ns#"
   xmlns:rdf="http://www.w3.org/1999/02/22-rdf-syntax-ns#"
   xmlns:svg="http://www.w3.org/2000/svg"
   xmlns="http://www.w3.org/2000/svg"
   viewBox="0 0 1706.6667 345.75867"
   height="345.75867"
   width="1706.6667"
   xml:space="preserve"
   id="svg2"
   version="1.1"><metadata
     id="metadata8"><rdf:RDF><cc:Work
         rdf:about=""><dc:format>image/svg+xml</dc:format><dc:type
           rdf:resource="http://purl.org/dc/dcmitype/StillImage" /></cc:Work></rdf:RDF></metadata><defs
     id="defs6"><clipPath
       id="clipPath18"
       clipPathUnits="userSpaceOnUse"><path
         id="path16"
         d="M 0,259.319 H 1280 V 0 H 0 Z" /></clipPath></defs><g
     transform="matrix(1.3333333,0,0,-1.3333333,0,345.75867)"
     id="g10"><g
       id="g12"><g
         clip-path="url(#clipPath18)"
         id="g14"><g
           transform="translate(1259.8953,40.853)"
           id="g20"><path
             id="path22"
             style="fill:#2760ad;fill-opacity:1;fill-rule:nonzero;stroke:none"
             d="m 0,0 v 0 c -1.78,-1.852 -4.421,-2.774 -7.937,-2.774 h -12.028 v 19.286 h 12.028 c 1.851,0 3.441,-0.257 4.769,-0.781 1.325,-0.527 2.433,-1.209 3.308,-2.063 C 1.018,12.813 1.661,11.816 2.06,10.676 2.465,9.536 2.67,8.351 2.67,7.115 2.67,4.222 1.783,1.852 0,0 m 18.613,15.981 v 0 c -0.997,2.775 -2.611,5.219 -4.843,7.328 -2.228,2.113 -5.133,3.798 -8.718,5.051 -3.584,1.26 -7.937,1.888 -13.058,1.888 H -19.965 V 56.87 h -18.649 v -73.382 h 30.751 c 4.409,0 8.351,0.581 11.816,1.742 3.457,1.165 6.393,2.787 8.786,4.879 2.397,2.084 4.222,4.574 5.482,7.467 1.258,2.898 1.883,6.104 1.883,9.613 0,3.082 -0.494,6.018 -1.491,8.792 m -135.941,26.583 v 0 h 25.336 v -59.076 h 19.643 V 42.564 H -47.01 V 56.87 h -70.318 z M -128.576,3.486 v 0 c -0.81,0 -1.533,-0.155 -2.17,-0.462 -0.647,-0.306 -1.283,-0.699 -1.927,-1.172 -0.637,-0.474 -1.315,-0.998 -2.027,-1.569 -0.714,-0.569 -1.551,-1.087 -2.525,-1.566 -0.973,-0.474 -2.113,-0.866 -3.418,-1.173 -1.306,-0.307 -2.86,-0.462 -4.662,-0.462 -5.218,0 -9.336,1.995 -12.346,5.976 -3.013,3.989 -4.523,9.732 -4.523,17.228 0,3.558 0.346,6.759 1.036,9.608 0.686,2.849 1.745,5.263 3.162,7.258 1.426,1.994 3.219,3.528 5.38,4.594 2.153,1.063 4.704,1.599 7.652,1.599 2.319,0 4.266,-0.274 5.832,-0.819 1.569,-0.542 2.918,-1.134 4.058,-1.777 1.14,-0.641 2.147,-1.239 3.025,-1.777 0.878,-0.548 1.789,-0.823 2.742,-0.823 1.042,0 1.851,0.2 2.42,0.605 0.569,0.405 1.135,0.985 1.703,1.742 l 5.13,6.982 c -3.373,3.411 -7.169,6.022 -11.391,7.826 -4.221,1.801 -9.134,2.701 -14.734,2.701 -5.886,0 -11.064,-0.956 -15.547,-2.877 -4.483,-1.926 -8.25,-4.569 -11.283,-7.937 -3.04,-3.373 -5.338,-7.356 -6.905,-11.959 -1.566,-4.603 -2.345,-9.584 -2.345,-14.946 0,-6.025 0.886,-11.388 2.664,-16.088 1.777,-4.695 4.189,-8.661 7.225,-11.885 3.038,-3.224 6.569,-5.68 10.602,-7.366 4.034,-1.681 8.307,-2.524 12.814,-2.524 2.564,0 5.145,0.176 7.762,0.529 2.608,0.358 5.177,0.998 7.72,1.927 2.533,0.923 4.989,2.183 7.365,3.772 2.37,1.589 4.603,3.593 6.69,6.011 l -5.624,7.121 c -0.854,1.135 -2.04,1.703 -3.555,1.703 m -66.656,82.703 v 0 c -1.117,1.096 -2.42,1.951 -3.912,2.567 -1.501,0.613 -3.099,0.926 -4.805,0.926 -1.616,0 -3.144,-0.313 -4.591,-0.926 -1.447,-0.616 -2.718,-1.471 -3.811,-2.567 -1.089,-1.086 -1.956,-2.358 -2.599,-3.804 -0.637,-1.447 -0.958,-3.004 -0.958,-4.659 0,-1.665 0.321,-3.205 0.958,-4.627 0.643,-1.426 1.51,-2.686 2.599,-3.773 1.093,-1.095 2.364,-1.949 3.811,-2.562 1.447,-0.617 2.975,-0.923 4.591,-0.923 1.706,0 3.304,0.306 4.805,0.923 1.492,0.613 2.795,1.467 3.912,2.562 1.114,1.087 2.006,2.347 2.668,3.773 0.667,1.422 0.997,2.962 0.997,4.627 0,1.655 -0.33,3.212 -0.997,4.659 -0.662,1.446 -1.554,2.718 -2.668,3.804 M -213.56,-16.512 v 0 h 19.644 V 56.87 h -19.644 z m -35.16,46.12 v 0 h -25.905 V 56.87 h -19.646 v -73.382 h 19.646 v 31.815 h 25.905 v -31.815 h 19.578 V 56.87 h -19.578 z m -78.214,-19.569 v 0 c -0.761,-2.992 -1.839,-5.448 -3.242,-7.368 -1.402,-1.927 -3.069,-3.338 -5.019,-4.24 -1.942,-0.899 -4.103,-1.349 -6.473,-1.349 -2.471,0 -4.784,0.426 -6.939,1.283 -2.159,0.855 -4.165,2.347 -6.018,4.484 v 32.166 c 2.088,2.611 4.309,4.593 6.657,5.948 2.347,1.351 5.252,2.03 8.718,2.03 2.039,0 3.891,-0.392 5.552,-1.181 1.658,-0.781 3.073,-2.048 4.233,-3.805 1.165,-1.754 2.064,-4.055 2.707,-6.904 0.64,-2.843 0.958,-6.309 0.958,-10.394 0,-4.123 -0.375,-7.687 -1.134,-10.67 m 13.805,38.394 v 0 c -2.375,3.203 -5.207,5.647 -8.506,7.333 -3.298,1.681 -6.919,2.524 -10.854,2.524 -2.564,0 -4.933,-0.273 -7.115,-0.815 -2.183,-0.545 -4.222,-1.304 -6.119,-2.278 -1.905,-0.973 -3.682,-2.137 -5.34,-3.486 -1.663,-1.352 -3.231,-2.838 -4.699,-4.451 l -1.494,6.192 c -0.81,2.28 -2.444,3.418 -4.91,3.418 h -12.102 v -97.083 h 19.643 v 29.251 c 2.183,-2.039 4.663,-3.653 7.438,-4.838 2.78,-1.185 6.157,-1.777 10.146,-1.777 4.739,0 9.048,0.955 12.915,2.882 3.87,1.92 7.181,4.588 9.932,8.006 2.751,3.417 4.871,7.458 6.371,12.134 1.491,4.674 2.239,9.759 2.239,15.264 0,5.981 -0.667,11.293 -1.995,15.949 -1.328,4.648 -3.18,8.574 -5.55,11.775 M -407.514,2.774 v 0 c -2.37,-2.467 -4.757,-4.278 -7.148,-5.442 -2.4,-1.161 -5.232,-1.741 -8.509,-1.741 -2.847,0 -5.064,0.593 -6.654,1.777 -1.59,1.185 -2.382,3.2 -2.382,6.05 0,1.423 0.387,2.739 1.176,3.947 0.78,1.215 2.108,2.29 3.98,3.242 1.876,0.948 4.406,1.715 7.583,2.314 3.18,0.593 7.163,1.003 11.954,1.241 z m 11.709,47.442 v 0 c -2.393,2.537 -5.311,4.519 -8.75,5.942 -3.441,1.427 -7.344,2.132 -11.709,2.132 -6.074,0 -11.721,-0.958 -16.94,-2.876 -5.22,-1.926 -9.985,-4.832 -14.306,-8.723 l 3.487,-6.264 c 0.616,-0.949 1.39,-1.765 2.313,-2.453 0.923,-0.691 2.075,-1.034 3.453,-1.034 1.567,0 2.939,0.32 4.127,0.959 1.185,0.644 2.453,1.329 3.811,2.067 1.348,0.735 2.926,1.426 4.727,2.063 1.808,0.64 4.064,0.964 6.765,0.964 3.649,0 6.454,-1.083 8.398,-3.242 1.948,-2.161 2.915,-5.537 2.915,-10.143 v -3.772 c -8.396,-0.188 -15.383,-1.006 -20.954,-2.453 -5.579,-1.447 -10.039,-3.279 -13.385,-5.482 -3.343,-2.206 -5.708,-4.662 -7.08,-7.368 -1.379,-2.706 -2.063,-5.406 -2.063,-8.113 0,-3.274 0.518,-6.168 1.566,-8.681 1.042,-2.519 2.525,-4.618 4.445,-6.302 1.926,-1.683 4.21,-2.952 6.872,-3.805 2.655,-0.855 5.593,-1.283 8.824,-1.283 2.61,0 4.969,0.216 7.082,0.642 2.108,0.429 4.091,1.054 5.943,1.888 1.852,0.824 3.641,1.857 5.373,3.093 1.731,1.23 3.52,2.656 5.371,4.272 l 1.567,-4.701 c 0.616,-1.661 1.414,-2.75 2.388,-3.274 0.969,-0.519 2.381,-0.781 4.233,-0.781 h 8.967 v 46.12 c 0,4.177 -0.643,8.018 -1.92,11.534 -1.28,3.509 -3.12,6.535 -5.52,9.074 m -91.563,-52.99 v 0 h -26.333 c 1.184,2.039 2.313,4.447 3.382,7.222 1.065,2.775 2.051,6.002 2.953,9.682 0.899,3.674 1.685,7.839 2.346,12.489 0.666,4.648 1.214,9.821 1.64,15.52 h 16.012 z m 19.006,59.644 v 0 h -51.032 c -0.473,-9.161 -1.104,-16.987 -1.887,-23.49 -0.786,-6.499 -1.698,-11.959 -2.74,-16.368 -1.041,-4.415 -2.194,-7.938 -3.453,-10.57 -1.259,-2.631 -2.596,-4.626 -4.022,-5.981 -1.423,-1.352 -2.918,-2.227 -4.483,-2.632 -1.567,-0.404 -3.157,-0.603 -4.77,-0.603 h -1.92 v -38.079 h 12.388 c 1.896,0 3.268,0.56 4.123,1.67 0.854,1.117 1.283,2.364 1.283,3.74 v 18.931 h 52.173 v -24.341 h 12.31 c 1.614,0 2.942,0.509 3.99,1.527 1.042,1.021 1.559,2.412 1.559,4.166 v 32.954 h -13.519 z m -102.492,-73.382 v 0 h 19.646 V 56.87 h -19.646 z m 18.331,102.701 v 0 c -1.118,1.096 -2.424,1.951 -3.915,2.567 -1.499,0.613 -3.1,0.926 -4.803,0.926 -1.619,0 -3.147,-0.313 -4.594,-0.926 -1.446,-0.616 -2.718,-1.471 -3.811,-2.567 -1.089,-1.086 -1.956,-2.358 -2.599,-3.804 -0.637,-1.447 -0.955,-3.004 -0.955,-4.659 0,-1.665 0.318,-3.205 0.955,-4.627 0.643,-1.426 1.51,-2.686 2.599,-3.773 1.093,-1.095 2.365,-1.949 3.811,-2.562 1.447,-0.617 2.975,-0.923 4.594,-0.923 1.703,0 3.304,0.306 4.803,0.923 1.491,0.613 2.797,1.467 3.915,2.562 1.11,1.087 2.002,2.347 2.664,3.773 0.667,1.422 0.997,2.962 0.997,4.627 0,1.655 -0.33,3.212 -0.997,4.659 -0.662,1.446 -1.554,2.718 -2.664,3.804 m -87.441,-52.523 v 0 c -0.804,-6.455 -1.756,-11.885 -2.843,-16.3 -1.096,-4.409 -2.28,-7.949 -3.561,-10.605 -1.283,-2.658 -2.644,-4.698 -4.09,-6.118 -1.447,-1.423 -2.936,-2.364 -4.451,-2.814 -1.522,-0.452 -3.037,-0.673 -4.558,-0.673 h -4.409 v -11.959 c 0,-0.899 0.637,-1.59 1.92,-2.063 1.283,-0.479 3.397,-0.711 6.335,-0.711 2.513,0 5.008,0.232 7.476,0.711 2.465,0.473 4.859,1.432 7.184,2.879 2.325,1.447 4.513,3.513 6.553,6.193 2.039,2.682 3.891,6.237 5.549,10.676 1.664,4.439 3.082,9.857 4.273,16.267 1.184,6.404 2.084,14.068 2.7,22.99 h 15.874 v -58.651 h 19.644 V 56.87 h -51.67 c -0.479,-9.017 -1.116,-16.75 -1.926,-23.204 M -689.79,2.956 v 0 c -2.7,-3.867 -6.854,-5.8 -12.454,-5.8 -5.742,0 -9.964,1.933 -12.671,5.8 -2.7,3.861 -4.057,9.616 -4.057,17.259 0,7.589 1.357,13.32 4.057,17.187 2.707,3.87 6.929,5.8 12.671,5.8 5.6,0 9.754,-1.93 12.454,-5.8 2.707,-3.867 4.058,-9.598 4.058,-17.187 0,-7.643 -1.351,-13.398 -4.058,-17.259 m 14.165,44.908 v 0 c -3.224,3.254 -7.094,5.755 -11.599,7.509 -4.507,1.756 -9.515,2.632 -15.02,2.632 -5.549,0 -10.589,-0.876 -15.127,-2.632 -4.528,-1.754 -8.407,-4.255 -11.634,-7.509 -3.231,-3.248 -5.731,-7.202 -7.509,-11.852 -1.778,-4.648 -2.665,-9.89 -2.665,-15.726 0,-5.838 0.887,-11.093 2.665,-15.769 1.778,-4.672 4.278,-8.643 7.509,-11.918 3.227,-3.279 7.106,-5.788 11.634,-7.544 4.538,-1.754 9.578,-2.632 15.127,-2.632 5.505,0 10.513,0.878 15.02,2.632 4.505,1.756 8.375,4.265 11.599,7.544 3.225,3.275 5.72,7.246 7.476,11.918 1.753,4.676 2.632,9.931 2.632,15.769 0,5.836 -0.879,11.078 -2.632,15.726 -1.756,4.65 -4.251,8.604 -7.476,11.852 m -77.65,-38.966 v 0 c -0.662,0 -1.284,-0.142 -1.852,-0.428 -0.563,-0.282 -1.111,-0.643 -1.635,-1.069 -1.521,-1.376 -3.025,-2.512 -4.519,-3.415 -1.491,-0.905 -3.087,-1.64 -4.77,-2.203 -1.684,-0.571 -3.512,-0.973 -5.481,-1.215 -1.97,-0.238 -4.162,-0.354 -6.585,-0.354 -4.079,0 -7.907,0.771 -11.492,2.313 -3.581,1.539 -6.717,3.808 -9.393,6.8 -2.685,2.984 -4.793,6.654 -6.338,10.995 -1.543,4.341 -2.311,9.286 -2.311,14.835 0,5.505 0.712,10.417 2.135,14.735 1.426,4.32 3.424,7.961 6.011,10.929 2.587,2.962 5.686,5.228 9.292,6.797 3.608,1.566 7.567,2.346 11.884,2.346 3.892,0 7.107,-0.405 9.647,-1.209 2.536,-0.807 4.65,-1.709 6.329,-2.706 1.688,-0.994 3.111,-1.897 4.275,-2.706 1.161,-0.801 2.314,-1.206 3.451,-1.206 1.14,0 2.043,0.238 2.706,0.712 0.661,0.472 1.209,1.017 1.638,1.633 l 7.19,9.823 c -1.995,1.994 -4.24,3.834 -6.729,5.516 -2.492,1.685 -5.207,3.123 -8.149,4.308 -2.944,1.185 -6.112,2.114 -9.503,2.775 -3.391,0.664 -6.984,0.994 -10.786,0.994 -5.076,0 -9.854,-0.581 -14.338,-1.742 -4.486,-1.164 -8.622,-2.848 -12.421,-5.054 -3.796,-2.204 -7.202,-4.872 -10.211,-8.003 -3.014,-3.135 -5.589,-6.645 -7.727,-10.536 -2.134,-3.892 -3.76,-8.146 -4.87,-12.773 -1.116,-4.626 -1.676,-9.503 -1.676,-14.633 0,-7.639 1.164,-14.679 3.489,-21.137 2.322,-6.449 5.645,-12.025 9.965,-16.72 4.317,-4.701 9.559,-8.366 15.728,-11.004 6.166,-2.632 13.124,-3.947 20.855,-3.947 8.539,0 15.907,1.378 22.1,4.131 6.192,2.751 11.379,6.786 15.553,12.094 l -8.47,9.041 c -0.81,0.855 -1.807,1.283 -2.992,1.283 M -24.279,124.05 v 0 c 0.78,1.215 2.108,2.29 3.983,3.242 1.876,0.947 4.403,1.715 7.583,2.314 3.18,0.592 7.163,1.003 11.953,1.241 v -11.388 c -2.369,-2.468 -4.757,-4.281 -7.15,-5.442 -2.398,-1.161 -5.229,-1.745 -8.506,-1.745 -2.85,0 -5.064,0.593 -6.654,1.778 -1.59,1.185 -2.382,3.203 -2.382,6.053 0,1.423 0.387,2.738 1.173,3.947 m -7.079,-23.737 v 0 c 2.652,-0.854 5.593,-1.28 8.824,-1.28 2.607,0 4.969,0.217 7.082,0.643 2.108,0.429 4.091,1.054 5.943,1.887 1.852,0.825 3.638,1.855 5.37,3.094 1.733,1.23 3.523,2.656 5.374,4.272 l 1.567,-4.701 c 0.616,-1.664 1.414,-2.751 2.387,-3.275 0.967,-0.518 2.382,-0.78 4.234,-0.78 h 8.967 v 46.12 c 0,4.177 -0.643,8.018 -1.92,11.531 -1.281,3.509 -3.123,6.534 -5.52,9.071 -2.393,2.542 -5.311,4.525 -8.753,5.942 -3.441,1.427 -7.344,2.138 -11.706,2.138 -6.074,0 -11.721,-0.958 -16.94,-2.885 -5.22,-1.92 -9.989,-4.826 -14.306,-8.717 l 3.486,-6.261 c 0.617,-0.95 1.391,-1.766 2.314,-2.456 0.923,-0.688 2.075,-1.031 3.453,-1.031 1.566,0 2.939,0.319 4.124,0.959 1.185,0.644 2.456,1.325 3.811,2.066 1.351,0.736 2.929,1.427 4.73,2.063 1.805,0.638 4.062,0.962 6.762,0.962 3.652,0 6.457,-1.08 8.398,-3.239 1.95,-2.162 2.917,-5.54 2.917,-10.143 v -3.772 c -8.398,-0.188 -15.383,-1.006 -20.956,-2.457 -5.576,-1.446 -10.039,-3.274 -13.383,-5.481 -3.342,-2.203 -5.707,-4.659 -7.082,-7.365 -1.379,-2.706 -2.06,-5.406 -2.06,-8.113 0,-3.275 0.518,-6.171 1.566,-8.684 1.042,-2.516 2.525,-4.615 4.445,-6.3 1.923,-1.682 4.209,-2.951 6.872,-3.808 m -66.976,30.963 v 0 h 6.118 c 1.853,0 3.517,-0.417 4.987,-1.245 1.468,-0.83 2.608,-2.101 3.413,-3.81 l 9.395,-19.429 c 0.667,-1.093 1.379,-2.04 2.135,-2.847 0.759,-0.809 1.646,-1.494 2.674,-2.063 1.017,-0.571 2.181,-0.997 3.486,-1.283 1.304,-0.286 2.807,-0.426 4.519,-0.426 h 13.525 l -16.3,30.248 c -1.184,2.18 -2.543,3.987 -4.057,5.413 -1.522,1.423 -3.487,2.51 -5.908,3.269 1.754,0.667 3.245,1.578 4.484,2.742 1.23,1.161 2.444,2.739 3.63,4.734 l 16.368,26.97 h -15.514 c -1.808,0 -3.522,-0.473 -5.163,-1.423 -1.634,-0.947 -2.929,-2.159 -3.879,-3.629 l -11.242,-20.284 c -0.81,-1.515 -1.772,-2.62 -2.882,-3.311 -1.119,-0.681 -2.673,-1.029 -4.668,-1.029 h -5.121 v 29.676 h -19.646 v -73.376 h 19.646 z m -70.393,-17.366 v 0 19.283 h 12.029 c 1.851,0 3.441,-0.256 4.769,-0.78 1.325,-0.524 2.433,-1.205 3.308,-2.06 0.878,-0.857 1.521,-1.852 1.92,-2.992 0.405,-1.14 0.61,-2.325 0.61,-3.561 0,-2.894 -0.887,-5.263 -2.67,-7.115 -1.78,-1.852 -4.422,-2.775 -7.937,-2.775 z m 23.919,-11.995 v 0 c 3.457,1.164 6.393,2.787 8.787,4.877 2.396,2.086 4.221,4.576 5.48,7.469 1.26,2.894 1.885,6.104 1.885,9.614 0,3.081 -0.494,6.017 -1.491,8.791 -0.999,2.772 -2.612,5.216 -4.844,7.327 -2.228,2.114 -5.133,3.799 -8.718,5.052 -3.584,1.26 -7.937,1.885 -13.058,1.885 h -11.96 v 26.619 h -18.648 v -73.376 h 30.751 c 4.409,0 8.352,0.581 11.816,1.742 m -59.147,3.418 v 0 c 2.373,1.589 4.605,3.596 6.689,6.011 l -5.624,7.124 c -0.854,1.131 -2.039,1.703 -3.554,1.703 -0.81,0 -1.534,-0.155 -2.17,-0.462 -0.644,-0.309 -1.283,-0.702 -1.927,-1.172 -0.637,-0.474 -1.315,-0.998 -2.027,-1.569 -0.711,-0.569 -1.551,-1.087 -2.525,-1.567 -0.973,-0.473 -2.114,-0.866 -3.418,-1.172 -1.303,-0.31 -2.861,-0.462 -4.659,-0.462 -5.219,0 -9.34,1.995 -12.35,5.975 -3.012,3.99 -4.522,9.733 -4.522,17.229 0,3.555 0.349,6.758 1.036,9.608 0.685,2.849 1.745,5.263 3.162,7.258 1.426,1.995 3.222,3.525 5.38,4.591 2.152,1.066 4.707,1.601 7.652,1.601 2.319,0 4.266,-0.273 5.834,-0.818 1.567,-0.542 2.918,-1.134 4.055,-1.78 1.141,-0.638 2.15,-1.236 3.026,-1.778 0.877,-0.545 1.789,-0.819 2.742,-0.819 1.042,0 1.851,0.2 2.42,0.605 0.572,0.402 1.134,0.985 1.703,1.741 l 5.13,6.982 c -3.373,3.412 -7.169,6.02 -11.391,7.827 -4.222,1.801 -9.131,2.7 -14.734,2.7 -5.883,0 -11.064,-0.956 -15.547,-2.882 -4.484,-1.92 -8.25,-4.564 -11.28,-7.931 -3.043,-3.373 -5.338,-7.356 -6.908,-11.959 -1.566,-4.603 -2.345,-9.584 -2.345,-14.946 0,-6.026 0.886,-11.388 2.667,-16.089 1.777,-4.694 4.186,-8.66 7.222,-11.884 3.037,-3.225 6.571,-5.681 10.605,-7.366 4.031,-1.682 8.306,-2.525 12.811,-2.525 2.567,0 5.148,0.176 7.761,0.53 2.608,0.358 5.181,0.998 7.721,1.926 2.536,0.923 4.989,2.183 7.365,3.77 m -88.077,38.932 v 0 c -0.119,-1.402 -0.176,-2.643 -0.176,-3.739 v -40.353 h 19.646 v 73.376 h -11.959 c -1.515,0 -2.884,-0.506 -4.09,-1.528 -1.215,-1.018 -2.174,-2.101 -2.885,-3.238 -4.79,-6.878 -9.063,-13.02 -12.814,-18.432 -1.611,-2.326 -3.189,-4.606 -4.728,-6.833 -1.545,-2.233 -2.936,-4.233 -4.165,-6.017 -1.235,-1.777 -2.244,-3.236 -3.025,-4.373 -0.786,-1.141 -1.203,-1.757 -1.248,-1.852 -0.571,-0.81 -1.139,-1.733 -1.709,-2.775 -0.571,-1.045 -1.133,-2.182 -1.705,-3.42 0.235,1.378 0.429,2.78 0.572,4.2 0.142,1.423 0.211,2.706 0.211,3.847 v 40.352 h -19.647 v -73.375 h 12.028 c 0.759,0 1.471,0.137 2.138,0.419 0.667,0.287 1.292,0.667 1.885,1.141 0.592,0.473 1.14,0.985 1.634,1.533 0.504,0.548 0.941,1.105 1.322,1.67 4.739,6.881 8.991,13.028 12.739,18.435 1.613,2.325 3.192,4.606 4.731,6.833 1.543,2.233 2.932,4.239 4.165,6.016 1.236,1.778 2.233,3.237 2.989,4.374 0.76,1.141 1.186,1.757 1.283,1.852 1.141,1.658 2.251,3.677 3.344,6.052 -0.238,-1.378 -0.414,-2.763 -0.536,-4.165 m -30.567,42.166 v 0 c 2.138,-1.372 4.683,-2.426 7.652,-3.161 2.965,-0.742 6.252,-1.105 9.857,-1.105 3.609,0 6.895,0.363 9.858,1.105 2.961,0.735 5.513,1.789 7.651,3.161 2.138,1.379 3.784,3.049 4.945,5.02 1.161,1.971 1.744,4.189 1.744,6.654 0,1.283 -0.318,2.492 -0.959,3.629 -0.642,1.14 -1.652,1.712 -3.024,1.712 h -11.605 c 0,-2.138 -0.131,-3.903 -0.387,-5.305 -0.262,-1.397 -0.715,-2.525 -1.358,-3.38 -0.637,-0.854 -1.515,-1.458 -2.631,-1.813 -1.117,-0.357 -2.525,-0.532 -4.234,-0.532 -1.709,0 -3.123,0.175 -4.233,0.532 -1.117,0.355 -1.995,0.959 -2.638,1.813 -0.638,0.855 -1.087,1.983 -1.35,3.38 -0.261,1.402 -0.392,3.167 -0.392,5.305 h -11.603 c -1.378,0 -2.381,-0.572 -3.024,-1.712 -0.637,-1.137 -0.962,-2.346 -0.962,-3.629 0,-2.465 0.581,-4.683 1.748,-6.654 1.164,-1.971 2.811,-3.641 4.945,-5.02 m -72.316,-29.534 v 0 c 2.659,2.659 6.336,3.987 11.034,3.987 2.513,0 4.674,-0.417 6.472,-1.247 1.807,-0.825 3.299,-1.953 4.487,-3.38 1.188,-1.423 2.054,-3.057 2.596,-4.909 0.548,-1.851 0.821,-3.796 0.821,-5.835 h -30.608 c 0.81,4.933 2.543,8.729 5.198,11.384 m 35.519,-51.564 v 0 c 2.512,1.589 4.813,3.596 6.903,6.011 l -5.698,7.124 c -0.855,1.131 -2.039,1.703 -3.555,1.703 -1.185,0 -2.388,-0.318 -3.594,-0.959 -1.208,-0.643 -2.565,-1.354 -4.057,-2.134 -1.492,-0.783 -3.231,-1.495 -5.196,-2.138 -1.97,-0.637 -4.307,-0.959 -7.013,-0.959 -5.312,0 -9.617,1.584 -12.915,4.764 -3.299,3.179 -5.255,8.211 -5.875,15.094 h 43.988 c 0.902,0 1.637,0.107 2.206,0.319 0.569,0.217 1.021,0.604 1.352,1.173 0.33,0.571 0.569,1.328 0.711,2.28 0.143,0.944 0.215,2.159 0.215,3.63 0,5.314 -0.795,10.045 -2.385,14.198 -1.589,4.153 -3.82,7.651 -6.69,10.5 -2.873,2.844 -6.29,5.014 -10.25,6.511 -3.96,1.492 -8.288,2.239 -12.989,2.239 -5.55,0 -10.536,-0.956 -14.946,-2.882 -4.416,-1.92 -8.164,-4.519 -11.245,-7.788 -3.085,-3.278 -5.448,-7.122 -7.083,-11.534 -1.634,-4.415 -2.456,-9.11 -2.456,-14.094 0,-6.451 0.953,-12.126 2.85,-17.008 1.896,-4.889 4.495,-8.98 7.794,-12.278 3.293,-3.299 7.16,-5.788 11.598,-7.473 4.44,-1.682 9.221,-2.525 14.342,-2.525 2.564,0 5.219,0.176 7.97,0.53 2.754,0.358 5.48,0.998 8.187,1.926 2.706,0.923 5.311,2.183 7.831,3.77 m -72.951,-5.16 v 0 73.376 h -65.129 v -73.376 h 19.644 v 59.077 h 25.907 v -59.077 z m -114.24,13.669 v 0 c -5.743,0 -9.965,1.929 -12.671,5.799 -2.704,3.861 -4.058,9.616 -4.058,17.256 0,7.589 1.354,13.323 4.058,17.19 2.706,3.868 6.928,5.8 12.671,5.8 5.6,0 9.753,-1.932 12.453,-5.8 2.706,-3.867 4.058,-9.601 4.058,-17.19 0,-7.64 -1.352,-13.395 -4.058,-17.256 -2.7,-3.87 -6.853,-5.799 -12.453,-5.799 m 26.618,-4.558 v 0 c 3.225,3.275 5.72,7.246 7.474,11.917 1.756,4.677 2.631,9.932 2.631,15.77 0,5.836 -0.875,11.078 -2.631,15.726 -1.754,4.65 -4.249,8.604 -7.474,11.858 -3.226,3.239 -7.094,5.746 -11.601,7.503 -4.508,1.753 -9.516,2.631 -15.017,2.631 -5.55,0 -10.593,-0.878 -15.128,-2.631 -4.531,-1.757 -8.41,-4.264 -11.635,-7.503 -3.229,-3.254 -5.73,-7.208 -7.507,-11.858 -1.778,-4.648 -2.668,-9.89 -2.668,-15.726 0,-5.838 0.89,-11.093 2.668,-15.77 1.777,-4.671 4.278,-8.642 7.507,-11.917 3.225,-3.279 7.104,-5.791 11.635,-7.545 4.535,-1.756 9.578,-2.632 15.128,-2.632 5.501,0 10.509,0.876 15.017,2.632 4.507,1.754 8.375,4.266 11.601,7.545 m -121.352,42.415 v 0 c 2.087,2.612 4.308,4.594 6.656,5.949 2.347,1.352 5.252,2.027 8.718,2.027 2.039,0 3.891,-0.393 5.552,-1.179 1.659,-0.78 3.073,-2.051 4.234,-3.805 1.164,-1.753 2.063,-4.058 2.706,-6.903 0.641,-2.844 0.959,-6.309 0.959,-10.394 0,-4.126 -0.375,-7.687 -1.135,-10.67 -0.762,-2.992 -1.84,-5.449 -3.242,-7.369 -1.402,-1.926 -3.069,-3.337 -5.019,-4.239 -1.941,-0.899 -4.103,-1.349 -6.473,-1.349 -2.471,0 -4.784,0.426 -6.94,1.28 -2.158,0.855 -4.165,2.349 -6.016,4.484 z m 0,-45.976 v 0 c 2.182,-2.043 4.662,-3.653 7.437,-4.838 2.78,-1.185 6.159,-1.778 10.146,-1.778 4.74,0 9.048,0.956 12.918,2.882 3.867,1.921 7.177,4.588 9.928,8.006 2.751,3.418 4.871,7.458 6.371,12.135 1.493,4.671 2.24,9.759 2.24,15.264 0,5.981 -0.667,11.293 -1.995,15.946 -1.328,4.65 -3.18,8.577 -5.549,11.784 -2.376,3.197 -5.207,5.641 -8.506,7.326 -3.299,1.682 -6.916,2.525 -10.855,2.525 -2.564,0 -4.933,-0.274 -7.115,-0.816 -2.183,-0.548 -4.222,-1.31 -6.118,-2.277 -1.906,-0.977 -3.684,-2.138 -5.342,-3.489 -1.661,-1.355 -3.23,-2.838 -4.697,-4.449 l -1.495,6.193 c -0.807,2.275 -2.444,3.412 -4.91,3.412 h -12.102 V 76.472 h 19.644 z m -72.882,7.615 v 0 17.938 h 12.102 c 2.183,0 3.96,-0.223 5.338,-0.679 1.373,-0.45 2.457,-1.066 3.237,-1.846 0.786,-0.786 1.316,-1.709 1.602,-2.78 0.285,-1.066 0.425,-2.195 0.425,-3.38 0,-2.849 -0.956,-5.099 -2.882,-6.761 -1.92,-1.658 -4.519,-2.492 -7.794,-2.492 z m 0,47.689 v 0 h 10.536 c 1.992,0 3.663,-0.238 5.02,-0.712 1.349,-0.473 2.444,-1.104 3.269,-1.887 0.834,-0.78 1.414,-1.661 1.744,-2.632 0.337,-0.974 0.501,-1.983 0.501,-3.025 0,-2.849 -0.974,-5.162 -2.918,-6.939 -1.947,-1.778 -4.484,-2.671 -7.616,-2.671 h -10.536 z m 22.883,-59.606 v 0 c 3.442,0.825 6.487,2.12 9.149,3.873 2.655,1.753 4.781,4.01 6.371,6.764 1.59,2.751 2.382,6.026 2.382,9.822 0,2.325 -0.405,4.427 -1.209,6.3 -0.81,1.875 -1.92,3.498 -3.344,4.873 -1.425,1.379 -3.123,2.54 -5.088,3.492 -1.974,0.944 -4.12,1.68 -6.445,2.204 2.706,0.714 4.933,1.709 6.69,2.992 1.753,1.277 3.144,2.679 4.165,4.197 1.018,1.519 1.732,3.129 2.134,4.838 0.399,1.709 0.605,3.347 0.605,4.913 0,2.563 -0.536,4.933 -1.599,7.115 -1.066,2.183 -2.718,4.067 -4.948,5.657 -2.233,1.59 -5.052,2.837 -8.47,3.739 -3.418,0.9 -7.476,1.349 -12.171,1.349 h -29.751 v -73.376 h 30.817 c 3.703,0 7.27,0.414 10.712,1.248 m -61.955,24.162 c -0.662,0 -1.284,-0.143 -1.852,-0.428 -0.563,-0.283 -1.111,-0.643 -1.635,-1.072 -1.521,-1.373 -3.025,-2.51 -4.519,-3.412 -1.491,-0.905 -3.087,-1.64 -4.77,-2.203 -1.684,-0.572 -3.512,-0.976 -5.481,-1.215 -1.97,-0.238 -4.162,-0.354 -6.585,-0.354 -3.65,0 -7.091,0.616 -10.319,1.846 -3.224,1.238 -6.118,3.028 -8.682,5.38 -2.563,2.346 -4.721,5.251 -6.478,8.717 -1.753,3.462 -2.938,7.422 -3.554,11.885 h 45.979 v 15.588 h -45.837 c 0.661,4.177 1.834,7.896 3.519,11.174 1.682,3.275 3.76,6.037 6.229,8.288 2.468,2.257 5.305,3.966 8.506,5.127 3.203,1.164 6.677,1.744 10.425,1.744 3.892,0 7.107,-0.404 9.647,-1.208 2.536,-0.81 4.65,-1.709 6.329,-2.707 1.688,-0.997 3.111,-1.896 4.275,-2.706 1.161,-0.81 2.314,-1.209 3.451,-1.209 1.14,0 2.043,0.236 2.706,0.715 0.661,0.473 1.209,1.018 1.638,1.634 l 7.19,9.822 c -1.995,1.995 -4.24,3.829 -6.729,5.517 -2.492,1.685 -5.207,3.12 -8.149,4.305 -2.944,1.185 -6.112,2.108 -9.503,2.775 -3.391,0.666 -6.984,0.997 -10.786,0.997 -5.076,0 -9.854,-0.581 -14.338,-1.742 -4.486,-1.164 -8.622,-2.849 -12.421,-5.055 -3.796,-2.203 -7.202,-4.876 -10.211,-8.005 -3.014,-3.133 -5.589,-6.642 -7.727,-10.534 -2.134,-3.891 -3.76,-8.151 -4.87,-12.778 -1.116,-4.62 -1.676,-9.5 -1.676,-14.627 0,-7.639 1.164,-14.683 3.489,-21.138 2.322,-6.448 5.645,-12.028 9.965,-16.723 4.317,-4.697 9.559,-8.362 15.728,-11 6.166,-2.632 13.124,-3.948 20.855,-3.948 8.539,0 15.907,1.379 22.1,4.13 6.192,2.753 11.379,6.787 15.553,12.096 l -8.47,9.041 c -0.81,0.855 -1.807,1.283 -2.992,1.283" /></g><g
           transform="translate(306.6165,5.6645)"
           id="g24"><path
             id="path26"
             style="fill:#ffc80d;fill-opacity:1;fill-rule:nonzero;stroke:none"
             d="m 0,0 c -23.595,0 -44.852,5.37 -63.771,16.112 -18.918,10.742 -33.745,25.758 -44.48,45.048 -10.735,19.289 -16.102,41.178 -16.102,65.665 0,24.487 5.367,46.376 16.102,65.665 10.735,19.289 25.562,34.305 44.48,45.047 18.919,10.742 40.176,16.113 63.771,16.113 21.682,0 41.026,-4.158 58.031,-12.474 17.006,-8.317 31.035,-20.329 42.089,-36.038 L 52.611,159.051 c -13.817,18.943 -30.079,28.414 -48.785,28.414 -15.73,0 -28.378,-5.486 -37.943,-16.459 -9.566,-10.973 -14.349,-25.7 -14.349,-44.181 0,-18.481 4.783,-33.208 14.349,-44.181 9.565,-10.973 22.213,-16.459 37.943,-16.459 18.706,0 34.968,9.471 48.785,28.414 L 100.12,48.512 C 89.066,32.804 75.037,20.791 58.031,12.475 41.026,4.158 21.682,0 0,0" /></g><g
           transform="translate(119.4592,5.6655)"
           id="g28"><path
             id="path30"
             style="fill:#2760ad;fill-opacity:1;fill-rule:nonzero;stroke:none"
             d="m 0,0 c -23.147,0 -43.75,5.371 -61.8,16.112 -18.051,10.742 -32.175,25.759 -42.366,45.048 -10.196,19.289 -15.293,41.178 -15.293,65.665 0,24.487 5.097,46.376 15.293,65.665 10.191,19.292 24.315,34.306 42.366,45.048 18.05,10.744 38.653,16.115 61.8,16.115 21.659,0 40.987,-4.159 57.975,-12.474 9.643,-4.722 18.321,-10.635 26.05,-17.732 C 77.866,216.429 72.417,208.665 67.684,200.156 60.654,187.524 55.688,173.894 52.78,159.264 l -0.22,-0.211 c -13.803,18.941 -30.049,28.414 -48.737,28.414 -10.408,0 -19.271,-2.772 -26.598,-8.318 -7.327,-5.544 -12.796,-13.398 -16.408,-23.562 H 30.263 V 96.678 h -69.127 c 3.612,-9.702 9.134,-17.211 16.565,-22.523 7.431,-5.313 16.142,-7.969 26.122,-7.969 18.688,0 34.934,9.47 48.737,28.414 l 0.217,-0.211 C 55.683,79.759 60.651,66.126 67.684,53.491 72.417,44.982 77.866,37.221 84.025,30.2 76.299,23.103 67.615,17.193 57.975,12.475 40.987,4.156 21.659,0 0,0" /></g></g></g></g></svg>