<?xml version="1.0" encoding="UTF-8" standalone="no"?>
<svg
   xmlns:dc="http://purl.org/dc/elements/1.1/"
   xmlns:cc="http://creativecommons.org/ns#"
   xmlns:rdf="http://www.w3.org/1999/02/22-rdf-syntax-ns#"
   xmlns:svg="http://www.w3.org/2000/svg"
   xmlns="http://www.w3.org/2000/svg"
   xmlns:sodipodi="http://sodipodi.sourceforge.net/DTD/sodipodi-0.dtd"
   xmlns:inkscape="http://www.inkscape.org/namespaces/inkscape"
   width="500.00009"
   height="570.00006"
   viewBox="0 0 132.29169 150.81252"
   version="1.1"
   id="svg847"
   sodipodi:docname="merivoimat tunnus.svg"
   inkscape:version="1.0.2 (e86c870879, 2021-01-15, custom)">
  <defs
     id="defs841" />
  <sodipodi:namedview
     id="base"
     pagecolor="#ffffff"
     bordercolor="#666666"
     borderopacity="1.0"
     inkscape:pageopacity="0.0"
     inkscape:pageshadow="2"
     inkscape:zoom="0.7"
     inkscape:cx="527.56375"
     inkscape:cy="412.27189"
     inkscape:document-units="px"
     inkscape:current-layer="layer1"
     inkscape:document-rotation="0"
     showgrid="false"
     inkscape:snap-smooth-nodes="true"
     inkscape:showpageshadow="false"
     borderlayer="true"
     units="px"
     inkscape:window-width="1920"
     inkscape:window-height="1017"
     inkscape:window-x="-8"
     inkscape:window-y="-4"
     inkscape:window-maximized="1"
     inkscape:snap-global="true" />
  <metadata
     id="metadata844">
    <rdf:RDF>
      <cc:Work
         rdf:about="">
        <dc:format>image/svg+xml</dc:format>
        <dc:type
           rdf:resource="http://purl.org/dc/dcmitype/StillImage" />
        <dc:title></dc:title>
      </cc:Work>
    </rdf:RDF>
  </metadata>
  <g
     inkscape:label="Layer 1"
     inkscape:groupmode="layer"
     id="layer1"
     transform="translate(-61.465706,-28.381415)">
    <g
       id="g6244"
       transform="matrix(0.31884999,0,0,-0.3226041,37.145657,229.138)"
       style="stroke:#000000;stroke-width:2.48731;stroke-miterlimit:3.864;stroke-dasharray:none">
      <path
         id="path7889"
         style="fill:#182659;fill-opacity:1;stroke:#000000;stroke-width:2.46027;stroke-linecap:butt;stroke-linejoin:miter;stroke-miterlimit:3.864;stroke-dasharray:none;stroke-opacity:1"
         d="m 283.72876,621.07003 c -25.90176,0 -46.90175,-20.74403 -46.90175,-46.33612 0,-25.59017 20.99999,-46.34085 46.90175,-46.34085 25.89978,0 46.89536,20.75068 46.89536,46.34085 0,25.59209 -20.99558,46.33612 -46.89536,46.33612 z m -0.003,-22.7861 c 13.5546,0 24.54211,-10.66852 24.54211,-23.82668 0,-13.15718 -10.98751,-23.8204 -24.54211,-23.8204 -13.55457,0 -24.54212,10.66322 -24.54212,23.8204 0,13.15816 10.98755,23.82668 24.54212,23.82668 z" />
      <path
         d="m 97.99615,263.503 c -9.20658,14.87793 -29.297141,62.60635 -16.114,95.333 35.17235,-9.22229 61.87498,-35.36935 79.182,-54.5 -21.538,-2.449 -51.356,-23.055 -63.068,-40.833 z"
         style="fill:#182659;fill-opacity:1;stroke:#000000;stroke-width:2.48731;stroke-linecap:butt;stroke-linejoin:miter;stroke-miterlimit:3.864;stroke-dasharray:none;stroke-opacity:1"
         id="path7824"
         sodipodi:nodetypes="cccc" />
      <path
         d="m 469.455,263.503 c 9.20658,14.87793 29.29714,62.60635 16.114,95.333 -35.17235,-9.22229 -61.87498,-35.36935 -79.182,-54.5 21.538,-2.449 51.356,-23.055 63.068,-40.833 z"
         style="fill:#182659;fill-opacity:1;stroke:#000000;stroke-width:2.48731;stroke-linecap:butt;stroke-linejoin:miter;stroke-miterlimit:3.864;stroke-dasharray:none;stroke-opacity:1"
         id="path4917"
         sodipodi:nodetypes="cccc" />
      <path
         d="m 287.61852,156.059 c 0.406,5.529 2.01385,10.70687 15.79115,16.445 13.7773,5.73813 61.42889,18.26045 89.29113,38.833 27.86227,20.57255 47.16197,41.95134 59.70837,61.62263 12.5465,19.67129 15.7153,34.33096 16.9736,41.96937 1.2583,7.63841 1.1309,15.20318 -1.2891,18.95518 -4.24784,-2.10092 -6.35888,-4.31812 -14.1351,-14.42597 -7.77622,-10.10785 -33.0498,-40.03828 -60.91729,-63.11361 -27.86748,-23.07532 -57.55262,-34.96942 -72.95405,-27.18396 -15.40143,7.78546 -16.85324,16.70471 -16.95943,22.84336 -0.10619,6.13865 -5.02907,290.34999 -5.223,301.499 -0.19393,11.14901 -4.26077,18.32045 -14.17922,18.32045 -9.91846,0 -13.9853,-7.17144 -14.17923,-18.32045 -0.19393,-11.14901 -5.11681,-295.36035 -5.223,-301.499 -0.10619,-6.13865 -1.558,-15.0579 -16.95943,-22.84336 -15.40143,-7.78546 -45.08657,4.10864 -72.95405,27.18396 -27.86749,23.07533 -53.14107,53.00576 -60.91729,63.11361 -7.77622,10.10785 -9.88726,12.32505 -14.1351,14.42597 -2.42,-3.752 -2.5474,-11.31677 -1.2891,-18.95518 1.2583,-7.63841 4.4271,-22.29808 16.9736,-41.96937 12.5464,-19.67129 31.8461,-41.05008 59.70837,-61.62263 27.86224,-20.57255 75.51383,-33.09487 89.29113,-38.833 13.7773,-5.73813 15.38515,-10.916 15.79115,-16.445 z"
         style="fill:#182659;fill-opacity:1;stroke:#000000;stroke-width:2.48731;stroke-linecap:butt;stroke-linejoin:miter;stroke-miterlimit:3.864;stroke-dasharray:none;stroke-opacity:1"
         id="path7791"
         sodipodi:nodetypes="czzzzczzzzzzzzzzzczzzzcc" />
      <path
         d="m 435.12207,529.335 h -302.793 c -3.065,0 -5.55,-2.484 -5.55,-5.548 v -25.015 c 0,-3.064 2.485,-5.547 5.55,-5.547 h 302.793 c 3.065,0 5.55,2.483 5.55,5.547 v 25.015 c 0,3.064 -2.485,5.548 -5.55,5.548 z"
         style="fill:#182659;fill-opacity:1;stroke:#000000;stroke-width:2.48731;stroke-linecap:butt;stroke-linejoin:miter;stroke-miterlimit:3.864;stroke-dasharray:none;stroke-opacity:1"
         id="path4877" />
      <path
         d="m 410.44414,531.919 c -3.008,0 -5.446,-4.971 -5.446,-11.103 v -19.072 c 0,-6.132 2.438,-11.103 5.446,-11.103 3.008,0 5.446,4.971 5.446,11.103 v 19.072 c 0,6.132 -2.438,11.103 -5.446,11.103 z"
         style="fill:#182659;fill-opacity:1;stroke:#000000;stroke-width:2.48731;stroke-linecap:butt;stroke-linejoin:miter;stroke-miterlimit:3.864;stroke-dasharray:none;stroke-opacity:1"
         id="path7861" />
      <path
         d="m 157.007,531.919 c 3.008,0 5.446,-4.971 5.446,-11.103 v -19.072 c 0,-6.132 -2.438,-11.103 -5.446,-11.103 -3.008,0 -5.446,4.971 -5.446,11.103 v 19.072 c 0,6.132 2.438,11.103 5.446,11.103 z"
         style="fill:#182659;fill-opacity:1;stroke:#000000;stroke-width:2.48731;stroke-linecap:butt;stroke-linejoin:miter;stroke-miterlimit:3.864;stroke-dasharray:none;stroke-opacity:1"
         id="path4885" />
      <path
         d="m 176.845,532.0575 c 3.13,0 5.668,-4.97 5.668,-11.101 v -19.352 c 0,-6.132 -2.538,-11.102 -5.668,-11.102 -3.13,0 -5.668,4.97 -5.668,11.102 v 19.352 c 0,6.131 2.538,11.101 5.668,11.101 z"
         style="fill:#182659;fill-opacity:1;stroke:#000000;stroke-width:2.48731;stroke-linecap:butt;stroke-linejoin:miter;stroke-miterlimit:3.864;stroke-dasharray:none;stroke-opacity:1"
         id="path4893" />
      <path
         id="path4933"
         style="fill:#fbc31b;fill-opacity:1;stroke:#000000;stroke-width:0.999999;stroke-linecap:butt;stroke-linejoin:miter;stroke-miterlimit:3.864;stroke-dasharray:none;stroke-opacity:1"
         d="m 291.93149,161.62409 c 0,0 -1.42757,0.21334 -1.41577,2.14929 0.0118,1.93596 0.23377,3.8202 3.17636,4.84519 2.94259,1.02498 9.40696,-0.17273 13.26495,-0.3881 3.85799,-0.21537 4.35,2.06325 6.46875,3.02734 -1.23667,-5.28401 -6.31108,-5.51202 -11.77378,-5.27084 -5.46269,0.24119 -10.68641,0.78014 -9.72051,-4.36288 z"
         transform="matrix(2.4873129,0,0,-2.4873129,-510.52136,889.08943)"
         sodipodi:nodetypes="czzzczc" />
      <path
         d="m 223.762,251.171 -7.945,-20.166 c 66.627,-37.408 152.251,-35.13 217.429,3.555 L 411.02,257.338 C 382.911,223.787 261.91,229.934 223.762,251.171 Z"
         style="fill:#ffffff;stroke:#000000;stroke-width:2.48731;stroke-linecap:butt;stroke-linejoin:miter;stroke-miterlimit:3.864;stroke-dasharray:none;stroke-opacity:1"
         id="path4941" />
      <path
         d="m 414.937,243.868 c -12.524,-8.488 -45.992,-22.09 -77.709,-25.542 -44.117,-4.801 -91.539,9.215 -111.855,20.89"
         style="fill:none;stroke:#000000;stroke-width:2.48731;stroke-linecap:butt;stroke-linejoin:miter;stroke-miterlimit:3.864;stroke-dasharray:none;stroke-opacity:1"
         id="path4945" />
      <path
         d="m 199.147,517.393 c -1.831,-6.986 2.459,-12.744 2.769,-19.541 30.046,6.518 128.614,19.946 148.46,46.088 -40.646,5.155 -82.482,-11.411 -103.536,-16.246 -15.901,-3.652 -31.679,-7.128 -47.693,-10.301 z"
         style="fill:#ffffff;stroke:#000000;stroke-width:2.48731;stroke-linecap:butt;stroke-linejoin:miter;stroke-miterlimit:3.864;stroke-dasharray:none;stroke-opacity:1"
         id="path4953" />
      <path
         d="m 222.984,303.172 c -7.975,0.46 -14.719,9.947 -14.669,17.5 2.925,0.837 6.804,0.391 9.557,-0.834 l -17.06,10.056 c 8.272,0.384 21.824,-0.237 28.395,-5.834 -0.488,-3.317 -3.996,-19.081 -6.223,-20.888 z"
         style="fill:#fbc31b;fill-opacity:1;stroke:#000000;stroke-width:2.48731;stroke-linecap:butt;stroke-linejoin:miter;stroke-miterlimit:3.864;stroke-dasharray:none;stroke-opacity:1"
         id="path4961" />
      <path
         d="m 361.121,247.838 c -4.382,-8.375 -18.566,-7.648 -26.692,-7.219 0,0 0.167,2.127 0.491,3.444 0.542,2.199 2.308,5.33 2.308,5.33 -4.984,-2.574 -10.933,-6.638 -14.446,-11.11 2.895,9.567 6.849,16.676 14.446,23.332 8.227,-3.904 15.839,-9.448 23.893,-13.777 z"
         style="fill:#fbc31b;fill-opacity:1;stroke:#000000;stroke-width:2.48731;stroke-linecap:butt;stroke-linejoin:miter;stroke-miterlimit:3.864;stroke-dasharray:none;stroke-opacity:1"
         id="path4969" />
      <path
         d="m 171.475,379.004 c -1.829,0.583 -18.948,-6.034 -26.561,-4.611 0.902,2.956 2.455,5.954 4.278,8.446 l -16.114,-7.39 c 3.31,5.325 10.452,15.032 15.67,18.555 6.414,-1.003 17.083,-11.379 22.727,-15 z"
         style="fill:#fbc31b;fill-opacity:1;stroke:#000000;stroke-width:2.48731;stroke-linecap:butt;stroke-linejoin:miter;stroke-miterlimit:3.864;stroke-dasharray:none;stroke-opacity:1"
         id="path4977" />
      <path
         d="m 340.579,367.929 c -3.645,-4.651 -23.256,-13.81 -24.889,-19.516 -24.072,-4.124 -26.968,-16.448 -30.583,-37.297 l 3.39,-0.556 c 0,0 3.119,-2.441 4.611,-4.444 6.584,-8.843 0.312,-19.623 -4.611,-27.889 -4.897,3.108 -9.448,7.412 -13.169,11.833 8.744,-13.452 3.429,-26.535 -9.058,-35.166 0,0 1.894,2.834 2.501,4.888 1.953,6.613 -4.474,10.484 -6.057,16.611 -2.615,-1.463 -5.72,-1.234 -8.28,-3.666 -1.664,-1.581 -2.19,-2.868 -3.278,-4.889 -3.74,-6.952 -0.85,-13.634 -3.112,-20 -7.742,-2.062 -13.973,-0.872 -21.225,2.777 l 11.668,1.056 -8.335,5.667 c 4.124,4.433 11.438,10.064 8.778,17.056 -1.282,3.37 -3.625,5.805 -6.167,6.888 -8.34,1.573 -23.891,-2.864 -28.727,-11.166 -2.2,2.907 -3.951,6.592 -4.889,10.11 -2.148,-5.025 -4.876,-9.946 -7.891,-14.5 0.352,7.906 -2.665,19.164 2.778,25.778 l 30.173,-2.055 -25.06,4.444 v 7.278 c -4.145,-5.361 -9.923,-8.576 -15.504,-12.223 6.069,8.036 10.756,17.092 18.837,23.501 15.117,-4.048 40.002,-19.026 51.621,-2.556 5.79,8.206 1.952,17.412 4.613,25.334 -6.751,-1.401 -17.174,6.665 -19.783,12.444 7.245,-3.982 28.321,12.32 47.008,18.612 9.198,3.096 16.013,4.288 23.784,7.332 2.407,-1.224 28.988,-3.608 30.856,-5.686 z"
         style="fill:#fbc31b;fill-opacity:1;stroke:#000000;stroke-width:2.48731;stroke-linecap:butt;stroke-linejoin:miter;stroke-miterlimit:3.864;stroke-dasharray:none;stroke-opacity:1"
         id="path4985" />
      <path
         d="m 216.705,410.337 0.833,-1.832 38.674,14.999 -49.73,30.501 -10.781,24.11 -22.727,-7.555 8.835,-33.389 z"
         style="fill:#ffffff;stroke:#000000;stroke-width:2.48731;stroke-linecap:butt;stroke-linejoin:miter;stroke-miterlimit:3.864;stroke-dasharray:none;stroke-opacity:1"
         id="path4993" />
      <path
         d="m 199.147,452.004 -22.338,-4.167 -2.556,-14.223 13.946,-6.721 16.394,22.722 10.945,5.277 -8.001,8.278 z"
         style="fill:#fbc31b;fill-opacity:1;stroke:#000000;stroke-width:2.48731;stroke-linecap:butt;stroke-linejoin:miter;stroke-miterlimit:3.864;stroke-dasharray:none;stroke-opacity:1"
         id="path5001" />
      <path
         d="m 188.199,522.004 -1.791,-2.546 5.349,-28.675 12.278,-10.557 3.501,14.167 -2.944,2.001 -1.3615,5.44425 1.2115,6.02175 -3.9345,4.86675 -1.3615,5.44425 0.778,5.833 -9.281,7.5 z"
         style="fill:#fbc31b;fill-opacity:1;stroke:#000000;stroke-width:2.48731;stroke-linecap:butt;stroke-linejoin:miter;stroke-miterlimit:3.864;stroke-dasharray:none;stroke-opacity:1"
         id="path5009"
         sodipodi:nodetypes="ccccccccccccc" />
      <path
         d="m 170.697,470.559 h 2.278 l 22.726,7.556 -3.944,10.944 c 0,0 1.114,3.212 1.554,5.334 2.317,11.163 -0.457,20.155 -6.502,28.5 -0.961,1.327 -3.666,2.055 -3.666,2.055 l -23.171,-3.778 2.167,-6.722 -2.759,-4.378 c 0,0 -1.036,-18.069 2.759,-28.621 1.51336,-5.08064 3.86727,-7.91269 8.558,-10.89 z"
         style="fill:#ffffff;stroke:#000000;stroke-width:2.48731;stroke-linecap:butt;stroke-linejoin:miter;stroke-miterlimit:3.864;stroke-dasharray:none;stroke-opacity:1"
         id="path5017"
         sodipodi:nodetypes="cccccccccccc" />
      <path
         d="m 162.139,514.448 c -7.10949,-2.04523 -11.47915,-5.5367 -14.781,-11.722 l 6.446,-15.278 c 5.44759,-2.26339 12.06655,-2.72312 16.892,-3.499 l 8.613,7.555 -0.778,17.611 c -6.96334,-1.70426 -14.3169,0.68075 -16.392,5.333 z"
         style="fill:#ffffff;stroke:#000000;stroke-width:2.48731;stroke-linecap:butt;stroke-linejoin:miter;stroke-miterlimit:3.864;stroke-dasharray:none;stroke-opacity:1"
         id="path5025"
         sodipodi:nodetypes="ccccccc" />
      <path
         d="m 151.803,486.226 2.001,1.222 c 0,0 -0.306,13.248 -6.446,15.278 -1.333,0.441 -2.153,0.589 -3.557,0.556 -3.093,-0.073 -5.217,-0.923 -7.223,-3.279 -1.2,-1.409 -1.647,-2.472 -2.056,-4.277 -1.119,-4.935 0.847,-9.668 5.446,-11.777 2.258,-1.035 3.898,-1.152 6.334,-0.667 2.387,0.475 5.501,2.944 5.501,2.944 z"
         style="fill:#fbc31b;fill-opacity:1;stroke:#000000;stroke-width:2.48731;stroke-linecap:butt;stroke-linejoin:miter;stroke-miterlimit:3.864;stroke-dasharray:none;stroke-opacity:1"
         id="path5033" />
      <path
         d="M 341.325,540.943 204.442,507.86"
         style="fill:none;stroke:#000000;stroke-width:2.48731;stroke-linecap:butt;stroke-linejoin:miter;stroke-miterlimit:3.864;stroke-dasharray:none;stroke-opacity:1"
         id="path5037" />
      <path
         d="m 245.457,520.131 49.015,-37.756 c 10.245,11.484 14.229,18.251 28.31,24.24 -5.271,4.967 -25.828,10.396 -25.895,2.5 -0.012,-1.5 0.723,-3.779 0.723,-3.779 l -11.67,8.223 c 3.276,-0.443 4.743,-1.097 7.444,-0.033 6.342,2.496 7.076,12.289 2.459,17.303 -5.336,5.793 -18.464,2.217 -19.403,-5.603 -0.248,-2.06 0.666,-5.279 0.666,-5.279 l -11.336,7.945 c 0,0 3.054,0.401 4.445,1.611 1.309,1.14 1.57,2.259 2.168,3.889 2.85,7.773 -4.089,13.216 -10.003,18.722 -5.905,-12.727 -11.7,-25.91 -16.923,-31.983 z"
         style="fill:#fbc31b;fill-opacity:1;stroke:#000000;stroke-width:2.48731;stroke-linecap:butt;stroke-linejoin:miter;stroke-miterlimit:3.864;stroke-dasharray:none;stroke-opacity:1"
         id="path5045" />
      <path
         d="m 218.656,252.283 c -3.165,-5.957 -5.443,-12.694 -7.057,-19.222 -4.487,3.489 -41.263,29.751 -46.459,28.555 l -3.502,-2.277 c -1.608,-2.354 -2.264,-5.929 -2.054,-8.723 l -1.169,-1.555 c -3.257,2.979 -2.297,11.854 0.39,14.888 -9.139,12.713 13.685,15.399 19.225,25 0.83411,-1.11389 1.7069,-2.87446 1.30056,-4.25181 -5.676,-4.986 -1.68756,-7.38419 -7.52256,-11.97019 z"
         style="fill:#fbc31b;fill-opacity:1;stroke:#000000;stroke-width:2.48731;stroke-linecap:butt;stroke-linejoin:miter;stroke-miterlimit:3.864;stroke-dasharray:none;stroke-opacity:1"
         id="path5053"
         sodipodi:nodetypes="ccccccccccc" />
      <path
         d="m 211.982,221.117 c 1.898,-0.631 3.947,-0.752 5.557,-2.5 2.671,-2.903 2.51,-7.195 0.333,-10.111 -4.967,-4.286 -16.061,-0.446 -15.059,6.277 0.729,4.884 3.459,8.005 5.056,12.333 4.69,12.702 9.73,25.314 14.282,38.056 -2.88,0.986 -7.27,0.691 -8.335,4.166 -0.461,1.503 -0.139,2.71 0.086,4.03 0.496,2.942 7.047,5.7 10.303,4.859 3.195,-0.822 4.996,-3.338 6.225,-5.723 1.425,-7.842 -15.486,-45.597 -18.448,-51.387 z"
         style="fill:#fbc31b;fill-opacity:1;stroke:#000000;stroke-width:2.48731;stroke-linecap:butt;stroke-linejoin:miter;stroke-miterlimit:3.864;stroke-dasharray:none;stroke-opacity:1"
         id="path5061" />
      <path
         d="m 390.60614,532.0575 c -3.13,0 -5.668,-4.97 -5.668,-11.101 v -19.352 c 0,-6.132 2.538,-11.102 5.668,-11.102 3.13,0 5.668,4.97 5.668,11.102 v 19.352 c 0,6.131 -2.538,11.101 -5.668,11.101 z"
         style="fill:#182659;fill-opacity:1;stroke:#000000;stroke-width:2.48731;stroke-linecap:butt;stroke-linejoin:miter;stroke-miterlimit:3.864;stroke-dasharray:none;stroke-opacity:1"
         id="path7863" />
      <path
         id="path5097"
         style="fill:#fbc31b;fill-opacity:1;stroke:#000000;stroke-width:2.48731;stroke-linecap:butt;stroke-linejoin:miter;stroke-miterlimit:3.864;stroke-dasharray:none;stroke-opacity:1"
         d="M 363.89543,510.75553 C 346.9182,510.09411 331.1219,498.67125 334.0234,472.003 c 0.93699,-8.602 11.21843,-22.88736 20.34542,-26.88435 -27.01799,-15.00101 -28.81258,-54.09099 3.75042,-62.27997 -8.645,13.14099 -9.44978,17.35241 -9.58491,24.8974 7.995,-11.75598 16.69505,-22.60301 28.36607,-27.34099 -7.14501,19.20798 -11.34344,28.76592 -7.00045,50.30491 23.56,-25.69499 27.13587,-68.03112 -10.94514,-59.19511 -12.72,15.811 -43.33785,31.99818 -47.56986,47.04518 -8.15799,-2.87001 -14.78278,17.79979 -26.80177,15.98778 0.29801,6.58799 -28.21546,2.3513 -28.21546,2.3513 -10.97999,-3.21102 -20.48849,-11.75961 -29.99348,-17.32861 -12.243,-7.17199 -21.07279,-21.49406 -33.95279,-29.22107 -17.592,-10.554 -34.47212,-13.64319 -52.89913,-21.27819 1.711,-9.93 -0.97759,-18.51603 6.1114,-27.44302 l -0.44207,18.99976 4.4451,-7.44737 16.72621,10.58081 c -1.85874,-1.87514 -10.97962,-17.74059 -12.00422,-25.68929 0,0 0.69986,-1.84021 1.44284,-2.83223 3.55701,-4.75599 12.54621,-7.9546 19.84021,-10.27959 l -14.33606,16.66791 12.94667,-2.11325 c 3.944,15.20999 0.24624,20.61577 8.8902,23.72178 1.89001,0.68 7.17592,-0.59024 8.11292,-3.72125 1.32201,-4.42801 -1.27112,-8.05016 -0.61213,-11.83419 l 8.94851,0.61213 -13.55877,-13.38873 c 7.13501,1.152 17.57879,5.3576 22.28379,11.16861 l -7.50564,21.27334 c 5.04598,2.46898 9.96121,6.29233 13.78222,10.39132 -0.30701,-5.04999 -0.23057,-10.54797 0.94247,-15.50198 3.87601,3.97199 8.1362,8.00345 11.28521,12.61145 l 0.71899,8.33153 5.22238,-11.94105 c 7.41799,4.06999 8.84929,12.17055 13.33531,18.66455 -1.19802,-5.18799 0.2062,-11.47862 0.33519,-16.77964 9.61401,4.72401 12.7232,8.50157 12.7232,8.50157 7.16299,-9.59402 29.37656,-3.35437 39.67555,-5.05236 5.56999,-0.91901 12.01566,-4.31979 17.66865,-5.89279 l 5.94625,-7.05387 c -31.98001,-43.17401 6.30469,-52.3852 2.16667,-81.33319 4.666,4.646 9.353,12.40604 10.77999,18.88803 25.286,-0.98699 46.7438,-41.35501 17.5958,-60.055 -4.401,-2.82201 -13.79011,-7.72686 -19.2621,-7.05387 -3.14302,-6.47798 -0.099,-22.46168 4.72199,-27.11268 l 0.83559,15.72546 2.88568,-6.50004 17.50349,14.49635 -13.88913,-25.83014 c 7.382,-5.91901 9.83946,-8.13439 20.44746,-8.33641 l -9.16709,10.94515 12.87378,-1.59827 c 0,0 -6.89759,18.49979 -0.15073,26.15078 2.259,2.56201 4.59115,4.88551 7.11217,5.11551 12.78899,-3.892 6.99492,-12.71509 12.11593,-17.7221 l 10.10955,1.71975 c -1.09399,-1.41001 -3.60812,-6.55907 -3.10914,-8.10807 8.86001,0.28 9.92635,4.9515 13.50534,9.66749 -4.22099,9.01599 -16.37629,11.67485 -14.8413,22.55585 l 2.27843,4.16334 c 3.66299,-0.16292 9.20502,-7.41985 11.83904,-9.99783 -1.29201,11.08399 -0.10099,26.86994 -11.22694,33.33096 7.068,-0.46701 11.90717,-3.35016 18.06217,-6.22315 -5.07399,10.39801 -14.59005,21.28712 -26.89407,22.44411 l -9.39542,28.0017 c -4.735,-2.37399 -12.24049,-8.14316 -18.22248,-3.99816 -1.96901,1.364 -2.65648,2.66727 -4.05646,4.61029 -9.376,13.03098 6.6318,34.99492 3.66782,40.99693 17.98499,-2.27701 35.09616,6.67322 43.00815,23.05623 10.98701,-3.97 24.57179,-3.18294 26.83579,11.22205 -7.79802,0.296 -15.87587,-1.52721 -23.44489,1.17078 14.17702,2.23 20.86963,9.81357 19.72362,24.10557 -4.36399,-5.99101 -15.88529,-8.58764 -21.89029,-13.66564 -4.167,15.394 -13.29101,30.75144 -27.37502,39.06344 8.85574,7.604 15.75203,15.72291 20.42803,25.97588 11.48681,25.18427 -12.29496,42.11941 -34.12282,41.269 z m -4.22162,-13.36445 c -2.39001,-5.23699 -2.6993,-12.10635 1.44769,-17.61035 3.676,-4.87902 10.03333,-5.94951 14.22432,-6.5535 -5.41522,5.84487 -13.98628,15.21554 -7.72427,21.60853 1.195,1.22 3.55609,2.55532 3.55609,2.55532 28.20998,-10.391 8.1405,-36.56435 -5.11551,-45.26228 -14.36401,11.105 -32.47632,32.05828 -6.38832,45.26228 z"
         sodipodi:nodetypes="scccccccccccsccccccccccccccccccccccccccccccccccccccccsccccccccccccccccccccccsscscsccc" />
      <path
         d="m 247.544,522.894 c -2.455,-3.208 -5.3,-7.452 -9.057,-9.335 l 0.443,-3.054 c -3.878,-3.991 -7.946,-7.813 -12.112,-11.501 0.102,-1.36 1.18,-2.983 2.389,-3.612 -2.171,-4.439 1.338,-11.359 3.555,-15.166 l 3.335,2.611 c 1.226,-1.891 2.231,-4.105 2.833,-6.277 l 2.113,8.723 c 35.001,20.854 40.484,-18.255 25.227,-24.612 -6.378,-2.657 -11.921,-2.556 -17.669,1.278 -2.924,1.95 -3.748,4.837 -6.003,6.721 -1.597,-0.933 -1.67,-2.832 -1.555,-4.221 l -3.279,-0.779 c 0.285,-3.248 0.262,-6.357 2.278,-9.664 4.324,-7.096 13.379,0.478 20.394,-6.168 -7.289,-5.477 -16.09,7.701 -35.064,-21.279 5.858,1.796 10.852,6.824 17.281,6.112 -8.207,-1.173 -11.648,-9.474 -17.614,-14.167 11.982,5.662 26.619,9.568 39.342,13.5 -4.731,-5.013 -8.962,-10.516 -13.893,-15.334 8.199,-0.55 21.168,5.288 27.172,10.89 -3.314,-7.88 -2.7,-14.832 -4.778,-20.111 4.487,1.027 7.514,0.438 11.353,2.92 6.311,4.081 7.594,11.81 8.373,17.357 6.468,-15.888 16.341,-12.946 23.061,-13.833 2.358,-0.311 4.222,1.389 4.222,1.389 -3.164,3.209 -9.43,12.929 -11.002,17.444 3.919,-2.026 8.67,-3.385 13.114,-2.888 6.179,3.184 10.601,9.902 11.223,16.833 -4.773,-1.116 -9.862,-0.666 -14.724,-0.666 12.37,5.903 14.99,14.381 13.557,27.221 -3.238,-3.674 -9.038,-5.049 -13.557,-6.333 7.631,3.894 12.556,18.918 8.557,26.334 -5.817,-3.183 -11.117,-7.109 -15.836,-11.778 4.428,3.424 12.464,15.256 12.835,20.888 -11.734,1.169 -22.437,-4.774 -28.894,-14.444 1.8421,7.15344 3.28919,13.02651 -3.835,19.11 -6.98429,-0.73685 -9.49019,-1.80034 -14.669,-6.999 -3.796,2.852 -28.186,20.156 -29.116,22.89 z"
         style="fill:#fbc31b;fill-opacity:1;stroke:#000000;stroke-width:2.48731;stroke-linecap:butt;stroke-linejoin:miter;stroke-miterlimit:3.864;stroke-dasharray:none;stroke-opacity:1"
         id="path5069"
         sodipodi:nodetypes="cccccccccccccccccccccccccccccccccccccccc" />
      <path
         id="path5073"
         style="fill:none;stroke:#000000;stroke-width:2.48731;stroke-linecap:butt;stroke-linejoin:miter;stroke-miterlimit:3.864;stroke-dasharray:none;stroke-opacity:1"
         d="m 232.763,499.449 -3.555,-4.058 m 15.224,7.335 7.002,4.999 -7.002,0.778" />
      <path
         d="m 308.29091,372.80429 c 0,0 5.18688,-6.65937 6.69253,-20.50872 m 39.38538,92.82308 c 0,0 6.36632,3.31003 11.69331,7.01015 M 369.89995,430.7 c 0.94423,5.66539 3.26863,9.30775 7.69015,12.81065"
         style="fill:none;stroke:#000000;stroke-width:2.48731;stroke-linecap:butt;stroke-linejoin:miter;stroke-miterlimit:3.864;stroke-dasharray:none;stroke-opacity:1"
         id="path3568-7"
         sodipodi:nodetypes="cccccc" />
    </g>
  </g>
</svg>
