<?xml version="1.0" encoding="utf-8"?>
<!-- Generator: Adobe Illustrator 24.2.0, SVG Export Plug-In . SVG Version: 6.00 Build 0)  -->
<svg version="1.1" id="Layer_1" xmlns="http://www.w3.org/2000/svg" xmlns:xlink="http://www.w3.org/1999/xlink" x="0px" y="0px"
	 viewBox="0 0 148 52" style="enable-background:new 0 0 148 52;" xml:space="preserve">
<style type="text/css">
	.st0{fill-rule:evenodd;clip-rule:evenodd;}
	.st1{fill-rule:evenodd;clip-rule:evenodd;fill:#FF4F42;}
</style>
<g id="Mobile">
	<g id="Homepage" transform="translate(-27.000000, -67.000000)">
		<g id="Group" transform="translate(0.000000, 48.000000)">
			<g id="FD-logo" transform="translate(27.000000, 19.000000)">
				<g id="Group-11" transform="translate(-0.000000, 0.828889)">
					<path id="Combined-Shape" class="st0" d="M73.5,30.5c5.4,0,8.7,3.4,8.7,8.9c0,5.2-3.2,8.5-8.4,8.6l-0.3,0H67V30.5H73.5z
						 M91.5,30.5c1.9,0,3.2,0.3,4.2,1c1.2,0.8,1.9,2.3,1.9,3.9c0,1.6-0.7,3.1-1.9,3.9c-0.3,0.2-0.6,0.4-0.9,0.5l-0.3,0.1l5,8h-3.7
						L91,40.3l-1.9,0v7.6h-3V30.5L91.5,30.5z M110.6,30.5l6.5,17.4h-3.2l-1.7-4.5h-6.4l-1.7,4.5H101l6.5-17.4H110.6z M131.3,30.5v3
						h-8.5v4.2h8.5v3h-8.5v7.3h-3V30.5H131.3z M148,30.5v3h-5.1v14.5h-3.2V33.4h-5.1v-3H148z M73.5,33.5h-3.2V45h3.2
						c3.4,0,5.3-2,5.3-5.6C78.8,35.6,76.9,33.5,73.5,33.5z M109.1,34.9l-2.1,5.6h4.2L109.1,34.9z M92,33.4h-2.9v4H92
						c0.8,0,1.4-0.2,1.9-0.5c0.5-0.4,0.7-0.9,0.7-1.5c0-0.6-0.2-1.2-0.7-1.5C93.4,33.5,92.8,33.4,92,33.4z M111.6,3l0.2,0
						c2.4,0.1,4.5,1.5,5.4,3.6l0.1,0.2l0.2,0.5l-2.9,1.1l-0.2-0.5C114,6.8,113,6.1,111.7,6c-1.4,0-2.4,0.7-2.5,1.8
						c0,0.6,0.2,1.5,1.9,2.1l0.2,0.1l1.4,0.5c1.7,0.6,3,1.2,3.8,2.4c0.6,0.9,0.9,1.9,0.9,3c0,1.3-0.6,2.5-1.6,3.5
						c-1.1,1-2.6,1.6-4.2,1.6c-0.1,0-0.2,0-0.3,0c-2.6-0.1-4.9-1.6-5.8-3.8l-0.1-0.2l-0.2-0.5l3-1.2l0.2,0.5
						c0.5,1.3,1.7,2.1,3.1,2.2c0.9,0,1.7-0.2,2.2-0.7c0.4-0.3,0.5-0.8,0.6-1.3c0-0.8-0.2-1.6-2.2-2.3l-0.2-0.1l-1.4-0.5
						c-1.5-0.5-2.4-1.1-3.1-1.7c-1-1-1.5-2.2-1.4-3.6c0.1-2.6,2.4-4.6,5.3-4.7L111.6,3z M95.6,3.1c1.9,0,3.2,0.3,4.2,1
						c1.2,0.8,1.9,2.3,1.9,3.9c0,1.6-0.7,3.1-1.9,3.9c-0.3,0.2-0.6,0.4-0.9,0.5l-0.3,0.1l5,8h-3.7L95.2,13l-1.9,0v7.6h-3V3.1
						L95.6,3.1z M78.5,3.1v3H70v4.2h8.5v3H70v7.3h-3V3.1H78.5z M86,3.1v17.4h-3.1V3.1H86z M133.6,3.1v3h-5.1v14.5h-3.2V6.1h-5.1v-3
						H133.6z M96.1,6h-2.9v4h2.9c0.8,0,1.4-0.2,1.9-0.5c0.5-0.4,0.7-0.9,0.7-1.5S98.4,6.9,98,6.5C97.5,6.2,97,6,96.1,6z"/>
					<path id="Combined-Shape_1_" class="st1" d="M22.4,33.5l2.6,8l2.6-8l6.8,5l3.1,9.5L28.1,51L25,41.5L21.9,51l-9.3-3.1l3.1-9.5
						L22.4,33.5z M42.3,6.7l5.8,8l-8,5.9l9.9,0v9.9l-9.9,0l8,5.9l-5.8,8l-8-5.9l-2.6-8l8.3,0l-6.7-4.9l6.8-4.9l-8.4,0l2.6-8
						L42.3,6.7z M9.9,30.4l8.3,0l-2.6,8l-8,5.9l-5.8-8L9.9,30.4z M21.9,0L25,9.5l-2.6,8l-6.7-4.9l2.6,8l-8.4,0l6.8,4.9l-6.7,4.9
						l-9.9,0l0-9.9l9.9,0l-8-5.9l5.8-8l8,5.9l-3.1-9.5L21.9,0z M28.1,0l9.3,3.1l-3.1,9.5l-6.7,4.9l-2.6-8L28.1,0z"/>
				</g>
			</g>
		</g>
	</g>
</g>
</svg>