<svg xmlns="http://www.w3.org/2000/svg" xmlns:xlink="http://www.w3.org/1999/xlink" width="428" height="121" viewBox="0 0 428 121">
  <defs>
    <polygon id="logo-on-light-a" points=".377 .015 274.434 .015 274.434 62.993 .377 62.993"/>
    <polygon id="logo-on-light-c" points=".426 .193 18.874 .193 18.874 94.195 .426 94.195"/>
  </defs>
  <g fill="none" fill-rule="evenodd">
    <g transform="translate(153.067 57.519)">
      <mask id="logo-on-light-b" fill="#fff">
        <use xlink:href="#logo-on-light-a"/>
      </mask>
      <path fill="#231F20" d="M256.885365,40.7027411 C251.932457,40.7027411 248.676831,37.0944715 248.676831,30.9376297 C248.676831,24.8520231 251.932457,21.031814 256.814718,21.031814 C262.61715,21.031814 265.447719,25.5596655 265.447719,30.8669832 C265.447719,36.2449475 262.970971,40.7027411 256.885365,40.7027411 Z M257.026657,62.9928869 C262.404622,62.9928869 267.075532,61.7194839 270.118041,58.8889144 C272.806729,56.4121662 274.434542,52.9446008 274.434542,47.8504 L274.434542,14.3092116 L265.164545,14.3092116 L265.164545,18.1294206 L265.022663,18.1294206 C262.829678,15.0875004 259.503406,13.3178058 254.974966,13.3178058 C245.775615,13.3178058 239.265541,20.2529365 239.265541,31.0789227 C239.265541,42.0473794 247.1909,48.4167494 255.257552,48.4167494 C259.857816,48.4167494 262.61715,46.576997 264.739488,44.1708952 L264.952017,44.1708952 L264.952017,48.132986 C264.952017,53.0858938 262.333975,55.7039351 256.885365,55.7039351 C252.427571,55.7039351 250.374702,53.9360066 249.596413,51.6711978 L240.044418,51.6711978 C241.035235,58.7470327 247.120253,62.9928869 257.026657,62.9928869 Z M212.942657,14.3092116 L203.530779,14.3092116 L203.530779,50.6097343 L213.155186,50.6097343 L213.155186,30.0180479 C213.155186,25.06514 216.26893,21.6682212 220.514195,21.6682212 C224.547521,21.6682212 226.81233,24.4275554 226.81233,28.3195884 L226.81233,50.6097343 L236.43556,50.6097343 L236.43556,26.9048924 C236.43556,18.9795334 231.410828,13.3178058 223.909937,13.3178058 C218.957029,13.3178058 215.631345,15.3700864 213.155186,19.2621194 L212.942657,19.2621194 L212.942657,14.3092116 Z M189.096523,8.64748391 L198.720341,8.64748391 L198.720341,0.0150712517 L189.096523,0.0150712517 L189.096523,8.64748391 Z M189.096523,50.6097343 L198.720341,50.6097343 L198.720341,14.3092116 L189.096523,14.3092116 L189.096523,50.6097343 Z M175.014911,14.3092116 L165.744325,14.3092116 L165.744325,50.6097343 L175.368143,50.6097343 L175.368143,32.9186751 C175.368143,25.2770795 179.897761,21.9513959 186.194718,22.587803 L186.406657,22.587803 L186.406657,14.1679186 C185.840308,13.9548017 185.203901,13.8841552 184.142437,13.8841552 C179.897761,13.8841552 177.420424,16.007671 175.22685,20.1116435 L175.014911,20.1116435 L175.014911,14.3092116 Z M145.153227,20.7480506 C149.540374,20.7480506 152.583472,23.93303 152.866058,28.5321166 L136.732754,28.5321166 C137.582278,23.7911483 140.059026,20.7480506 145.153227,20.7480506 Z M145.932105,51.6711978 C155.271571,51.6711978 161.003945,46.2219983 162.348583,39.7831593 L152.866058,39.7831593 C151.805183,42.5424935 149.611609,44.240953 145.860869,44.240953 C140.412259,44.240953 137.298514,40.7739763 136.590872,35.1834839 L162.914933,35.1834839 C162.914933,22.2339818 156.688033,13.3178058 145.012523,13.3178058 C134.397298,13.3178058 127.109524,21.6682212 127.109524,32.4235609 C127.109524,43.2507246 133.902773,51.6711978 145.932105,51.6711978 Z M107.366773,20.7480506 C111.75392,20.7480506 114.797018,23.93303 115.080193,28.5321166 L98.9468886,28.5321166 C99.7958239,23.7911483 102.272572,20.7480506 107.366773,20.7480506 Z M108.145651,51.6711978 C117.485706,51.6711978 123.217491,46.2219983 124.562129,39.7831593 L115.080193,39.7831593 C114.018729,42.5424935 111.825744,44.240953 108.074415,44.240953 C102.626393,44.240953 99.513238,40.7739763 98.8044182,35.1834839 L125.128479,35.1834839 C125.128479,22.2339818 118.901579,13.3178058 107.226069,13.3178058 C96.6114333,13.3178058 89.3230702,21.6682212 89.3230702,32.4235609 C89.3230702,43.2507246 96.1163191,51.6711978 108.145651,51.6711978 Z M62.7170124,14.3092116 L53.3057221,14.3092116 L53.3057221,50.6097343 L62.9295406,50.6097343 L62.9295406,30.0180479 C62.9295406,25.06514 66.042696,21.6682212 70.2885502,21.6682212 C74.3212875,21.6682212 76.5860963,24.4275554 76.5860963,28.3195884 L76.5860963,50.6097343 L86.2099147,50.6097343 L86.2099147,26.9048924 C86.2099147,18.9795334 81.1857717,13.3178058 73.6848803,13.3178058 C68.7313838,13.3178058 65.4057001,15.3700864 62.9295406,19.2621194 L62.7170124,19.2621194 L62.7170124,14.3092116 Z M31.6531609,44.3121882 C25.709436,44.3121882 22.4538102,39.5706311 22.4538102,32.4953849 C22.4538102,25.4183725 25.709436,20.6067576 31.6531609,20.6067576 C37.5262393,20.6067576 40.851923,25.4183725 40.851923,32.4953849 C40.851923,39.5706311 37.5262393,44.3121882 31.6531609,44.3121882 Z M31.6531609,51.6711978 C42.9042036,51.6711978 50.6170344,43.3207824 50.6170344,32.4953849 C50.6170344,21.6682212 42.9042036,13.3178058 31.6531609,13.3178058 C20.4015296,13.3178058 12.6886988,21.6682212 12.6886988,32.4953849 C12.6886988,43.3207824 20.4015296,51.6711978 31.6531609,51.6711978 Z M0.376781293,8.64748391 L10.000011,8.64748391 L10.000011,0.0150712517 L0.376781293,0.0150712517 L0.376781293,8.64748391 Z M0.376781293,50.6097343 L10.000011,50.6097343 L10.000011,14.3092116 L0.376781293,14.3092116 L0.376781293,50.6097343 Z" mask="url(#logo-on-light-b)"/>
    </g>
    <path fill="#231F20" d="M344.99514 44.2384215C339.263355 44.2384215 336.220257 39.9225095 336.220257 33.3412 336.220257 26.8323032 338.626359 21.6656897 344.64073 21.6656897 350.585044 21.6656897 352.991146 26.4773045 352.991146 33.3412 352.991146 40.2050955 349.87799 44.2384215 344.99514 44.2384215zM326.808967 63.0621794L336.432196 63.0621794 336.432196 47.0695796 336.573489 47.0695796C338.626359 50.1827351 341.952042 52.2350157 347.046832 52.2350157 356.387476 52.2350157 362.756257 44.8047708 362.756257 33.058614 362.756257 21.7363362 356.599415 13.8822124 346.975597 13.8822124 342.022689 13.8822124 338.626359 16.217079 336.291492 19.4014696L336.078375 19.4014696 336.078375 14.8724407 326.808967 14.8724407 326.808967 63.0621794zM312.373533 9.21189051L321.997352 9.21189051 321.997352.578889133 312.373533.578889133 312.373533 9.21189051zM312.373533 51.1735521L321.997352 51.1735521 321.997352 14.8724407 312.373533 14.8724407 312.373533 51.1735521zM284.564719.578889133L274.940901.578889133 274.940901 51.1735521 284.564719 51.1735521 284.564719 30.5818657C284.564719 25.6289579 287.678463 22.2314503 291.923729 22.2314503 295.957055 22.2314503 298.221864 24.9913733 298.221864 28.8834063L298.221864 51.1735521 307.845093 51.1735521 307.845093 27.4687103C307.845093 19.5433513 302.82095 13.8822124 295.320648 13.8822124 290.367151 13.8822124 287.395289 15.7926113 284.777247 19.6139978L284.564719 19.6139978 284.564719.578889133zM256.756494 52.2350157C265.813963 52.2350157 272.040862 47.8478685 272.040862 40.5589166 272.040862 32.067797 265.31826 30.3693376 259.232653 29.0953458 254.067217 28.034471 249.255602 27.751885 249.255602 24.6375521 249.255602 22.0200996 251.73235 20.6042261 255.482502 20.6042261 259.586474 20.6042261 262.063223 22.0200996 262.488279 25.9109552L271.191927 25.9109552C270.483696 18.6231807 265.176967 13.8822124 255.623795 13.8822124 247.344615 13.8822124 240.835129 17.6323637 240.835129 25.4870762 240.835129 33.4124352 247.203322 35.1809524 253.713396 36.4555329 258.666304 37.4457612 263.265979 37.7989937 263.265979 41.2671477 263.265979 43.8145425 260.859877 45.4417667 256.614612 45.4417667 252.2987 45.4417667 249.326249 43.6020143 248.689253 39.4273953L239.773077 39.4273953C240.338837 47.1402261 246.213093 52.2350157 256.756494 52.2350157zM219.677093 41.2671477C214.724185 41.2671477 211.469148 37.6577007 211.469148 31.5014476 211.469148 25.415841 214.724185 21.5950432 219.607035 21.5950432 225.408879 21.5950432 228.239448 26.1234834 228.239448 31.4313898 228.239448 36.8093541 225.7627 41.2671477 219.677093 41.2671477zM219.818386 63.5567048C225.19635 63.5567048 229.866672 62.2833018 232.90977 59.4527323 235.598458 56.9765728 237.225682 53.5084187 237.225682 48.4142179L237.225682 14.8724407 227.955685 14.8724407 227.955685 18.6932385 227.814392 18.6932385C225.620818 15.6507296 222.295135 13.8822124 217.767283 13.8822124 208.567344 13.8822124 202.057269 20.8167543 202.057269 31.6433293 202.057269 42.6111972 209.983217 48.9805673 218.04928 48.9805673 222.648956 48.9805673 225.408879 47.1402261 227.532394 44.7347131L227.744334 44.7347131 227.744334 48.6968039C227.744334 53.6503004 225.126293 56.2689304 219.677093 56.2689304 215.2193 56.2689304 213.167019 54.4998245 212.38873 52.2350157L202.835558 52.2350157C203.826375 59.3114393 209.911982 63.5567048 219.818386 63.5567048zM181.183586 45.3004737C177.787256 45.3004737 175.522447 44.0977172 175.522447 40.7007983 175.522447 37.3044682 177.999195 36.1723582 183.023338 35.0396594 185.428851 34.4738988 188.047481 33.9075494 189.745352 32.917321L189.745352 38.3653431C189.745352 41.9035549 186.702843 45.3004737 181.183586 45.3004737zM190.806815 51.1735521L200.076813 51.1735521 200.076813 50.8197309C199.227877 50.1827351 198.80341 48.5555109 198.80341 45.7961766L198.80341 27.3268286C198.80341 18.8357089 194.416262 13.9528589 183.519041 13.9528589 172.904406 13.9528589 168.163437 19.5433513 167.880262 25.9109552L176.442617 25.9109552C176.725203 22.4439785 178.919366 20.8167543 183.447806 20.8167543 187.481132 20.8167543 189.533412 22.5152138 189.533412 25.1338437 189.533412 27.893178 186.773489 28.3882922 180.759118 29.2378162 172.691877 30.3693376 166.181803 32.917321 166.181803 40.9133265 166.181803 48.1304545 171.418474 52.0224875 178.848719 52.0224875 185.07503 52.0224875 187.69366 49.9001491 189.533412 47.1402261L189.675294 47.1402261C189.887234 48.7674503 190.240466 50.4659098 190.806815 51.1735521zM153.374183 51.1735521L162.998001 51.1735521 162.998001.578889133 153.374183.578889133 153.374183 51.1735521zM113.394744 51.1735521L123.654969 51.1735521 123.654969 30.2280446 145.661941 30.2280446 145.661941 21.4537502 123.654969 21.4537502 123.654969 9.282537 149.62462 9.282537 149.62462.578889133 113.394744.578889133 113.394744 51.1735521zM132.094105 81.4543461L124.067486 81.4543461 124.067486 66.4496198 132.231866 66.4496198C137.327833 66.4496198 140.299695 69.1388963 140.299695 73.8828083 140.299695 78.4824836 137.472658 81.4543461 132.094105 81.4543461M146.319954 62.2773557C143.347503 59.2295483 138.955057 57.532855 133.087277 57.532855L113.482287 57.532855 113.482287 108.126929 124.067486 108.126929 124.067486 89.7982856 133.935035 89.7982856C144.547316 89.7982856 150.843095 83.3641563 150.843095 73.807452 150.843095 69.1388963 149.146991 65.1738619 146.319954 62.2773557"/>
    <polygon fill="#006C94" points=".327 .579 .327 13.044 76.179 51.552"/>
    <polygon fill="#F5BD2C" points="45.539 66.058 38.144 80.027 88.534 53.383"/>
    <g transform="translate(14.718 26.316)">
      <mask id="logo-on-light-d" fill="#fff">
        <use xlink:href="#logo-on-light-c"/>
      </mask>
      <polygon fill="#CD2026" points=".426 .193 14.874 94.195 18.874 63.083" mask="url(#logo-on-light-d)"/>
    </g>
  </g>
</svg>
