<?xml version="1.0" encoding="utf-8"?>
<!-- Generator: Adobe Illustrator 21.1.0, SVG Export Plug-In . SVG Version: 6.00 Build 0)  -->
<svg version="1.0" id="Layer_1" xmlns="http://www.w3.org/2000/svg" xmlns:xlink="http://www.w3.org/1999/xlink" x="0px" y="0px"
	 viewBox="0 0 300 95.3" style="enable-background:new 0 0 300 95.3;" xml:space="preserve">
<style type="text/css">
	.st0{fill:#808080;stroke:#808080;stroke-width:0.75;}
	.st1{fill-rule:evenodd;clip-rule:evenodd;fill:#ED2924;}
</style>
<g id="XMLID_37_">
	<path id="XMLID_45_" d="M23.1,12.7H20c-2.5,0-3.7,1-3.6,3.1v2h5.2v9h-5.2v23.7H6.8V26.8H1.4v-9h5.4v-3.6c0-2.4,0.9-4.5,2.6-6.3
		c1.7-1.8,4-2.7,6.8-2.7h6.9V12.7z"/>
	<path id="XMLID_42_" d="M68.7,41.5c0,2.8-0.9,5-2.7,6.6c-1.8,1.6-4.1,2.4-6.9,2.4H34.9c-2.7,0-4.9-0.8-6.6-2.3
		c-1.6-1.6-2.5-3.8-2.5-6.7V26.8c0-2.6,0.9-4.7,2.6-6.5c1.7-1.7,3.9-2.6,6.4-2.6h24.8c2.6,0,4.8,0.8,6.5,2.5
		c1.7,1.7,2.5,3.8,2.5,6.5V41.5z M59.7,30.6c0-1.1-0.5-2-1.4-2.7c-0.9-0.7-1.9-1-2.9-1H38.1c-0.9,0-1.7,0.4-2.3,1.1
		c-0.6,0.7-0.9,1.6-0.9,2.8v6.8c0,2.7,1.2,4,3.7,4H56c2.5,0,3.7-1.2,3.7-3.6V30.6z"/>
	<path id="XMLID_40_" d="M91.3,26.8h-6.3c-1.1,0-1.9,0.4-2.6,1.1c-0.7,0.7-1,1.7-1,2.8v19.8h-9V26.8c0-2.5,0.8-4.6,2.4-6.3
		c1.7-1.8,3.9-2.8,6.6-2.8h9.9V26.8z"/>
	<path id="XMLID_38_" d="M136.7,41.5c0,2.5-0.8,4.6-2.5,6.4c-1.7,1.7-3.8,2.6-6.5,2.6h-24.8c-2.5,0-4.6-0.9-6.4-2.6
		c-1.8-1.7-2.6-3.9-2.6-6.4V26.8c0-2.3,0.9-4.4,2.6-6.3c1.8-1.8,3.9-2.8,6.4-2.8h21.8v9H107c-1.1,0-2,0.4-2.8,1.1
		c-0.8,0.8-1.3,1.6-1.3,2.6V37c0,1.3,0.4,2.4,1.3,3.2c0.9,0.8,1.9,1.2,3,1.2H124c1.1,0,2-0.3,2.6-1c0.7-0.7,1-1.5,1-2.5V11.7h9V41.5
		z"/>
</g>
<g id="XMLID_31_">
	<path id="XMLID_34_" class="st0" d="M238.5,50.1l13.1-41.4h4.8l13.9,41.4h-5.1l-4-12.5h-14.3l-3.7,12.5H238.5z M248.2,33.1h11.6
		l-3.5-11.5c-1.1-3.5-1.9-6.4-2.4-8.6c-0.4,2.7-1.1,5.3-1.9,7.9L248.2,33.1z"/>
	<path id="XMLID_32_" class="st0" d="M280.1,50.1L266.9,8.6h4.9l8.9,30.1c0.7,2.3,1.3,4.6,1.8,6.8c0.5-2.3,1.1-4.5,1.8-6.8l9.2-30.1
		h4.6l-13.3,41.4H280.1z"/>
</g>
<path class="st1" d="M225.8,6.2c-0.9-0.6-1.7-1.1-2.7-1.5c-3.6-1.8-7.7-2.9-12.1-2.9c-3.6,0-7.1,0.7-10.2,2
	c-4.2,1.7-7.9,4.6-10.8,8.1c-2.6-3.3-5.9-6-9.8-7.8c-3.4-1.6-7.2-2.5-11.3-2.5c0,0,0,0-0.1,0c-3.2,0-6.3,0.6-9.2,1.6
	C149.4,7,142,16.9,142,28.5c0,11.6,7.4,21.5,17.7,25.3c2.9,1.1,6,1.6,9.2,1.6c0,0,0,0,0.1,0c4,0,7.9-0.9,11.3-2.5
	c3.8-1.8,7-4.4,9.6-7.6c2.9,3.6,6.6,6.5,10.9,8.3c3.1,1.3,6.6,2,10.2,2c4.3,0,8.4-1,12.1-2.9c0.9-0.5,1.8-1,2.7-1.5
	c7.3-4.8,12.2-13.1,12.2-22.5C238,19.3,233.1,11,225.8,6.2z M164.2,29.7c-1.9-0.3-1.2-1.1-1.9-1.4c-0.8-0.3-1.8-0.4-2.3,0
	c-0.5,0.4,1.8,4-0.2,4.8c0,0,0,0-0.1,0c-1.4,0.3-5.8-0.9-6.6-2.9c-0.8-2,0.4-8.4,1.9-9.3c1-0.6,3.1-0.7,4.7-0.6
	c0.8,0.1,1.5,0.2,1.9,0.3c1.1,0.4,1,1,0.8,1.8c-0.2,0.8-1.9,2.4-1.8,3c0.1,0.5,1.2,0.9,1.9,0.9c0.7,0,1.2-1,2.1-0.8
	C167.8,26.1,166.8,30,164.2,29.7z M169,30.4c-0.7,0.2-1.3,0.2-2,0.2c-0.7-1.6-0.2-3.6,0.9-4.9c0.3,0.1,0.7,0.3,1.1,0.5
	c1,0.6,1.9,1.5,2.3,2.7C170.6,29.8,169.8,30.2,169,30.4z M183,36.3c-0.6,0.5-1.6,0.5-2.7,0.5c-0.4,0-0.9,0-1.4,0
	c-2.6,0.1-4.2-0.8-3.4-2c2.5-3.2,3-6.2,1.9-10.2c-0.2-1,0.9-1.4,2.9-0.8c0.2,0.1,0.4,0.1,0.6,0.2c1.7,0.6,3.4,1.2,4.1,2.4
	C185.8,28.5,185,33.7,183,36.3z M200.8,12.7c2-1.2,4.1-2.1,6.3-2.6c0.3,1.1,0.7,2.2,1,3.3c-1.6,0.4-1.8,1.2-1.6,2.5
	c-2.5,0.9-4.3,2.3-5.6,4c-0.9,1.2-1.7,2.6-2.2,4.1c-1.7-0.6-3.3-1.2-5-1.9C195,17.8,197.7,14.7,200.8,12.7z M200.8,44.2
	c-1.2-0.8-2.3-1.8-3.3-2.8c0.7-0.8,1.5-1.6,2.3-2.5c0.3,0.4,0.7,0.6,1,0.7c0.7,0.2,1.3-0.1,1.9-0.6c3.5,2.9,7.2,3.3,11,2.7
	c0.3,1.7,0.6,3.5,0.9,5.2C209.1,48.1,204.4,46.7,200.8,44.2z M224.6,33.2c-0.2,0.5-0.8,0.8-1.1,0.7c-0.2-0.1-0.3-0.1-0.4-0.2
	c-0.2-0.1-0.3-0.1-0.5-0.2c-1.9,4.4-6.3,7.4-11.4,7.4c-3.3,0-6.3-1.3-8.6-3.4c0,0,0,0,0.1,0.1c-0.3,0.3-0.3,0.3-0.7,0.6
	c-0.4,0-0.9,0.1-1.2-0.1c-0.2-0.1-0.3-0.2-0.4-0.3c-0.3-0.4-0.2-1.1,0-1.3c0.1-0.2,0.2-0.2,0.3-0.3c0.1-0.1,0.2-0.2,0.4-0.3
	c0,0,0,0,0.1,0.1c-0.2-0.2-0.3-0.4-0.4-0.6c-1.3-2-2-4.3-2-6.8c0-2.5,0.7-4.9,2-6.8c1.6-2.4,4-4.2,6.8-5.1c0-0.5,0-1,0-1.5
	c0.3-0.3,0.6-0.6,1.1-0.6c0.5,0,1.1,0.4,1.1,0.7c0,0.4,0,0.6,0.1,0.9c0.5,0,0.9-0.1,1.4-0.1c5.6,0,10.3,3.7,11.9,8.8
	c0.4,1.2,0.6,2.4,0.6,3.7c0,1-0.1,2-0.4,2.9c0.4,0.1,0.9,0.2,1.2,0.5C224.9,32.3,224.8,32.8,224.6,33.2z M229.2,34.1
	c-1.1-0.2-2.2-0.5-3.3-0.8c0.2-0.8,0.2-1.4-0.1-1.8c-0.2-0.4-0.7-0.6-1.3-0.9c0.6-3.3,0-6.1-1.4-8.5c-0.5-0.8-1-1.6-1.6-2.4
	c0.5-0.4,1.1-0.9,1.6-1.3c0.8-0.7,1.7-1.3,2.5-2c0.1,0.1,0.1,0.2,0.2,0.2C230.6,22.3,230.8,28.7,229.2,34.1z"/>
<g id="XMLID_21_">
	<path id="XMLID_93_" d="M6.3,74.1l-3.1,1.6c-0.5,0.2-0.8,0.4-1,0.4c-0.3,0-0.5-0.1-0.7-0.3c-0.1-0.2-0.2-0.5-0.2-0.9
		c0-0.5,0.1-1,0.3-1.6c0.2-0.6,0.4-1,0.7-1.3c0.3-0.3,0.9-0.7,1.8-1.2c1-0.5,2.1-1,3.5-1.5c1.4-0.5,2.8-0.9,4.2-1.3
		c1.5-0.3,2.8-0.5,4-0.5c0.9,0,1.5,0.1,1.9,0.4c0.4,0.3,0.6,1,0.6,2.1c0,0.6-0.2,1.3-0.6,2.1c-0.4,0.8-0.9,1.5-1.6,2.2
		c-0.6,0.7-1.7,2-3.4,3.9c0.9-0.1,1.5-0.2,1.9-0.3c0.4,0,1.2-0.1,2.3-0.2c1.3-1.9,2.3-3.3,3.1-4.5c0.8-1.1,1.5-2,2-2.8
		c0.6-0.7,0.9-1.1,1-1.3c0.2-0.2,0.4-0.3,0.5-0.3c0.1,0.1,0.2,0.3,0.2,0.6c0,0.4,0,0.7-0.1,1c-0.1,0.3-0.2,0.5-0.4,0.7
		c-0.2,0.2-0.3,0.4-0.3,0.4c-0.3,0.4-0.6,1-1.1,1.6c-0.5,0.7-0.9,1.3-1.4,2c-0.5,0.7-1,1.4-1.6,2.3c1.1,0,2.2,0.2,3.2,0.4l-2.6,3.5
		c-0.7-0.1-1.7-0.1-2.9-0.1c-0.3,0.6-0.5,1-0.7,1.4c-0.2,0.3-0.3,0.6-0.4,0.9c-0.1,0.3-0.2,0.6-0.2,0.8c0,0.2,0,0.4,0.1,0.6
		c0.1,0.3,0.1,0.4,0.1,0.4c0,0.2-0.1,0.4-0.4,0.6c-0.3,0.2-0.6,0.4-1,0.6c-0.4,0.2-0.7,0.2-0.9,0.2c-0.4,0-0.5-0.3-0.5-0.8
		c0-1.1,0.6-2.7,1.7-4.7c-1.5,0.1-3.3,0.4-5.3,0.7c-0.6,0.8-1.1,1.5-1.6,2.1c-0.5,0.7-0.8,1.2-1.1,1.7c-0.3,0.5-0.5,0.8-0.7,0.9
		c-0.1,0.2-0.3,0.2-0.5,0.2c-0.3,0-0.5-0.1-0.7-0.4c-0.1-0.1-0.1-0.2-0.2-0.3c0-0.1,0-0.2,0-0.3c0-0.1,0-0.2,0-0.3
		c0-0.1,0.1-0.3,0.2-0.5c0.1-0.2,0.4-0.7,0.9-1.3c0.5-0.7,0.8-1.2,1-1.5c-0.3,0-0.6,0-1,0c-0.5,0-0.9-0.1-1.2-0.3
		c-0.3-0.2-0.5-0.4-0.5-0.7c0-0.3,0.1-0.6,0.2-1C4.6,80.5,4.8,80.2,5,80c0.3-0.2,0.5-0.4,0.8-0.4c0.2,0,0.4,0.1,0.6,0.2l3.7-0.9
		c2.1-2.3,3.6-4.1,4.7-5.4c1-1.3,1.5-2.2,1.5-2.5c0-0.2-0.1-0.4-0.2-0.5c-0.1-0.1-0.3-0.2-0.5-0.3c-0.2-0.1-0.4-0.1-0.7-0.1
		c-0.3,0-0.8,0.1-1.5,0.3C12.8,70.4,12,70.6,11,71c-1,0.3-2.2,0.8-3.6,1.4c-1.1,0.4-1.6,0.7-1.6,0.8c0,0.1,0.1,0.2,0.2,0.3
		c0.1,0,0.3,0.1,0.6,0.1c0.2,0,0.3,0.1,0.3,0.1c0,0-0.1,0.1-0.2,0.2C6.7,73.9,6.5,74,6.3,74.1z"/>
	<path id="XMLID_90_" d="M24.8,82.8v0.4c0,0.6,0.1,1,0.4,1.3c0.3,0.3,0.6,0.5,1.1,0.5c0.5,0,1-0.1,1.5-0.3c0.5-0.2,1-0.5,1.5-0.9
		c0.5-0.4,1.1-0.9,1.8-1.5v0.9c-1.1,1.3-2.1,2.3-3.1,3c-1,0.7-1.9,1.1-2.9,1.1c-0.9,0-1.5-0.3-2-1c-0.5-0.7-0.8-1.6-0.8-2.7
		c0-1,0.2-1.9,0.7-2.8c0.5-0.8,1.2-1.7,2.3-2.6c0.7-0.6,1.5-1.1,2.2-1.4c0.7-0.3,1.4-0.5,1.9-0.5c0.5,0,0.8,0.1,1.1,0.3
		c0.3,0.2,0.4,0.5,0.4,0.9c0,0.6-0.2,1.2-0.7,1.8c-0.5,0.6-1.1,1.2-2.1,1.8C27.3,81.6,26.1,82.2,24.8,82.8z M24.9,81.8
		c0.9-0.3,1.6-0.8,2.2-1.3c0.6-0.5,1.1-1,1.4-1.4c0.3-0.5,0.4-0.8,0.4-1c0-0.2-0.1-0.3-0.3-0.3c-0.2,0-0.5,0.1-0.8,0.3
		c-0.4,0.2-0.8,0.5-1.2,0.9c-0.4,0.4-0.8,0.8-1.1,1.3C25.2,80.7,25,81.3,24.9,81.8z"/>
	<path id="XMLID_87_" d="M38.1,82.1v1.1c-2,2.7-3.7,4-4.9,4c-0.7,0-1.2-0.4-1.6-1.1c-0.4-0.7-0.6-1.7-0.6-3c0-1,0.2-2.2,0.7-3.5
		c0.5-1.4,1.1-2.7,1.9-4.1c0.8-1.4,1.6-2.6,2.4-3.7c0.8-1,1.6-1.8,2.3-2.2c0.3-0.2,0.5-0.3,0.7-0.3c0.2,0,0.3,0.1,0.4,0.3
		c0.1,0.2,0.1,0.5,0.1,0.9c0,1.3-0.5,3-1.6,5c-1.1,2-2.6,4-4.6,6c-0.1,0.5-0.1,0.9-0.1,1.2c0,0.6,0.1,1.1,0.4,1.5
		c0.3,0.4,0.6,0.6,1.1,0.6c0.2,0,0.5-0.1,0.8-0.3c0.3-0.2,0.6-0.4,0.9-0.7C36.6,83.5,37.2,82.9,38.1,82.1z M33.7,79.5
		c0.5-0.5,1-1.1,1.5-1.7c0.5-0.6,0.9-1.3,1.3-2c0.4-0.7,0.7-1.4,1-1.9c0.2-0.6,0.4-1,0.4-1.3c0-0.2-0.1-0.3-0.2-0.3
		c-0.1,0-0.2,0.1-0.3,0.2c-0.6,0.5-1.3,1.4-2,2.8C34.6,76.6,34.1,78,33.7,79.5z"/>
	<path id="XMLID_84_" d="M37.8,83.5v-1c1.4-1.5,2.5-2.9,3.5-4.2c1-1.3,1.8-2.3,2.3-3.1c0.6-0.8,1.1-1.3,1.5-1.6
		c0.4-0.3,1-0.5,1.6-0.5c0.3,0,0.5,0.1,0.5,0.4c0,0.2-0.1,0.5-0.4,0.9c-0.3,0.4-0.6,0.8-1,1.2c-0.6,0.5-1.1,1.2-1.6,2
		c-0.5,0.8-1.1,1.9-1.8,3.1c0.5-0.4,1.1-0.9,1.8-1.4c0.7-0.6,1.2-1,1.7-1.3c0.4-0.3,0.9-0.6,1.3-0.7c0.4-0.2,0.8-0.3,1.3-0.3
		c0.3,0,0.4,0,0.5,0.1c0.1,0.1,0.1,0.3,0.1,0.6c0,0.7-0.2,1.5-0.5,2.2c-0.4,0.7-0.9,1.4-1.5,2.2c-0.7,0.8-1.5,1.6-2.5,2.5
		c0.3,0.1,0.7,0.2,1,0.2c1.1,0,2.6-0.9,4.5-2.6v1c-0.7,0.7-1.5,1.3-2.2,1.9c-0.7,0.6-1.4,1-2,1.4c-0.6,0.3-1.2,0.5-1.7,0.5
		c-0.2,0-0.4,0-0.6-0.1c-0.2,0-0.4-0.1-0.6-0.2c-0.2-0.1-0.4-0.2-0.7-0.3c-0.3-0.1-0.5-0.2-0.7-0.2c-0.3,0.1-0.5,0.1-0.5,0.1
		c-0.3,0-0.7-0.1-1.2-0.4c-0.3,0.6-0.7,1.4-1.1,2.4c-0.4,1-0.7,1.8-1,2.3c-0.3,0.6-0.6,1.1-1,1.7c-0.2,0.2-0.4,0.4-0.5,0.4
		c-0.4,0-0.6-0.4-0.6-1.1c0-0.6,0.1-1.3,0.4-2c0.3-0.7,0.6-1.3,0.9-2c0.4-0.6,0.8-1.2,1.2-1.9c0.4-0.6,0.8-1.1,0.9-1.4
		c1.5-2.6,2.7-4.9,3.6-6.7C40.6,80.3,38.9,82.3,37.8,83.5z M43.7,84.2c1-1,1.7-1.9,2.1-2.6c0.5-0.7,0.7-1.2,0.7-1.6
		c0-0.4-0.2-0.5-0.5-0.5c-0.5,0-1.2,0.4-2,1.2c-0.9,0.8-1.8,1.9-2.7,3.2c0.7-0.1,1.2-0.1,1.4-0.1C42.9,83.8,43.3,83.9,43.7,84.2z"/>
	<path id="XMLID_81_" d="M57,82.2v1.1c-0.9,1.2-1.8,2.1-2.6,2.7c-0.8,0.6-1.5,0.9-2.1,0.9c-0.8,0-1.4-0.4-1.8-1.2
		c-0.4-0.8-0.6-1.7-0.6-2.7c0-0.4,0-0.7,0.1-1.1c0.1-0.3,0.2-0.6,0.3-0.9c0.1-0.2,0.3-0.6,0.6-1c1.4-2.1,2.6-3.2,3.8-3.2
		c0.6,0,0.9,0.2,0.9,0.7c0,0.3-0.2,0.8-0.6,1.5c-0.4,0.7-0.7,1.1-1,1.4c-0.8,0.8-1.4,1.4-1.6,1.7c-0.3,0.3-0.4,0.7-0.4,1.1
		c0,0.3,0.1,0.6,0.4,0.9c0.3,0.2,0.6,0.3,1,0.3c0.5,0,1-0.2,1.5-0.5C55.4,83.5,56.1,83,57,82.2z M56,75.8c-0.2,0-0.5-0.1-0.7-0.3
		c-0.2-0.2-0.3-0.4-0.3-0.7c0-0.4,0.2-0.9,0.6-1.4c0.4-0.5,0.8-0.8,1.3-0.8c0.3,0,0.5,0.1,0.7,0.3c0.2,0.2,0.3,0.4,0.3,0.8
		c0,0.4-0.2,0.9-0.6,1.4C56.9,75.5,56.4,75.8,56,75.8z"/>
	<path id="XMLID_79_" d="M66.6,79.6c-1.7,1.9-2.6,3.2-2.6,4c0,0.4,0.2,0.6,0.5,0.6c0.3,0,0.6-0.1,1.1-0.4c0.5-0.3,1.2-0.8,2.1-1.6v1
		c-1.4,1.4-2.4,2.3-3.2,2.9c-0.7,0.6-1.3,0.9-1.8,0.9c-0.8,0-1.2-0.5-1.2-1.6c0-0.3,0-0.6,0.1-0.9c0.1-0.3,0.2-0.6,0.4-0.9
		c0.2-0.3,0.4-0.8,0.8-1.4c0.3-0.6,0.8-1.3,1.2-2.1c-0.6,0.3-1.2,0.8-2.1,1.7c-0.5,0.5-1,1-1.4,1.5c-0.4,0.5-0.8,1-1.2,1.6
		c-0.4,0.6-0.7,1-0.9,1.2c-0.2,0.2-0.4,0.3-0.6,0.3c-0.3,0-0.6-0.3-0.9-1c-0.3-0.6-0.4-1.4-0.4-2.3c0-0.5,0.1-0.9,0.2-1.2
		c0.1-0.3,0.4-0.7,0.7-1.3c0.7-1,1.2-1.8,1.7-2.3c0.5-0.5,0.9-0.7,1.4-0.7c0.3,0,0.6,0.1,0.7,0.2c0.2,0.1,0.3,0.3,0.3,0.5
		c0,0.1,0,0.2-0.1,0.3c-0.1,0.1-0.1,0.2-0.2,0.3c-0.1,0.1-0.2,0.3-0.5,0.5c-1.5,1.7-2.3,2.8-2.3,3.3c0,0.3,0.1,0.4,0.3,0.4
		c0.1,0,0.3-0.2,0.7-0.6c0.3-0.4,0.8-0.9,1.3-1.5c0.5-0.6,1.2-1.2,1.9-1.9c0.7-0.7,1.5-1.3,2.5-1.9c0.5-0.4,0.9-0.5,1.3-0.5
		c0.2,0,0.3,0.2,0.5,0.6c0.1,0.4,0.2,0.9,0.2,1.3C67.2,78.9,67,79.2,66.6,79.6z"/>
	<path id="XMLID_77_" d="M79.2,83.2l-4.8,4c-1.4,2.3-2.6,4.1-3.7,5.2c-1.1,1.2-1.9,1.7-2.5,1.7c-0.3,0-0.4-0.2-0.4-0.5
		c0-0.7,0.4-1.6,1.1-2.7c0.3-0.4,0.6-0.8,1-1.2c0.4-0.4,0.7-0.8,1-1.1c0.3-0.3,0.8-0.7,1.3-1.1c0.5-0.4,0.9-0.7,1.1-0.9
		c1-2,1.7-3.5,2.1-4.5c-0.9,1-1.7,1.8-2.4,2.4c-0.7,0.6-1.3,1.1-1.9,1.4c-0.6,0.3-1.1,0.5-1.5,0.5c-0.5,0-0.9-0.4-1.4-1.2
		c-0.4-0.8-0.6-1.6-0.6-2.4c0-0.4,0.1-0.8,0.3-1.2c0.2-0.4,0.5-0.9,0.8-1.4c0.4-0.5,0.9-1,1.5-1.5c0.6-0.5,1.3-1,2.1-1.5
		c1.5-0.9,2.7-1.4,3.5-1.4c0.6,0,0.9,0.2,0.9,0.7c0,0.6-0.7,1.2-2,1.8c-0.8,0.4-1.6,0.8-2.4,1.4c-0.8,0.6-1.5,1.2-2,1.9
		c-0.5,0.7-0.7,1.3-0.7,1.8c0,0.3,0.1,0.5,0.2,0.6c0.1,0.2,0.3,0.2,0.5,0.2c0.3,0,0.7-0.2,1.2-0.5c0.4-0.3,1.1-0.9,1.9-1.6
		c0.4-0.4,0.9-0.9,1.5-1.7c0.6-0.8,1.2-1.4,1.6-1.8c0.4-0.4,0.8-0.6,1.1-0.6c0.2,0,0.4,0.1,0.5,0.2c0.1,0.1,0.2,0.3,0.2,0.5
		c0,0.4-0.2,1.1-0.5,1.9c-0.4,0.8-1,2.2-1.9,4.2l3.5-2.6V83.2z"/>
	<path id="XMLID_74_" d="M93.3,78.2l4.4-6.6c-1,0-2.1,0.2-3.2,0.4c-1.1,0.3-2.1,0.5-2.9,0.8c-0.8,0.3-1.5,0.6-2.1,0.8
		c-0.6,0.3-1.1,0.4-1.3,0.5c-0.1,0-0.1,0-0.2-0.1c-0.1,0-0.1-0.1-0.1-0.2c0-0.1,0.2-0.6,0.7-1.4c0.4-0.9,1-1.8,1.6-2.8
		c3.4-1.2,6.4-1.8,9-1.8c3,0,5.1,0.6,6.2,1.9c0.4,0.4,0.7,1,1,1.6c0.2,0.7,0.3,1.3,0.3,1.9c0,1.5-0.3,2.8-0.9,4
		c-0.6,1.2-1.5,2.2-2.6,3.1s-2.4,1.5-4,2c-1.5,0.5-3.2,0.7-5,0.7c-0.3,0-1-0.1-2-0.2L91,85.3c0.1,0.2,0.2,0.4,0.2,0.5
		c0,0.3-0.1,0.6-0.2,0.8c-0.2,0.3-0.4,0.7-0.8,1.1c-0.3,0.5-0.5,0.8-0.6,0.9c-0.1,0.2-0.2,0.3-0.4,0.4c-0.1,0.1-0.3,0.2-0.4,0.2
		c-0.3,0-0.5-0.1-0.5-0.3c-0.1-0.2-0.1-0.4-0.1-0.7c0-0.4,0.2-1.1,0.6-2c0.4-0.9,1.1-2.2,1.9-3.7c-0.5-0.2-0.8-0.4-1.1-0.7
		c-0.3-0.3-0.4-0.6-0.4-0.8c0-0.6,0.3-1.2,1-1.7C91,78.9,92,78.5,93.3,78.2z M94.8,78.6L94,80c0.4,0,0.7,0,1,0.1c0.3,0,0.5,0,0.7,0
		c1.7,0,3.2-0.2,4.4-0.7c1.2-0.5,2.2-1,3-1.7c0.7-0.7,1.3-1.3,1.6-2c0.3-0.7,0.5-1.2,0.5-1.7c0-0.6-0.3-1.1-0.8-1.5
		c-0.5-0.4-1.2-0.6-2.2-0.7c-0.9-0.1-2.2-0.2-3.7-0.2c0,0.1,0,0.2,0,0.4c0,0.5-0.3,1.2-0.8,2l-2.5,4l1.9-0.2c0.2,0,0.2,0.1,0.2,0.2
		c0,0.1-0.1,0.2-0.4,0.3L94.8,78.6z"/>
	<path id="XMLID_71_" d="M107.7,82.8v0.4c0,0.6,0.1,1,0.4,1.3c0.3,0.3,0.6,0.5,1.1,0.5c0.5,0,1-0.1,1.5-0.3c0.5-0.2,1-0.5,1.5-0.9
		c0.5-0.4,1.1-0.9,1.8-1.5v0.9c-1.1,1.3-2.1,2.3-3.1,3c-1,0.7-1.9,1.1-2.9,1.1c-0.9,0-1.5-0.3-2-1c-0.5-0.7-0.8-1.6-0.8-2.7
		c0-1,0.2-1.9,0.7-2.8c0.5-0.8,1.2-1.7,2.3-2.6c0.7-0.6,1.5-1.1,2.2-1.4c0.7-0.3,1.4-0.5,1.9-0.5c0.5,0,0.8,0.1,1.1,0.3
		c0.3,0.2,0.4,0.5,0.4,0.9c0,0.6-0.2,1.2-0.7,1.8c-0.5,0.6-1.1,1.2-2.1,1.8C110.2,81.6,109,82.2,107.7,82.8z M107.8,81.8
		c0.9-0.3,1.6-0.8,2.2-1.3c0.6-0.5,1.1-1,1.4-1.4c0.3-0.5,0.4-0.8,0.4-1c0-0.2-0.1-0.3-0.3-0.3c-0.2,0-0.5,0.1-0.8,0.3
		c-0.4,0.2-0.8,0.5-1.2,0.9c-0.4,0.4-0.8,0.8-1.1,1.3C108.1,80.7,107.9,81.3,107.8,81.8z"/>
	<path id="XMLID_68_" d="M123.4,82.2v1c-0.6,0.6-1.2,1-1.5,1.2c-0.4,0.2-0.9,0.3-1.7,0.2c-1.3,1.5-2.4,2.2-3.3,2.2
		c-0.5,0-1-0.2-1.5-0.5c-0.4-0.4-0.8-0.8-1.1-1.5c-0.3-0.6-0.4-1.3-0.4-2.1c0-0.6,0.2-1.3,0.6-2.1c0.4-0.8,0.9-1.5,1.6-2.1
		c0.7-0.7,1.4-1.2,2.1-1.6c0.7-0.4,1.4-0.6,2.1-0.6c0.5,0,0.8,0.1,1.1,0.2c0.3,0.1,0.4,0.3,0.4,0.6c0,0.2-0.1,0.4-0.3,0.7
		c0.4,0.1,0.6,0.2,0.8,0.4c0.1,0.2,0.2,0.5,0.2,1c0,0.5-0.1,1.1-0.3,1.8c-0.2,0.7-0.5,1.4-0.9,2l0.3,0.3h0.2c0.2,0,0.3,0,0.5-0.1
		c0.2-0.1,0.3-0.2,0.4-0.3C122.7,82.7,122.9,82.5,123.4,82.2z M120.4,78.4c-0.8,0.5-1.5,0.9-2.1,1.3c-0.6,0.4-1.1,0.8-1.5,1.2
		c-0.4,0.4-0.7,0.8-0.8,1.2c-0.2,1.1-0.4,1.7-0.4,1.8c0,0.6,0.4,1,1.3,1c0.4,0,1.1-0.4,2.1-1.1c-0.2-0.5-0.2-0.9-0.2-1.3
		c0-0.6,0.1-1.2,0.4-1.9C119.5,80,119.9,79.2,120.4,78.4z"/>
	<path id="XMLID_65_" d="M123.2,83.5v-1c1.4-1.5,2.5-2.9,3.5-4.2c1-1.3,1.8-2.3,2.3-3.1c0.6-0.8,1.1-1.3,1.5-1.6
		c0.4-0.3,1-0.5,1.6-0.5c0.3,0,0.5,0.1,0.5,0.4c0,0.2-0.1,0.5-0.4,0.9c-0.3,0.4-0.6,0.8-1,1.2c-0.6,0.5-1.1,1.2-1.6,2
		c-0.5,0.8-1.1,1.9-1.8,3.1c0.5-0.4,1.1-0.9,1.8-1.4c0.7-0.6,1.2-1,1.7-1.3c0.4-0.3,0.9-0.6,1.3-0.7c0.4-0.2,0.8-0.3,1.3-0.3
		c0.3,0,0.4,0,0.5,0.1c0.1,0.1,0.1,0.3,0.1,0.6c0,0.7-0.2,1.5-0.5,2.2c-0.4,0.7-0.9,1.4-1.5,2.2c-0.7,0.8-1.5,1.6-2.5,2.5
		c0.3,0.1,0.7,0.2,1,0.2c1.1,0,2.6-0.9,4.5-2.6v1c-0.7,0.7-1.5,1.3-2.2,1.9c-0.7,0.6-1.4,1-2,1.4c-0.6,0.3-1.2,0.5-1.7,0.5
		c-0.2,0-0.4,0-0.6-0.1c-0.2,0-0.4-0.1-0.6-0.2c-0.2-0.1-0.4-0.2-0.7-0.3c-0.3-0.1-0.5-0.2-0.7-0.2c-0.3,0.1-0.5,0.1-0.5,0.1
		c-0.3,0-0.7-0.1-1.2-0.4c-0.3,0.6-0.7,1.4-1.1,2.4c-0.4,1-0.7,1.8-1,2.3c-0.3,0.6-0.6,1.1-1,1.7c-0.2,0.2-0.4,0.4-0.5,0.4
		c-0.4,0-0.6-0.4-0.6-1.1c0-0.6,0.1-1.3,0.4-2c0.3-0.7,0.6-1.3,0.9-2c0.4-0.6,0.8-1.2,1.2-1.9c0.4-0.6,0.8-1.1,0.9-1.4
		c1.5-2.6,2.7-4.9,3.6-6.7C126,80.3,124.3,82.3,123.2,83.5z M129.1,84.2c1-1,1.7-1.9,2.1-2.6c0.5-0.7,0.7-1.2,0.7-1.6
		c0-0.4-0.2-0.5-0.5-0.5c-0.5,0-1.2,0.4-2,1.2c-0.9,0.8-1.8,1.9-2.7,3.2c0.7-0.1,1.2-0.1,1.4-0.1C128.3,83.8,128.6,83.9,129.1,84.2z
		"/>
	<path id="XMLID_62_" d="M142.3,82.1v1.1c-2,2.7-3.7,4-4.9,4c-0.7,0-1.2-0.4-1.6-1.1c-0.4-0.7-0.6-1.7-0.6-3c0-1,0.2-2.2,0.7-3.5
		c0.5-1.4,1.1-2.7,1.9-4.1c0.8-1.4,1.6-2.6,2.4-3.7c0.8-1,1.6-1.8,2.3-2.2c0.3-0.2,0.5-0.3,0.7-0.3c0.2,0,0.3,0.1,0.4,0.3
		c0.1,0.2,0.1,0.5,0.1,0.9c0,1.3-0.5,3-1.6,5c-1.1,2-2.6,4-4.6,6c-0.1,0.5-0.1,0.9-0.1,1.2c0,0.6,0.1,1.1,0.4,1.5
		c0.3,0.4,0.6,0.6,1.1,0.6c0.2,0,0.5-0.1,0.8-0.3c0.3-0.2,0.6-0.4,0.9-0.7C140.8,83.5,141.4,82.9,142.3,82.1z M138,79.5
		c0.5-0.5,1-1.1,1.5-1.7c0.5-0.6,0.9-1.3,1.3-2c0.4-0.7,0.7-1.4,1-1.9c0.2-0.6,0.4-1,0.4-1.3c0-0.2-0.1-0.3-0.2-0.3
		c-0.1,0-0.2,0.1-0.3,0.2c-0.6,0.5-1.3,1.4-2,2.8C138.8,76.6,138.3,78,138,79.5z"/>
	<path id="XMLID_59_" d="M144.5,82.8v0.4c0,0.6,0.1,1,0.4,1.3c0.3,0.3,0.6,0.5,1.1,0.5c0.5,0,1-0.1,1.5-0.3c0.5-0.2,1-0.5,1.5-0.9
		c0.5-0.4,1.1-0.9,1.8-1.5v0.9c-1.1,1.3-2.1,2.3-3.1,3c-1,0.7-1.9,1.1-2.9,1.1c-0.9,0-1.5-0.3-2-1c-0.5-0.7-0.8-1.6-0.8-2.7
		c0-1,0.2-1.9,0.7-2.8c0.5-0.8,1.2-1.7,2.3-2.6c0.7-0.6,1.5-1.1,2.2-1.4c0.7-0.3,1.4-0.5,1.9-0.5c0.5,0,0.8,0.1,1.1,0.3
		c0.3,0.2,0.4,0.5,0.4,0.9c0,0.6-0.2,1.2-0.7,1.8c-0.5,0.6-1.1,1.2-2.1,1.8C147,81.6,145.9,82.2,144.5,82.8z M144.7,81.8
		c0.9-0.3,1.6-0.8,2.2-1.3c0.6-0.5,1.1-1,1.4-1.4c0.3-0.5,0.4-0.8,0.4-1c0-0.2-0.1-0.3-0.3-0.3c-0.2,0-0.5,0.1-0.8,0.3
		c-0.4,0.2-0.8,0.5-1.2,0.9c-0.4,0.4-0.8,0.8-1.1,1.3C145,80.7,144.8,81.3,144.7,81.8z"/>
	<path id="XMLID_57_" d="M177.3,82.2v0.9c-1.6,1.8-3.1,3.3-4.5,4.5c-1.4,1.2-2.7,2.1-4,2.7c-1.3,0.6-2.6,1-3.8,1
		c-1,0-1.9-0.2-2.7-0.6c-0.7-0.4-1.3-1-1.7-1.8c-0.4-0.8-0.6-1.7-0.6-2.8c0-0.9,0.1-1.8,0.4-2.7c0.3-1,0.7-1.9,1.2-2.9
		c0.5-1,1.2-2,1.9-3c0.8-1,1.7-2.1,2.7-3.3c1.1-1.2,2.1-2.2,3.2-3.1c1-0.9,2-1.5,2.8-2c0.8-0.5,1.6-0.9,2.3-1.1
		c0.7-0.2,1.3-0.4,1.8-0.4c0.5,0,0.9,0.1,1.2,0.3c0.3,0.2,0.6,0.6,0.8,1c0.2,0.4,0.3,1,0.3,1.5c0,1.1-0.4,2.3-1.1,3.7
		c-0.7,1.3-1.7,2.6-2.8,3.9c-1.1,1.2-2.2,2.3-3.2,3.1c-1,0.8-1.7,1.2-2.2,1.2c-0.3,0-0.6-0.1-0.8-0.4c-0.3-0.2-0.4-0.5-0.4-0.8
		c0-0.6,0.3-1.2,0.9-2c0.6-0.8,1.2-1.5,1.9-2.2c0.7-0.7,1.1-1,1.2-1c0.1,0,0.1,0,0.1,0.1c0,0.1-0.1,0.2-0.2,0.5
		c-0.1,0.2-0.2,0.3-0.2,0.4c0,0.1,0,0.1,0.1,0.1c0.2,0,0.6-0.4,1.4-1.3c0.8-0.9,1.5-1.9,2.2-2.9c0.7-1.1,1-1.9,1-2.6
		c0-0.3-0.1-0.5-0.2-0.6c-0.1-0.1-0.3-0.2-0.5-0.2c-0.7,0-1.7,0.5-3.1,1.6c-1.4,1.1-2.8,2.5-4.2,4.2c-1.4,1.7-2.7,3.5-3.6,5.3
		c-1,1.8-1.5,3.4-1.5,4.8c0,0.8,0.1,1.5,0.4,2c0.2,0.5,0.6,0.9,1,1.2c0.5,0.3,1,0.4,1.7,0.4c1.4,0,3-0.5,4.8-1.6
		C173.2,85.9,175.2,84.3,177.3,82.2z"/>
	<path id="XMLID_54_" d="M186.5,82.2v1c-0.6,0.6-1.2,1-1.5,1.2c-0.4,0.2-0.9,0.3-1.7,0.2c-1.3,1.5-2.4,2.2-3.3,2.2
		c-0.5,0-1-0.2-1.5-0.5c-0.4-0.4-0.8-0.8-1.1-1.5c-0.3-0.6-0.4-1.3-0.4-2.1c0-0.6,0.2-1.3,0.6-2.1c0.4-0.8,0.9-1.5,1.6-2.1
		c0.7-0.7,1.4-1.2,2.1-1.6c0.7-0.4,1.4-0.6,2.1-0.6c0.5,0,0.8,0.1,1.1,0.2c0.3,0.1,0.4,0.3,0.4,0.6c0,0.2-0.1,0.4-0.3,0.7
		c0.4,0.1,0.6,0.2,0.8,0.4c0.1,0.2,0.2,0.5,0.2,1c0,0.5-0.1,1.1-0.3,1.8c-0.2,0.7-0.5,1.4-0.9,2l0.3,0.3h0.2c0.2,0,0.3,0,0.5-0.1
		c0.2-0.1,0.3-0.2,0.4-0.3C185.8,82.7,186.1,82.5,186.5,82.2z M183.6,78.4c-0.8,0.5-1.5,0.9-2.1,1.3c-0.6,0.4-1.1,0.8-1.5,1.2
		c-0.4,0.4-0.7,0.8-0.8,1.2c-0.2,1.1-0.4,1.7-0.4,1.8c0,0.6,0.4,1,1.3,1c0.4,0,1.1-0.4,2.1-1.1c-0.2-0.5-0.2-0.9-0.2-1.3
		c0-0.6,0.1-1.2,0.4-1.9C182.7,80,183.1,79.2,183.6,78.4z"/>
	<path id="XMLID_52_" d="M193.2,84.2c1.3-1.2,2.5-2.2,3.4-3.1c1-0.9,1.7-1.6,2.3-2.1c0.5-0.5,1-0.9,1.4-1.3c0.4-0.3,0.7-0.5,0.8-0.5
		c0.2,0,0.4,0.2,0.6,0.7c0.2,0.5,0.3,0.8,0.3,1.1c0,0.2-0.3,0.6-0.9,1.3c-0.6,0.7-1.1,1.2-1.4,1.6c-0.3,0.4-0.5,0.8-0.5,1.3
		c0,0.3,0.1,0.5,0.3,0.6c0.2,0.2,0.4,0.2,0.6,0.2c0.3,0,0.6-0.1,1-0.4c0.4-0.3,1-0.8,1.9-1.6v1c-0.8,0.8-1.6,1.5-2.3,2.1
		c-0.7,0.6-1.3,1-1.8,1.3c-0.5,0.3-0.9,0.4-1.3,0.4c-0.3,0-0.6-0.1-0.8-0.3c-0.2-0.2-0.3-0.5-0.3-0.8c0-0.3,0.1-0.7,0.2-1
		c0.1-0.3,0.3-0.7,0.5-1.2c0.2-0.5,0.6-1,1-1.7c0.4-0.7,0.8-1.3,1.1-1.8c-1,0.8-1.9,1.6-2.6,2.3c-0.8,0.7-1.4,1.4-1.9,2
		c-0.5,0.6-0.9,1-1.1,1.3c-0.5,0.6-1,0.9-1.5,0.9c-0.5,0-0.8-0.4-0.8-1.1c0-0.3,0.2-0.8,0.6-1.6c0.4-0.7,0.9-1.7,1.6-2.9
		c0.1-0.1,0.1-0.2,0.1-0.4c0-0.2-0.1-0.3-0.3-0.3c-0.2,0-0.5,0.2-0.9,0.6c-0.4,0.4-1.2,1.2-2.3,2.5c-0.3,0.4-0.7,0.8-1.1,1.4
		c-0.4,0.6-0.7,1-0.9,1.2c-0.2,0.2-0.3,0.3-0.5,0.3c-0.3,0-0.7-0.3-1-0.9c-0.3-0.6-0.5-1.3-0.5-2.2c0-0.6,0.1-1.1,0.3-1.6
		c0.2-0.4,0.5-1,0.9-1.6c0.6-0.9,1.2-1.6,1.6-2c0.4-0.4,0.8-0.6,1.3-0.6c0.3,0,0.5,0.1,0.7,0.2c0.2,0.1,0.3,0.3,0.3,0.5
		c0,0.2-0.2,0.5-0.5,1c-0.4,0.5-0.8,0.9-1.3,1.4c-0.3,0.3-0.6,0.6-0.8,1c-0.3,0.4-0.4,0.7-0.4,0.9c0,0.3,0.1,0.4,0.3,0.4
		c0.2,0,0.6-0.3,1.2-1c0.7-0.7,1.4-1.4,2.2-2.2c0.8-0.8,1.5-1.5,2.2-2c0.7-0.5,1.3-0.8,1.7-0.8c0.3,0,0.5,0.1,0.7,0.3
		c0.2,0.2,0.3,0.5,0.3,0.8c0,0.2-0.1,0.6-0.4,1.2c-0.3,0.6-0.7,1.2-1.3,2.1C194.8,82.1,194,83.1,193.2,84.2z"/>
	<path id="XMLID_50_" d="M209.6,84.2c1.3-1.2,2.5-2.2,3.4-3.1c1-0.9,1.7-1.6,2.3-2.1c0.5-0.5,1-0.9,1.4-1.3c0.4-0.3,0.7-0.5,0.8-0.5
		c0.2,0,0.4,0.2,0.6,0.7c0.2,0.5,0.3,0.8,0.3,1.1c0,0.2-0.3,0.6-0.9,1.3c-0.6,0.7-1.1,1.2-1.4,1.6c-0.3,0.4-0.5,0.8-0.5,1.3
		c0,0.3,0.1,0.5,0.3,0.6c0.2,0.2,0.4,0.2,0.6,0.2c0.3,0,0.6-0.1,1-0.4c0.4-0.3,1-0.8,1.8-1.6v1c-0.8,0.8-1.6,1.5-2.3,2.1
		c-0.7,0.6-1.3,1-1.8,1.3c-0.5,0.3-0.9,0.4-1.3,0.4c-0.3,0-0.6-0.1-0.8-0.3c-0.2-0.2-0.3-0.5-0.3-0.8c0-0.3,0.1-0.7,0.2-1
		c0.1-0.3,0.3-0.7,0.5-1.2c0.2-0.5,0.6-1,1-1.7c0.4-0.7,0.8-1.3,1.1-1.8c-1,0.8-1.9,1.6-2.6,2.3c-0.8,0.7-1.4,1.4-1.9,2
		c-0.5,0.6-0.9,1-1.1,1.3c-0.5,0.6-1,0.9-1.5,0.9c-0.5,0-0.8-0.4-0.8-1.1c0-0.3,0.2-0.8,0.6-1.6c0.4-0.7,0.9-1.7,1.6-2.9
		c0.1-0.1,0.1-0.2,0.1-0.4c0-0.2-0.1-0.3-0.3-0.3c-0.2,0-0.5,0.2-0.9,0.6c-0.4,0.4-1.2,1.2-2.3,2.5c-0.3,0.4-0.7,0.8-1.1,1.4
		c-0.4,0.6-0.7,1-0.9,1.2c-0.2,0.2-0.3,0.3-0.5,0.3c-0.3,0-0.7-0.3-1-0.9c-0.3-0.6-0.5-1.3-0.5-2.2c0-0.6,0.1-1.1,0.3-1.6
		c0.2-0.4,0.5-1,0.9-1.6c0.6-0.9,1.2-1.6,1.6-2c0.4-0.4,0.8-0.6,1.3-0.6c0.3,0,0.5,0.1,0.7,0.2c0.2,0.1,0.3,0.3,0.3,0.5
		c0,0.2-0.2,0.5-0.5,1c-0.4,0.5-0.8,0.9-1.3,1.4c-0.3,0.3-0.6,0.6-0.8,1c-0.3,0.4-0.4,0.7-0.4,0.9c0,0.3,0.1,0.4,0.3,0.4
		c0.2,0,0.6-0.3,1.2-1c0.7-0.7,1.4-1.4,2.2-2.2c0.8-0.8,1.5-1.5,2.2-2c0.7-0.5,1.3-0.8,1.7-0.8c0.3,0,0.5,0.1,0.7,0.3
		c0.2,0.2,0.3,0.5,0.3,0.8c0,0.2-0.1,0.6-0.4,1.2c-0.3,0.6-0.7,1.2-1.3,2.1C211.2,82.1,210.4,83.1,209.6,84.2z"/>
	<path id="XMLID_48_" d="M226.2,81.3c-1.4,1.9-2.5,3.2-3.2,4c-0.7,0.8-1.3,1.2-1.8,1.2c-0.4,0-0.7-0.2-1-0.5
		c-0.3-0.3-0.5-0.7-0.7-1.2c-0.2-0.5-0.3-1.1-0.3-1.7c0-0.4,0-0.7,0.1-1c0.1-0.3,0.2-0.7,0.4-1c0.2-0.4,0.5-0.8,0.8-1.2
		c0.3-0.4,0.7-0.9,1.2-1.5c0.3-0.3,0.5-0.6,0.7-0.9c0.2-0.2,0.4-0.4,0.6-0.5c0.2-0.1,0.5-0.1,0.9-0.1c0.3,0,0.6,0,0.9,0.1
		c0.3,0.1,0.4,0.2,0.4,0.3c0,0.2-0.1,0.5-0.4,0.9c-0.3,0.5-0.7,1-1.4,1.7c-0.6,0.7-1.4,1.3-2.2,1.9c-0.2,0.6-0.3,1-0.3,1.3
		c0,0.4,0.2,0.6,0.5,0.6c0.1,0,0.3-0.1,0.6-0.3c0.3-0.2,0.7-0.6,1.4-1.1c0.6-0.6,1.2-1.1,1.7-1.5c0.4-0.3,0.8-0.8,1.3-1.5
		c0.5-0.7,0.9-1.1,1.2-1.5c0.7-0.8,1.2-1.2,1.5-1.5c0.3-0.2,0.5-0.3,0.8-0.3c0.2,0,0.4,0.1,0.5,0.2c0.1,0.1,0.1,0.4,0.1,0.9
		c0,0.2,0,0.4-0.1,0.5c0,0.1-0.1,0.3-0.2,0.5c-0.1,0.2-0.4,0.6-0.7,1.1c-0.4,0.5-0.8,1.2-1.3,1.9c-0.3,0.4-0.5,0.8-0.7,1.3
		c-0.2,0.5-0.3,0.8-0.3,1c0,0.5,0.2,0.8,0.6,0.8c0.3,0,0.7-0.1,1.1-0.4c0.4-0.3,1.1-0.8,2-1.5v1c-1.1,1-2,1.8-2.5,2.3
		c-0.5,0.5-1,0.8-1.4,1.1c-0.4,0.2-0.8,0.4-1.1,0.4c-0.8,0-1.2-0.5-1.2-1.5c0-0.4,0.1-0.9,0.4-1.5C225.2,83.3,225.6,82.4,226.2,81.3
		z"/>
	<path id="XMLID_46_" d="M240.6,79.6c-1.7,1.9-2.6,3.2-2.6,4c0,0.4,0.2,0.6,0.5,0.6c0.3,0,0.6-0.1,1.1-0.4c0.5-0.3,1.2-0.8,2.1-1.6
		v1c-1.4,1.4-2.4,2.3-3.2,2.9c-0.7,0.6-1.3,0.9-1.8,0.9c-0.8,0-1.2-0.5-1.2-1.6c0-0.3,0-0.6,0.1-0.9c0.1-0.3,0.2-0.6,0.4-0.9
		c0.2-0.3,0.4-0.8,0.8-1.4c0.3-0.6,0.8-1.3,1.2-2.1c-0.6,0.3-1.2,0.8-2.1,1.7c-0.5,0.5-1,1-1.4,1.5c-0.4,0.5-0.8,1-1.2,1.6
		c-0.4,0.6-0.7,1-0.9,1.2c-0.2,0.2-0.4,0.3-0.6,0.3c-0.3,0-0.6-0.3-0.9-1c-0.3-0.6-0.4-1.4-0.4-2.3c0-0.5,0.1-0.9,0.2-1.2
		c0.1-0.3,0.4-0.7,0.7-1.3c0.7-1,1.2-1.8,1.7-2.3c0.5-0.5,0.9-0.7,1.4-0.7c0.3,0,0.6,0.1,0.7,0.2c0.2,0.1,0.3,0.3,0.3,0.5
		c0,0.1,0,0.2-0.1,0.3c-0.1,0.1-0.1,0.2-0.2,0.3c-0.1,0.1-0.2,0.3-0.5,0.5c-1.5,1.7-2.3,2.8-2.3,3.3c0,0.3,0.1,0.4,0.3,0.4
		c0.1,0,0.3-0.2,0.7-0.6c0.3-0.4,0.8-0.9,1.3-1.5c0.5-0.6,1.2-1.2,1.9-1.9c0.7-0.7,1.5-1.3,2.5-1.9c0.5-0.4,0.9-0.5,1.3-0.5
		c0.2,0,0.3,0.2,0.5,0.6c0.1,0.4,0.2,0.9,0.2,1.3C241.2,78.9,241,79.2,240.6,79.6z"/>
	<path id="XMLID_41_" d="M248.6,82.2v1.1c-0.9,1.2-1.8,2.1-2.6,2.7c-0.8,0.6-1.5,0.9-2.1,0.9c-0.8,0-1.4-0.4-1.8-1.2
		c-0.4-0.8-0.6-1.7-0.6-2.7c0-0.4,0-0.7,0.1-1.1c0.1-0.3,0.2-0.6,0.3-0.9c0.1-0.2,0.3-0.6,0.6-1c1.4-2.1,2.6-3.2,3.8-3.2
		c0.6,0,0.9,0.2,0.9,0.7c0,0.3-0.2,0.8-0.6,1.5c-0.4,0.7-0.7,1.1-1,1.4c-0.8,0.8-1.4,1.4-1.6,1.7c-0.3,0.3-0.4,0.7-0.4,1.1
		c0,0.3,0.1,0.6,0.4,0.9c0.3,0.2,0.6,0.3,1,0.3c0.5,0,1-0.2,1.5-0.5C247,83.5,247.7,83,248.6,82.2z M247.6,75.8
		c-0.2,0-0.5-0.1-0.7-0.3c-0.2-0.2-0.3-0.4-0.3-0.7c0-0.4,0.2-0.9,0.6-1.4c0.4-0.5,0.8-0.8,1.3-0.8c0.3,0,0.5,0.1,0.7,0.3
		c0.2,0.2,0.3,0.4,0.3,0.8c0,0.4-0.2,0.9-0.6,1.4C248.5,75.5,248,75.8,247.6,75.8z"/>
	<path id="XMLID_36_" d="M257.2,82.3v1c-1,1-1.9,1.8-2.5,2.4c-0.7,0.6-1.3,1-1.8,1.3c-0.6,0.3-1.1,0.5-1.7,0.5c-0.5,0-1-0.2-1.5-0.6
		c-0.4-0.4-0.8-1-1-1.7c-0.3-0.7-0.4-1.4-0.4-2.2c0-0.7,0.1-1.2,0.4-1.8c0.3-0.5,0.9-1.2,1.7-2c1-1,1.9-1.7,2.8-2.2
		c0.8-0.5,1.5-0.8,2-0.8c0.3,0,0.6,0.1,0.9,0.4c0.2,0.2,0.4,0.5,0.4,0.9c0,0.3-0.2,0.7-0.5,1.3c-0.3,0.6-0.7,1.1-1.1,1.5
		c-0.4,0.4-0.7,0.6-0.9,0.6c-0.3,0-0.4-0.1-0.4-0.4c0-0.1,0-0.1,0-0.2c0-0.1,0-0.1,0-0.2c0-0.1,0-0.2-0.1-0.2c-0.1,0-0.2,0-0.3,0.1
		c-1,0.7-1.6,1.2-2,1.4c-0.4,0.3-0.6,0.6-0.8,0.8c-0.2,0.3-0.3,0.6-0.3,0.9c0,0.6,0.2,1,0.6,1.4c0.4,0.4,0.8,0.5,1.4,0.5
		c0.6,0,1.3-0.2,2.2-0.7C255,83.9,256,83.2,257.2,82.3z"/>
	<path id="XMLID_30_" d="M258.8,79.6c1.5-1.3,2.9-2.3,4.3-3c1.4-0.6,2.5-1,3.2-1c0.2,0,0.4,0.1,0.6,0.3c0.2,0.2,0.3,0.4,0.4,0.6
		c0.1,0.2,0.2,0.4,0.2,0.5c0,0.2-0.1,0.3-0.2,0.4c-0.1,0.1-0.4,0.2-0.7,0.3c0.1,0.2,0.2,0.4,0.3,0.6c0.1,0.2,0.2,0.4,0.2,0.6
		c0.1,0.2,0.1,0.3,0.1,0.4c0,0.2-0.2,0.7-0.7,1.3c-0.5,0.6-0.8,1.1-1,1.4c-0.2,0.3-0.3,0.7-0.3,1.1c0,0.7,0.3,1.1,1,1.1
		c0.7,0,1.7-0.6,3.2-1.9v0.9c-2.5,2.7-4.2,4.1-5.3,4.1c-0.4,0-0.6-0.1-0.8-0.4c-0.2-0.2-0.2-0.6-0.2-1.1c0-0.8,0.3-1.9,0.8-3.3
		c-1.4,1.6-2.5,2.7-3.2,3.3c-0.7,0.7-1.3,1-1.7,1c-0.2,0-0.5-0.2-0.8-0.6c-0.3-0.4-0.6-0.8-0.8-1.4c-0.2-0.6-0.4-1.2-0.4-1.8
		c0-0.5,0-0.8,0.1-1.1c0.1-0.3,0.3-0.6,0.5-0.9C257.9,80.6,258.3,80.2,258.8,79.6z M265.8,78.1c-2.5,1.2-4.3,2.1-5.4,2.9
		c-1.1,0.8-1.6,1.6-1.6,2.5c0,0.3,0.1,0.6,0.2,0.8c0.1,0.2,0.3,0.3,0.4,0.3c0.1,0,0.3-0.1,0.6-0.2c1-0.6,1.9-1.4,2.8-2.3
		C263.6,81,264.6,79.7,265.8,78.1z"/>
	<path id="XMLID_28_" d="M274.3,74.7h0.6c0.5-0.9,1-1.6,1.4-2c0.4-0.4,0.9-0.6,1.4-0.6c0.5,0,0.8,0.1,0.8,0.4c0,0.1-0.2,0.4-0.6,0.9
		c-0.4,0.5-0.7,0.9-0.9,1.3c0.3,0,0.6,0.1,0.9,0.1c0.3,0,0.5,0.1,0.6,0.1c-0.6,1-1.2,2.1-2.1,3.2c-0.3,0-0.5,0-0.7-0.1
		c-0.2,0-0.4,0-0.6,0c-0.2,0-0.4,0-0.7-0.1c-0.5,0.8-1,1.6-1.3,2.3c-0.4,0.7-0.6,1.3-0.8,1.8c-0.2,0.6-0.3,1.1-0.3,1.6
		c0,0.7,0.3,1,0.8,1c0.4,0,0.8-0.2,1.4-0.6c0.6-0.4,1.4-1,2.4-1.8v1c-2.6,2.8-4.5,4.3-5.8,4.3c-0.4,0-0.8-0.2-1.1-0.5
		c-0.3-0.3-0.4-0.8-0.4-1.3c0-0.4,0.1-0.8,0.2-1.3c0.2-0.5,0.4-1.2,0.8-2.2c-0.1,0.1-0.3,0.2-0.4,0.3c-0.1,0.1-0.2,0.2-0.3,0.3
		c-0.1,0.1-0.2,0.2-0.3,0.3c-0.1,0.1-0.2,0.2-0.3,0.3v-1c1-0.9,2.2-2.3,3.7-4.5c-0.1,0-0.3,0-0.4,0c-0.1,0-0.3,0-0.5,0
		c-0.6,0-1,0-1.3,0.1c-0.1,0-0.2,0.1-0.3,0.1c-0.1,0-0.2,0.1-0.2,0.1c0,0-0.1,0-0.1-0.1c0-0.3,0.2-0.8,0.6-1.4
		c0.3-0.5,0.6-0.9,0.9-1.2c0.3-0.3,0.6-0.4,1-0.5C273,74.8,273.6,74.7,274.3,74.7z"/>
	<path id="XMLID_25_" d="M279,82.8v0.4c0,0.6,0.1,1,0.4,1.3c0.3,0.3,0.6,0.5,1.1,0.5c0.5,0,1-0.1,1.5-0.3c0.5-0.2,1-0.5,1.5-0.9
		c0.5-0.4,1.1-0.9,1.8-1.5v0.9c-1.1,1.3-2.1,2.3-3.1,3c-1,0.7-1.9,1.1-2.9,1.1c-0.9,0-1.5-0.3-2-1c-0.5-0.7-0.8-1.6-0.8-2.7
		c0-1,0.2-1.9,0.7-2.8c0.5-0.8,1.2-1.7,2.3-2.6c0.7-0.6,1.5-1.1,2.2-1.4c0.7-0.3,1.4-0.5,1.9-0.5c0.5,0,0.8,0.1,1.1,0.3
		c0.3,0.2,0.4,0.5,0.4,0.9c0,0.6-0.2,1.2-0.7,1.8c-0.5,0.6-1.1,1.2-2.1,1.8C281.5,81.6,280.3,82.2,279,82.8z M279.1,81.8
		c0.9-0.3,1.6-0.8,2.2-1.3c0.6-0.5,1.1-1,1.4-1.4c0.3-0.5,0.4-0.8,0.4-1c0-0.2-0.1-0.3-0.3-0.3c-0.2,0-0.5,0.1-0.8,0.3
		c-0.4,0.2-0.8,0.5-1.2,0.9c-0.4,0.4-0.8,0.8-1.1,1.3C279.4,80.7,279.2,81.3,279.1,81.8z"/>
	<path id="XMLID_22_" d="M288.3,86.7c-0.3,0-0.6-0.1-0.9-0.4c-0.3-0.3-0.4-0.6-0.4-1.1c0-0.6,0.2-1.3,0.5-2.1c0.3-0.8,0.6-1.1,1-1.1
		c0.2,0,0.4,0.1,0.6,0.2c0.2,0.1,0.4,0.4,0.6,0.6c0.2,0.3,0.2,0.6,0.2,0.9c0,0.5-0.2,1.2-0.5,1.9C289,86.4,288.6,86.7,288.3,86.7z
		 M295.4,68.2c0.2-0.1,0.4-0.1,0.5-0.1c0.3,0,0.7,0.1,1.1,0.3c0.4,0.2,0.7,0.5,1,0.9c-0.5,0.7-1.2,1.8-2.2,3.3
		c-1,1.5-1.8,2.7-2.3,3.4c-0.5,0.8-1,1.5-1.6,2.4c-0.5,0.8-0.9,1.4-1.2,1.9c0.2,0,0.3,0.1,0.3,0.3c0,0.1-0.1,0.3-0.3,0.6
		c-0.2,0.3-0.4,0.4-0.6,0.4c-0.2,0-0.5-0.2-0.8-0.6c-0.3-0.4-0.5-0.7-0.5-1c0-0.1,0.1-0.4,0.2-0.7c0.1-0.3,0.4-0.8,0.8-1.5
		c0.4-0.7,0.8-1.4,1.3-2.2c0.5-0.8,1-1.8,1.7-3C294.1,70.4,295,68.9,295.4,68.2z"/>
</g>
</svg>
