<?xml version="1.0" encoding="UTF-8" standalone="no"?>
<!-- Created with Inkscape (http://www.inkscape.org/) -->

<svg
   xmlns:dc="http://purl.org/dc/elements/1.1/"
   xmlns:cc="http://creativecommons.org/ns#"
   xmlns:rdf="http://www.w3.org/1999/02/22-rdf-syntax-ns#"
   xmlns:svg="http://www.w3.org/2000/svg"
   xmlns="http://www.w3.org/2000/svg"
   xmlns:xlink="http://www.w3.org/1999/xlink"
   xmlns:sodipodi="http://sodipodi.sourceforge.net/DTD/sodipodi-0.dtd"
   xmlns:inkscape="http://www.inkscape.org/namespaces/inkscape"
   version="1.1"
   id="svg2"
   width="500"
   height="500"
   viewBox="0 0 500 500"
   sodipodi:docname="PAF FR EU.svg"
   inkscape:version="0.92.4 (5da689c313, 2019-01-14)">
  <metadata
     id="metadata8">
    <rdf:RDF>
      <cc:Work
         rdf:about="">
        <dc:format>image/svg+xml</dc:format>
        <dc:type
           rdf:resource="http://purl.org/dc/dcmitype/StillImage" />
        <dc:title />
      </cc:Work>
    </rdf:RDF>
  </metadata>
  <defs
     id="defs6">
    <g
       id="s">
      <g
         id="c">
        <path
           transform="rotate(18,3.1568758,-0.5)"
           d="M 0,0 V 1 H 0.5 Z"
           id="t"
           inkscape:connector-curvature="0" />
        <use
           id="use2392"
           transform="scale(-1,1)"
           xlink:href="#t"
           x="0"
           y="0"
           width="100%"
           height="100%" />
      </g>
      <g
         id="a">
        <use
           id="use2395"
           transform="rotate(72)"
           xlink:href="#c"
           x="0"
           y="0"
           width="100%"
           height="100%" />
        <use
           id="use2397"
           transform="rotate(144)"
           xlink:href="#c"
           x="0"
           y="0"
           width="100%"
           height="100%" />
      </g>
      <use
         id="use2400"
         transform="scale(-1,1)"
         xlink:href="#a"
         x="0"
         y="0"
         width="100%"
         height="100%" />
    </g>
  </defs>
  <sodipodi:namedview
     pagecolor="#ffffff"
     bordercolor="#666666"
     borderopacity="1"
     objecttolerance="10"
     gridtolerance="10"
     guidetolerance="10"
     inkscape:pageopacity="0"
     inkscape:pageshadow="2"
     inkscape:window-width="1920"
     inkscape:window-height="1001"
     id="namedview4"
     showgrid="false"
     inkscape:pagecheckerboard="true"
     inkscape:zoom="2.0000002"
     inkscape:cx="364.64545"
     inkscape:cy="236.63998"
     inkscape:window-x="-9"
     inkscape:window-y="-9"
     inkscape:window-maximized="1"
     inkscape:current-layer="svg2"
     showguides="true"
     inkscape:object-paths="true"
     inkscape:snap-intersection-paths="true"
     inkscape:snap-smooth-nodes="true"
     inkscape:snap-midpoints="true"
     inkscape:snap-nodes="true"
     fit-margin-top="0"
     fit-margin-left="0"
     fit-margin-right="0"
     fit-margin-bottom="0" />
  <text
     id="text901"
     y="169.15372"
     x="-4616.1221"
     style="font-style:normal;font-weight:normal;font-size:40px;line-height:1.25;font-family:sans-serif;letter-spacing:0px;word-spacing:0px;fill:#000000;fill-opacity:1;stroke:none"
     xml:space="preserve"><tspan
       y="205.64694"
       x="-4616.1221"
       id="tspan899"
       sodipodi:role="line" /></text>
  <path
     cx="300"
     cy="300.2247"
     r="274.80746"
     id="path916"
     style="opacity:1;fill:none;fill-opacity:1;stroke:#00ff00;stroke-width:25;stroke-linecap:round;stroke-linejoin:bevel;stroke-miterlimit:4;stroke-dasharray:none;stroke-opacity:1;paint-order:fill markers stroke"
     d=""
     inkscape:connector-curvature="0" />
  <g
     id="g1103">
    <g
       transform="matrix(0.84137097,0,0,0.84137097,-1552.2994,-766.75974)"
       id="g1385-0-22">
      <circle
         style="opacity:1;fill:#003399;fill-opacity:1;stroke:#ffcc00;stroke-width:3;stroke-linecap:round;stroke-linejoin:bevel;stroke-miterlimit:4;stroke-dasharray:none;stroke-opacity:1;paint-order:fill markers stroke"
         id="path12-2-3-27"
         cx="2142.0984"
         cy="1208.4559"
         r="295.63409" />
      <path
         inkscape:connector-curvature="0"
         style="opacity:1;fill:#002395;fill-opacity:1;stroke:#ffcc00;stroke-width:3;stroke-linecap:round;stroke-linejoin:miter;stroke-miterlimit:4;stroke-dasharray:none;stroke-opacity:1;paint-order:fill markers stroke"
         d="m 2142.0977,959.33398 a 249.12161,249.12161 0 0 0 -237.2071,173.34372 29.284542,29.284542 0 0 1 24.877,28.9278 29.284542,29.284542 0 0 1 -29.2852,29.2851 29.284542,29.284542 0 0 1 -6.5879,-0.7871 249.12161,249.12161 0 0 0 -0.9179,18.3516 249.12161,249.12161 0 0 0 249.1211,249.123 249.12161,249.12161 0 0 0 249.123,-249.123 249.12161,249.12161 0 0 0 -0.7187,-18.3965 29.284542,29.284542 0 0 1 -6.7891,0.832 29.284542,29.284542 0 0 1 -29.2832,-29.2851 29.284542,29.284542 0 0 1 24.6875,-28.8867 249.12161,249.12161 0 0 0 -237.0195,-173.38482 z"
         id="circle828-10-6-87" />
      <path
         inkscape:connector-curvature="0"
         style="opacity:1;fill:#ffffff;fill-opacity:1;stroke:#ffcc00;stroke-width:4.00299978;stroke-linecap:round;stroke-linejoin:miter;stroke-miterlimit:4;stroke-dasharray:none;stroke-opacity:1;paint-order:fill markers stroke"
         d="m 2142.0977,1001.7266 a 206.72878,206.72878 0 0 0 -187.8438,120.916 39.23024,39.23024 0 0 1 36.8457,39.1465 39.23024,39.23024 0 0 1 -39.2305,39.2304 39.23024,39.23024 0 0 1 -15.955,-3.4453 206.72878,206.72878 0 0 0 -0.545,10.8809 206.72878,206.72878 0 0 0 206.7286,206.7304 206.72878,206.72878 0 0 0 206.7304,-206.7304 206.72878,206.72878 0 0 0 -0.3886,-10.9356 39.23024,39.23024 0 0 1 -16.1114,3.5 39.23024,39.23024 0 0 1 -39.2304,-39.2304 39.23024,39.23024 0 0 1 36.8164,-39.1094 206.72878,206.72878 0 0 0 -187.8164,-120.9531 z"
         id="circle826-6-5-9" />
    </g>
    <path
       inkscape:connector-curvature="0"
       id="path1343-2-0-5"
       d="m 250.00081,9.5294574 c -13.97248,0 -27.94547,1.2175476 -41.75809,3.6530646 l 3.21438,18.229152 c 25.49867,-4.496102 51.58706,-4.496102 77.08573,0 l 3.21429,-18.229152 c -13.81253,-2.435517 -27.784,-3.6530646 -41.75631,-3.6530646 z"
       style="color:#000000;font-style:normal;font-variant:normal;font-weight:normal;font-stretch:normal;font-size:medium;line-height:normal;font-family:sans-serif;font-variant-ligatures:normal;font-variant-position:normal;font-variant-caps:normal;font-variant-numeric:normal;font-variant-alternates:normal;font-feature-settings:normal;text-indent:0;text-align:start;text-decoration:none;text-decoration-line:none;text-decoration-style:solid;text-decoration-color:#000000;letter-spacing:normal;word-spacing:normal;text-transform:none;writing-mode:lr-tb;direction:ltr;text-orientation:mixed;dominant-baseline:auto;baseline-shift:baseline;text-anchor:start;white-space:normal;shape-padding:0;clip-rule:nonzero;display:inline;overflow:visible;visibility:visible;opacity:1;isolation:auto;mix-blend-mode:normal;color-interpolation:sRGB;color-interpolation-filters:linearRGB;solid-color:#000000;solid-opacity:1;vector-effect:none;fill:#fcc400;fill-opacity:1;fill-rule:nonzero;stroke:#fcc400;stroke-width:5.04822588;stroke-linecap:butt;stroke-linejoin:miter;stroke-miterlimit:4;stroke-dasharray:none;stroke-dashoffset:0;stroke-opacity:1;paint-order:fill markers stroke;color-rendering:auto;image-rendering:auto;shape-rendering:auto;text-rendering:auto;enable-background:accumulate" />
    <path
       inkscape:connector-curvature="0"
       id="path1331-9-0-8"
       d="m 471.95994,250.00053 c 0,25.89201 -4.5307,51.58345 -13.3863,75.91396 l 17.39434,6.33165 c 9.59415,-26.3594 14.50212,-54.19447 14.50212,-82.24561 z"
       style="color:#000000;font-style:normal;font-variant:normal;font-weight:normal;font-stretch:normal;font-size:medium;line-height:normal;font-family:sans-serif;font-variant-ligatures:normal;font-variant-position:normal;font-variant-caps:normal;font-variant-numeric:normal;font-variant-alternates:normal;font-feature-settings:normal;text-indent:0;text-align:start;text-decoration:none;text-decoration-line:none;text-decoration-style:solid;text-decoration-color:#000000;letter-spacing:normal;word-spacing:normal;text-transform:none;writing-mode:lr-tb;direction:ltr;text-orientation:mixed;dominant-baseline:auto;baseline-shift:baseline;text-anchor:start;white-space:normal;shape-padding:0;clip-rule:nonzero;display:inline;overflow:visible;visibility:visible;opacity:1;isolation:auto;mix-blend-mode:normal;color-interpolation:sRGB;color-interpolation-filters:linearRGB;solid-color:#000000;solid-opacity:1;vector-effect:none;fill:#fcc400;fill-opacity:1;fill-rule:nonzero;stroke:#fcc400;stroke-width:5.04822588;stroke-linecap:butt;stroke-linejoin:miter;stroke-miterlimit:4;stroke-dasharray:none;stroke-dashoffset:0;stroke-opacity:1;paint-order:fill markers stroke;color-rendering:auto;image-rendering:auto;shape-rendering:auto;text-rendering:auto;enable-background:accumulate" />
    <path
       inkscape:connector-curvature="0"
       id="path1317-7-2-16"
       d="m 9.5297467,250.00053 c 0,28.05114 4.9080533,55.88621 14.5021223,82.24561 l 17.394335,-6.33165 C 32.570607,301.58397 28.039908,275.89254 28.039908,250.00053 Z"
       style="color:#000000;font-style:normal;font-variant:normal;font-weight:normal;font-stretch:normal;font-size:medium;line-height:normal;font-family:sans-serif;font-variant-ligatures:normal;font-variant-position:normal;font-variant-caps:normal;font-variant-numeric:normal;font-variant-alternates:normal;font-feature-settings:normal;text-indent:0;text-align:start;text-decoration:none;text-decoration-line:none;text-decoration-style:solid;text-decoration-color:#000000;letter-spacing:normal;word-spacing:normal;text-transform:none;writing-mode:lr-tb;direction:ltr;text-orientation:mixed;dominant-baseline:auto;baseline-shift:baseline;text-anchor:start;white-space:normal;shape-padding:0;clip-rule:nonzero;display:inline;overflow:visible;visibility:visible;opacity:1;isolation:auto;mix-blend-mode:normal;color-interpolation:sRGB;color-interpolation-filters:linearRGB;solid-color:#000000;solid-opacity:1;vector-effect:none;fill:#ffcc00;fill-opacity:1;fill-rule:nonzero;stroke:#ffcc00;stroke-width:5.04822588;stroke-linecap:butt;stroke-linejoin:miter;stroke-miterlimit:4;stroke-dasharray:none;stroke-dashoffset:0;stroke-opacity:1;paint-order:fill markers stroke;color-rendering:auto;image-rendering:auto;shape-rendering:auto;text-rendering:auto;enable-background:accumulate" />
    <path
       id="path996-3-8-9-2"
       style="opacity:1;fill:none;fill-opacity:1;stroke:#ed2939;stroke-width:18.51016045;stroke-linecap:butt;stroke-linejoin:bevel;stroke-miterlimit:4;stroke-dasharray:none;stroke-opacity:1;paint-order:fill markers stroke"
       sodipodi:type="arc"
       sodipodi:cx="249.99995"
       sodipodi:cy="250"
       sodipodi:rx="231.21503"
       sodipodi:ry="231.21503"
       sodipodi:start="2.7925268"
       sodipodi:end="3.1415927"
       sodipodi:open="true"
       d="M 32.7289,329.0802 A 231.21503,231.21503 0 0 1 18.784927,249.99999" />
    <path
       sodipodi:open="true"
       d="m 209.8499,22.297647 a 231.21503,231.21503 0 0 1 80.30012,2e-6"
       sodipodi:end="4.8869219"
       sodipodi:start="4.5378561"
       sodipodi:ry="231.21503"
       sodipodi:rx="231.21503"
       sodipodi:cy="250"
       sodipodi:cx="249.99995"
       sodipodi:type="arc"
       id="circle912-9-8-3-1-4"
       style="opacity:1;fill:none;fill-opacity:1;stroke:#ffffff;stroke-width:18.51016045;stroke-linecap:butt;stroke-linejoin:bevel;stroke-miterlimit:4;stroke-dasharray:none;stroke-opacity:1;paint-order:fill markers stroke" />
    <path
       inkscape:connector-curvature="0"
       id="path1345-9-5-7"
       d="m 208.24272,13.182522 c -27.6249,4.871025 -54.18446,14.53831 -78.47753,28.563888 l 9.25508,16.030414 c 22.42321,-12.946015 46.93815,-21.869041 72.43674,-26.36515 z"
       style="color:#000000;font-style:normal;font-variant:normal;font-weight:normal;font-stretch:normal;font-size:medium;line-height:normal;font-family:sans-serif;font-variant-ligatures:normal;font-variant-position:normal;font-variant-caps:normal;font-variant-numeric:normal;font-variant-alternates:normal;font-feature-settings:normal;text-indent:0;text-align:start;text-decoration:none;text-decoration-line:none;text-decoration-style:solid;text-decoration-color:#000000;letter-spacing:normal;word-spacing:normal;text-transform:none;writing-mode:lr-tb;direction:ltr;text-orientation:mixed;dominant-baseline:auto;baseline-shift:baseline;text-anchor:start;white-space:normal;shape-padding:0;clip-rule:nonzero;display:inline;overflow:visible;visibility:visible;opacity:1;isolation:auto;mix-blend-mode:normal;color-interpolation:sRGB;color-interpolation-filters:linearRGB;solid-color:#000000;solid-opacity:1;vector-effect:none;fill:#fcc400;fill-opacity:1;fill-rule:nonzero;stroke:#fcc400;stroke-width:5.04822588;stroke-linecap:butt;stroke-linejoin:miter;stroke-miterlimit:4;stroke-dasharray:none;stroke-dashoffset:0;stroke-opacity:1;paint-order:fill markers stroke;color-rendering:auto;image-rendering:auto;shape-rendering:auto;text-rendering:auto;enable-background:accumulate" />
    <path
       inkscape:connector-curvature="0"
       id="path1319-8-8-8"
       d="m 41.42612,325.91449 -17.394335,6.33165 c 9.594069,26.35948 23.727082,50.83664 41.757998,72.32509 L 79.96823,392.67366 C 63.325071,372.83927 50.281718,350.24508 41.42612,325.91449 Z"
       style="color:#000000;font-style:normal;font-variant:normal;font-weight:normal;font-stretch:normal;font-size:medium;line-height:normal;font-family:sans-serif;font-variant-ligatures:normal;font-variant-position:normal;font-variant-caps:normal;font-variant-numeric:normal;font-variant-alternates:normal;font-feature-settings:normal;text-indent:0;text-align:start;text-decoration:none;text-decoration-line:none;text-decoration-style:solid;text-decoration-color:#000000;letter-spacing:normal;word-spacing:normal;text-transform:none;writing-mode:lr-tb;direction:ltr;text-orientation:mixed;dominant-baseline:auto;baseline-shift:baseline;text-anchor:start;white-space:normal;shape-padding:0;clip-rule:nonzero;display:inline;overflow:visible;visibility:visible;opacity:1;isolation:auto;mix-blend-mode:normal;color-interpolation:sRGB;color-interpolation-filters:linearRGB;solid-color:#000000;solid-opacity:1;vector-effect:none;fill:#ffcc00;fill-opacity:1;fill-rule:nonzero;stroke:#ffcc00;stroke-width:5.04822588;stroke-linecap:butt;stroke-linejoin:miter;stroke-miterlimit:4;stroke-dasharray:none;stroke-dashoffset:0;stroke-opacity:1;paint-order:fill markers stroke;color-rendering:auto;image-rendering:auto;shape-rendering:auto;text-rendering:auto;enable-background:accumulate" />
    <path
       sodipodi:cx="249.99995"
       sodipodi:cy="250"
       sodipodi:rx="231.21503"
       sodipodi:ry="231.21503"
       sodipodi:end="2.7925268"
       sodipodi:start="2.443461"
       sodipodi:open="true"
       sodipodi:type="arc"
       d="M 72.878961,398.62215 A 231.21503,231.21503 0 0 1 32.7289,329.0802"
       style="opacity:1;fill:none;fill-opacity:1;stroke:#ffffff;stroke-width:18.51016045;stroke-linecap:butt;stroke-linejoin:bevel;stroke-miterlimit:4;stroke-dasharray:none;stroke-opacity:1;paint-order:fill markers stroke"
       id="circle922-4-8-1-9-72" />
    <path
       id="path1002-9-1-7-59"
       style="opacity:1;fill:none;fill-opacity:1;stroke:#002395;stroke-width:18.51016045;stroke-linecap:butt;stroke-linejoin:bevel;stroke-miterlimit:4;stroke-dasharray:none;stroke-opacity:1;paint-order:fill markers stroke"
       sodipodi:type="arc"
       sodipodi:cx="249.99995"
       sodipodi:cy="250"
       sodipodi:rx="231.21503"
       sodipodi:ry="231.21503"
       sodipodi:start="0"
       sodipodi:end="0.34906585"
       d="m 481.21498,250 a 231.21503,231.21503 0 0 1 -13.94397,79.0802"
       sodipodi:open="true" />
    <path
       inkscape:connector-curvature="0"
       id="path1333-5-0-05"
       d="m 458.57364,325.91449 c -8.8556,24.33059 -21.89895,46.92477 -38.54194,66.75917 l 14.17828,11.89757 c 18.031,-21.48845 32.16393,-45.96561 41.758,-72.32509 z"
       style="color:#000000;font-style:normal;font-variant:normal;font-weight:normal;font-stretch:normal;font-size:medium;line-height:normal;font-family:sans-serif;font-variant-ligatures:normal;font-variant-position:normal;font-variant-caps:normal;font-variant-numeric:normal;font-variant-alternates:normal;font-feature-settings:normal;text-indent:0;text-align:start;text-decoration:none;text-decoration-line:none;text-decoration-style:solid;text-decoration-color:#000000;letter-spacing:normal;word-spacing:normal;text-transform:none;writing-mode:lr-tb;direction:ltr;text-orientation:mixed;dominant-baseline:auto;baseline-shift:baseline;text-anchor:start;white-space:normal;shape-padding:0;clip-rule:nonzero;display:inline;overflow:visible;visibility:visible;opacity:1;isolation:auto;mix-blend-mode:normal;color-interpolation:sRGB;color-interpolation-filters:linearRGB;solid-color:#000000;solid-opacity:1;vector-effect:none;fill:#fcc400;fill-opacity:1;fill-rule:nonzero;stroke:#fcc400;stroke-width:5.04822588;stroke-linecap:butt;stroke-linejoin:miter;stroke-miterlimit:4;stroke-dasharray:none;stroke-dashoffset:0;stroke-opacity:1;paint-order:fill markers stroke;color-rendering:auto;image-rendering:auto;shape-rendering:auto;text-rendering:auto;enable-background:accumulate" />
    <path
       sodipodi:cx="249.99995"
       sodipodi:cy="250"
       sodipodi:rx="231.21503"
       sodipodi:ry="231.21503"
       sodipodi:end="0.6981317"
       sodipodi:start="0.34906585"
       sodipodi:open="true"
       sodipodi:type="arc"
       d="m 467.27101,329.0802 a 231.21503,231.21503 0 0 1 -40.15007,69.54195"
       style="opacity:1;fill:none;fill-opacity:1;stroke:#ffffff;stroke-width:18.51016045;stroke-linecap:butt;stroke-linejoin:bevel;stroke-miterlimit:4;stroke-dasharray:none;stroke-opacity:1;paint-order:fill markers stroke"
       id="circle920-3-9-9-4-4" />
    <path
       inkscape:connector-curvature="0"
       id="path1321-4-5-1"
       d="m 79.96823,392.67366 -14.178447,11.89757 c 18.031001,21.48836 39.682507,39.65617 63.975407,53.68174 l 9.25508,-16.03039 C 116.59715,429.27657 96.611221,412.50814 79.96823,392.67366 Z"
       style="color:#000000;font-style:normal;font-variant:normal;font-weight:normal;font-stretch:normal;font-size:medium;line-height:normal;font-family:sans-serif;font-variant-ligatures:normal;font-variant-position:normal;font-variant-caps:normal;font-variant-numeric:normal;font-variant-alternates:normal;font-feature-settings:normal;text-indent:0;text-align:start;text-decoration:none;text-decoration-line:none;text-decoration-style:solid;text-decoration-color:#000000;letter-spacing:normal;word-spacing:normal;text-transform:none;writing-mode:lr-tb;direction:ltr;text-orientation:mixed;dominant-baseline:auto;baseline-shift:baseline;text-anchor:start;white-space:normal;shape-padding:0;clip-rule:nonzero;display:inline;overflow:visible;visibility:visible;opacity:1;isolation:auto;mix-blend-mode:normal;color-interpolation:sRGB;color-interpolation-filters:linearRGB;solid-color:#000000;solid-opacity:1;vector-effect:none;fill:#ffcc00;fill-opacity:1;fill-rule:nonzero;stroke:#ffcc00;stroke-width:5.04822588;stroke-linecap:butt;stroke-linejoin:miter;stroke-miterlimit:4;stroke-dasharray:none;stroke-dashoffset:0;stroke-opacity:1;paint-order:fill markers stroke;color-rendering:auto;image-rendering:auto;shape-rendering:auto;text-rendering:auto;enable-background:accumulate" />
    <path
       id="path998-8-7-9-8"
       style="opacity:1;fill:none;fill-opacity:1;stroke:#002395;stroke-width:18.51016045;stroke-linecap:butt;stroke-linejoin:bevel;stroke-miterlimit:4;stroke-dasharray:none;stroke-opacity:1;paint-order:fill markers stroke"
       sodipodi:type="arc"
       sodipodi:cx="249.99995"
       sodipodi:cy="250"
       sodipodi:rx="231.21503"
       sodipodi:ry="231.21503"
       sodipodi:start="2.0943951"
       sodipodi:end="2.443461"
       sodipodi:open="true"
       d="M 134.39244,450.23809 A 231.21503,231.21503 0 0 1 72.878961,398.62215" />
    <path
       inkscape:connector-curvature="0"
       id="path1335-0-7-4"
       d="m 420.0317,392.67366 c -16.64316,19.83448 -36.62892,36.60291 -59.05221,49.54892 l 9.25508,16.03039 c 24.29307,-14.02557 45.94457,-32.19338 63.97541,-53.68174 z"
       style="color:#000000;font-style:normal;font-variant:normal;font-weight:normal;font-stretch:normal;font-size:medium;line-height:normal;font-family:sans-serif;font-variant-ligatures:normal;font-variant-position:normal;font-variant-caps:normal;font-variant-numeric:normal;font-variant-alternates:normal;font-feature-settings:normal;text-indent:0;text-align:start;text-decoration:none;text-decoration-line:none;text-decoration-style:solid;text-decoration-color:#000000;letter-spacing:normal;word-spacing:normal;text-transform:none;writing-mode:lr-tb;direction:ltr;text-orientation:mixed;dominant-baseline:auto;baseline-shift:baseline;text-anchor:start;white-space:normal;shape-padding:0;clip-rule:nonzero;display:inline;overflow:visible;visibility:visible;opacity:1;isolation:auto;mix-blend-mode:normal;color-interpolation:sRGB;color-interpolation-filters:linearRGB;solid-color:#000000;solid-opacity:1;vector-effect:none;fill:#fcc400;fill-opacity:1;fill-rule:nonzero;stroke:#fcc400;stroke-width:5.04822588;stroke-linecap:butt;stroke-linejoin:miter;stroke-miterlimit:4;stroke-dasharray:none;stroke-dashoffset:0;stroke-opacity:1;paint-order:fill markers stroke;color-rendering:auto;image-rendering:auto;shape-rendering:auto;text-rendering:auto;enable-background:accumulate" />
    <path
       id="path1000-3-6-3-9"
       style="opacity:1;fill:none;fill-opacity:1;stroke:#ed2939;stroke-width:18.51016045;stroke-linecap:butt;stroke-linejoin:bevel;stroke-miterlimit:4;stroke-dasharray:none;stroke-opacity:1;paint-order:fill markers stroke"
       sodipodi:type="arc"
       sodipodi:cx="249.99995"
       sodipodi:cy="250"
       sodipodi:rx="231.21503"
       sodipodi:ry="231.21503"
       sodipodi:start="0.6981317"
       sodipodi:end="1.0471976"
       d="m 427.12094,398.62215 a 231.21503,231.21503 0 0 1 -61.51348,51.61594"
       sodipodi:open="true" />
    <path
       style="opacity:1;fill:none;fill-opacity:1;stroke:#002395;stroke-width:18.51016045;stroke-linecap:butt;stroke-linejoin:bevel;stroke-miterlimit:4;stroke-dasharray:none;stroke-opacity:1;paint-order:fill markers stroke"
       id="path1004-6-3-5-8"
       sodipodi:type="arc"
       sodipodi:cx="249.99995"
       sodipodi:cy="250"
       sodipodi:rx="231.21503"
       sodipodi:ry="231.21503"
       sodipodi:start="4.1887902"
       sodipodi:end="4.5378561"
       d="M 134.39244,49.761914 A 231.21503,231.21503 0 0 1 209.8499,22.297647"
       sodipodi:open="true" />
    <path
       inkscape:connector-curvature="0"
       id="path1347-0-9-8"
       d="m 291.75712,13.182522 -3.21437,18.229152 c 25.49875,4.496109 50.0137,13.419135 72.43674,26.36515 L 370.23457,41.74641 C 345.94166,27.720832 319.38211,18.053555 291.75712,13.182522 Z"
       style="color:#000000;font-style:normal;font-variant:normal;font-weight:normal;font-stretch:normal;font-size:medium;line-height:normal;font-family:sans-serif;font-variant-ligatures:normal;font-variant-position:normal;font-variant-caps:normal;font-variant-numeric:normal;font-variant-alternates:normal;font-feature-settings:normal;text-indent:0;text-align:start;text-decoration:none;text-decoration-line:none;text-decoration-style:solid;text-decoration-color:#000000;letter-spacing:normal;word-spacing:normal;text-transform:none;writing-mode:lr-tb;direction:ltr;text-orientation:mixed;dominant-baseline:auto;baseline-shift:baseline;text-anchor:start;white-space:normal;shape-padding:0;clip-rule:nonzero;display:inline;overflow:visible;visibility:visible;opacity:1;isolation:auto;mix-blend-mode:normal;color-interpolation:sRGB;color-interpolation-filters:linearRGB;solid-color:#000000;solid-opacity:1;vector-effect:none;fill:#fcc400;fill-opacity:1;fill-rule:nonzero;stroke:#fcc400;stroke-width:5.04822588;stroke-linecap:butt;stroke-linejoin:miter;stroke-miterlimit:4;stroke-dasharray:none;stroke-dashoffset:0;stroke-opacity:1;paint-order:fill markers stroke;color-rendering:auto;image-rendering:auto;shape-rendering:auto;text-rendering:auto;enable-background:accumulate" />
    <path
       style="opacity:1;fill:none;fill-opacity:1;stroke:#ed2939;stroke-width:18.51016045;stroke-linecap:butt;stroke-linejoin:bevel;stroke-miterlimit:4;stroke-dasharray:none;stroke-opacity:1;paint-order:fill markers stroke"
       id="path1006-1-3-7-3"
       sodipodi:type="arc"
       sodipodi:cx="249.99995"
       sodipodi:cy="250"
       sodipodi:rx="231.21503"
       sodipodi:ry="231.21503"
       sodipodi:start="4.8869219"
       sodipodi:end="5.2359878"
       d="m 290.15002,22.297649 a 231.21503,231.21503 0 0 1 75.45746,27.464269"
       sodipodi:open="true" />
    <g
       id="text874-2-3"
       style="font-style:normal;font-weight:normal;font-size:40px;line-height:1.25;font-family:sans-serif;letter-spacing:0px;word-spacing:0px;fill:#ffcc00;fill-opacity:1;stroke:none"
       transform="matrix(0.84137097,0,0,0.84137097,-2.4113267,-2.4113257)"
       aria-label="POLICE NATIONALE">
      <path
         inkscape:connector-curvature="0"
         id="path1899-6"
         style="font-style:normal;font-variant:normal;font-weight:bold;font-stretch:normal;font-size:36px;font-family:Arial;-inkscape-font-specification:'Arial Bold';text-align:center;letter-spacing:5px;word-spacing:-6px;text-anchor:middle;fill:#ffcc00;fill-opacity:1"
         d="m 121.451,179.14364 -20.66543,-15.39508 4.98818,-6.69583 q 2.83539,-3.80605 4.00662,-4.73093 1.78837,-1.42961 4.2457,-1.46215 2.44323,-0.043 4.91011,1.79471 1.90303,1.41769 2.68533,3.07455 0.78231,1.65686 0.73131,3.28476 -0.0546,1.60331 -0.63406,2.88136 -0.81712,1.71476 -2.92791,4.54815 l -2.02677,2.72062 7.79535,5.80729 z m -14.06108,-16.96329 5.86413,4.3686 1.70123,-2.28363 q 1.83775,-2.46689 2.13312,-3.54011 0.29536,-1.07323 -0.0488,-2.05298 -0.33367,-0.99385 -1.24995,-1.67644 -1.12771,-0.84012 -2.3543,-0.72366 -1.22658,0.11646 -2.16594,0.99489 -0.69754,0.6421 -2.37777,2.89754 z" />
      <path
         inkscape:connector-curvature="0"
         id="path1901-8"
         style="font-style:normal;font-variant:normal;font-weight:bold;font-stretch:normal;font-size:36px;font-family:Arial;-inkscape-font-specification:'Arial Bold';text-align:center;letter-spacing:5px;word-spacing:-6px;text-anchor:middle;fill:#ffcc00;fill-opacity:1"
         d="m 129.5264,147.96291 q -2.78969,-2.77877 -3.85154,-5.49878 -0.77458,-2.01208 -0.81613,-4.18719 -0.0291,-2.18756 0.71307,-4.00374 0.97718,-2.42569 3.19772,-4.65495 4.01929,-4.03508 8.92915,-3.9577 4.92226,0.0649 9.38078,4.506 4.42115,4.40385 4.53019,9.30091 0.0966,4.88466 -3.91031,8.90729 -4.05651,4.07244 -8.92905,4.00742 -4.885,-0.0774 -9.24388,-4.41926 z m 3.65905,-3.92251 q 3.10104,3.0889 6.1342,3.25697 3.0207,0.15566 5.21643,-2.04869 2.19572,-2.20435 2.01586,-5.18711 -0.17991,-3.00762 -3.35567,-6.17095 -3.1384,-3.12611 -6.05967,-3.28197 -2.90886,-0.16832 -5.17902,2.11076 -2.27015,2.27907 -2.09034,5.23697 0.16736,2.9455 3.31821,6.08402 z" />
      <path
         inkscape:connector-curvature="0"
         id="path1903-2"
         style="font-style:normal;font-variant:normal;font-weight:bold;font-stretch:normal;font-size:36px;font-family:Arial;-inkscape-font-specification:'Arial Bold';text-align:center;letter-spacing:5px;word-spacing:-6px;text-anchor:middle;fill:#ffcc00;fill-opacity:1"
         d="m 163.31447,133.39951 -15.4457,-20.3635 4.14553,-3.14438 12.82184,16.90423 10.3078,-7.81846 2.62385,3.45927 z" />
      <path
         inkscape:connector-curvature="0"
         id="path1905-7"
         style="font-style:normal;font-variant:normal;font-weight:bold;font-stretch:normal;font-size:36px;font-family:Arial;-inkscape-font-specification:'Arial Bold';text-align:center;letter-spacing:5px;word-spacing:-6px;text-anchor:middle;fill:#ffcc00;fill-opacity:1"
         d="m 185.04502,117.88731 -13.50703,-21.946041 4.43113,-2.727203 13.50703,21.946044 z" />
      <path
         inkscape:connector-curvature="0"
         id="path1907-0"
         style="font-style:normal;font-variant:normal;font-weight:bold;font-stretch:normal;font-size:36px;font-family:Arial;-inkscape-font-specification:'Arial Bold';text-align:center;letter-spacing:5px;word-spacing:-6px;text-anchor:middle;fill:#ffcc00;fill-opacity:1"
         d="m 208.82457,94.396658 5.24236,-0.726391 q 0.76767,4.307494 -0.79124,7.328683 -1.55061,2.99776 -5.29551,4.78248 -4.63353,2.20821 -9.12167,0.47216 -4.4957,-1.75192 -7.11228,-7.242335 -2.76783,-5.807775 -1.29633,-10.442448 1.46393,-4.650541 6.35135,-6.979751 4.26856,-2.034279 8.13684,-0.781707 2.29769,0.735377 4.42207,3.150069 l -4.12002,3.326551 q -1.27469,-1.612357 -3.09087,-2.031984 -1.80031,-0.427189 -3.67276,0.465171 -2.58653,1.232666 -3.32029,3.860612 -0.71789,2.620384 1.26345,6.777862 2.10234,4.41137 4.58152,5.52759 2.47919,1.11621 5.0181,-0.0938 1.87246,-0.89236 2.65408,-2.725278 0.78162,-1.83292 0.1512,-4.667514 z" />
      <path
         inkscape:connector-curvature="0"
         id="path1909-9"
         style="font-style:normal;font-variant:normal;font-weight:bold;font-stretch:normal;font-size:36px;font-family:Arial;-inkscape-font-specification:'Arial Bold';text-align:center;letter-spacing:5px;word-spacing:-6px;text-anchor:middle;fill:#ffcc00;fill-opacity:1"
         d="m 226.34786,97.412156 -7.72523,-24.584334 18.22862,-5.728057 1.30687,4.158877 -13.26481,4.168256 1.71262,5.450142 12.34248,-3.878427 1.30159,4.142108 -12.34248,3.878427 2.10257,6.691098 13.73436,-4.315805 1.30159,4.142108 z" />
      <path
         inkscape:connector-curvature="0"
         id="path1911-6"
         style="font-style:normal;font-variant:normal;font-weight:bold;font-stretch:normal;font-size:36px;font-family:Arial;-inkscape-font-specification:'Arial Bold';text-align:center;letter-spacing:5px;word-spacing:-6px;text-anchor:middle;fill:#ffcc00;fill-opacity:1"
         d="m 263.13969,87.607238 -3.15027,-25.57625 5.02453,-0.618879 12.57153,15.790578 -2.10376,-17.07991 4.79773,-0.590944 3.15027,25.57625 -5.18155,0.638219 -12.36509,-15.408654 2.05434,16.678646 z" />
      <path
         inkscape:connector-curvature="0"
         id="path1913-9"
         style="font-style:normal;font-variant:normal;font-weight:bold;font-stretch:normal;font-size:36px;font-family:Arial;-inkscape-font-specification:'Arial Bold';text-align:center;letter-spacing:5px;word-spacing:-6px;text-anchor:middle;fill:#ffcc00;fill-opacity:1"
         d="m 317.19598,84.933772 -5.65962,-0.07784 -2.16929,-5.883906 -10.2998,-0.141667 -2.20726,5.823711 -5.51901,-0.07591 10.39057,-25.629054 5.50143,0.07567 z m -9.43896,-10.326103 -3.41893,-9.610429 -3.61165,9.513729 z" />
      <path
         inkscape:connector-curvature="0"
         id="path1915-9"
         style="font-style:normal;font-variant:normal;font-weight:bold;font-stretch:normal;font-size:36px;font-family:Arial;-inkscape-font-specification:'Arial Bold';text-align:center;letter-spacing:5px;word-spacing:-6px;text-anchor:middle;fill:#ffcc00;fill-opacity:1"
         d="m 328.02823,86.508369 3.01262,-21.197143 -7.5704,-1.075938 0.6134,-4.316003 20.27478,2.881535 -0.61341,4.316003 -7.55301,-1.073465 -3.01262,21.197144 z" />
      <path
         inkscape:connector-curvature="0"
         id="path1917-1"
         style="font-style:normal;font-variant:normal;font-weight:bold;font-stretch:normal;font-size:36px;font-family:Arial;-inkscape-font-specification:'Arial Bold';text-align:center;letter-spacing:5px;word-spacing:-6px;text-anchor:middle;fill:#ffcc00;fill-opacity:1"
         d="m 348.73705,90.236794 6.10053,-25.037018 5.05523,1.231757 -6.10053,25.037018 z" />
      <path
         inkscape:connector-curvature="0"
         id="path1919-4"
         style="font-style:normal;font-variant:normal;font-weight:bold;font-stretch:normal;font-size:36px;font-family:Arial;-inkscape-font-specification:'Arial Bold';text-align:center;letter-spacing:5px;word-spacing:-6px;text-anchor:middle;fill:#ffcc00;fill-opacity:1"
         d="m 366.84028,81.582517 q 1.35439,-3.697233 3.37931,-5.800963 1.50247,-1.546298 3.46007,-2.4953 1.97411,-0.942955 3.93417,-1.029915 2.61194,-0.128965 5.56643,0.953336 5.34778,1.959027 7.33453,6.449632 2.00325,4.49665 -0.16135,10.405622 -2.14647,5.859455 -6.54735,8.010111 -4.39484,2.13415 -9.72612,0.181171 -5.3973,-1.977166 -7.37963,-6.428713 -1.97629,-4.468053 0.13994,-10.244981 z m 5.09465,1.679091 q -1.50555,4.109871 -0.3874,6.934415 1.12419,2.808039 4.04567,3.878248 2.92147,1.070209 5.55449,-0.34275 2.65556,-1.423418 4.19739,-5.632322 1.52369,-4.159388 0.44132,-6.877219 -1.06585,-2.711785 -4.08636,-3.818272 -3.02051,-1.106487 -5.63097,0.296012 -2.60441,1.385994 -4.13414,5.561888 z" />
      <path
         inkscape:connector-curvature="0"
         id="path1921-2"
         style="font-style:normal;font-variant:normal;font-weight:bold;font-stretch:normal;font-size:36px;font-family:Arial;-inkscape-font-specification:'Arial Bold';text-align:center;letter-spacing:5px;word-spacing:-6px;text-anchor:middle;fill:#ffcc00;fill-opacity:1"
         d="m 394.17841,106.05534 12.36317,-22.610192 4.44184,2.42878 0.99766,20.159132 8.25617,-15.099171 4.24134,2.319148 -12.36317,22.610193 -4.58065,-2.50468 -1.05282,-19.728498 -8.0622,14.744438 z" />
      <path
         inkscape:connector-curvature="0"
         id="path1923-99"
         style="font-style:normal;font-variant:normal;font-weight:bold;font-stretch:normal;font-size:36px;font-family:Arial;-inkscape-font-specification:'Arial Bold';text-align:center;letter-spacing:5px;word-spacing:-6px;text-anchor:middle;fill:#ffcc00;fill-opacity:1"
         d="m 439.5717,135.51503 -4.52587,-3.39909 1.71611,-6.03168 -8.23653,-6.18593 -5.21592,3.40319 -4.41343,-3.31465 23.50107,-14.57778 4.39938,3.30409 z m -1.53765,-13.90532 2.90336,-9.77854 -8.52556,5.55607 z" />
      <path
         inkscape:connector-curvature="0"
         id="path1925-9"
         style="font-style:normal;font-variant:normal;font-weight:bold;font-stretch:normal;font-size:36px;font-family:Arial;-inkscape-font-specification:'Arial Bold';text-align:center;letter-spacing:5px;word-spacing:-6px;text-anchor:middle;fill:#ffcc00;fill-opacity:1"
         d="m 445.38816,140.93397 17.93993,-18.20441 3.70599,3.65214 -14.89236,15.11192 9.21489,9.08101 -3.04757,3.0925 z" />
      <path
         inkscape:connector-curvature="0"
         id="path1927-7"
         style="font-style:normal;font-variant:normal;font-weight:bold;font-stretch:normal;font-size:36px;font-family:Arial;-inkscape-font-specification:'Arial Bold';text-align:center;letter-spacing:5px;word-spacing:-6px;text-anchor:middle;fill:#ffcc00;fill-opacity:1"
         d="m 464.10654,160.2175 20.30418,-15.8685 11.76607,15.055 -3.43482,2.68444 -8.56206,-10.95539 -4.50127,3.51792 7.96673,10.19363 -3.42097,2.67362 -7.96672,-10.19364 -5.52617,4.31892 8.86515,11.34319 -3.42097,2.67361 z" />
    </g>
    <g
       id="text878-7-25"
       style="font-style:normal;font-weight:normal;font-size:40px;line-height:1.25;font-family:sans-serif;letter-spacing:0px;word-spacing:0px;fill:#ffcc00;fill-opacity:1;stroke:none"
       transform="matrix(0.84137097,0,0,0.84137097,-2.4113267,-2.4113257)"
       aria-label="POLICE AUX FRONTIERES">
      <path
         inkscape:connector-curvature="0"
         id="path1930-8"
         style="font-style:normal;font-variant:normal;font-weight:bold;font-stretch:normal;font-size:36px;font-family:Arial;-inkscape-font-specification:'Arial Bold';text-align:center;letter-spacing:5px;word-spacing:-6px;text-anchor:middle;fill:#ffcc00;fill-opacity:1"
         d="m 80.735947,402.14714 22.918683,-11.78147 3.81732,7.4259 q 2.16985,4.22104 2.4849,5.67979 0.49669,2.23502 -0.55553,4.45592 -1.03658,2.21285 -3.77244,3.61924 -2.11052,1.08492 -3.94258,1.05823 -1.83207,-0.0267 -3.271416,-0.78889 -1.415676,-0.75462 -2.30829,-1.83741 -1.180169,-1.48838 -2.7955,-4.63071 l -1.551038,-3.01726 -8.645313,4.44417 z m 21.420373,-5.16091 -6.503528,3.34317 1.301908,2.53262 q 1.406382,2.73586 2.240104,3.4734 0.833726,0.73753 1.864966,0.85965 1.03928,0.13775 2.05546,-0.38462 1.25067,-0.64292 1.6859,-1.79559 0.43523,-1.15267 0.0598,-2.38275 -0.2696,-0.90894 -1.55544,-3.4103 z" />
      <path
         inkscape:connector-curvature="0"
         id="path1932-2"
         style="font-style:normal;font-variant:normal;font-weight:bold;font-stretch:normal;font-size:36px;font-family:Arial;-inkscape-font-specification:'Arial Bold';text-align:center;letter-spacing:5px;word-spacing:-6px;text-anchor:middle;fill:#ffcc00;fill-opacity:1"
         d="m 104.37699,419.65461 q 3.24246,-2.23392 6.11088,-2.77995 2.11987,-0.3932 4.26583,-0.0359 2.15593,0.37177 3.80557,1.43388 2.20585,1.40468 3.99099,3.99575 3.23121,4.68998 2.25642,9.50272 -0.96481,4.82722 -6.14695,8.3975 -5.13871,3.54037 -9.97299,2.75119 -4.81981,-0.79915 -8.04105,-5.47465 -3.261123,-4.7334 -2.305313,-9.51172 0.970285,-4.78829 6.036613,-8.2788 z m 3.18648,4.31522 q -3.60433,2.48324 -4.32476,5.4344 -0.70595,2.94118 1.05925,5.50329 1.76519,2.56212 4.73048,2.93127 2.98974,0.37365 6.68092,-2.16943 3.64776,-2.51316 4.3357,-5.35655 0.69792,-2.82891 -1.12712,-5.47788 -1.82503,-2.64897 -4.76587,-3.01361 -2.92636,-0.37462 -6.5886,2.14851 z" />
      <path
         inkscape:connector-curvature="0"
         id="path1934-2"
         style="font-style:normal;font-variant:normal;font-weight:bold;font-stretch:normal;font-size:36px;font-family:Arial;-inkscape-font-specification:'Arial Bold';text-align:center;letter-spacing:5px;word-spacing:-6px;text-anchor:middle;fill:#ffcc00;fill-opacity:1"
         d="m 113.97011,454.53534 19.09773,-16.98583 3.45791,3.88784 -15.85347,14.10035 8.59805,9.66707 -3.24425,2.88549 z" />
      <path
         inkscape:connector-curvature="0"
         id="path1936-8"
         style="font-style:normal;font-variant:normal;font-weight:bold;font-stretch:normal;font-size:36px;font-family:Arial;-inkscape-font-specification:'Arial Bold';text-align:center;letter-spacing:5px;word-spacing:-6px;text-anchor:middle;fill:#ffcc00;fill-opacity:1"
         d="m 132.22355,474.02293 17.7058,-18.72361 3.78048,3.57497 -17.70579,18.72361 z" />
      <path
         inkscape:connector-curvature="0"
         id="path1938-0"
         style="font-style:normal;font-variant:normal;font-weight:bold;font-stretch:normal;font-size:36px;font-family:Arial;-inkscape-font-specification:'Arial Bold';text-align:center;letter-spacing:5px;word-spacing:-6px;text-anchor:middle;fill:#ffcc00;fill-opacity:1"
         d="m 162.13452,487.03514 2.9927,4.36506 q -3.51031,2.61181 -6.9097,2.56745 -3.37471,-0.0474 -6.64493,-2.59989 -4.0462,-3.15816 -4.49897,-7.94902 -0.44196,-4.80471 3.30025,-9.59918 3.95853,-5.07161 8.76223,-5.82654 4.81452,-0.76878 9.08243,2.56244 3.72749,2.9094 4.33576,6.92967 0.36901,2.38411 -0.8417,5.3637 l -4.81715,-2.19901 q 0.87271,-1.86088 0.43642,-3.67313 -0.42243,-1.80144 -2.05754,-3.07768 -2.25867,-1.76295 -4.9375,-1.2449 -2.66497,0.52887 -5.49867,4.15937 -3.00674,3.8522 -2.89731,6.56888 0.10944,2.71667 2.32654,4.44717 1.63511,1.27625 3.62411,1.15631 1.98901,-0.11993 4.24303,-1.9507 z" />
      <path
         inkscape:connector-curvature="0"
         id="path1940-97"
         style="font-style:normal;font-variant:normal;font-weight:bold;font-stretch:normal;font-size:36px;font-family:Arial;-inkscape-font-specification:'Arial Bold';text-align:center;letter-spacing:5px;word-spacing:-6px;text-anchor:middle;fill:#ffcc00;fill-opacity:1"
         d="m 168.18071,502.89203 13.22013,-22.12006 16.40144,9.80237 -2.23642,3.74201 -11.93518,-7.1331 -2.93079,4.90383 11.10529,6.63712 -2.2274,3.72691 -11.10529,-6.63712 -3.59811,6.0204 12.35765,7.3856 -2.2274,3.72691 z" />
      <path
         inkscape:connector-curvature="0"
         id="path1942-1"
         style="font-style:normal;font-variant:normal;font-weight:bold;font-stretch:normal;font-size:36px;font-family:Arial;-inkscape-font-specification:'Arial Bold';text-align:center;letter-spacing:5px;word-spacing:-6px;text-anchor:middle;fill:#ffcc00;fill-opacity:1"
         d="m 221.89615,529.23578 -5.25194,-2.11059 0.095,-6.27033 -9.55786,-3.84101 -4.15625,4.63823 -5.12144,-2.05815 18.92228,-20.16828 5.10514,2.0516 z m -5.08746,-13.03227 0.27102,-10.19686 -6.79516,7.57501 z" />
      <path
         inkscape:connector-curvature="0"
         id="path1944-2"
         style="font-style:normal;font-variant:normal;font-weight:bold;font-stretch:normal;font-size:36px;font-family:Arial;-inkscape-font-specification:'Arial Bold';text-align:center;letter-spacing:5px;word-spacing:-6px;text-anchor:middle;fill:#ffcc00;fill-opacity:1"
         d="m 235.77037,506.56135 5.03781,1.30117 -3.4903,13.51357 q -0.83081,3.2167 -0.88977,4.21815 -0.0722,1.61529 0.89437,2.86347 0.98804,1.23556 3.09847,1.78065 2.14447,0.55387 3.45791,-0.0328 1.31784,-0.60369 1.86878,-1.82302 0.55095,-1.21932 1.31582,-4.18073 l 3.56503,-13.8029 5.0378,1.30116 -3.38479,13.1051 q -1.1605,4.49318 -2.04812,6.24282 -0.88762,1.74963 -2.32358,2.74037 -1.41894,0.99514 -3.45487,1.28627 -2.03154,0.27412 -4.99295,-0.49076 -3.57412,-0.92313 -5.21826,-2.21921 -1.62272,-1.30872 -2.35647,-2.89616 -0.72936,-1.60447 -0.69611,-3.13905 0.0603,-2.27195 1.14168,-6.45878 z" />
      <path
         inkscape:connector-curvature="0"
         id="path1946-1"
         style="font-style:normal;font-variant:normal;font-weight:bold;font-stretch:normal;font-size:36px;font-family:Arial;-inkscape-font-specification:'Arial Bold';text-align:center;letter-spacing:5px;word-spacing:-6px;text-anchor:middle;fill:#ffcc00;fill-opacity:1"
         d="m 256.96381,538.2597 10.45024,-12.21386 -6.34323,-13.2397 6.03234,0.77593 4.06949,8.87096 6.07738,-7.56579 5.98003,0.7692 -9.54683,11.39075 7.04378,14.26913 -6.22411,-0.8006 -4.52923,-9.56812 -6.82062,8.10821 z" />
      <path
         inkscape:connector-curvature="0"
         id="path1948-7"
         style="font-style:normal;font-variant:normal;font-weight:bold;font-stretch:normal;font-size:36px;font-family:Arial;-inkscape-font-specification:'Arial Bold';text-align:center;letter-spacing:5px;word-spacing:-6px;text-anchor:middle;fill:#ffcc00;fill-opacity:1"
         d="m 297.4688,541.90766 -0.61027,-25.7623 17.66106,-0.41836 0.10324,4.35815 -12.45939,0.29514 0.14445,6.0979 10.75479,-0.25476 0.10324,4.35815 -10.7548,0.25476 0.25934,10.9481 z" />
      <path
         inkscape:connector-curvature="0"
         id="path1950-7"
         style="font-style:normal;font-variant:normal;font-weight:bold;font-stretch:normal;font-size:36px;font-family:Arial;-inkscape-font-specification:'Arial Bold';text-align:center;letter-spacing:5px;word-spacing:-6px;text-anchor:middle;fill:#ffcc00;fill-opacity:1"
         d="m 324.44527,540.78099 -3.67176,-25.50661 10.83944,-1.56037 q 4.08871,-0.58858 6.03317,-0.15812 1.95935,0.41056 3.32583,2.00754 1.36649,1.59698 1.69209,3.85882 0.41326,2.8708 -1.00392,4.99282 -1.41969,2.10461 -4.70753,3.07517 1.81054,0.73389 3.05708,1.74432 1.26393,1.00793 3.53648,3.71763 l 3.8307,4.52773 -6.15916,0.88663 -4.52231,-5.01423 q -2.41175,-2.68966 -3.2527,-3.35002 -0.84346,-0.67775 -1.70127,-0.83841 -0.86032,-0.17806 -2.635,0.0774 l -1.04393,0.15027 1.53282,10.64805 z m 3.03114,-15.46073 3.81033,-0.54851 q 3.70594,-0.53348 4.58299,-0.9794 0.87705,-0.44593 1.28881,-1.28661 0.41176,-0.84069 0.24646,-1.989 -0.18534,-1.28751 -0.994,-1.97027 -0.79376,-0.70267 -2.07653,-0.73112 -0.63888,0.003 -3.77066,0.454 l -4.01912,0.57856 z" />
      <path
         inkscape:connector-curvature="0"
         id="path1952-0"
         style="font-style:normal;font-variant:normal;font-weight:bold;font-stretch:normal;font-size:36px;font-family:Arial;-inkscape-font-specification:'Arial Bold';text-align:center;letter-spacing:5px;word-spacing:-6px;text-anchor:middle;fill:#ffcc00;fill-opacity:1"
         d="m 350.5615,523.79849 q -1.07346,-3.78835 -0.66876,-6.6801 0.30889,-2.13378 1.33683,-4.05111 1.04486,-1.92211 2.58076,-3.14294 2.03904,-1.63745 5.06633,-2.49526 5.47958,-1.55268 9.7238,0.917 4.26113,2.46488 5.97675,8.51947 1.70124,6.00386 -0.59959,10.32813 -2.30563,4.30735 -7.76829,5.85524 -5.53031,1.56706 -9.74804,-0.87358 -4.22251,-2.45756 -5.89979,-8.37685 z m 5.11032,-1.63075 q 1.19326,4.21115 3.75637,5.84173 2.55832,1.61366 5.55179,0.76544 2.99348,-0.84823 4.29595,-3.53761 1.31459,-2.71108 0.0926,-7.02371 -1.20765,-4.26189 -3.67914,-5.82708 -2.45459,-1.56998 -5.54954,-0.693 -3.09494,0.87698 -4.3853,3.54466 -1.29514,2.65076 -0.0827,6.92957 z" />
      <path
         inkscape:connector-curvature="0"
         id="path1954-6"
         style="font-style:normal;font-variant:normal;font-weight:bold;font-stretch:normal;font-size:36px;font-family:Arial;-inkscape-font-specification:'Arial Bold';text-align:center;letter-spacing:5px;word-spacing:-6px;text-anchor:middle;fill:#ffcc00;fill-opacity:1"
         d="m 386.62205,526.02066 -10.26137,-23.63838 4.64383,-2.01588 16.52722,11.58605 -6.85258,-15.78579 4.43421,-1.92488 10.26138,23.63838 -4.78895,2.07887 -16.22112,-11.27818 6.69159,15.41493 z" />
      <path
         inkscape:connector-curvature="0"
         id="path1956-1"
         style="font-style:normal;font-variant:normal;font-weight:bold;font-stretch:normal;font-size:36px;font-family:Arial;-inkscape-font-specification:'Arial Bold';text-align:center;letter-spacing:5px;word-spacing:-6px;text-anchor:middle;fill:#ffcc00;fill-opacity:1"
         d="m 419.72571,510.08345 -10.82485,-18.47207 -6.59717,3.86602 -2.20408,-3.76114 17.66828,-10.35382 2.20407,3.76114 -6.582,3.85713 10.82486,18.47207 z" />
      <path
         inkscape:connector-curvature="0"
         id="path1958-6"
         style="font-style:normal;font-variant:normal;font-weight:bold;font-stretch:normal;font-size:36px;font-family:Arial;-inkscape-font-specification:'Arial Bold';text-align:center;letter-spacing:5px;word-spacing:-6px;text-anchor:middle;fill:#ffcc00;fill-opacity:1"
         d="m 437.52147,498.85252 -14.90811,-21.01944 4.24403,-3.0101 14.90812,21.01944 z" />
      <path
         inkscape:connector-curvature="0"
         id="path1960-7"
         style="font-style:normal;font-variant:normal;font-weight:bold;font-stretch:normal;font-size:36px;font-family:Arial;-inkscape-font-specification:'Arial Bold';text-align:center;letter-spacing:5px;word-spacing:-6px;text-anchor:middle;fill:#ffcc00;fill-opacity:1"
         d="m 449.79494,489.96783 -16.75154,-19.58199 14.51953,-12.42083 2.83382,3.31265 -10.56573,9.03852 3.71368,4.34116 9.83107,-8.41005 2.82239,3.29928 -9.83107,8.41006 4.55926,5.32961 10.93973,-9.35847 2.8224,3.29929 z" />
      <path
         inkscape:connector-curvature="0"
         id="path1962-8"
         style="font-style:normal;font-variant:normal;font-weight:bold;font-stretch:normal;font-size:36px;font-family:Arial;-inkscape-font-specification:'Arial Bold';text-align:center;letter-spacing:5px;word-spacing:-6px;text-anchor:middle;fill:#ffcc00;fill-opacity:1"
         d="m 471.50898,470.63563 -19.0377,-17.36763 7.38065,-8.09037 q 2.78403,-3.05175 4.55926,-3.9544 1.77408,-0.92749 3.84389,-0.56206 2.0698,0.36543 3.758,1.90553 2.14272,1.95475 2.39607,4.49388 0.24036,2.52728 -1.68249,5.36532 1.86454,-0.58324 3.46912,-0.59464 1.61643,-0.0244 5.09284,0.62492 l 5.83464,1.06371 -4.19382,4.59709 -6.67783,-1.00014 q -3.57118,-0.54541 -4.64015,-0.52125 -1.08195,0.0123 -1.84653,0.4331 -0.77757,0.40895 -1.98596,1.73354 l -0.71082,0.77917 7.94753,7.25033 z m -7.47959,-13.86642 2.59448,-2.84397 q 2.5234,-2.76605 2.91754,-3.66756 0.39414,-0.90151 0.17816,-1.81236 -0.21598,-0.91085 -1.07307,-1.69275 -0.96097,-0.87668 -2.01923,-0.89034 -1.05939,-0.0385 -2.06821,0.75434 -0.49142,0.40826 -2.62387,2.74577 l -2.73665,2.9998 z" />
      <path
         inkscape:connector-curvature="0"
         id="path1964-6"
         style="font-style:normal;font-variant:normal;font-weight:bold;font-stretch:normal;font-size:36px;font-family:Arial;-inkscape-font-specification:'Arial Bold';text-align:center;letter-spacing:5px;word-spacing:-6px;text-anchor:middle;fill:#ffcc00;fill-opacity:1"
         d="m 491.88486,447.27112 -21.03595,-14.88481 11.03669,-15.5976 3.5586,2.51803 -8.03129,11.35023 4.66349,3.29984 7.47287,-10.56102 3.54425,2.50787 -7.47286,10.56102 5.72533,4.05119 8.3156,-11.75201 3.54425,2.50788 z" />
      <path
         inkscape:connector-curvature="0"
         id="path1966-78"
         style="font-style:normal;font-variant:normal;font-weight:bold;font-stretch:normal;font-size:36px;font-family:Arial;-inkscape-font-specification:'Arial Bold';text-align:center;letter-spacing:5px;word-spacing:-6px;text-anchor:middle;fill:#ffcc00;fill-opacity:1"
         d="m 500.15744,420.37911 1.97449,-4.68749 q 2.45951,0.81004 4.1714,0.15686 1.72024,-0.66863 2.84874,-2.75618 1.19537,-2.21125 0.86943,-3.82616 -0.33304,-1.63874 -1.58556,-2.31583 -0.8041,-0.43468 -1.61991,-0.25625 -0.82292,0.1546 -1.87573,1.10412 -0.71302,0.65362 -2.97079,3.12981 -2.90183,3.18707 -5.03416,3.95266 -2.99955,1.07608 -5.69017,-0.37843 -1.73189,-0.93623 -2.7052,-2.72127 -0.98041,-1.80885 -0.77429,-4.0753 0.21447,-2.28192 1.62718,-4.89522 2.30715,-4.26787 5.34014,-5.40581 3.04135,-1.15339 6.22346,0.42693 l -2.27331,4.68581 q -1.90618,-0.65079 -3.19051,-0.0862 -1.29144,0.54077 -2.33634,2.47368 -1.07834,1.99477 -0.86901,3.56663 0.13287,1.01099 1.01427,1.48746 0.8041,0.43468 1.74404,0.0636 1.1949,-0.47307 3.78912,-3.38682 2.59422,-2.91375 4.3057,-4.04672 1.70438,-1.15678 3.65823,-1.25953 1.94674,-0.12656 4.09614,1.03537 1.94838,1.05326 3.0642,3.05521 1.11582,2.00194 0.88085,4.43264 -0.25042,2.42235 -1.84703,5.37584 -2.32387,4.2988 -5.5487,5.53285 -3.24029,1.22569 -7.28668,-0.38224 z" />
    </g>
    <path
       inkscape:connector-curvature="0"
       id="path2238-2-0"
       d="m 155.72771,107.28079 c 12.33088,45.19858 21.29855,91.8594 20.55587,142.74213 0.74268,50.88272 -8.22499,97.54355 -20.55587,142.74213 l 53.56908,-70.21139 v -72.53074 l 9e-5,-72.53074 z"
       style="fill:none;stroke:#fcc400;stroke-width:5.04822588;stroke-linecap:butt;stroke-linejoin:miter;stroke-miterlimit:4;stroke-dasharray:none;stroke-opacity:1"
       sodipodi:nodetypes="ccccccc" />
    <path
       style="fill:none;stroke:#fcc400;stroke-width:5.04822588;stroke-linecap:butt;stroke-linejoin:miter;stroke-miterlimit:4;stroke-dasharray:none;stroke-opacity:1"
       d="m 344.27222,107.28079 c -12.33088,45.19858 -21.29855,91.8594 -20.55587,142.74213 -0.74268,50.88272 8.22499,97.54355 20.55587,142.74213 L 290.7028,322.55366 v -72.53074 l 2.5e-4,-72.53074 z"
       id="path2344-52"
       inkscape:connector-curvature="0"
       sodipodi:nodetypes="ccccccc" />
    <g
       id="g927"
       transform="matrix(0.84137097,0,0,0.84137097,-1428.4806,-7.395885)">
      <path
         sodipodi:nodetypes="ccccccc"
         style="fill:#002395;fill-opacity:1;stroke:none;stroke-width:6.11431074;stroke-linecap:butt;stroke-linejoin:miter;stroke-miterlimit:4;stroke-dasharray:none;stroke-opacity:1"
         d="m 1882.8892,136.2974 c 14.6557,53.72016 25.3141,109.17824 24.4314,169.65421 0.8827,60.47597 -9.7757,115.93406 -24.4314,169.65422 l 63.6688,-83.44879 v -86.20543 l 10e-5,-86.20542 z"
         id="path2248-5-27"
         inkscape:connector-curvature="0" />
      <path
         sodipodi:nodetypes="ccccccc"
         inkscape:connector-curvature="0"
         id="path2346-8"
         d="m 2106.9812,136.2974 c -14.6557,53.72016 -25.3141,109.17824 -24.4314,169.65421 -0.8827,60.47597 9.7757,115.93406 24.4314,169.65422 l -63.6692,-83.44879 v -86.20543 l 3e-4,-86.20542 z"
         style="fill:#ed2939;fill-opacity:1;stroke:none;stroke-width:6.11431074;stroke-linecap:butt;stroke-linejoin:miter;stroke-miterlimit:4;stroke-dasharray:none;stroke-opacity:1" />
    </g>
    <g
       transform="translate(-5.8877075e-6)"
       id="g1017">
      <path
         d="m 127.05381,205.10982 h 21.48844 q 10.87682,0 16.31523,5.9373 5.43849,5.9373 5.43849,17.40708 v 9.31077 q 0,11.46978 -5.43849,17.40708 -5.43841,5.9373 -16.31523,5.9373 h -6.89757 v 38.45751 h -14.59087 z m 21.48844,42.50567 q 3.58134,0 5.30578,-2.02408 1.85698,-2.02408 1.85698,-6.88187 v -11.19991 q 0,-4.85779 -1.85698,-6.88187 -1.72444,-2.02407 -5.30578,-2.02407 h -6.89757 v 29.0118 z"
         style="font-style:normal;font-variant:normal;font-weight:normal;font-stretch:normal;font-size:159.01036072px;line-height:1.25;font-family:'Bebas Neue';-inkscape-font-specification:'Bebas Neue';text-align:center;letter-spacing:64.46405029px;word-spacing:0px;text-anchor:middle;fill:#003399;fill-opacity:1;stroke:#ffcc00;stroke-width:2.52411294;stroke-miterlimit:4;stroke-dasharray:none;stroke-opacity:1"
         id="path99"
         inkscape:connector-curvature="0" />
      <path
         d="m 334.34664,205.10982 h 38.59956 v 13.49387 h -24.00869 v 26.31303 h 18.83556 v 13.49386 h -18.83556 v 41.15628 h -14.59087 z"
         style="font-style:normal;font-variant:normal;font-weight:normal;font-stretch:normal;font-size:159.01036072px;line-height:1.25;font-family:'Bebas Neue';-inkscape-font-specification:'Bebas Neue';text-align:center;letter-spacing:64.46405029px;word-spacing:0px;text-anchor:middle;fill:#003399;fill-opacity:1;stroke:#ffcc00;stroke-width:2.52411294;stroke-miterlimit:4;stroke-dasharray:none;stroke-opacity:1"
         id="path103"
         inkscape:connector-curvature="0" />
    </g>
    <g
       transform="matrix(0.84137097,0,0,0.84137097,-1428.48,-7.395885)"
       id="g913-0">
      <g
         id="g321-2-8"
         style="fill:#fcc400;fill-opacity:1"
         transform="translate(-309.06547,-828.30092)">
        <path
           inkscape:transform-center-x="-0.035762369"
           transform="matrix(0.80384884,-0.59483362,-0.59483362,-0.80384884,-124.44208,1453.3992)"
           inkscape:transform-center-y="1.2298809"
           d="m 2143.8303,-900.53684 -3.929,-7.828 -8.659,-1.31772 6.2308,-6.15568 -1.4226,-8.64239 7.7798,4.02357 7.7798,-4.02357 -1.4225,8.64239 6.2307,6.15568 -8.659,1.31772 z"
           inkscape:randomized="0"
           inkscape:rounded="0"
           inkscape:flatsided="false"
           sodipodi:arg2="2.1991149"
           sodipodi:arg1="1.5707963"
           sodipodi:r2="6.6844115"
           sodipodi:r1="13.235804"
           sodipodi:cy="-913.77264"
           sodipodi:cx="2143.8303"
           sodipodi:sides="5"
           id="path2236-5-8-0-6"
           style="opacity:1;fill:#ffcc00;fill-opacity:1;stroke:none;stroke-width:2.05838752;stroke-linecap:butt;stroke-linejoin:miter;stroke-miterlimit:4;stroke-dasharray:none;stroke-opacity:1;paint-order:fill markers stroke"
           sodipodi:type="star" />
        <path
           sodipodi:type="star"
           style="opacity:1;fill:#ffcc00;fill-opacity:1;stroke:none;stroke-width:2.05838752;stroke-linecap:butt;stroke-linejoin:miter;stroke-miterlimit:4;stroke-dasharray:none;stroke-opacity:1;paint-order:fill markers stroke"
           id="path303-4-4"
           sodipodi:sides="5"
           sodipodi:cx="2143.8303"
           sodipodi:cy="-913.77264"
           sodipodi:r1="13.235804"
           sodipodi:r2="6.6844115"
           sodipodi:arg1="1.5707963"
           sodipodi:arg2="2.1991149"
           inkscape:flatsided="false"
           inkscape:rounded="0"
           inkscape:randomized="0"
           d="m 2143.8303,-900.53684 -3.929,-7.828 -8.659,-1.31772 6.2308,-6.15568 -1.4226,-8.64239 7.7798,4.02357 7.7798,-4.02357 -1.4225,8.64239 6.2307,6.15568 -8.659,1.31772 z"
           inkscape:transform-center-y="0.076857842"
           transform="matrix(0.60288332,-0.79782936,-0.79782936,-0.60288332,66.026946,2125.8494)"
           inkscape:transform-center-x="-1.1906098" />
        <path
           inkscape:transform-center-x="-0.21965669"
           transform="matrix(0.3596433,-0.93308986,-0.93308986,-0.3596433,425.76993,2704.466)"
           inkscape:transform-center-y="-1.0532279"
           d="m 2143.8303,-900.53684 -3.929,-7.828 -8.659,-1.31772 6.2308,-6.15568 -1.4226,-8.64239 7.7798,4.02357 7.7798,-4.02357 -1.4225,8.64239 6.2307,6.15568 -8.659,1.31772 z"
           inkscape:randomized="0"
           inkscape:rounded="0"
           inkscape:flatsided="false"
           sodipodi:arg2="2.1991149"
           sodipodi:arg1="1.5707963"
           sodipodi:r2="6.6844115"
           sodipodi:r1="13.235804"
           sodipodi:cy="-913.77264"
           sodipodi:cx="2143.8303"
           sodipodi:sides="5"
           id="path305-8-7"
           style="opacity:1;fill:#ffcc00;fill-opacity:1;stroke:none;stroke-width:2.05838752;stroke-linecap:butt;stroke-linejoin:miter;stroke-miterlimit:4;stroke-dasharray:none;stroke-opacity:1;paint-order:fill markers stroke"
           sodipodi:type="star" />
        <path
           sodipodi:type="star"
           style="opacity:1;fill:#ffcc00;fill-opacity:1;stroke:none;stroke-width:2.05838752;stroke-linecap:butt;stroke-linejoin:miter;stroke-miterlimit:4;stroke-dasharray:none;stroke-opacity:1;paint-order:fill markers stroke"
           id="path307-7-6"
           sodipodi:sides="5"
           sodipodi:cx="2143.8303"
           sodipodi:cy="-913.77264"
           sodipodi:r1="13.235804"
           sodipodi:r2="6.6844115"
           sodipodi:arg1="1.5707963"
           sodipodi:arg2="2.1991149"
           inkscape:flatsided="false"
           inkscape:rounded="0"
           inkscape:randomized="0"
           d="m 2143.8303,-900.53684 -3.929,-7.828 -8.659,-1.31772 6.2308,-6.15568 -1.4226,-8.64239 7.7798,4.02357 7.7798,-4.02357 -1.4225,8.64239 6.2307,6.15568 -8.659,1.31772 z"
           inkscape:transform-center-y="-0.39493538"
           transform="matrix(0.09654557,-0.99532856,-0.99532856,-0.09654557,914.46163,3152.9949)"
           inkscape:transform-center-x="0.88243226" />
      </g>
      <g
         id="g343-6-1"
         transform="matrix(-1,0,0,1,4298.9345,-828.30092)"
         style="fill:#fcc400;fill-opacity:1">
        <g
           id="g341-8-4"
           style="fill:#fcc400;fill-opacity:1">
          <path
             inkscape:transform-center-x="-0.035762369"
             transform="matrix(0.80384884,-0.59483362,-0.59483362,-0.80384884,-124.44208,1453.3992)"
             inkscape:transform-center-y="1.2298809"
             d="m 2143.8303,-900.53684 -3.929,-7.828 -8.659,-1.31772 6.2308,-6.15568 -1.4226,-8.64239 7.7798,4.02357 7.7798,-4.02357 -1.4225,8.64239 6.2307,6.15568 -8.659,1.31772 z"
             inkscape:randomized="0"
             inkscape:rounded="0"
             inkscape:flatsided="false"
             sodipodi:arg2="2.1991149"
             sodipodi:arg1="1.5707963"
             sodipodi:r2="6.6844115"
             sodipodi:r1="13.235804"
             sodipodi:cy="-913.77264"
             sodipodi:cx="2143.8303"
             sodipodi:sides="5"
             id="path333-7-3"
             style="opacity:1;fill:#ffcc00;fill-opacity:1;stroke:none;stroke-width:2.05838752;stroke-linecap:butt;stroke-linejoin:miter;stroke-miterlimit:4;stroke-dasharray:none;stroke-opacity:1;paint-order:fill markers stroke"
             sodipodi:type="star" />
          <path
             sodipodi:type="star"
             style="opacity:1;fill:#ffcc00;fill-opacity:1;stroke:none;stroke-width:2.05838752;stroke-linecap:butt;stroke-linejoin:miter;stroke-miterlimit:4;stroke-dasharray:none;stroke-opacity:1;paint-order:fill markers stroke"
             id="path335-6-7"
             sodipodi:sides="5"
             sodipodi:cx="2143.8303"
             sodipodi:cy="-913.77264"
             sodipodi:r1="13.235804"
             sodipodi:r2="6.6844115"
             sodipodi:arg1="1.5707963"
             sodipodi:arg2="2.1991149"
             inkscape:flatsided="false"
             inkscape:rounded="0"
             inkscape:randomized="0"
             d="m 2143.8303,-900.53684 -3.929,-7.828 -8.659,-1.31772 6.2308,-6.15568 -1.4226,-8.64239 7.7798,4.02357 7.7798,-4.02357 -1.4225,8.64239 6.2307,6.15568 -8.659,1.31772 z"
             inkscape:transform-center-y="0.076857842"
             transform="matrix(0.60288332,-0.79782936,-0.79782936,-0.60288332,66.026946,2125.8494)"
             inkscape:transform-center-x="-1.1906098" />
          <path
             inkscape:transform-center-x="-0.21965669"
             transform="matrix(0.3596433,-0.93308986,-0.93308986,-0.3596433,425.76993,2704.466)"
             inkscape:transform-center-y="-1.0532279"
             d="m 2143.8303,-900.53684 -3.929,-7.828 -8.659,-1.31772 6.2308,-6.15568 -1.4226,-8.64239 7.7798,4.02357 7.7798,-4.02357 -1.4225,8.64239 6.2307,6.15568 -8.659,1.31772 z"
             inkscape:randomized="0"
             inkscape:rounded="0"
             inkscape:flatsided="false"
             sodipodi:arg2="2.1991149"
             sodipodi:arg1="1.5707963"
             sodipodi:r2="6.6844115"
             sodipodi:r1="13.235804"
             sodipodi:cy="-913.77264"
             sodipodi:cx="2143.8303"
             sodipodi:sides="5"
             id="path337-0-9"
             style="opacity:1;fill:#ffcc00;fill-opacity:1;stroke:none;stroke-width:2.05838752;stroke-linecap:butt;stroke-linejoin:miter;stroke-miterlimit:4;stroke-dasharray:none;stroke-opacity:1;paint-order:fill markers stroke"
             sodipodi:type="star" />
          <path
             sodipodi:type="star"
             style="opacity:1;fill:#ffcc00;fill-opacity:1;stroke:none;stroke-width:2.05838752;stroke-linecap:butt;stroke-linejoin:miter;stroke-miterlimit:4;stroke-dasharray:none;stroke-opacity:1;paint-order:fill markers stroke"
             id="path339-1-2"
             sodipodi:sides="5"
             sodipodi:cx="2143.8303"
             sodipodi:cy="-913.77264"
             sodipodi:r1="13.235804"
             sodipodi:r2="6.6844115"
             sodipodi:arg1="1.5707963"
             sodipodi:arg2="2.1991149"
             inkscape:flatsided="false"
             inkscape:rounded="0"
             inkscape:randomized="0"
             d="m 2143.8303,-900.53684 -3.929,-7.828 -8.659,-1.31772 6.2308,-6.15568 -1.4226,-8.64239 7.7798,4.02357 7.7798,-4.02357 -1.4225,8.64239 6.2307,6.15568 -8.659,1.31772 z"
             inkscape:transform-center-y="-0.39493538"
             transform="matrix(0.09654557,-0.99532856,-0.99532856,-0.09654557,914.46163,3152.9949)"
             inkscape:transform-center-x="0.88243226" />
        </g>
      </g>
    </g>
    <g
       style="fill:#fcc400;fill-opacity:1"
       transform="matrix(0.41803877,-0.73017033,-0.73017033,-0.41803877,115.19441,2406.2073)"
       id="g778-3-6">
      <path
         sodipodi:type="star"
         style="opacity:1;fill:#ffcc00;fill-opacity:1;stroke:none;stroke-width:2.05838752;stroke-linecap:butt;stroke-linejoin:miter;stroke-miterlimit:4;stroke-dasharray:none;stroke-opacity:1;paint-order:fill markers stroke"
         id="path770-4-6"
         sodipodi:sides="5"
         sodipodi:cx="2143.8303"
         sodipodi:cy="-913.77264"
         sodipodi:r1="13.235804"
         sodipodi:r2="6.6844115"
         sodipodi:arg1="1.5707963"
         sodipodi:arg2="2.1991149"
         inkscape:flatsided="false"
         inkscape:rounded="0"
         inkscape:randomized="0"
         d="m 2143.8303,-900.53684 -3.929,-7.828 -8.659,-1.31772 6.2308,-6.15568 -1.4226,-8.64239 7.7798,4.02357 7.7798,-4.02357 -1.4225,8.64239 6.2307,6.15568 -8.659,1.31772 z"
         inkscape:transform-center-y="1.2298809"
         transform="matrix(0.80384884,-0.59483362,-0.59483362,-0.80384884,-124.44208,1453.3992)"
         inkscape:transform-center-x="-0.035762369" />
      <path
         inkscape:transform-center-x="-1.1906098"
         transform="matrix(0.60288332,-0.79782936,-0.79782936,-0.60288332,66.026946,2125.8494)"
         inkscape:transform-center-y="0.076857842"
         d="m 2143.8303,-900.53684 -3.929,-7.828 -8.659,-1.31772 6.2308,-6.15568 -1.4226,-8.64239 7.7798,4.02357 7.7798,-4.02357 -1.4225,8.64239 6.2307,6.15568 -8.659,1.31772 z"
         inkscape:randomized="0"
         inkscape:rounded="0"
         inkscape:flatsided="false"
         sodipodi:arg2="2.1991149"
         sodipodi:arg1="1.5707963"
         sodipodi:r2="6.6844115"
         sodipodi:r1="13.235804"
         sodipodi:cy="-913.77264"
         sodipodi:cx="2143.8303"
         sodipodi:sides="5"
         id="path772-2-0"
         style="opacity:1;fill:#ffcc00;fill-opacity:1;stroke:none;stroke-width:2.05838752;stroke-linecap:butt;stroke-linejoin:miter;stroke-miterlimit:4;stroke-dasharray:none;stroke-opacity:1;paint-order:fill markers stroke"
         sodipodi:type="star" />
      <path
         sodipodi:type="star"
         style="opacity:1;fill:#ffcc00;fill-opacity:1;stroke:none;stroke-width:2.05838752;stroke-linecap:butt;stroke-linejoin:miter;stroke-miterlimit:4;stroke-dasharray:none;stroke-opacity:1;paint-order:fill markers stroke"
         id="path774-7-0"
         sodipodi:sides="5"
         sodipodi:cx="2143.8303"
         sodipodi:cy="-913.77264"
         sodipodi:r1="13.235804"
         sodipodi:r2="6.6844115"
         sodipodi:arg1="1.5707963"
         sodipodi:arg2="2.1991149"
         inkscape:flatsided="false"
         inkscape:rounded="0"
         inkscape:randomized="0"
         d="m 2143.8303,-900.53684 -3.929,-7.828 -8.659,-1.31772 6.2308,-6.15568 -1.4226,-8.64239 7.7798,4.02357 7.7798,-4.02357 -1.4225,8.64239 6.2307,6.15568 -8.659,1.31772 z"
         inkscape:transform-center-y="-1.0532279"
         transform="matrix(0.3596433,-0.93308986,-0.93308986,-0.3596433,425.76993,2704.466)"
         inkscape:transform-center-x="-0.21965669" />
      <path
         inkscape:transform-center-x="0.88243226"
         transform="matrix(0.09654557,-0.99532856,-0.99532856,-0.09654557,914.46163,3152.9949)"
         inkscape:transform-center-y="-0.39493538"
         d="m 2143.8303,-900.53684 -3.929,-7.828 -8.659,-1.31772 6.2308,-6.15568 -1.4226,-8.64239 7.7798,4.02357 7.7798,-4.02357 -1.4225,8.64239 6.2307,6.15568 -8.659,1.31772 z"
         inkscape:randomized="0"
         inkscape:rounded="0"
         inkscape:flatsided="false"
         sodipodi:arg2="2.1991149"
         sodipodi:arg1="1.5707963"
         sodipodi:r2="6.6844115"
         sodipodi:r1="13.235804"
         sodipodi:cy="-913.77264"
         sodipodi:cx="2143.8303"
         sodipodi:sides="5"
         id="path776-3-7"
         style="opacity:1;fill:#ffcc00;fill-opacity:1;stroke:none;stroke-width:2.05838752;stroke-linecap:butt;stroke-linejoin:miter;stroke-miterlimit:4;stroke-dasharray:none;stroke-opacity:1;paint-order:fill markers stroke"
         sodipodi:type="star" />
    </g>
    <path
       inkscape:connector-curvature="0"
       id="path101-7"
       d="m 240.11914,205.10982 -15.12305,94.45703 h 13.53125 l 2.65234,-18.48828 h 8.82031 8.82033 l 2.65233,18.48828 h 13.53125 l -15.12305,-94.45703 h -9.88086 z m 9.15234,16.46094 h 0.26562 l 0.46289,3.32617 0.4629,-3.32617 h 0.26562 l 6.36719,46.68945 h -7.09571 -7.09569 z"
       style="font-style:normal;font-variant:normal;font-weight:normal;font-stretch:normal;font-size:159.01036072px;line-height:1.25;font-family:'Bebas Neue';-inkscape-font-specification:'Bebas Neue';text-align:center;letter-spacing:64.46405029px;word-spacing:0px;text-anchor:middle;opacity:1;fill:#003399;fill-opacity:1;stroke:#ffcc00;stroke-width:2.52411294;stroke-miterlimit:4;stroke-dasharray:none;stroke-opacity:1" />
  </g>
</svg>
