<?xml version="1.0" encoding="UTF-8" standalone="no"?>
<!DOCTYPE svg PUBLIC "-//W3C//DTD SVG 1.1//EN" "http://www.w3.org/Graphics/SVG/1.1/DTD/svg11.dtd">
<svg width="871.153" height="1000" version="1.1" xmlns="http://www.w3.org/2000/svg" xmlns:xlink="http://www.w3.org/1999/xlink">
<polygon fill="#FFFFFF" points="264.972,0.267 320.36,183.99 136.643,127.346 136.643,466.998 321.622,410.356 271.246,593.924 605.881,593.924 549.248,412.868 730.46,470 730.46,134.114 550.493,180.034 604.625,0.267 "/>
<path fill="#ABB5BC" d="M730.704,415.311c-53.787-20.314-144.571-52.076-242.212-63.578c11.513,97.64,43.274,188.413,63.601,242.2H315.409c20.315-53.787,52.071-144.561,63.59-242.2c-97.641,11.502-188.43,43.263-242.212,63.578V307.725V178.634c53.782,20.304,144.571,52.065,242.212,63.59c-11.519-97.641-43.274-188.436-63.59-242.213h236.684c-20.326,53.777-52.088,144.572-63.601,242.213c97.641-11.524,188.425-43.286,242.212-63.59V415.311z"/>
<path fill="#003E81" d="M296.439,159.663c-14.53-61.711-36.802-118.467-50.949-159.652h36.813c24.377,62.045,50.742,150.129,59.472,204.983c-54.849-8.724-142.933-35.096-204.988-59.467v-36.829C177.973,122.856,234.739,145.116,296.439,159.663"/>
<path fill="#003E81" d="M296.439,434.293c-61.689,14.525-118.456,36.795-159.636,50.943v-36.809c62.039-24.381,150.123-50.742,204.972-59.488c-8.729,54.865-35.095,142.949-59.472,204.994h-36.813C259.638,552.76,281.909,495.982,296.439,434.293"/>
<path fill="#003E81" d="M571.063,434.293c14.525,61.689,36.785,118.455,50.943,159.641h-36.818c-24.371-62.045-50.743-150.139-59.467-204.994c54.844,8.746,142.927,35.107,204.972,59.488l0.011,36.809C689.519,471.088,632.753,448.818,571.063,434.293"/>
<path fill="#003E81" d="M571.063,159.663c61.689-14.547,118.444-36.807,159.63-50.965v36.829c-62.056,24.371-150.128,50.743-204.972,59.467C534.445,150.14,560.817,62.056,585.188,0h36.818C607.859,41.186,585.589,97.952,571.063,159.663"/>
<path fill="#003E81" d="M568.574,878.566c1.511-22.639,13.202-41.119,37.74-41.119c27.161,0,37.729,18.48,37.729,41.119H568.574z M705.167,917.029v-12.447c0-58.455-26.405-110.133-99.241-110.133c-61.123,0-105.276,37.719-105.276,102.598c0,64.857,49.432,102.953,114.334,102.953c25.293,0,50.187-3.768,72.08-12.447v-47.887c-20.382,10.936-41.508,15.07-60,15.07c-33.207,0-53.955-10.559-57.734-37.707H705.167z"/>
<path fill="#003E81" d="M338.997,878.566c1.506-22.639,13.203-41.119,37.74-41.119c27.161,0,37.725,18.48,37.725,41.119H338.997z M475.59,917.029v-12.447c0-58.455-26.405-110.133-99.241-110.133c-61.123,0-105.275,37.719-105.275,102.598c0,64.857,49.432,102.953,114.333,102.953c25.288,0,50.187-3.768,72.08-12.447v-47.887c-20.382,10.936-41.513,15.07-60.006,15.07c-33.206,0-53.954-10.559-57.728-37.707H475.59z"/>
<path fill="#003E81" d="M871.153,798.361c-3.111-0.455-8.502-0.889-13.08-0.889c-28.561,0-45.053,15.369-56.399,39.529h-0.745v-35.141h-60.056v190.715h65.924v-80.537c0-37.33,17.069-59.379,47.409-59.379c4.912,0,11.146,0.768,13.658,1.391L871.153,798.361z"/>
<polygon fill="#003E81" points="0,992.588 71.48,992.588 71.48,879.443 160.086,879.443 160.086,992.588 231.561,992.588 231.561,728.516 160.086,728.516 160.086,829.734 71.48,829.734 71.48,728.516 0,728.516 "/>
	</svg>
