<svg width="178" height="55" xmlns="http://www.w3.org/2000/svg">

 <g>
  <title>Layer 1</title>
  <g id="svg_7">
   <path id="svg_3" d="m68.7855,17.201c-0.097,0.655 -0.161,1.31 -0.44,1.879c-0.097,0.086 -0.258,0.097 -0.375,0.055c-0.408,-0.172 -0.087,-0.731 -0.569,-0.892c-1.278,-0.838 -2.889,-0.999 -4.51,-0.87c-2.234,0.258 -4.607,1.289 -5.553,3.565c-0.633,1.579 -0.569,3.34 -0.054,4.886c0.763,2.266 3.072,3.802 5.445,3.866c1.106,0.055 2.158,-0.097 3.104,-0.461l0.033,-0.064c-0.022,-1.418 0.021,-2.546 -0.129,-3.78c-0.042,-0.226 -0.129,-0.505 -0.397,-0.58c-0.59,-0.075 -1.181,-0.064 -1.804,-0.064c-0.064,-0.215 -0.032,-0.483 -0.021,-0.708l6.69,-0.011l0.032,0.022c0.021,0.279 0.011,0.429 0.011,0.676l-0.043,0.032c-0.473,0.032 -0.978,-0.064 -1.396,0.075l-0.064,0.086l0.021,3.179c0.022,0.279 0.097,0.591 0.312,0.816c0.032,0.107 0.054,0.226 -0.011,0.333c-0.44,0.376 -1.031,0.407 -1.557,0.59c-1.75,0.366 -3.48,0.763 -5.392,0.752c-3.114,-0.021 -6.368,-1.106 -7.7,-4.102c-0.837,-2.073 -0.676,-4.704 0.752,-6.497c2.438,-2.857 5.896,-3.609 9.59,-3.534c1.404,0.096 2.779,0.269 4.025,0.751zm53.847,-0.322l0,0.655s-0.791,-0.045 -1.354,0.054c-0.271,0.048 1.717,3.684 1.717,3.684c0.936,1.804 1.795,3.63 2.793,5.401l0.043,-0.011s4.031,-8.39 4.006,-8.961c-0.32,-0.338 -1.914,-0.132 -1.914,-0.132c0,-0.196 0.014,-0.457 0.002,-0.69l0.043,-0.021c1.547,-0.021 3.195,0.011 4.773,0c0.027,0.229 0.018,0.462 0.018,0.709c-0.244,0.017 -0.816,0.011 -1.225,0.021c-0.205,0.14 -0.291,0.397 -0.408,0.602l-3.695,7.646l-2.287,4.63c-0.064,0.096 -0.139,0.215 -0.268,0.215c-0.236,0.021 -0.377,-0.205 -0.461,-0.387l-2.568,-5.026l-1.762,-3.469c-0.676,-1.311 -1.287,-2.663 -2.137,-3.888c-0.375,-0.451 -0.988,-0.312 -1.523,-0.365c0.021,-0.271 -0.006,-0.418 0,-0.72l6.174,0.011l0.033,0.042zm29.285,3.555c0,0.223 0.012,0.33 0.012,0.526c-0.367,0.005 -0.709,-0.043 -1.01,0.085l-0.064,0.097l0.012,6.176c0,0.676 0.053,1.342 0.127,1.976a0.66,0.66 0 0 0 0.248,0.344l0.182,0.043c1.268,0 2.578,0.021 3.781,-0.226c0.451,-0.151 0.934,-0.279 1.225,-0.73c0.107,-0.075 0.234,-0.097 0.354,-0.032c0.129,0.235 -0.053,0.473 -0.086,0.698l-0.322,0.902l-0.064,0.042l-8.721,-0.026c0,-0.161 0,-0.34 -0.006,-0.531c0.334,-0.042 0.725,0.042 1.016,-0.075c0.129,-0.15 0.031,-0.365 0.074,-0.516l-0.02,-6.1c-0.076,-0.655 0.064,-1.396 -0.217,-1.965c-0.215,-0.193 -0.525,-0.129 -0.805,-0.161c-0.172,-0.054 -0.486,0.032 -0.486,-0.035c0,-0.131 0.014,-0.349 0.014,-0.502l4.756,0.01zm12.889,0.032l0.869,0.011c-0.033,0.473 -0.129,0.935 -0.203,1.407c-0.043,0.064 -0.076,0.172 -0.174,0.194c-0.129,0.01 -0.258,-0.012 -0.299,-0.129c-0.045,-0.139 -0.066,-0.279 -0.184,-0.375c-1.107,-0.516 -2.459,-0.461 -3.77,-0.494c-0.258,0.033 -0.611,-0.075 -0.773,0.14l0.021,3.437l0.086,0.032c1.139,-0.021 2.33,0.075 3.395,-0.14c0.311,-0.107 0.191,-0.462 0.234,-0.709c0.023,-0.107 -0.043,-0.201 0.055,-0.322c0.184,0.011 0.346,-0.021 0.549,-0.013l0,2.73c-0.215,0.022 -0.578,0.009 -0.578,0.009c-0.021,-0.183 0.018,-0.514 -0.088,-0.717c-0.27,-0.183 -0.623,-0.162 -0.945,-0.215c-0.893,-0.011 -1.773,-0.043 -2.674,-0.032l-0.055,0.053c0.031,1.332 -0.064,2.75 0.129,3.973c0.053,0.151 0.107,0.29 0.248,0.354c0.643,0.076 1.352,0.032 1.986,0.044c0.998,-0.075 2.02,-0.098 2.846,-0.58c0.234,-0.15 0.354,-0.569 0.688,-0.43c0.16,0.182 0.01,0.407 -0.012,0.602l-0.387,1.041l-0.172,0.021l-8.611,-0.032l-0.012,-0.505c0.332,-0.074 0.73,0.033 1.031,-0.096l0.064,-0.141l-0.01,-6.626c-0.055,-0.461 0.01,-1.192 -0.152,-1.718a0.61,0.61 0 0 0 -0.225,-0.215c-0.355,-0.075 -0.773,-0.011 -1.148,-0.043c-0.066,-0.151 -0.033,-0.344 -0.021,-0.505l0.084,-0.043l1.344,0.011l6.864,0.021zm5.752,0.003l-0.008,0.535c-0.395,-0.011 -0.73,-0.022 -1.062,0.053c0.051,0.378 0.246,0.537 0.387,0.784l2.104,3.2l0.205,0.258l0.064,-0.043c0.816,-1.257 1.652,-2.502 2.266,-3.845c0.033,-0.075 0.064,-0.204 0.033,-0.279l-0.098,-0.075l-1.219,-0.051c-0.002,-0.209 0,-0.537 0,-0.537l3.451,0.03c0.012,0.211 0.023,0.343 0.012,0.505c-0.389,-0.011 -0.902,-0.086 -1.117,0.375l-2.77,4.285l-0.27,0.409l0.012,2.771c0.117,0.279 -0.021,0.815 0.375,0.945c0.355,0.085 0.801,0.019 1.166,0.051c0.012,0.188 0.006,0.357 -0.006,0.518l-4.855,-0.021c0,-0.115 -0.01,-0.493 -0.01,-0.493c0.387,-0.044 1.084,0.215 1.107,-0.344l-0.023,-3.34c-1.051,-1.503 -2.008,-3.071 -3.08,-4.585c-0.184,-0.204 -0.355,-0.44 -0.592,-0.548l-0.881,-0.032c0,-0.188 -0.01,-0.537 -0.01,-0.537l4.819,0.011z"/>
   <path id="svg_4" d="m74.8095,20.315c1.429,0.086 2.879,0.473 3.62,1.804c0.354,0.731 0.236,1.675 -0.269,2.298c-0.569,0.698 -1.353,0.827 -2.126,1.031c1.096,1.364 2.105,2.76 3.479,3.952c0.269,0.215 0.623,0.215 0.966,0.257c-0.01,0.167 -0.01,0.368 -0.021,0.538l-2.652,-0.021l-0.43,-0.107c-1.031,-0.988 -1.805,-2.191 -2.599,-3.308l-0.698,-1.032l-1.062,0s-0.043,1.977 0.021,3.137c0.064,0.269 0.043,0.645 0.354,0.752c0.333,0.064 0.795,0.023 1.17,0.034c0.064,0.141 0,0.524 0,0.524l-4.875,0c-0.064,-0.14 -0.043,-0.365 -0.032,-0.517c0.329,-0.037 0.781,0.045 1.042,-0.085l0.065,-0.172c0.021,-0.451 -0.043,-6.465 -0.043,-6.465c-0.054,-0.58 0.011,-1.268 -0.161,-1.825c-0.215,-0.387 -0.708,-0.248 -1.106,-0.28l-0.285,0c-0.01,-0.161 0.014,-0.334 0.005,-0.526l5.637,0.011zm1.332,1.891c-0.623,-1.042 -3.189,-1.192 -3.2,-1.085l0.064,4.049c1.203,0.042 2.481,0.011 3.2,-1.009c0.323,-0.602 0.237,-1.376 -0.064,-1.955zm36.008,-1.719c1.707,0.236 3.447,1.139 4.252,2.813c0.451,1.075 0.518,2.406 0.086,3.512c-0.461,1.375 -1.889,2.642 -3.264,3.006c-1.16,0.387 -2.459,0.44 -3.803,0.42l-4.154,-0.022c0.01,-0.163 0.01,-0.485 0.01,-0.485c0.363,-0.027 0.934,0.153 1.074,-0.276l-0.021,-6.433c-0.064,-0.645 0.055,-1.267 -0.15,-1.869c-0.107,-0.323 -0.473,-0.226 -0.73,-0.279l-0.682,0c0,-0.244 0,-0.244 0.006,-0.516l5.766,-0.011l1.61,0.14zm1.256,2.234c-1.072,-1.31 -2.631,-1.74 -4.316,-1.718c-0.182,0.053 -0.504,-0.086 -0.547,0.182l0.031,6.69c0.021,0.516 0.055,1.01 0.172,1.492c0.086,0.119 0.184,0.194 0.334,0.205c1.375,0.021 2.641,-0.205 3.725,-0.881c1.031,-0.623 1.547,-1.708 1.602,-2.835c0.03,-1.191 -0.323,-2.254 -1.001,-3.135zm-25.418,-2.631c0.226,0.322 -0.344,0.387 -0.312,0.699c0.44,1.353 1.052,2.642 1.601,3.952l1.643,3.619c0.301,0.515 0.525,1.429 1.354,1.299c0.461,-0.011 0.934,0.032 1.363,-0.031c0.053,-0.033 0.096,-0.075 0.096,-0.129l-0.01,-4.683c-0.055,-0.902 0.043,-2.169 -0.129,-3.05c-0.129,-0.354 -0.344,-0.73 -0.742,-0.848c-0.258,-0.064 -0.547,-0.054 -0.826,-0.064l0,-0.505c1.105,-0.054 2.115,0.021 3.244,0l4.252,3.995l3.18,2.953l0.053,-0.064l-0.033,-4.446c-0.062,-0.525 -0.062,-1.181 -0.236,-1.707c-0.105,-0.287 -0.818,-0.207 -1.381,-0.207l0,-0.537l3.543,0.003c0.027,0.159 0,0.537 0,0.537c-0.354,-0.021 -0.746,-0.068 -1.045,0.064c-0.15,0.067 -0.021,9.268 -0.021,9.268c-0.021,0.076 -0.062,0.141 -0.15,0.161c-0.127,0.033 -0.215,-0.063 -0.322,-0.097l-1.062,-0.998l-4.553,-4.253c-0.924,-0.827 -1.924,-1.858 -2.922,-2.717l-0.031,0.042l0.031,5.531l0.141,1.354c0.043,0.149 0.107,0.29 0.246,0.387c0.355,0.118 0.807,0.031 1.193,0.074c0.041,0.151 0.041,0.354 0,0.516l-8.163,0l-0.067,-0.033a1.782,1.782 0 0 1 0,-0.484c0.354,-0.063 0.773,0.022 1.105,-0.074c0.054,-0.054 0.065,-0.129 0.033,-0.184c-0.355,-0.923 -0.773,-1.825 -1.16,-2.738l-0.064,-0.043l-3.898,0.01c-0.397,0.892 -0.881,1.74 -1.031,2.729c0.011,0.085 0.086,0.161 0.15,0.203c0.462,0.119 0.924,0.054 1.407,0.064c0.043,0.161 0.021,0.355 0.01,0.517c-1.224,0.064 -2.481,0 -3.791,0c-0.075,-0.173 0,-0.322 -0.011,-0.494c0.397,-0.098 1.031,0.129 1.138,-0.44l2.277,-4.543l2.223,-4.382c0.43,-0.172 0.945,-0.183 1.417,-0.279c0.099,-0.001 0.184,-0.012 0.26,0.053zm-0.473,5.885a83.928,83.928 0 0 0 -1.482,-3.5c-0.645,1.095 -1.149,2.276 -1.708,3.426l0,0.085c1.052,0.022 2.149,0.033 3.19,-0.011zm46.006,-5.82c0.053,0.064 0.076,0.183 0.012,0.257c-0.107,0.118 -0.322,0.226 -0.322,0.408c0.16,0.848 0.578,1.59 0.881,2.373l0.686,1.611l1.719,3.812c0.248,0.451 0.473,1.213 1.16,1.128c0.482,0 1.053,0.064 1.514,-0.055c0.119,-0.074 0.086,-0.268 0.086,-0.376l-0.01,-6.755a6.267,6.267 0 0 0 -0.141,-1.353c-0.107,-0.362 -1.154,-0.242 -1.406,-0.269l0,-0.494l4.811,-0.021c0,0.287 -0.008,0.516 -0.008,0.516s-0.732,-0.054 -1.002,0.086l-0.053,0.161l0.043,7.056c0.107,0.462 -0.043,1.031 0.332,1.375l0.248,0.042c1.449,0.012 2.932,0.055 4.199,-0.386c0.279,-0.118 0.58,-0.279 0.752,-0.58c0.096,-0.043 0.234,-0.086 0.342,-0.032c0.152,0.15 -0.01,0.333 -0.01,0.505c-0.129,0.387 -0.258,0.772 -0.43,1.139l-13.477,-0.021l-0.045,-0.043l0,-0.463l0.055,-0.031c0.365,-0.021 0.762,0.043 1.086,-0.064l0.02,-0.118c-0.354,-0.945 -0.762,-1.869 -1.16,-2.782l-0.084,-0.054l-3.824,0c-0.387,0.742 -0.74,1.515 -0.998,2.319c-0.012,0.205 -0.162,0.484 0.074,0.612c0.43,0.13 0.938,0.073 1.434,0.087c0,0.228 -0.004,0.332 0.006,0.494l-3.791,0.021l0,-0.509c0.398,-0.074 0.955,0.111 1.105,-0.414l2.053,-4.092l2.469,-4.865c0.451,-0.14 0.936,-0.194 1.408,-0.28c0.095,0.001 0.192,-0.01 0.266,0.055zm-0.503,5.895c-0.441,-1.17 -0.945,-2.33 -1.451,-3.49l-0.043,0.033a48.985,48.985 0 0 0 -1.686,3.458c1.117,0.021 2.072,0.053 3.18,-0.001zm-71.224,6.734c0.022,0.504 0.151,1.02 0.064,1.514c-0.118,0.064 -0.279,0.118 -0.408,0.044c-0.193,-0.248 -0.236,-0.612 -0.58,-0.763a3.974,3.974 0 0 0 -1.933,-0.419c-1.021,0.042 -2.126,0.321 -2.545,1.363c-0.097,0.431 -0.032,0.956 0.312,1.289c0.559,0.602 1.32,0.73 1.997,1.021c1.558,0.579 3.802,0.848 4.189,2.898c0.225,1.149 -0.354,2.17 -1.257,2.9c-1.933,1.417 -4.897,1.148 -7.12,0.548c-0.161,-0.516 -0.258,-1.063 -0.354,-1.611c0.021,-0.097 0.032,-0.226 0.15,-0.247c0.161,-0.01 0.386,-0.043 0.451,0.162c0.419,0.998 1.515,1.234 2.459,1.405c0.87,0.161 1.75,0 2.514,-0.257c0.687,-0.29 1.374,-0.956 1.342,-1.762c0.011,-0.697 -0.57,-1.331 -1.214,-1.567c-1.579,-0.784 -3.501,-0.784 -4.822,-2.148c-0.547,-0.654 -0.687,-1.632 -0.418,-2.448c0.418,-1.182 1.729,-1.696 2.792,-2.04c1.375,-0.333 3.061,-0.29 4.381,0.118zm38.018,0.397c0.053,0.151 0.053,0.398 0.01,0.559c-0.365,0.064 -0.752,-0.043 -1.105,0.086l-0.064,0.118l0,5.993c0.053,1.073 0.268,2.19 1.223,2.835c0.893,0.58 2.127,0.634 3.213,0.44c0.922,-0.215 1.943,-0.655 2.373,-1.633c0.215,-0.397 0.311,-0.88 0.375,-1.332l-0.021,-4.563c-0.074,-0.526 -0.031,-1.16 -0.227,-1.687c-0.096,-0.183 -0.277,-0.203 -0.449,-0.226l-1,-0.021a1.752,1.752 0 0 1 0,-0.569l3.727,0.011c0.043,0.161 0.021,0.354 0.033,0.526l-0.043,0.043c-0.365,0.043 -0.752,-0.043 -1.086,0.076l-0.053,0.075l-0.012,6.476a3.743,3.743 0 0 1 -1.738,2.803l-0.742,0.418c-1.277,0.505 -2.781,0.602 -4.23,0.408c-1.406,-0.214 -2.986,-0.805 -3.5,-2.309c-0.184,-0.482 -0.184,-0.999 -0.215,-1.558l-0.012,-4.692c-0.021,-0.504 -0.012,-1.062 -0.225,-1.546l-0.174,-0.13c-0.385,-0.064 -0.814,-0.021 -1.223,-0.032l-0.043,-0.043l0,-0.516l0.043,-0.021l5.165,0.011zm54.715,2.771c0.076,0.322 0.076,0.676 0.107,1.021c-0.031,0.075 -0.064,0.192 -0.17,0.192c-0.389,0.032 -0.258,-0.473 -0.604,-0.569c-0.771,-0.472 -1.932,-0.429 -2.705,0c-0.334,0.227 -0.611,0.569 -0.58,0.988c0.107,0.967 1.215,1.106 1.934,1.407c1.115,0.365 2.607,0.751 2.846,2.115c0.172,0.945 -0.375,1.762 -1.139,2.299c-1.396,0.88 -3.447,0.677 -4.994,0.268c-0.16,-0.387 -0.193,-0.815 -0.291,-1.224c0,-0.097 0.066,-0.161 0.15,-0.183c0.322,-0.118 0.322,0.29 0.484,0.44c0.773,0.74 1.943,0.881 3.018,0.676c0.57,-0.139 1.268,-0.525 1.396,-1.17c0.064,-0.322 0,-0.677 -0.193,-0.935c-0.408,-0.483 -0.988,-0.602 -1.514,-0.827c-1.129,-0.429 -2.762,-0.622 -3.051,-2.062a1.835,1.835 0 0 1 0.645,-1.805c1.257,-0.975 3.126,-1.061 4.661,-0.631z"/>
   <path id="svg_5" d="m67.1535,35.78c0.751,0.021 1.524,-0.032 2.244,0.043l0.483,1.203c-0.022,0.063 -0.075,0.149 -0.161,0.149c-0.354,0.044 -0.387,-0.419 -0.677,-0.504c-0.773,-0.323 -1.675,-0.387 -2.577,-0.354l-0.032,0.031l0.011,6.122c0.086,0.247 0.021,0.612 0.323,0.697c0.386,0.044 0.814,0.027 1.211,0.027c0.021,0.14 0.003,0.29 0.013,0.431l-4.662,-0.007c0.003,-0.135 0.003,-0.294 0.011,-0.429c0.451,-0.033 0.859,0.031 1.267,-0.065l0.053,-0.096l0,-6.638l-0.031,-0.074c-0.827,-0.032 -1.762,0.011 -2.524,0.301c-0.354,0.074 -0.408,0.687 -0.838,0.515c-0.085,-0.075 -0.064,-0.204 -0.01,-0.29l0.386,-1.02c0.183,-0.054 0.419,0.011 0.601,-0.054l4.909,0.012zm17.301,0.054c0.172,0.397 0.344,0.806 0.472,1.224c-0.021,0.086 -0.096,0.129 -0.183,0.14c-0.29,0.032 -0.3,-0.321 -0.537,-0.43c-0.365,-0.247 -0.794,-0.278 -1.224,-0.364c-0.484,-0.086 -0.945,-0.055 -1.429,-0.075l-0.042,0.031l0.011,6.207c0.096,0.194 0.011,0.474 0.236,0.602c0.408,0.054 0.859,0.054 1.278,0.054c-0.003,0.182 -0.01,0.263 0.004,0.424l-4.622,-0.004l-0.011,-0.409c0.431,-0.03 0.88,0.022 1.277,-0.075l0.064,-0.192l-0.011,-6.573c-0.011,-0.074 -0.097,-0.074 -0.161,-0.074c-0.902,0.021 -1.804,0.042 -2.566,0.429c-0.247,0.15 -0.312,0.569 -0.655,0.408c-0.097,-0.085 -0.032,-0.226 0,-0.312l0.376,-0.977c0.14,-0.097 0.365,-0.032 0.537,-0.064l6.723,0.011l0.463,0.019zm8.086,0a9.364,9.364 0 0 1 -0.15,1.127c-0.055,0.065 -0.064,0.15 -0.172,0.15c-0.086,-0.011 -0.203,-0.021 -0.225,-0.129c-0.021,-0.364 -0.451,-0.343 -0.688,-0.472c-1,-0.162 -1.923,-0.236 -2.986,-0.151l-0.076,0.151l0.011,2.599l0.065,0.043c0.934,-0.032 1.921,0.086 2.771,-0.161c0.193,-0.172 0.096,-0.483 0.139,-0.709c-0.01,-0.043 0.043,-0.055 0.076,-0.055l0.385,0.022c0.066,0.795 -0.01,1.386 0.012,2.127c-0.139,0.043 -0.311,0.021 -0.461,0.011c-0.086,-0.205 0.096,-0.623 -0.258,-0.677c-0.859,-0.107 -1.784,-0.107 -2.696,-0.086l-0.033,0.043c-0.011,0.944 -0.064,2.18 0.086,3.179c0.032,0.096 0.085,0.203 0.182,0.257c1.31,0.054 2.718,0.118 3.823,-0.396c0.182,-0.129 0.322,-0.462 0.58,-0.354c0.129,0.15 -0.012,0.312 -0.021,0.473l-0.279,0.816l-0.043,0.031l-6.97,-0.011c-0.002,-0.158 -0.002,-0.292 -0.011,-0.418c0.324,-0.049 0.709,0.107 0.86,-0.161l0.011,-1.053l0,-4.124c-0.033,-0.516 0.042,-1.084 -0.161,-1.524l-0.118,-0.097c-0.29,-0.054 -0.623,-0.021 -0.935,-0.054c-0.011,-0.129 -0.032,-0.312 0.032,-0.419l6.433,0.011l0.817,0.011zm17.291,0.043l3.061,2.867l2.779,2.599l0.045,-0.064c0.043,-1.256 -0.021,-2.663 -0.045,-3.737c-0.074,-0.387 0.023,-0.838 -0.225,-1.149c-0.289,-0.128 -0.676,-0.074 -0.977,-0.106c-0.055,-0.118 -0.076,-0.323 0.01,-0.419c0.936,-0.043 1.762,0.021 2.707,0c0.086,0.096 0.043,0.279 0.031,0.408c-0.246,0.043 -0.514,0.021 -0.771,0.064l-0.076,0.075l-0.01,7.335c-0.043,0.075 -0.141,0.085 -0.215,0.064l-0.184,-0.107l-4.102,-3.867l-2.578,-2.383l-0.033,0c-0.031,2.212 -0.084,3.382 0.098,5.455c0.055,0.118 0.098,0.236 0.225,0.311c0.27,0.064 0.592,0.022 0.902,0.033c-0.002,0.169 0.008,0.284 0.018,0.431c-0.977,0.009 -1.842,-0.002 -2.777,-0.002c0.006,-0.166 0.014,-0.28 0.012,-0.429c0.33,0.001 0.547,0.031 0.795,-0.064l0.053,-0.129l-0.031,-5.649c0,-0.386 -0.162,-0.751 -0.473,-0.998c-0.236,-0.118 -0.516,-0.129 -0.807,-0.14c-0.064,-0.086 -0.043,-0.279 -0.031,-0.397l0.096,-0.043c0.892,-0.002 1.622,0.009 2.503,0.041zm11.383,0c0.064,0.096 0.043,0.279 0.031,0.408c-0.277,0.106 -0.73,-0.118 -0.869,0.193l0.01,5.584c0.012,0.354 0.033,0.72 0.129,1.041c0.184,0.269 1.021,0.161 1.096,0.216c0.01,0.138 0.004,0.279 -0.004,0.406l-3.818,-0.02c-0.014,-0.114 0.006,-0.282 0.01,-0.43c0.248,-0.032 0.635,0.064 0.816,-0.129l0.012,-0.473l-0.012,-5.252c-0.021,-0.354 -0.031,-0.73 -0.193,-1.009c-0.279,-0.183 -0.666,-0.086 -1.01,-0.129c-0.043,-0.118 -0.01,-0.258 -0.021,-0.397l0.043,-0.021l3.78,0.012zm4.027,0.02c0.031,0.108 0.053,0.334 -0.033,0.42c-0.246,0.011 -0.514,-0.032 -0.74,0.031c-0.064,0.033 -0.053,0.13 -0.021,0.172l2.621,5.026l0.041,0.032l0.086,-0.086l1.924,-3.877c0.16,-0.365 0.311,-0.72 0.354,-1.127c0,-0.075 -0.096,-0.119 -0.16,-0.141c-0.301,-0.053 -0.623,0 -0.936,-0.031c-0.043,-0.119 -0.064,-0.333 0.021,-0.43l2.781,0.01c0.086,0.151 0,0.236 0.021,0.398c-0.236,0.063 -0.535,-0.021 -0.762,0.086l-0.344,0.645l-3.395,6.895c-0.064,0.074 -0.182,0.118 -0.279,0.064l-0.139,-0.194l-3.199,-6.282c-0.312,-0.439 -0.473,-1.234 -1.182,-1.191c-0.129,-0.021 -0.355,0.053 -0.334,-0.119c0.012,-0.106 -0.053,-0.257 0.043,-0.321c1.195,0.02 2.439,0 3.632,0.02zm13.789,0.034c-0.021,0.397 -0.107,0.784 -0.184,1.17c-0.043,0.119 -0.193,0.097 -0.268,0.064c-0.16,-0.107 -0.119,-0.397 -0.365,-0.43c-1.01,-0.365 -2.234,-0.311 -3.361,-0.289c-0.076,0 -0.076,0.074 -0.107,0.129l0.01,2.598l0.066,0.054c0.912,-0.031 1.867,0.065 2.705,-0.128c0.258,-0.15 0.15,-0.494 0.193,-0.763c0.15,-0.032 0.365,-0.054 0.484,0.021l0,2.094c-0.141,0.044 -0.324,0.021 -0.463,0.011c-0.086,-0.16 0.074,-0.505 -0.162,-0.623c-0.664,-0.203 -1.492,-0.074 -2.18,-0.149l-0.611,0.021l-0.043,0.097c0.043,0.805 -0.055,2.094 0.129,3.157c0.074,0.344 0.461,0.226 0.719,0.268c1.031,-0.011 2.062,0.012 2.965,-0.311c0.354,-0.054 0.482,-0.569 0.869,-0.483c0.107,0.14 0.012,0.312 -0.01,0.461l-0.301,0.839l-0.119,0.021l-6.859,-0.021c-0.012,-0.153 -0.006,-0.275 -0.002,-0.42c0.297,-0.063 0.816,0.161 0.869,-0.258l-0.031,-6.014c-0.098,-0.226 -0.012,-0.559 -0.279,-0.666c-0.291,-0.086 -0.592,-0.022 -0.902,-0.054c-0.064,-0.118 -0.033,-0.29 -0.021,-0.419l0.107,-0.021l7.152,0.044zm20.125,0.031c0.043,0.119 0.021,0.27 0.021,0.397c-0.268,0.13 -0.73,-0.106 -0.871,0.216l0.014,5.52c0,0.344 0.02,0.827 0.182,1.182c0.289,0.15 0.688,0.075 1.029,0.106l0.012,0.408l-0.043,0.022l-3.801,-0.011c-0.008,-0.157 -0.014,-0.258 -0.012,-0.431c0.279,-0.063 0.678,0.098 0.85,-0.14l0.031,-0.601l-0.031,-4.726c-0.012,-0.44 0,-0.901 -0.107,-1.3c-0.248,-0.321 -0.73,-0.171 -1.096,-0.225c-0.021,-0.141 -0.033,-0.301 0.01,-0.43l3.812,0.013zm8.365,0.033l0.033,0.021c0.16,0.375 0.342,0.773 0.473,1.17c0,0.064 -0.043,0.15 -0.117,0.172c-0.322,0.064 -0.346,-0.269 -0.57,-0.397c-0.32,-0.269 -0.752,-0.289 -1.15,-0.376a9.228,9.228 0 0 0 -1.545,-0.074l-0.022,0.032l0.021,6.089c0.096,0.226 -0.012,0.623 0.301,0.73c0.387,0.054 0.826,-0.011 1.225,0.054c0.006,0.142 0.006,0.276 0,0.408l-4.607,-0.011c-0.043,-0.13 -0.021,-0.29 -0.012,-0.431c0.408,-0.031 0.859,0.033 1.258,-0.042c0.096,-0.173 0.064,-0.354 0.074,-0.548l-0.043,-6.262l-0.031,-0.042c-0.893,0 -1.75,0.021 -2.504,0.322c-0.354,0.085 -0.461,0.772 -0.848,0.439c0.055,-0.451 0.27,-0.826 0.408,-1.245c0.162,-0.075 0.377,-0.011 0.559,-0.054l4.102,0.021l2.995,0.024zm4.457,0.011c0.012,0.128 0.043,0.312 -0.02,0.419l-0.797,0.032c-0.074,0.086 0.043,0.149 0.043,0.225a155.813,155.813 0 0 0 2.084,3.083l0.043,0c0.656,-0.967 1.299,-1.944 1.805,-2.975c0.01,-0.098 0.096,-0.236 -0.021,-0.312c-0.311,-0.075 -0.676,-0.012 -1,-0.054c-0.041,-0.107 -0.02,-0.258 -0.02,-0.397l0.062,-0.032c0.963,-0.022 1.766,0.01 2.717,0.021l0,0.408c-0.004,0.008 -0.006,0.015 -0.01,0.021a1.813,1.813 0 0 0 -0.676,0.074l-0.367,0.473l-2.242,3.404l0.01,2.256c0.086,0.246 0.01,0.623 0.311,0.729c0.281,0.054 0.582,0.022 0.871,0.033c-0.012,0.21 0.016,0.283 0.004,0.417l-3.816,0.001c0.004,-0.135 -0.01,-0.27 -0.01,-0.418c0.268,-0.044 0.568,0.031 0.816,-0.064l0.041,-0.13l-0.012,-2.749l-2.436,-3.565c-0.162,-0.15 -0.291,-0.396 -0.516,-0.461c-0.205,-0.032 -0.441,0 -0.656,-0.032a1.312,1.312 0 0 1 -0.021,-0.397l0.064,-0.044l3.749,0.034zm-27.126,0.011c0.934,0.182 1.955,0.74 2.17,1.762c0.117,0.676 -0.184,1.31 -0.709,1.696c-0.398,0.268 -0.871,0.364 -1.311,0.494l0.053,0.118c0.785,0.934 1.461,1.976 2.354,2.812c0.277,0.28 0.621,0.463 1.041,0.452c0.064,0.118 0.033,0.29 0.021,0.408c-0.709,0.043 -1.449,0.031 -2.158,0.011c-0.398,-0.032 -0.656,-0.484 -0.924,-0.741c-0.721,-0.892 -1.301,-1.88 -1.977,-2.824c-0.268,-0.011 -0.559,-0.032 -0.816,0.011c-0.043,0.772 -0.021,1.589 -0.01,2.373c0.053,0.246 0.01,0.591 0.279,0.708c0.289,0.055 0.629,0.015 0.92,0.046c0.004,0.197 0.002,0.272 0.012,0.424l-3.846,-0.007c0.004,-0.108 -0.02,-0.29 -0.02,-0.419c0.238,-0.064 0.58,0.021 0.818,-0.086l0.053,-0.269l-0.021,-5.735c-0.074,-0.225 0.033,-0.708 -0.301,-0.859c-0.27,-0.074 -0.602,-0.01 -0.891,-0.053c-0.064,-0.107 -0.033,-0.279 -0.021,-0.397l0.086,-0.044c1.729,0.097 3.522,-0.096 5.198,0.119zm0.214,1.427c-0.494,-0.816 -1.408,-1.041 -2.352,-0.987c-0.043,0.021 -0.098,0.021 -0.129,0.074c-0.012,1.14 -0.033,2.116 0.01,3.18c0.902,0 1.891,0.063 2.459,-0.709c0.301,-0.44 0.227,-1.096 0.012,-1.558zm-70.695,-1.76c0.075,0.247 -0.387,0.289 -0.258,0.569l0.322,0.923l2.19,4.973c0.183,0.376 0.344,0.838 0.752,1.031l0.623,0.042c-0.007,0.107 0.007,0.275 0.01,0.408c-1.252,0.016 -2.567,0.021 -3.736,0.012c0.015,-0.138 0.001,-0.285 0.011,-0.43c0.29,-0.011 0.579,0.021 0.848,-0.087l-0.021,-0.226l-0.871,-2.051l-0.064,-0.054l-3.05,0l-0.085,0.107c-0.291,0.677 -0.666,1.321 -0.773,2.084c0.043,0.246 0.322,0.171 0.494,0.204l0.741,0.021c0.007,0.131 0.007,0.266 0.011,0.407c-1.017,0.02 -2.03,0.022 -3.028,0.011c0.004,-0.152 -0.021,-0.289 -0.011,-0.418c0.29,-0.064 0.709,0.107 0.859,-0.247l1.579,-3.146l1.826,-3.522l0.268,-0.516c0.365,-0.107 0.773,-0.14 1.149,-0.215c0.084,0.011 0.192,0.011 0.214,0.12zm-1.579,1.857c-0.527,0.838 -0.956,1.751 -1.396,2.653l0,0.064c0.816,0.01 1.708,0.031 2.524,-0.012c-0.366,-0.911 -0.72,-1.824 -1.128,-2.705z"/>
   <path id="svg_6" fill="#1467a2" d="m45.4575,9.561c1.063,1.14 1.896,2.267 2.845,3.889l-9.088,-0.014c-0.57,-0.433 -0.985,-0.715 -1.507,-1.044c-4.611,-3.315 -11.473,-4.466 -17.002,-2.32c-4.388,1.46 -8.62,5.336 -10.554,9.626c-1.962,3.866 -2.368,9.183 -0.996,13.454c1.383,5.171 6.002,10.178 11.116,11.946c3.808,1.536 9.007,1.508 12.796,0.02c4.987,-1.721 9.733,-6.485 11.28,-11.53c1.16,-3.142 1.354,-7.269 0.464,-10.594a0.621,0.621 0 0 0 -0.261,-0.329c-0.725,-0.154 -1.604,-0.048 -2.388,-0.116l-5.103,0l-13.01,-0.049l-5.267,0c-0.097,0.01 -0.136,0.117 -0.165,0.194l0.097,0.251l1.72,2.455l5.171,7.287c0.387,0.502 0.706,1.044 1.16,1.508c0.261,-0.01 0.415,-0.31 0.58,-0.493l2.291,-3.082l3.18,-4.312c0.463,-0.57 0.942,-1.131 1.573,-1.831l7.587,0.007c-1.746,2.519 -4.541,6.415 -4.541,6.415c-1.624,2.193 -3.228,4.398 -4.871,6.592l-3.064,4.146c-0.812,1.102 -1.585,2.242 -2.503,3.276c-0.281,0.116 -0.445,-0.213 -0.609,-0.377l-3.383,-4.727c-0.367,-0.503 -0.744,-1.034 -1.111,-1.556l-4.243,-5.982c-1.972,-2.803 -3.972,-5.587 -5.896,-8.4c-1.044,-1.682 -0.977,-4.339 0.135,-5.962c1.044,-1.576 2.696,-2.543 4.523,-2.668l7.684,0s15,0.002 24.59,0.006c3.482,5.222 4.386,10.983 3.748,15.651c-0.329,2.107 -0.812,4.146 -1.575,6.079c-2.04,5.278 -6.399,10.555 -11.647,13.241c-3.144,1.838 -7.037,2.953 -10.989,3.209l-3.475,0c-2.129,-0.141 -4.216,-0.547 -6.151,-1.237c-5.935,-1.836 -11.705,-6.853 -14.594,-12.573c-0.338,-0.871 -0.822,-1.683 -1.083,-2.591c-1.088,-2.509 -1.685,-5.461 -1.795,-8.447l0,-2.035c0.084,-2.304 0.458,-4.572 1.119,-6.615c1.759,-6.06 6.485,-11.995 12.275,-15.174c3.45,-1.938 7.566,-3.077 11.767,-3.182l1.302,0a24.49,24.49 0 0 1 4.628,0.562c4.987,1.095 9.432,3.579 13.24,7.426z"/>
  </g>
 </g>
</svg>