<svg width="32" height="32" viewBox="0 0 32 32" fill="none" xmlns="http://www.w3.org/2000/svg">
<path fill-rule="evenodd" clip-rule="evenodd" d="M15.7355 0.40667C7.09779 0.462761 0.135668 7.50059 0.173001 16.1384C0.210334 24.7763 7.23303 31.7537 15.8709 31.7351C24.5088 31.7165 31.5015 24.709 31.5016 16.0711C31.468 7.39409 24.4125 0.384155 15.7355 0.40667Z" fill="#00AE42"/>
<path fill-rule="evenodd" clip-rule="evenodd" d="M8.02501 9.80024C7.69569 9.43198 7.23184 9.21197 6.7383 9.18994C5.44141 9.18994 5.44141 10.5072 5.44141 10.7157V13.9605C5.44141 14.6623 5.59398 15.4862 6.7739 15.4862C7.26481 15.5 7.73235 15.2766 8.0301 14.8861V15.832C8.0301 16.2033 7.95381 16.5593 7.45031 16.5593C7.24367 16.5851 7.04216 16.4824 6.94173 16.2999C6.89721 16.1779 6.87649 16.0484 6.8807 15.9185H5.47192C5.47192 16.483 5.47192 17.5918 7.37403 17.5918C9.44905 17.5918 9.44905 16.2542 9.44905 15.6286V9.31709H8.02501V9.82567V9.80024ZM6.86036 11.0056C6.82037 10.8286 6.86259 10.6431 6.9752 10.5008C7.08781 10.3586 7.25873 10.2749 7.44014 10.2732C7.6239 10.2749 7.79656 10.3614 7.90793 10.5076C8.0193 10.6538 8.05688 10.8432 8.00976 11.0208V13.7316C8.04835 13.906 8.00289 14.0884 7.88698 14.2243C7.77106 14.3602 7.59811 14.4339 7.4198 14.4233C7.24763 14.4274 7.08314 14.3521 6.97387 14.219C6.8646 14.0858 6.82273 13.9098 6.86036 13.7418V11.0056Z" fill="#FEFEFE"/>
<path fill-rule="evenodd" clip-rule="evenodd" d="M10.2227 9.31708H11.6518V10.0901C11.8767 9.51884 12.4424 9.15602 13.0555 9.18993V10.614C12.8924 10.5548 12.7204 10.5238 12.5469 10.5224C11.6213 10.5224 11.6213 11.3616 11.6213 11.8397V15.4404H10.2227V9.33742" fill="#FEFEFE"/>
<path fill-rule="evenodd" clip-rule="evenodd" d="M14.7799 12.689H17.2363V10.9395C17.2564 10.4936 17.1054 10.057 16.8142 9.71885C16.4016 9.36155 15.8696 9.17271 15.3241 9.18992C14.8642 9.18141 14.4118 9.30688 14.0221 9.55102C13.565 9.89003 13.3197 10.4444 13.3762 11.0107V13.5993C13.3762 14.8352 13.9407 15.5625 15.3444 15.5625C16.2344 15.5625 17.2211 15.2421 17.2211 13.9096V13.401H15.8123C15.8123 14.0316 15.8123 14.1079 15.6902 14.2503C15.599 14.3674 15.4571 14.4336 15.3088 14.4283C14.8002 14.4283 14.8002 13.9198 14.8002 13.6756V12.6585L14.7799 12.689ZM14.7799 10.9293C14.7799 10.6484 15.0076 10.4207 15.2885 10.4207C15.5693 10.4207 15.797 10.6484 15.797 10.9293V11.682H14.7799V10.9293Z" fill="#FEFEFE"/>
<path fill-rule="evenodd" clip-rule="evenodd" d="M19.245 12.689H21.7014V10.9395C21.7215 10.4937 21.5705 10.057 21.2793 9.7189C20.8659 9.3595 20.3315 9.17045 19.7841 9.18997C19.3259 9.18216 18.8754 9.30761 18.4872 9.55107C18.0218 9.88916 17.7703 10.4484 17.826 11.0209V13.6096C17.826 14.8454 18.3905 15.5727 19.7993 15.5727C20.6893 15.5727 21.676 15.2523 21.676 13.9198V13.4112H20.2774C20.2774 14.0419 20.2774 14.1182 20.1553 14.2606C20.063 14.3791 19.9189 14.4455 19.7688 14.4386C19.2602 14.4386 19.2602 13.93 19.2602 13.6859V12.6687L19.245 12.689ZM19.245 10.9293C19.245 10.6484 19.4727 10.4207 19.7536 10.4207C20.0344 10.4207 20.2621 10.6484 20.2621 10.9293V11.682H19.245V10.9293Z" fill="#FEFEFE"/>
<path fill-rule="evenodd" clip-rule="evenodd" d="M22.3623 9.31709H23.8169V9.76973C24.1185 9.40895 24.5622 9.1973 25.0324 9.18995C25.4046 9.17635 25.7645 9.32476 26.019 9.59681C26.2484 9.89679 26.3507 10.2749 26.3038 10.6496V15.4354H24.8951V10.9446C24.8951 10.6089 24.8951 10.1969 24.3865 10.1969C23.7813 10.1969 23.7813 10.7513 23.7813 11.0259V15.4404H22.3623V9.33744" fill="#FEFEFE"/>
<path fill-rule="evenodd" clip-rule="evenodd" d="M17.0072 18.7819C16.6869 18.4219 16.2411 18.1981 15.7612 18.1563C15.2731 18.1568 14.8243 18.4241 14.5914 18.8531C14.4597 19.1357 14.402 19.4472 14.4236 19.7584V22.5606C14.382 23.003 14.4448 23.4489 14.6067 23.8626C14.8604 24.2793 15.3194 24.5263 15.8069 24.5085C16.3078 24.5106 16.7676 24.2316 16.997 23.7863V24.3865H18.4414V15.9592H17.0072V18.7819ZM15.8425 20.033C15.8425 19.738 15.8425 19.2549 16.3969 19.2549C16.5777 19.2481 16.7515 19.3247 16.8686 19.4626C16.9857 19.6005 17.033 19.7845 16.997 19.9618V22.5912C17.0353 22.7723 16.9899 22.9611 16.8735 23.1051C16.7571 23.2492 16.5821 23.3331 16.3969 23.3337C15.8425 23.3337 15.8425 22.9421 15.8425 22.6369V20.0381V20.033Z" fill="#FEFEFE"/>
<path fill-rule="evenodd" clip-rule="evenodd" d="M19.1279 22.6827C19.1279 23.1353 19.1279 24.5339 21.0046 24.5339C22.2761 24.5339 22.9779 23.9236 22.9779 22.82V19.8702C23.0338 19.3373 22.806 18.8141 22.3778 18.4919C21.983 18.2621 21.5324 18.146 21.0758 18.1563C19.3822 18.1563 19.1279 19.1734 19.1279 19.9312V22.6776V22.6827ZM20.5621 19.8092C20.5621 19.5193 20.5621 19.0565 21.0707 19.0565C21.503 19.0565 21.5539 19.4532 21.5539 19.799V22.9217C21.5979 23.0782 21.5644 23.2463 21.4639 23.374C21.3633 23.5017 21.2077 23.5737 21.0453 23.5676C20.8852 23.5727 20.732 23.5021 20.6319 23.377C20.5319 23.2519 20.4966 23.087 20.5367 22.9319V19.8092H20.5621Z" fill="#FEFEFE"/>
<path fill-rule="evenodd" clip-rule="evenodd" d="M23.9898 16.0762H25.419V18.2885H26.3039V19.2345H25.4088V22.7285C25.3596 22.9126 25.4102 23.109 25.5424 23.2463C25.6745 23.3837 25.8688 23.4419 26.0547 23.3998C26.1513 23.3998 26.2073 23.3998 26.3039 23.3998V24.417C26.056 24.4773 25.801 24.5029 25.5461 24.4932C24.1984 24.4932 23.9949 23.9847 23.9949 23.2116V19.2345H23.2168V18.2885H23.9898V16.0762Z" fill="#FEFEFE"/>
<path fill-rule="evenodd" clip-rule="evenodd" d="M26.3751 16.6864H26.5175C26.5686 16.692 26.6202 16.6813 26.6649 16.6559C26.6893 16.6361 26.7026 16.6058 26.7005 16.5745C26.7072 16.5564 26.7072 16.5366 26.7005 16.5186C26.69 16.4985 26.6716 16.4838 26.6497 16.4779C26.6094 16.4702 26.568 16.4702 26.5276 16.4779H26.3751V16.7016V16.6864ZM26.253 17.1034V16.366H26.5073C26.5713 16.3558 26.6365 16.3558 26.7005 16.366C26.7388 16.3777 26.7714 16.403 26.7921 16.4372C26.8149 16.4682 26.8273 16.5055 26.8277 16.544C26.8269 16.5976 26.805 16.6488 26.7667 16.6864C26.7268 16.7281 26.6718 16.752 26.6141 16.7525L26.6751 16.8186C26.7173 16.8639 26.7548 16.9133 26.787 16.9661L26.8735 17.1136H26.7361L26.67 16.9966C26.6394 16.9297 26.5963 16.8693 26.5429 16.8186C26.5114 16.8088 26.4777 16.8088 26.4463 16.8186H26.3751V17.1339H26.253V17.1034ZM26.5581 16.1473C26.4582 16.1475 26.36 16.1738 26.2733 16.2236C26.181 16.2693 26.1047 16.342 26.0546 16.4321C25.954 16.6105 25.954 16.8284 26.0546 17.0068C26.1043 17.0967 26.1783 17.1708 26.2683 17.2204C26.357 17.2697 26.4566 17.296 26.5581 17.2967C26.6596 17.2955 26.7592 17.2693 26.848 17.2204C26.9366 17.1689 27.0102 17.0953 27.0616 17.0068C27.1112 16.9182 27.1374 16.8184 27.1379 16.7169C27.1364 16.6171 27.1102 16.5193 27.0616 16.4321C27.0102 16.3448 26.9365 16.2729 26.848 16.2236C26.7613 16.174 26.6632 16.1478 26.5632 16.1473H26.5581ZM26.5581 16.0354C26.6771 16.0355 26.7942 16.0652 26.8989 16.1219C27.0088 16.1789 27.0991 16.2674 27.1583 16.3762C27.2182 16.4797 27.2497 16.5973 27.2498 16.7169C27.2507 16.8367 27.2191 16.9545 27.1583 17.0577C27.1008 17.1672 27.0123 17.2574 26.904 17.317C26.8005 17.3772 26.6829 17.4087 26.5632 17.4086C26.4411 17.4127 26.3201 17.3846 26.2123 17.3272C26.1043 17.2671 26.016 17.177 25.958 17.0678C25.8343 16.8557 25.8343 16.5934 25.958 16.3812C26.0156 16.2713 26.1063 16.1823 26.2174 16.1269C26.3223 16.0709 26.4392 16.0412 26.5581 16.0405V16.0354Z" fill="#FEFEFE"/>
</svg>
