<?xml version="1.0" encoding="UTF-8" standalone="no"?>
<!-- Created with Inkscape (http://www.inkscape.org/) -->

<svg
   xmlns:dc="http://purl.org/dc/elements/1.1/"
   xmlns:cc="http://creativecommons.org/ns#"
   xmlns:rdf="http://www.w3.org/1999/02/22-rdf-syntax-ns#"
   xmlns:svg="http://www.w3.org/2000/svg"
   xmlns="http://www.w3.org/2000/svg"
   xmlns:sodipodi="http://sodipodi.sourceforge.net/DTD/sodipodi-0.dtd"
   xmlns:inkscape="http://www.inkscape.org/namespaces/inkscape"
   width="61.681198"
   height="41.188721"
   viewBox="0 0 16.319817 10.897849"
   version="1.1"
   id="svg1704"
   inkscape:version="0.92.0 r15299"
   sodipodi:docname="gtt.svg">
  <defs
     id="defs1698">
    <clipPath
       id="clipPath612"
       clipPathUnits="userSpaceOnUse">
      <path
         inkscape:connector-curvature="0"
         id="path610"
         d="m 529.5,17.632 h 45.511 V 48.515 H 529.5 Z" />
    </clipPath>
    <clipPath
       id="clipPath596"
       clipPathUnits="userSpaceOnUse">
      <path
         inkscape:connector-curvature="0"
         id="path594"
         d="m 529.5,18.374 h 45.511 V 48.515 H 529.5 Z" />
    </clipPath>
    <clipPath
       id="clipPath580"
       clipPathUnits="userSpaceOnUse">
      <path
         inkscape:connector-curvature="0"
         id="path578"
         d="m 529.5,17.632 h 45.511 V 48.515 H 529.5 Z" />
    </clipPath>
  </defs>
  <sodipodi:namedview
     id="base"
     pagecolor="#ffffff"
     bordercolor="#666666"
     borderopacity="1.0"
     inkscape:pageopacity="0.0"
     inkscape:pageshadow="2"
     inkscape:zoom="13.216672"
     inkscape:cx="30.340466"
     inkscape:cy="20.094908"
     inkscape:document-units="mm"
     inkscape:current-layer="layer1"
     showgrid="false"
     fit-margin-top="0"
     fit-margin-left="0"
     fit-margin-right="0"
     fit-margin-bottom="0"
     units="px"
     inkscape:window-width="1280"
     inkscape:window-height="744"
     inkscape:window-x="-4"
     inkscape:window-y="-4"
     inkscape:window-maximized="1" />
  <metadata
     id="metadata1701">
    <rdf:RDF>
      <cc:Work
         rdf:about="">
        <dc:format>image/svg+xml</dc:format>
        <dc:type
           rdf:resource="http://purl.org/dc/dcmitype/StillImage" />
        <dc:title></dc:title>
      </cc:Work>
    </rdf:RDF>
  </metadata>
  <g
     inkscape:label="Layer 1"
     inkscape:groupmode="layer"
     id="layer1"
     transform="translate(-81.174795,-156.85941)">
    <g
       id="g1787"
       transform="translate(0.13229138,-0.13228691)">
      <g
         id="g582"
         transform="matrix(0.35277777,0,0,-0.35277777,93.86848,159.12011)">
        <path
           d="m 0,0 c 0,-1.315 1.066,-2.382 2.382,-2.382 1.316,0 2.382,1.067 2.382,2.382 0,1.315 -1.066,2.382 -2.382,2.382 C 1.066,2.382 0,1.315 0,0"
           style="fill:#fdb913;fill-opacity:1;fill-rule:nonzero;stroke:none"
           id="path584"
           inkscape:connector-curvature="0" />
      </g>
      <g
         id="g586"
         transform="matrix(0.35277777,0,0,-0.35277777,95.549396,160.07642)">
        <path
           d="m 0,0 c 0,-1.315 1.066,-2.382 2.382,-2.382 1.316,0 2.382,1.067 2.382,2.382 0,1.315 -1.066,2.382 -2.382,2.382 C 1.066,2.382 0,1.315 0,0"
           style="fill:#fdb913;fill-opacity:1;fill-rule:nonzero;stroke:none"
           id="path588"
           inkscape:connector-curvature="0" />
      </g>
      <g
         id="g598"
         transform="matrix(0.35277777,0,0,-0.35277777,93.839588,161.06187)">
        <path
           d="m 0,0 c 0,-1.316 1.066,-2.383 2.382,-2.383 1.316,0 2.382,1.067 2.382,2.383 0,1.316 -1.066,2.382 -2.382,2.382 C 1.066,2.382 0,1.316 0,0"
           style="fill:#fdb913;fill-opacity:1;fill-rule:nonzero;stroke:none"
           id="path600"
           inkscape:connector-curvature="0" />
      </g>
      <g
         id="g602"
         transform="matrix(0.35277777,0,0,-0.35277777,83.697156,162.90369)">
        <path
           d="m 0,0 c -1.771,0 -3.206,1.435 -3.206,3.206 0,1.771 1.435,3.207 3.206,3.207 1.771,0 3.206,-1.436 3.206,-3.207 C 3.206,1.435 1.771,0 0,0 m 6.497,5.96 h 0.364 l 1.351,4.026 h -9.529 c -1.376,0 -5.833,-1.169 -5.833,-5.998 0,-5.257 4.272,-7.064 5.833,-7.146 1.56,-0.082 5.066,-1.955 3.696,-4.847 -1.417,-2.991 -5.093,-2.301 -6.901,0.657 l -2.546,-2.711 c 0,0 3.696,-5.012 9.037,-3.368 5.339,1.643 5.997,8.707 2.382,11.665 0,0 4.61,1.889 2.146,7.722"
           style="fill:#003863;fill-opacity:1;fill-rule:nonzero;stroke:none"
           id="path604"
           inkscape:connector-curvature="0" />
      </g>
      <g
         id="g614"
         transform="matrix(0.35277777,0,0,-0.35277777,92.856043,159.386)">
        <path
           d="m 0,0 h -2.942 v 6.412 l -4.04,-2.34 V 0 h -4.392 v 6.412 l -4.04,-2.34 v -4.04 h -1.314 l -1.347,-4.008 h 2.661 v -6.797 c 0,0 -0.737,-5.418 6.925,-5.418 v 3.751 c 0,0 -2.821,-0.191 -2.821,2.244 v 6.188 h 4.231 0.097 v -6.765 c 0,0 -0.737,-5.418 6.926,-5.418 v 3.751 c 0,0 -2.822,-0.191 -2.822,2.244 v 6.188 H 0 0.039 V 0 Z"
           style="fill:#003863;fill-opacity:1;fill-rule:nonzero;stroke:none"
           id="path616"
           inkscape:connector-curvature="0" />
      </g>
    </g>
  </g>
</svg>
