<svg width="470" height="63" viewBox="0 0 470 63" fill="none" xmlns="http://www.w3.org/2000/svg">
<path d="M323.383 15.0486C322.522 14.8037 321.636 15.0486 320.77 14.9293C320.518 12.5175 320.518 10.112 320.77 7.70017C326.341 7.70017 331.912 7.68761 337.489 7.68133C339.599 7.68133 341.703 7.69389 343.814 7.70017C344.36 8.86211 344.567 10.1245 344.894 11.3493C346.866 18.6852 348.857 26.0148 350.798 33.3633C350.911 33.7966 351.03 34.23 351.219 34.6445C351.269 34.8078 351.269 34.99 351.344 35.1533C351.539 35.0465 351.451 34.8267 351.533 34.6759C352.374 32.2641 352.927 29.777 353.599 27.3212C355.326 21.0405 356.997 14.7409 358.724 8.46014C358.8 8.19007 358.869 7.92628 359.051 7.71273C361.061 7.70645 363.07 7.68761 365.074 7.68761C370.475 7.68761 375.871 7.68761 381.272 7.67505C381.806 7.67505 382.007 7.74414 381.988 8.35337C381.944 10.3381 381.95 12.3228 381.988 14.3012C381.994 14.8162 381.894 14.9921 381.341 14.9733C380.675 14.9481 379.997 14.8351 379.338 15.0549C379.275 15.1742 379.162 15.2308 379.055 15.2873C378.188 15.7395 377.799 16.4618 377.811 17.429C377.818 18.1576 377.811 18.8799 377.811 19.6084C377.811 28.4831 377.811 37.3578 377.811 46.2325C377.811 46.6093 377.811 46.9862 377.893 47.3505C378.088 48.2674 378.942 48.952 379.878 48.9897C380.575 49.0149 381.285 48.8641 381.957 49.1405C381.957 51.4957 381.957 53.8573 381.957 56.2126C381.548 56.3759 381.128 56.3696 380.701 56.3696C374.3 56.3696 367.9 56.3696 361.507 56.3696C361.079 56.3696 360.659 56.3822 360.257 56.2L360.276 56.2189C360.131 55.8923 360.106 55.5468 360.106 55.1951C360.106 53.4679 360.106 51.7407 360.106 50.0072C360.106 49.7057 360.1 49.4043 360.276 49.1405L360.257 49.1593C361.13 48.8201 362.04 49.0211 362.939 49.0023C364.685 48.9646 364.477 49.1091 364.477 47.4635C364.477 39.9329 364.477 32.4086 364.477 24.878C364.477 22.9749 364.521 21.0656 364.402 19.1625C364.402 18.8548 364.446 18.5407 364.446 18.1953C364.402 18.4025 364.377 18.5784 364.327 18.748C364.258 19.0055 364.207 19.263 364.138 19.5205C362.895 23.245 361.978 27.07 360.904 30.8447C359.742 34.9272 358.636 39.0285 357.506 43.1235C356.363 47.2688 355.194 51.4015 354.058 55.5468C353.995 55.7855 353.938 56.0367 353.731 56.2063L353.769 56.1812C353.461 56.3696 353.115 56.3696 352.77 56.3696C350.628 56.3696 348.487 56.3696 346.339 56.3696C345.993 56.3696 345.648 56.357 345.334 56.1875L345.365 56.2126C344.768 55.1763 344.618 53.9955 344.31 52.8712C342.89 47.6331 341.433 42.4075 340.014 37.1694C338.676 32.2264 337.288 27.2898 335.963 22.3406C335.712 21.3985 335.416 20.4689 335.109 19.5456C335.046 19.3258 334.983 19.106 334.92 18.8862C334.87 18.6475 334.807 18.4151 334.776 18.1764C334.826 18.591 334.839 19.0055 334.839 19.4263C334.7 28.9165 334.813 38.413 334.776 47.9032C334.776 48.9897 334.776 48.9646 335.856 49.0023C336.955 49.04 338.061 48.8327 339.147 49.1467C339.147 51.5083 339.147 53.8636 339.147 56.2251C338.739 56.3884 338.318 56.3822 337.891 56.3822C332.596 56.3822 327.302 56.3822 322.007 56.3822C321.58 56.3822 321.159 56.3947 320.757 56.2126L320.776 56.2314C320.632 55.9048 320.606 55.5594 320.606 55.2077C320.606 53.4805 320.606 51.7533 320.606 50.0198C320.606 49.7183 320.6 49.4168 320.776 49.153L320.757 49.1719C321.272 48.8892 321.831 49.0463 322.365 49.0023C322.685 48.996 323.006 49.0211 323.326 48.9772C324.488 48.5501 324.978 47.6959 324.978 46.4774C324.972 36.8616 324.959 27.2458 324.99 17.63C324.99 16.3676 324.331 15.6516 323.37 15.0675L323.383 15.0486Z" fill="#A40600"/>
<path d="M409.121 24.1744C409.278 23.9923 409.158 23.6908 409.385 23.5338C409.743 23.3454 410.119 23.4522 410.49 23.4522C412.142 23.4396 413.794 23.4396 415.452 23.4522C415.697 23.4522 415.954 23.3768 416.18 23.5338C416.231 23.5778 416.287 23.628 416.337 23.672C416.494 24.03 416.476 24.4068 416.476 24.7837C416.476 29.3184 416.476 33.8593 416.476 38.394C416.476 38.7646 416.52 39.1477 416.306 39.4869L416.325 39.468C416.08 39.6313 415.804 39.6313 415.527 39.6313C413.699 39.6313 411.872 39.6313 410.038 39.6313C409.761 39.6313 409.485 39.6313 409.246 39.4618C409.215 39.2985 409.265 39.1163 409.121 38.9781C408.763 38.0612 408.807 37.0688 408.662 36.1204C408.581 35.5677 408.342 35.3542 407.865 35.3479C406.307 35.329 404.756 35.3228 403.198 35.3479C402.702 35.3542 402.444 35.5928 402.444 36.1518C402.463 39.9893 402.457 43.8269 402.444 47.6581C402.444 48.1731 402.677 48.3867 403.142 48.4369C403.343 48.4558 403.544 48.4495 403.745 48.4495C407.356 48.4495 410.967 48.4495 414.579 48.4495C415.772 48.4495 415.873 48.3364 416.017 47.1494C416.243 45.24 416.551 43.3433 416.821 41.4402C416.834 41.3397 416.871 41.2455 416.947 41.1764C416.991 41.1136 417.028 41.0508 417.072 40.9817C417.355 40.8498 417.65 40.8372 417.952 40.8372C420.081 40.8372 422.21 40.8372 424.339 40.8372C424.641 40.8372 424.942 40.831 425.206 41.0068L425.187 40.988C425.388 41.302 425.357 41.66 425.357 42.0117C425.357 46.3517 425.357 50.6917 425.357 55.0317C425.357 55.4337 425.356 55.8294 425.187 56.2062L425.206 56.1874C424.754 56.3444 424.276 56.3569 423.805 56.3569C411.225 56.3569 398.651 56.3569 386.071 56.3569C385.643 56.3569 385.216 56.3569 384.808 56.2125C384.77 56.1622 384.726 56.1057 384.689 56.0555C384.538 55.9173 384.588 55.7289 384.588 55.5593C384.588 53.6311 384.588 51.7029 384.588 49.781C384.588 49.6114 384.544 49.4293 384.676 49.2785C384.72 49.2283 384.77 49.1781 384.814 49.1215C385.449 48.8766 386.108 49.0022 386.755 48.9834C387.911 48.9582 388.734 48.2297 388.897 47.0866C388.947 46.7349 388.96 46.3894 388.96 46.0377C388.96 36.7296 388.947 27.4153 388.979 18.1073C388.979 16.7695 388.671 15.6955 387.408 15.0548C386.761 14.8036 386.089 15.0046 385.436 14.9418C385.179 14.9166 384.883 15.0548 384.676 14.7785C384.5 14.477 384.595 14.1441 384.595 13.8238C384.582 12.0715 384.588 10.3191 384.595 8.56054C384.595 8.31559 384.513 8.05808 384.682 7.83197C384.865 7.57446 385.135 7.66868 385.373 7.66868C398.217 7.66868 411.055 7.66868 423.899 7.66868C424.138 7.66868 424.408 7.57446 424.59 7.83197C424.722 7.98271 424.678 8.16485 424.678 8.33443C424.678 12.7247 424.678 17.1086 424.678 21.4989C424.678 21.6684 424.735 21.8569 424.578 21.995C424.534 22.0453 424.496 22.1018 424.452 22.1521C423.994 22.3154 423.516 22.2965 423.045 22.2965C421.268 22.2965 419.49 22.2965 417.713 22.2965C417.386 22.2965 417.066 22.2651 416.764 22.1332L416.626 21.6622C416.199 20.8833 416.319 19.9726 416.036 19.1561C415.885 18.2203 415.709 17.2845 415.54 16.3487C415.458 15.9027 415.219 15.6578 414.717 15.6578C410.854 15.6641 406.992 15.6641 403.129 15.6578C402.601 15.6578 402.432 15.8776 402.432 16.3801C402.444 19.891 402.432 23.4019 402.438 26.9128C402.438 27.2206 402.419 27.5598 402.865 27.5535C404.718 27.5284 406.571 27.6603 408.417 27.4844C408.801 26.6177 408.738 25.663 408.914 24.7586C408.958 24.545 408.87 24.3063 409.096 24.1493L409.121 24.1744Z" fill="#A40600"/>
<path d="M38.0989 7.57444C38.3752 7.7503 38.683 7.67493 38.9782 7.67493C41.8673 7.68749 44.7502 7.68749 47.6393 7.69378C47.8026 8.09574 47.7963 8.52283 47.7963 8.94992C47.7963 13.3841 47.7963 17.8183 47.7963 22.2462C47.7963 22.6733 47.7775 23.0941 47.6581 23.5087C47.6016 23.5652 47.5451 23.6217 47.4886 23.6782C47.005 23.8227 46.5025 23.8227 46 23.8101C43.7955 23.7662 41.5972 23.9044 39.3927 23.7348C39.2671 23.7222 39.1415 23.7348 39.0598 23.6217C39.0159 23.584 38.9656 23.5464 38.9216 23.5087C38.4883 22.3593 38.4066 21.1283 38.1554 19.9412C37.9733 19.087 37.8414 18.2203 37.6781 17.3661C37.5901 16.9013 37.3703 16.5496 36.849 16.424C34.1169 15.7834 31.3785 15.5007 28.6087 16.223C25.977 16.9076 24.0803 18.5218 22.7613 20.8456C21.6371 22.8303 21.1095 25.0035 20.7954 27.2583C20.3998 30.1034 20.4186 32.9549 20.6824 35.8001C20.9399 38.5385 21.4235 41.2517 22.7676 43.7201C24.4069 46.7285 26.894 48.3427 30.3547 48.3804C31.837 48.3992 33.3004 48.3364 34.7512 47.9847C35.216 47.8716 35.461 47.6644 35.4735 47.187C35.5363 44.882 35.5112 42.5707 35.4861 40.2657C35.4861 39.6816 35.0841 39.5748 34.6382 39.5622C33.784 39.5434 32.9298 39.5622 32.0756 39.5559C31.9312 39.5559 31.7742 39.5936 31.6486 39.468C31.5983 39.4241 31.5418 39.3738 31.4915 39.3298C31.4036 39.1226 31.3596 38.9028 31.3596 38.6704C31.3534 36.7924 31.3471 34.9208 31.3596 33.0428C31.3596 32.7728 31.3722 32.4964 31.5167 32.2452L31.4978 32.264C31.8998 32.0882 32.3206 32.0944 32.7477 32.0944C38.6453 32.0944 44.5429 32.0944 50.4342 32.0944C50.8613 32.0944 51.2884 32.0882 51.6904 32.2515C51.6904 34.657 51.6904 37.0688 51.6904 39.4743C51.4454 39.6062 51.1691 39.6502 50.899 39.625C49.8313 39.5183 49.1655 40.0521 48.7196 40.9566C48.6631 41.0696 48.6191 41.1827 48.4998 41.2455C48.3051 41.4904 48.3993 41.7793 48.3993 42.0431C48.3867 46.76 48.3804 51.4831 48.3741 56.1999C47.8717 56.3946 47.3378 56.3506 46.8165 56.3569C45.3845 56.3569 43.9525 56.3632 42.5205 56.3569C42.2065 56.3569 41.8736 56.3758 41.6035 56.1559V56.1936L41.6475 56.181C41.3963 56.0052 41.2518 55.7351 41.0445 55.5216C40.5044 54.9563 39.9957 54.8307 39.2922 55.1322C35.2977 56.8468 31.1335 57.186 26.8501 56.8405C24.2875 56.6333 21.7878 56.1622 19.3886 55.2578C15.1051 53.6374 11.7575 50.8801 9.50268 46.8667C7.75663 43.7703 6.86477 40.4101 6.45652 36.8929C6.22413 34.8454 6.09224 32.7979 6.18645 30.7441C6.4314 25.5248 7.474 20.519 10.4888 16.1037C13.0073 12.4169 16.4178 9.89831 20.6259 8.42862C23.3643 7.47395 26.178 7.00289 29.0797 6.91496C32.0191 6.82703 34.9334 6.97149 37.8351 7.40486C37.9419 7.4237 38.0172 7.48023 38.0737 7.56188L38.0989 7.57444Z" fill="#A40600"/>
<path d="M75.8273 14.9293C74.3136 14.9293 72.8 14.9293 71.2863 14.9544C71.0916 14.9544 70.8404 14.8037 70.6896 15.08C71.01 15.5008 70.7587 15.9593 70.7587 16.3927C70.7776 21.8695 70.765 27.34 70.7776 32.8168C70.7776 35.4485 70.6708 38.0926 70.8655 40.718C71.0225 42.7906 71.4747 44.7879 73.0261 46.3455C74.0247 47.3504 75.2809 47.8403 76.6375 48.0602C78.4275 48.3491 80.2238 48.3365 82.0075 47.9471C84.545 47.3944 86.0837 45.8054 86.8123 43.3747C87.2331 41.9741 87.3524 40.5233 87.3524 39.0724C87.365 31.5167 87.3524 23.9547 87.3713 16.399C87.3713 15.9656 87.1201 15.5071 87.4404 15.0863C87.2896 14.81 87.0384 14.9607 86.8374 14.9607C85.5373 14.9481 84.2372 14.9544 82.9308 14.9607C82.623 14.9607 82.4158 14.9607 82.4221 14.5399C82.4409 12.3605 82.4283 10.1873 82.4283 8.00792C82.4283 7.8509 82.4472 7.70644 82.6105 7.63108C82.6607 7.61223 82.711 7.61223 82.7612 7.63108C83.0125 7.64992 83.2574 7.67504 83.5086 7.67504C89.2743 7.67504 95.0463 7.67504 100.812 7.67504C101.076 7.67504 101.371 7.55571 101.578 7.83206C101.754 8.13353 101.66 8.46641 101.66 8.78673C101.673 10.5391 101.666 12.2914 101.66 14.05C101.66 14.2949 101.742 14.5524 101.572 14.7786C101.157 15.1177 100.668 14.8728 100.222 14.9356C99.8134 14.9984 99.38 14.8162 98.9906 15.0549C98.551 15.4757 97.992 15.7835 97.7094 16.355C97.5775 16.6188 97.477 16.9014 97.5147 17.2092C97.5147 24.7272 97.5147 32.2453 97.5147 39.7633C97.2948 42.0307 97.0122 44.2792 96.2208 46.4397C94.77 50.3778 92.176 53.2418 88.3134 54.9376C85.5247 56.156 82.5916 56.6836 79.5643 56.8281C77.9816 56.9034 76.3988 56.9097 74.8349 56.7904C70.3631 56.4512 66.1361 55.3584 62.644 52.3311C60.1317 50.1517 58.6872 47.3253 57.8895 44.141C57.3808 42.1123 57.2112 40.046 57.2049 37.967C57.1861 31.2404 57.1986 24.52 57.2049 17.7933C57.2049 16.8889 57.1107 16.0347 56.2879 15.4632C56.0869 15.325 55.8169 15.281 55.6787 15.0486C55.0757 14.8351 54.4539 15.0047 53.8384 14.9481C53.5809 14.923 53.2795 15.0612 53.0722 14.7848C52.8963 14.4834 52.9905 14.1505 52.9905 13.8302C52.978 12.0778 52.9843 10.3255 52.9905 8.56691C52.9905 8.32196 52.9089 8.06445 53.0785 7.83834C53.2166 7.63107 53.4239 7.67504 53.6249 7.67504C60.9733 7.67504 68.3218 7.67504 75.6765 7.67504C75.7268 7.67504 75.777 7.6876 75.8273 7.69388C76.0785 10.1057 76.0785 12.5112 75.8273 14.923V14.9293Z" fill="#A40600"/>
<path d="M453.802 7.58092C454.053 7.76306 454.336 7.67513 454.606 7.68141C456.936 7.68141 459.272 7.68769 461.603 7.68141C461.986 7.68141 462.187 7.70025 462.18 8.18387C462.155 12.5427 462.155 16.9015 462.149 21.2666C461.848 21.4237 461.521 21.4174 461.194 21.4174C458.958 21.4174 456.729 21.4174 454.493 21.4174C454.122 21.4174 453.745 21.4362 453.419 21.2227V21.2666L453.469 21.2604C452.973 20.1047 452.96 18.8423 452.659 17.6427C452.546 17.1842 452.464 16.7131 452.395 16.2483C452.32 15.7396 452.081 15.4884 451.616 15.3816C449.807 14.9733 447.999 14.697 446.121 14.898C444.814 15.0424 443.564 15.2623 442.415 15.9657C439.871 17.5233 439.808 21.9826 442.151 23.6282C443.608 24.652 445.235 25.167 446.893 25.638C450.021 26.5299 453.193 27.2647 456.163 28.6402C458.889 29.9089 461.232 31.611 462.545 34.4248C463.217 35.8631 463.518 37.4018 463.694 38.9846C463.989 41.5597 463.769 44.0783 463.091 46.5654C462.049 50.3967 459.718 53.1539 456.151 54.8874C453.683 56.0808 451.07 56.6711 448.344 56.8407C448.017 56.8596 447.703 56.9726 447.377 56.9915C445.794 56.9915 444.218 57.004 442.635 56.9915C442.227 56.8973 441.799 56.9412 441.385 56.8533C440.317 56.7905 439.256 56.6397 438.194 56.4827C437.874 56.4325 437.554 56.4011 437.227 56.4011C434.652 56.4011 432.077 56.4011 429.502 56.4011C429.125 56.4011 428.748 56.4136 428.396 56.2629C428.34 56.2064 428.283 56.1498 428.227 56.0933C428.107 55.6788 428.089 55.258 428.089 54.8309C428.089 50.7484 428.089 46.6659 428.089 42.5835C428.089 42.1564 428.089 41.7356 428.246 41.3273C431.204 41.3273 434.168 41.3273 437.127 41.3273C437.61 42.5521 437.61 43.8647 437.874 45.1334C438.025 45.862 438.131 46.6094 438.219 47.3505C438.276 47.7902 438.496 48.1419 438.992 48.2487C441.712 48.8391 444.456 48.9961 447.176 48.3743C449.569 47.8279 450.95 45.9122 451.038 43.557C451.151 40.4982 449.38 39.3426 447.383 38.4884C445.449 37.6531 443.382 37.226 441.36 36.6544C438.772 35.9259 436.21 35.1219 433.98 33.558C430.978 31.454 429.32 28.5272 428.836 24.9157C428.497 22.3909 428.503 19.8786 429.144 17.3914C430.18 13.3655 432.611 10.5077 436.373 8.77426C439.005 7.56208 441.781 7.05334 444.67 6.94657C446.328 6.88376 447.98 6.94028 449.632 7.00309C451.032 7.05962 452.47 7.05334 453.814 7.60604L453.802 7.58092Z" fill="#A40600"/>
<path d="M177.431 24.4382C177.688 24.6204 177.594 24.8905 177.594 25.1291C177.594 30.3296 177.594 35.5363 177.594 40.7367C177.594 40.9754 177.688 41.2455 177.431 41.4276C177.098 41.6098 176.74 41.5093 176.401 41.5093C174.667 41.5218 172.94 41.5218 171.207 41.5093C170.974 41.5093 170.704 41.6223 170.503 41.3962C170.459 41.2455 170.415 41.0947 170.371 40.9503C170.013 39.9014 170.064 38.7897 169.9 37.7094C169.775 36.849 169.756 36.7799 168.895 36.7736C167.463 36.7736 166.038 36.7862 164.606 36.7673C164.059 36.761 163.846 36.9683 163.852 37.521C163.864 41.0822 163.864 44.6434 163.852 48.2045C163.852 48.7949 164.072 49.0022 164.65 48.9896C165.855 48.9645 167.055 48.9771 168.261 48.9834C168.606 48.9834 168.964 48.952 169.278 49.1529L169.26 49.1341C169.398 49.2786 169.379 49.467 169.379 49.6303C169.429 51.7029 169.498 53.7756 169.348 55.8419C169.348 55.9173 169.316 55.9864 169.291 56.0555C169.234 56.112 169.178 56.1685 169.121 56.225C168.707 56.3444 168.286 56.3632 167.859 56.3632C161.063 56.3632 154.267 56.3632 147.472 56.3632C147.045 56.3632 146.624 56.3632 146.216 56.2188C146.178 56.1685 146.134 56.112 146.096 56.0617C145.945 55.9236 145.996 55.7351 145.996 55.5656C145.996 53.6374 145.996 51.7092 145.996 49.7873C145.996 49.6177 145.952 49.4356 146.084 49.2848C146.128 49.2346 146.178 49.1781 146.222 49.1278C146.856 48.8891 147.509 49.0085 148.156 48.9896C149.387 48.9645 150.285 48.0852 150.285 46.8542C150.285 36.9809 150.285 27.1013 150.298 17.228C150.298 16.1288 149.607 15.5824 148.816 15.0674C148.169 14.8162 147.497 15.0171 146.844 14.9543C146.586 14.9292 146.291 15.0674 146.084 14.791C145.908 14.4896 146.002 14.1567 146.002 13.8364C145.989 12.084 145.996 10.3317 146.002 8.5731C146.002 8.32815 145.92 8.07064 146.09 7.84454C146.247 7.61215 146.492 7.68124 146.712 7.68124C159.562 7.68124 172.413 7.68124 185.263 7.68124C185.363 7.68124 185.464 7.6938 185.564 7.70636C185.728 8.10833 185.721 8.53542 185.721 8.96251C185.721 13.0952 185.721 17.2342 185.721 21.367C185.721 21.7941 185.728 22.2149 185.564 22.6231C183.096 22.6294 180.634 22.6231 178.166 22.6608C177.713 22.6671 177.726 22.3719 177.6 22.1332C177.23 21.0906 177.198 19.9852 176.979 18.9112C176.803 18.057 176.702 17.184 176.526 16.3235C176.432 15.8713 176.187 15.6892 175.741 15.6892C171.998 15.6892 168.261 15.6892 164.518 15.6892C164.091 15.6892 163.858 15.8399 163.858 16.2984C163.871 20.3872 163.827 24.4822 163.883 28.571C163.883 28.6212 163.915 28.6652 163.934 28.7091C164.078 28.885 164.285 28.8787 164.48 28.885C166.05 28.8913 167.627 28.8976 169.197 28.885C169.348 28.885 169.498 28.8724 169.618 28.7719C170.045 27.6854 169.932 26.5109 170.177 25.3929C170.214 25.2233 170.183 25.0412 170.359 24.9281C170.403 24.7774 170.447 24.6329 170.491 24.4822C170.585 24.3126 170.754 24.3629 170.893 24.3629C172.953 24.3629 175.006 24.3629 177.067 24.3629C177.192 24.3629 177.318 24.3629 177.418 24.4508L177.431 24.4382Z" fill="#A40600"/>
<path d="M282.043 56.0555C281.986 56.1121 281.93 56.1686 281.873 56.2251C281.459 56.3445 281.038 56.3633 280.611 56.3633C273.966 56.3633 267.314 56.3633 260.669 56.3633C260.248 56.3633 259.821 56.3759 259.419 56.1937L259.438 56.2126C259.294 55.886 259.269 55.5405 259.269 55.1888C259.269 53.4616 259.269 51.7281 259.269 50.0009C259.269 49.6994 259.256 49.398 259.438 49.1342L259.426 49.153C260.091 48.8139 260.807 49.0148 261.492 48.996C262.817 48.9583 263.502 48.4496 263.847 47.1369C263.891 46.7852 263.879 46.4335 263.879 46.0817C263.879 36.265 263.879 26.4544 263.879 16.6377C263.879 16.2671 263.973 15.884 263.747 15.5385C263.533 15.3627 263.276 15.3815 263.031 15.3815C261.699 15.3815 260.368 15.4066 259.043 15.3689C258.471 15.3564 258.245 15.5574 258.163 16.1163C258.031 17.0082 258.019 17.9064 257.943 18.7982C257.78 20.6134 257.548 22.4159 257.447 24.2373C257.441 24.363 257.391 24.4823 257.284 24.5639C257.246 24.6644 257.209 24.7712 257.171 24.8717C256.895 25.0161 256.593 25.0224 256.292 25.0224C254.213 25.0224 252.14 25.0224 250.061 25.0224C249.76 25.0224 249.458 25.0161 249.182 24.8717C249.176 19.2756 249.169 13.6794 249.157 8.08329C249.157 7.90743 249.138 7.72529 249.339 7.63108C249.389 7.61223 249.439 7.61223 249.49 7.63108C249.816 7.64992 250.137 7.68132 250.463 7.68132C264.193 7.68132 277.922 7.68132 291.652 7.68132C291.991 7.68132 292.324 7.56827 292.324 8.16494C292.293 13.736 292.293 19.307 292.287 24.8717C292.01 25.0161 291.709 25.0224 291.407 25.0224C289.328 25.0224 287.249 25.0224 285.17 25.0224C284.869 25.0224 284.567 25.0287 284.304 24.8529L284.323 24.8654C283.921 23.8228 283.99 22.7111 283.858 21.6308C283.651 19.8785 283.506 18.1136 283.299 16.355C283.215 15.7018 282.832 15.3752 282.149 15.3752C280.843 15.3752 279.543 15.3941 278.237 15.3689C277.671 15.3564 277.508 15.5762 277.508 16.1163C277.521 26.3979 277.508 36.6732 277.521 46.9548C277.521 48.0979 278.431 48.9458 279.587 48.9834C280.403 49.0086 281.239 48.8515 282.036 49.1467L282.018 49.1279C282.156 49.2724 282.137 49.4608 282.137 49.6241C282.187 51.6967 282.256 53.7694 282.105 55.8357C282.105 55.9111 282.074 55.9802 282.049 56.0493L282.043 56.0555Z" fill="#A40600"/>
<path d="M134.942 39.6879L135.067 39.1917C135.344 39.041 135.645 39.0347 135.947 39.0347C138.126 39.0347 140.305 39.0347 142.485 39.0347C142.786 39.0347 143.088 39.0284 143.352 39.2043L143.333 39.1854C143.534 39.4995 143.502 39.8575 143.502 40.2092C143.502 45.1521 143.502 50.0951 143.502 55.038C143.502 55.44 143.502 55.8357 143.333 56.2125L143.352 56.1937C142.899 56.3507 142.422 56.3632 141.951 56.3632C129.823 56.3632 117.701 56.3632 105.573 56.3632C105.146 56.3632 104.719 56.3695 104.317 56.2062C104.317 53.8509 104.317 51.4894 104.317 49.1341C104.92 48.8703 105.56 48.9394 106.17 48.9959C107.306 49.1027 108.443 48.0852 108.531 46.76C108.544 46.5339 108.531 46.3078 108.531 46.0817C108.531 36.849 108.512 27.6163 108.556 18.3836C108.563 16.9328 108.267 15.7708 106.923 15.0486C106.22 14.8224 105.491 14.9732 104.782 14.9543C104.461 14.9418 104.285 14.9167 104.285 14.521C104.304 12.3478 104.292 10.1747 104.292 8.00157C104.292 7.84455 104.311 7.7001 104.474 7.62473C104.524 7.60589 104.574 7.60589 104.625 7.62473C104.926 7.64357 105.221 7.66869 105.523 7.67497C112.771 7.67497 120.025 7.67497 127.273 7.67497C127.512 7.67497 127.782 7.58076 127.964 7.83827C128.14 8.13975 128.045 8.47263 128.045 8.79294C128.058 10.5453 128.052 12.2976 128.045 14.0562C128.045 14.3011 128.127 14.5587 127.957 14.7848C127.775 15.0423 127.505 14.9481 127.267 14.9481C125.615 14.9481 123.969 14.9418 122.317 14.9481C122.154 14.9481 121.909 14.7848 121.815 15.08C122.003 15.2935 121.941 15.551 121.941 15.796C121.941 26.2974 121.941 36.7987 121.947 47.3001C121.947 47.6895 121.752 48.1983 122.374 48.3553C125.941 48.3867 129.503 48.3553 133.07 48.3741C133.591 48.3741 133.799 48.2171 133.874 47.6581C134.201 45.1584 134.464 42.6587 134.76 40.1589C134.778 39.9831 134.791 39.8072 134.935 39.6816L134.942 39.6879Z" fill="#A40600"/>
<path d="M318.176 56.0555C318.138 56.1121 318.094 56.1623 318.056 56.2188C317.648 56.3633 317.221 56.3633 316.8 56.3633C310.105 56.3633 303.41 56.3633 296.714 56.3633C296.287 56.3633 295.867 56.3444 295.452 56.2251C295.396 56.1686 295.339 56.1121 295.282 56.0555C295.006 54.567 295.182 53.0659 295.157 51.5711C295.144 50.7546 295.019 49.9255 295.314 49.1279L295.295 49.1467C296.068 48.8201 296.897 48.9143 297.669 49.0085C298.856 49.153 299.968 47.7964 299.968 46.7977C299.968 46.5716 299.968 46.3455 299.968 46.1194C299.968 36.8365 299.943 27.5473 299.993 18.2643C299.999 16.8826 299.666 15.8149 298.486 15.0674C297.437 14.7785 296.356 15.0486 295.301 14.9293C295.176 14.5964 295.144 14.251 295.144 13.8992C295.144 12.1218 295.144 10.3506 295.144 8.57317C295.144 8.27797 295.182 7.9765 295.295 7.69387C299.987 7.69387 304.672 7.6813 309.364 7.67502C312.071 7.67502 314.784 7.67502 317.491 7.67502C317.73 7.67502 318 7.58081 318.182 7.83832C318.358 8.1398 318.264 8.47268 318.264 8.79299C318.276 10.5453 318.27 12.2976 318.264 14.0562C318.264 14.3012 318.345 14.5587 318.176 14.7848C317.761 15.124 317.278 14.8853 316.825 14.9418C316.172 15.0298 315.5 14.7911 314.86 15.0737C314.784 15.2119 314.652 15.2873 314.527 15.3689C313.861 15.8274 313.509 16.4241 313.509 17.2594C313.515 27.1013 313.509 36.9432 313.515 46.7852C313.515 48.1418 314.363 48.9583 315.714 48.9897C316.486 49.0023 317.271 48.8641 318.031 49.1216C318.075 49.1718 318.125 49.2284 318.169 49.2786C318.345 49.6869 318.245 50.1139 318.251 50.5348C318.264 52.1363 318.264 53.7379 318.251 55.3395C318.251 55.5782 318.345 55.842 318.157 56.0618L318.176 56.0555Z" fill="#A40600"/>
<path d="M38.099 7.57456C35.436 7.19144 32.7666 6.97161 30.0785 7.00929C25.1418 7.08466 20.4187 8.01421 16.1981 10.7401C11.4812 13.7925 8.66746 18.2204 7.37363 23.6093C5.74064 30.4113 5.84113 37.1882 8.25921 43.8018C10.7024 50.472 15.5951 54.4603 22.4537 56.0242C27.3841 57.1484 32.3395 57.2175 37.2448 55.7541C37.8666 55.5719 38.4695 55.327 39.0662 55.082C40.203 54.6173 40.762 54.768 41.4466 55.7855C41.5283 55.9111 41.5911 56.0493 41.6602 56.1749C41.4341 56.1623 41.2959 55.999 41.1765 55.8483C40.5359 55.0318 39.7948 55.0444 38.8966 55.4338C36.7926 56.357 34.5692 56.7527 32.2893 56.9788C28.9919 57.3054 25.7385 57.073 22.5353 56.3445C16.7633 55.0381 12.2035 52.0108 9.28297 46.7412C7.56833 43.6511 6.70159 40.316 6.31846 36.8302C6.09864 34.833 5.9479 32.842 6.04839 30.8384C6.29962 25.5751 7.32338 20.5254 10.357 16.0598C13.5853 11.3116 18.1765 8.65485 23.6721 7.39242C27.0575 6.61361 30.5244 6.50055 33.9097 6.86484C38.2874 7.33589 42.6525 7.37358 47.0302 7.39242C47.1244 7.39242 47.2186 7.41754 47.3128 7.57456H38.0801H38.099Z" fill="#A40600"/>
<path d="M453.802 7.58078C451.177 7.14741 448.52 6.99668 445.863 7.01552C442.384 7.04692 438.973 7.5117 435.827 9.15097C431.901 11.1985 429.665 14.4645 428.987 18.8045C428.516 21.8192 428.635 24.8088 429.64 27.7043C430.821 31.1021 433.277 33.313 436.473 34.7952C439.049 35.9886 441.825 36.5664 444.532 37.3578C445.825 37.7409 447.126 38.1114 448.325 38.7395C450.63 39.9517 451.422 41.5156 451.139 44.1724C450.913 46.2952 449.5 47.9471 447.207 48.4747C444.331 49.1404 441.442 48.9834 438.577 48.2423C438.213 48.1481 438.182 47.9471 438.138 47.6644C437.805 45.5415 437.46 43.4124 437.114 41.2895C437.466 41.4214 437.491 41.7668 437.535 42.0369C437.818 43.6825 438.094 45.328 438.314 46.9861C438.402 47.6582 438.678 48.0099 439.356 48.1418C441.938 48.6442 444.525 48.7636 447.1 48.2046C449.456 47.6896 450.75 45.8807 450.869 43.5129C451.007 40.7242 449.512 39.5246 447.358 38.6076C445.072 37.6341 442.622 37.1756 440.254 36.4659C437.133 35.5301 434.15 34.3367 431.851 31.881C430.023 29.9276 429.087 27.5786 428.679 24.9721C428.415 23.3015 428.422 21.6057 428.566 19.9476C428.968 15.281 430.997 11.5439 435.198 9.18237C438.238 7.47401 441.536 6.80197 444.99 6.78313C446.322 6.77685 447.653 6.77057 448.985 6.78313C450.611 6.80197 452.219 7.01552 453.815 7.29815C454.518 7.42377 455.215 7.36724 455.912 7.37352C457.891 7.39236 459.869 7.37352 461.841 7.37352C461.841 7.43633 461.841 7.49913 461.841 7.55566H453.802V7.58078Z" fill="#A40600"/>
<path d="M97.408 16.889C97.5713 15.9532 98.1114 15.3502 99.0096 15.0613C99.7067 15.0613 100.41 15.0613 101.107 15.0613V15.2309C100.749 15.2309 100.379 15.2749 100.021 15.2246C98.7583 15.0425 97.6529 16.3112 97.6655 17.5422C97.722 24.8216 97.7723 32.101 97.6592 39.3803C97.5964 43.1865 96.7862 46.8732 94.544 50.0953C92.352 53.2419 89.2681 55.0445 85.6316 56.0745C82.0076 57.1046 78.2957 57.1046 74.6026 56.9224C71.5753 56.7717 68.6045 56.0745 65.8787 54.6802C61.5073 52.4443 58.8819 48.8203 57.7703 44.0783C57.3683 42.3762 57.1422 40.649 57.1422 38.8841C57.161 31.9063 57.1485 24.9284 57.1422 17.9505C57.1422 16.3238 56.5078 15.4005 55.2454 15.2497C54.6801 15.1807 54.1023 15.2372 53.5308 15.2372C53.5308 15.1744 53.5308 15.1053 53.5308 15.0425C54.253 15.0425 54.9753 15.0425 55.6976 15.0425C56.7591 15.3063 57.3557 16.1165 57.3557 17.3035C57.3557 24.1809 57.3432 31.0521 57.362 37.9295C57.362 40.291 57.5881 42.6337 58.2602 44.9074C59.8241 50.2334 63.2659 53.7946 68.5417 55.4276C74.5838 57.2993 80.7012 57.3181 86.737 55.4025C92.3017 53.6313 95.5363 49.6619 96.7987 44.0092C97.1002 42.6589 97.1819 41.2897 97.4017 39.933C97.5148 39.7509 97.4708 39.5436 97.4708 39.3426C97.4708 32.0256 97.4708 24.7148 97.4708 17.3978C97.4708 17.2219 97.4959 17.046 97.4205 16.8765L97.408 16.889Z" fill="#A40600"/>
<path d="M441.492 56.7025C441.825 56.9286 442.208 56.6586 442.547 56.803C443.332 57.0103 444.13 56.8847 444.921 56.8847C445.788 56.8847 446.661 56.9977 447.527 56.8093C449.839 56.5581 452.144 56.2754 454.361 55.4778C459.976 53.4554 462.896 49.398 463.512 43.5507C463.738 41.4152 463.688 39.2986 463.286 37.1883C462.551 33.3759 460.233 30.8196 456.842 29.1175C454.216 27.7986 451.409 27.0072 448.589 26.2472C446.761 25.7511 444.908 25.3177 443.206 24.4447C440.744 23.1822 439.783 21.1347 440.455 18.4591C440.851 16.8827 441.869 15.8149 443.389 15.2999C446.265 14.3201 449.16 14.5713 452.043 15.3439C452.357 15.4255 452.433 15.6139 452.477 15.8652C452.803 17.6615 453.13 19.4578 453.457 21.254C452.985 20.984 453.061 20.469 452.967 20.0544C452.684 18.792 452.445 17.517 452.219 16.2357C452.15 15.8338 451.962 15.6077 451.572 15.5135C449.016 14.8665 446.447 14.6781 443.878 15.4255C442.057 15.9594 440.895 17.1904 440.625 19.0746C440.349 21.0217 440.908 22.6986 442.666 23.8103C443.973 24.6394 445.436 25.0727 446.912 25.481C450.285 26.4231 453.714 27.2082 456.861 28.8035C459.348 30.0596 461.464 31.7429 462.652 34.3557C463.33 35.8442 463.631 37.4269 463.826 39.0599C464.134 41.6602 463.876 44.2039 463.192 46.7036C462.262 50.0952 460.246 52.6954 457.206 54.4666C454.424 56.087 451.371 56.7339 448.193 57.004C446.51 57.1484 444.833 57.1359 443.162 57.0982C442.308 57.0794 441.423 57.0982 440.587 56.8281C440.87 56.6523 441.203 56.8344 441.492 56.7088V56.7025Z" fill="#A40600"/>
<path d="M198.672 23.0628C199.2 21.6057 200.098 20.3558 201.04 19.1688C203.697 15.8023 207.095 13.4533 211.158 12.059C213.947 11.1043 216.836 10.784 219.744 11.0478C224.134 11.4372 228.079 13.0136 231.502 15.8525C235.779 19.3949 238.404 23.8981 239.183 29.3624C239.999 35.0904 238.718 40.3976 235.308 45.1333C233.467 47.6896 231.156 49.7183 228.424 51.2759C228.317 51.3387 228.192 51.3512 228.072 51.3889C227.896 51.4329 227.878 51.3261 227.89 51.1942C228.06 50.8928 228.361 50.7546 228.638 50.585C234.165 47.1808 237.625 42.3007 238.63 35.8881C239.641 29.4252 238.015 23.603 233.675 18.6098C230.453 14.9041 226.414 12.574 221.603 11.7952C214.638 10.6646 208.483 12.4484 203.326 17.3913C201.775 18.8798 200.468 20.5505 199.413 22.4222C199.237 22.7362 199.124 23.1382 198.697 23.2387C198.609 23.1884 198.603 23.1256 198.672 23.0502V23.0628Z" fill="black"/>
<path d="M31.6613 39.4743C32.8421 39.4618 34.0166 39.4492 35.1973 39.4241C35.4988 39.4178 35.6496 39.4806 35.6496 39.8323C35.637 42.3949 35.637 44.9574 35.6496 47.5137C35.6496 47.7775 35.5805 47.9596 35.3167 48.0099C31.7429 48.7259 28.1818 49.1592 25.0225 46.7223C22.9939 45.1521 21.9575 42.9162 21.3797 40.4855C20.0356 34.8643 19.8535 29.2242 21.43 23.6218C22.2904 20.5756 23.9737 18.0822 26.9382 16.6564C29.1113 15.6138 31.4289 15.5259 33.7779 15.7332C34.9524 15.8399 36.1143 16.0284 37.2386 16.3926C37.4961 16.4743 37.6782 16.5371 37.7285 16.8511C38.1116 19.0682 38.5198 21.2853 38.9218 23.5024C38.6203 23.4082 38.6203 23.1382 38.5701 22.8932C38.2309 21.1032 37.8855 19.3195 37.5526 17.5295C37.4584 17.0144 37.2386 16.6502 36.6922 16.5183C34.0542 15.909 31.4038 15.6515 28.747 16.3173C25.4873 17.1275 23.4461 19.3069 22.1899 22.3091C21.342 24.3315 20.9966 26.4669 20.7831 28.6464C20.6135 30.3547 20.6009 32.0568 20.6888 33.7526C20.8647 37.1568 21.2415 40.5421 22.8934 43.6196C24.4824 46.5779 26.9256 48.1857 30.3423 48.2171C31.7241 48.2297 33.0933 48.192 34.4499 47.9157C35.1408 47.7775 35.4297 47.3818 35.4297 46.7223C35.4297 44.7125 35.4423 42.7026 35.4297 40.6928C35.4234 39.8826 35.1597 39.6502 34.3243 39.6314C33.6711 39.6188 33.0179 39.6314 32.3647 39.6251C32.1261 39.6251 31.856 39.7067 31.6676 39.4618L31.6613 39.4743Z" fill="#A40600"/>
<path d="M87.4467 15.0801C87.4656 15.2811 87.4907 15.4758 87.4907 15.6767C87.4907 23.5779 87.4907 31.4854 87.4907 39.3865C87.4907 40.8939 87.3023 42.3824 86.8186 43.8207C86.0775 46.0378 84.5701 47.4698 82.3028 48.0225C80.1297 48.5501 77.9314 48.5627 75.752 48.0037C73.0136 47.3003 71.6193 45.3658 71.01 42.7404C70.7525 41.6162 70.6458 40.4668 70.6458 39.3112C70.6458 31.3849 70.6458 23.4523 70.6458 15.526C70.6458 15.3753 70.6772 15.2308 70.6897 15.0801C72.2913 15.0801 73.8929 15.0801 75.5008 15.0801C75.5008 15.1303 75.5008 15.1806 75.5008 15.2371C74.2886 15.2371 73.0827 15.2371 71.8705 15.2371C71.0477 15.2371 70.8593 15.413 70.8593 16.2609C70.8593 23.8668 70.8153 31.4791 70.8844 39.0851C70.9033 40.8688 71.0791 42.6714 71.8454 44.3546C72.8063 46.4649 74.4896 47.5703 76.7129 47.9158C78.4527 48.1858 80.1925 48.1733 81.9322 47.8027C84.4131 47.2688 85.9456 45.7489 86.6553 43.3748C87.1327 41.7858 87.2709 40.1339 87.2709 38.4821C87.2834 31.1776 87.2771 23.8668 87.2771 16.5623C87.2771 15.3125 87.2018 15.2371 85.9582 15.2371C84.9093 15.2371 83.8541 15.2371 82.799 15.0801H87.4404H87.4467Z" fill="#A40600"/>
<path d="M359.057 7.70648C356.645 16.6063 354.24 25.5061 351.828 34.4059C351.79 34.5441 351.721 34.6822 351.665 34.8141C351.47 35.1093 351.275 35.147 351.081 34.8141C350.139 31.3472 349.19 27.8802 348.254 24.407C346.778 18.9364 345.315 13.4659 343.845 7.99539C343.82 7.90118 343.82 7.79441 343.808 7.7002C344.134 7.83209 344.197 8.12729 344.279 8.42248C346.402 16.3802 348.518 24.3441 350.66 32.3018C350.842 32.9676 350.968 33.6648 351.332 34.3431C351.759 34.0039 351.797 33.5015 351.91 33.0806C353.505 27.2019 355.075 21.3168 356.658 15.4318C357.267 13.1644 357.883 10.9034 358.523 8.64231C358.618 8.30315 358.624 7.86978 359.057 7.70648Z" fill="#A40600"/>
<path d="M353.731 56.2C357.141 43.9463 360.546 31.6863 363.956 19.4325C364.245 19.2253 364.471 19.2316 364.54 19.6335C364.571 19.8031 364.553 19.9853 364.553 20.1611C364.553 29.4189 364.553 38.6767 364.54 47.9345C364.54 48.1732 364.791 48.5563 364.32 48.6819V20.2428C363.874 20.3935 363.868 20.7264 363.799 20.9839C362.204 26.737 360.627 32.4965 359.032 38.2496C357.43 44.0279 355.822 49.8062 354.208 55.5782C354.133 55.8357 354.058 56.1246 353.731 56.2Z" fill="#A40600"/>
<path d="M335.247 19.4199C335.963 21.9887 336.698 24.5513 337.401 27.1201C340.058 36.8113 342.715 46.5087 345.365 56.1999C344.712 55.8419 344.781 55.1196 344.624 54.5544C342.294 46.157 340.001 37.7534 337.703 29.3435C336.974 26.6679 336.252 23.9923 335.517 21.323C335.429 21.0027 335.385 20.6447 334.933 20.2615V48.6693C334.499 48.5688 334.713 48.2171 334.713 47.9973C334.694 45.9121 334.7 43.8331 334.7 41.7479C334.7 34.569 334.7 27.3902 334.7 20.2176C334.7 20.0166 334.675 19.8156 334.713 19.6146C334.77 19.2629 334.977 19.2503 335.241 19.4136L335.247 19.4199Z" fill="#A40600"/>
<path d="M198.672 23.0627C198.679 23.1318 198.685 23.1946 198.697 23.2637C198.88 23.6845 198.647 24.0551 198.503 24.4131C197.297 27.4153 196.713 30.5305 196.939 33.7588C197.272 38.5008 198.955 42.7152 202.095 46.3329C203.747 48.2296 205.663 49.781 207.855 50.9806C210.512 52.4252 213.344 53.248 216.378 53.4803C219.644 53.7253 222.765 53.1977 225.793 52.0107C226.025 51.9164 226.264 51.8222 226.521 51.8913C226.64 51.9416 226.741 52.0044 226.71 52.1614C223.261 53.7693 219.606 54.2592 215.869 53.9388C211.686 53.5808 207.905 52.0421 204.614 49.4167C201.128 46.6406 198.691 43.1234 197.385 38.8588C196.549 36.1078 196.223 33.3129 196.531 30.4238C196.769 28.2129 197.316 26.1026 198.126 24.0551C198.264 23.7097 198.39 23.3517 198.672 23.0753V23.0627Z" fill="black"/>
<path d="M298.48 15.0674C299.459 15.394 300.081 16.1854 300.081 17.1651C300.081 27.0761 300.081 36.9809 300.081 46.8919C300.081 48.148 299.051 49.1278 297.776 49.1341C296.947 49.1341 296.118 49.1467 295.295 49.1529C295.553 48.7887 295.948 48.8326 296.319 48.8326C296.721 48.8326 297.123 48.8326 297.525 48.8326C298.913 48.8326 299.805 47.9533 299.811 46.5464C299.824 43.3119 299.811 40.0773 299.811 36.8427C299.811 30.4991 299.811 24.1556 299.811 17.8058C299.811 16.0221 299.032 15.237 297.267 15.237C296.721 15.237 296.174 15.237 295.622 15.0737H298.48V15.0674Z" fill="#A40600"/>
<path d="M384.821 56.2188C390.36 56.2188 395.906 56.2062 401.446 56.2C409.372 56.2 417.292 56.2 425.218 56.2C424.835 56.4763 424.396 56.514 423.943 56.514C411.282 56.514 398.613 56.514 385.951 56.514C385.549 56.514 385.154 56.4889 384.821 56.2188Z" fill="#A40600"/>
<path d="M134.941 39.688C134.627 42.5206 134.313 45.3532 134.012 48.1921C133.974 48.5312 133.824 48.6003 133.535 48.594C129.823 48.5752 126.117 48.5626 122.405 48.5438C121.984 48.4119 121.865 48.1293 121.865 47.6896C121.878 37.1003 121.878 26.5173 121.871 15.9279C121.871 15.5888 121.865 15.2685 122.236 15.0989H127.493V15.2308C126.092 15.2308 124.685 15.2308 123.278 15.2308C122.154 15.2308 122.097 15.2873 122.097 16.4304C122.097 26.668 122.097 36.9056 122.097 47.1432C122.097 47.8676 122.455 48.2298 123.171 48.2298C126.362 48.2298 129.546 48.2172 132.737 48.2423C133.359 48.2423 133.698 48.1481 133.761 47.4258C133.893 45.9122 134.119 44.4111 134.307 42.9037C134.439 41.8422 134.577 40.7808 134.715 39.7194C134.741 39.5309 134.803 39.3048 134.935 39.688H134.941Z" fill="#A40600"/>
<path d="M318.05 49.1216C317.196 49.1216 316.342 49.1342 315.488 49.1342C314.433 49.1342 313.472 48.2486 313.371 47.1934C313.359 47.0678 313.365 46.9422 313.365 46.8166C313.365 36.9558 313.365 27.0951 313.365 17.2343C313.365 16.1854 313.905 15.4255 314.872 15.0737H317.717C317.717 15.124 317.717 15.1805 317.717 15.2307C317.064 15.2307 316.411 15.2307 315.764 15.2307C314.489 15.237 313.679 16.0221 313.679 17.272C313.679 27.1013 313.679 36.937 313.679 46.7663C313.679 48.035 314.477 48.7824 315.726 48.839C316.499 48.8767 317.334 48.55 318.05 49.1153V49.1216Z" fill="#A40600"/>
<path d="M106.929 15.0549C108.054 15.3815 108.663 16.2169 108.663 17.4542C108.663 24.4509 108.663 31.4414 108.663 38.4381C108.663 41.1451 108.663 43.8521 108.663 46.5591C108.663 48.167 107.708 49.1342 106.126 49.1342C105.523 49.1342 104.92 49.1342 104.323 49.1342C104.643 48.7385 105.096 48.8327 105.51 48.8327C107.759 48.8264 108.393 48.1858 108.393 45.9122C108.393 36.5727 108.393 27.2333 108.393 17.8875C108.393 15.9908 107.639 15.2308 105.755 15.2308C105.384 15.2308 105.014 15.2308 104.643 15.0549H106.936H106.929Z" fill="#A40600"/>
<path d="M148.816 15.0613C149.858 15.3879 150.455 16.1667 150.455 17.203C150.455 27.0889 150.455 36.981 150.455 46.8669C150.455 48.1608 149.475 49.128 148.181 49.1343C147.528 49.1343 146.875 49.128 146.222 49.1217C146.781 48.6004 147.465 48.8768 148.093 48.8391C149.035 48.7888 149.664 48.3931 150.028 47.5515C150.141 47.2815 150.141 47.0177 150.141 46.7413C150.141 36.9371 150.141 27.1391 150.141 17.3349C150.141 16.0285 149.362 15.2497 148.037 15.2309C147.541 15.2246 147.044 15.2309 146.548 15.0613H148.822H148.816Z" fill="#A40600"/>
<path d="M104.317 56.2125C117.23 56.2125 130.143 56.2125 143.056 56.2125C143.157 56.2125 143.257 56.2062 143.358 56.2C142.975 56.4763 142.535 56.514 142.083 56.514C129.873 56.514 117.657 56.514 105.447 56.514C105.045 56.514 104.65 56.4951 104.323 56.2125H104.317Z" fill="#A40600"/>
<path d="M322.428 49.1091C321.875 49.1216 321.322 49.1405 320.77 49.153C321.335 48.5689 322.051 48.8704 322.698 48.8516C323.527 48.8327 324.136 48.5438 324.563 47.8278C324.752 47.5138 324.84 47.1997 324.84 46.8355C324.84 36.981 324.84 27.1202 324.84 17.2658C324.84 16.1415 324.004 15.2873 322.861 15.2371C322.315 15.2182 321.768 15.2371 321.222 15.2371V15.0549C321.944 15.0549 322.66 15.0549 323.383 15.0549C324.708 15.4632 325.141 16.443 325.141 17.7368C325.141 27.271 325.141 36.8114 325.141 46.3456C325.141 47.6708 324.67 48.6757 323.326 49.1091C323.025 49.0274 322.729 49.0274 322.428 49.1091Z" fill="#A40600"/>
<path d="M416.953 41.183C416.639 43.5383 416.325 45.8999 416.017 48.2551C415.954 48.7576 415.578 48.5755 415.326 48.5755C411.759 48.588 408.198 48.5817 404.63 48.5817C404.002 48.5817 403.374 48.5629 402.746 48.588C402.388 48.6006 402.275 48.5064 402.275 48.1295C402.287 43.9654 402.287 39.795 402.275 35.6309C402.275 35.3168 402.35 35.1912 402.689 35.1975C404.549 35.2101 406.408 35.2101 408.26 35.1975C408.581 35.1975 408.719 35.3168 408.75 35.6183C408.87 36.7363 408.989 37.8542 409.115 38.9785C409.058 39.0287 409.014 39.3993 408.939 39.0162C408.757 38.0866 408.6 37.1508 408.505 36.215C408.449 35.6183 408.116 35.4299 407.62 35.4299C406.238 35.4173 404.856 35.4173 403.481 35.4299C402.884 35.4299 402.589 35.6999 402.595 36.3594C402.614 40.0462 402.62 43.7393 402.595 47.4261C402.595 48.1295 402.916 48.3745 403.544 48.3745C407.287 48.3745 411.024 48.3745 414.767 48.3745C415.452 48.3745 415.772 48.0227 415.86 47.3947C416.118 45.5419 416.369 43.6953 416.633 41.8425C416.664 41.6038 416.758 41.3715 416.827 41.1391C416.827 41.1328 416.878 41.1328 416.896 41.1391C416.922 41.1453 416.94 41.1642 416.959 41.183H416.953Z" fill="#A40600"/>
<path d="M170.365 24.9156C170.202 26.2597 170.038 27.5975 169.869 28.9415C168.588 29.1111 167.294 28.9918 166.012 29.0043C165.246 29.0106 164.48 29.0986 163.72 28.9415C163.707 24.6015 163.701 20.2616 163.676 15.9216C163.676 15.5573 163.833 15.5259 164.128 15.5259C168.117 15.5322 172.111 15.5322 176.099 15.5259C176.388 15.5259 176.577 15.5761 176.627 15.8964C176.947 17.9754 177.274 20.048 177.594 22.1269C177.412 22.5477 177.399 22.1772 177.381 22.0704C177.186 20.9901 177.004 19.9161 176.822 18.8358C176.702 18.1261 176.602 17.4101 176.482 16.6941C176.382 16.0974 176.074 15.8085 175.402 15.8148C171.866 15.8462 168.33 15.8274 164.794 15.8274C164.499 15.8274 164.178 15.7771 164.015 16.1288C163.896 16.2858 163.94 16.468 163.94 16.6376C163.94 20.3683 163.94 24.0991 163.94 27.8236C163.94 27.9931 163.902 28.1753 164.015 28.3323C164.015 28.4579 164.047 28.571 164.166 28.6338C165.925 28.7594 167.683 28.7594 169.442 28.6338C169.643 28.4202 169.674 28.1439 169.743 27.8801C169.925 27.654 169.718 27.3525 169.888 27.1201V26.6742C170.082 26.3978 169.856 26.0461 170.038 25.7698C170.045 25.5185 170.038 25.2673 170.07 25.0224C170.095 24.8591 170.195 24.7397 170.371 24.9093L170.365 24.9156Z" fill="#A40600"/>
<path d="M257.265 24.564C257.359 22.3029 257.648 20.0607 257.862 17.8122C257.931 17.1213 258.006 16.4242 258.038 15.7333C258.05 15.369 258.126 15.2183 258.54 15.2246C260.336 15.256 262.139 15.2497 263.935 15.2622C264.067 15.4695 264.004 15.7019 264.004 15.9217C264.004 26.1844 264.004 36.4409 264.004 46.7036C264.004 46.9297 264.042 47.1558 263.954 47.3756C263.64 48.5125 262.679 49.2724 261.442 49.1531C260.776 49.0903 260.091 49.1531 259.419 49.1594C259.47 49.1028 259.514 49.0463 259.564 48.9898C260.311 48.7888 261.084 49.0589 261.831 48.8453C262.786 48.8705 263.232 48.1984 263.64 47.4887C263.778 47.2563 263.715 46.9988 263.715 46.7538C263.715 36.6481 263.715 26.5424 263.715 16.4305C263.715 16.1855 263.785 15.928 263.64 15.6956C263.54 15.6454 263.445 15.5951 263.345 15.5449C261.838 15.413 260.33 15.413 258.823 15.5449C258.082 15.8275 258.264 16.487 258.22 17.0522C258.013 17.4354 258.27 17.875 258.075 18.2644C258.075 18.4152 258.075 18.5596 258.075 18.7104C257.874 19.15 258.119 19.6336 257.925 20.0733C257.925 20.1738 257.925 20.268 257.925 20.3685C257.724 20.7516 257.975 21.1913 257.78 21.5807C257.78 21.6811 257.78 21.7816 257.78 21.8759C257.573 22.3092 257.824 22.7991 257.629 23.2388C257.629 23.3393 257.629 23.4398 257.629 23.534C257.435 23.8166 257.667 24.162 257.485 24.4447C257.422 24.4886 257.353 24.5389 257.29 24.5828L257.265 24.564Z" fill="#A40600"/>
<path d="M169.278 49.153C167.602 49.153 165.918 49.1216 164.241 49.153C163.764 49.1592 163.67 49.0211 163.676 48.5688C163.695 44.7878 163.695 41.0068 163.676 37.2196C163.676 36.7297 163.789 36.5915 164.292 36.604C165.969 36.6354 167.652 36.6354 169.329 36.604C169.775 36.5978 169.944 36.7045 169.988 37.1567C170.095 38.4255 170.239 39.6942 170.371 40.9566C169.976 40.9315 170.082 40.5923 170.051 40.385C169.925 39.4743 169.819 38.5574 169.743 37.6404C169.699 37.1065 169.467 36.9118 168.927 36.9181C167.526 36.9432 166.119 36.9369 164.719 36.9181C164.21 36.9118 163.996 37.0939 164.003 37.6152C164.015 41.1262 164.015 44.6308 164.003 48.1418C164.003 48.6693 164.222 48.8452 164.725 48.8389C165.931 48.8201 167.13 48.8389 168.336 48.8389C168.688 48.8389 169.046 48.8264 169.285 49.1592L169.278 49.153Z" fill="#A40600"/>
<path d="M408.656 27.6542C408.524 27.8928 408.298 27.7923 408.116 27.7923C406.357 27.7986 404.599 27.7798 402.84 27.8112C402.35 27.8175 402.275 27.6604 402.275 27.2145C402.294 23.4963 402.294 19.7844 402.275 16.0662C402.275 15.6454 402.375 15.5198 402.809 15.5198C406.904 15.5386 410.999 15.5323 415.088 15.5198C415.433 15.5198 415.546 15.5637 415.621 15.9908C415.81 17.0711 416.023 18.1451 416.193 19.2317C416.224 19.395 416.331 19.596 416.023 19.596C415.822 18.5722 415.596 17.5485 415.427 16.5184C415.345 16.0222 415.1 15.8275 414.623 15.8275C410.81 15.8275 406.998 15.8275 403.179 15.8338C402.991 15.8338 402.796 15.928 402.608 15.9783C402.495 16.1039 402.526 16.2609 402.526 16.4054C402.526 19.8849 402.526 23.3644 402.526 26.8377C402.526 26.9884 402.501 27.1391 402.602 27.271L402.752 27.4218C404.611 27.5411 406.47 27.5537 408.33 27.4092C408.38 27.3087 408.43 27.2145 408.48 27.114C408.882 27.1768 408.656 27.4406 408.65 27.6353L408.656 27.6542Z" fill="#A40600"/>
<path d="M282.024 49.1531C281.17 49.1531 280.322 49.1405 279.468 49.1343C278.375 49.128 277.357 48.1356 277.338 47.0428C277.32 46.0881 277.338 45.1397 277.338 44.185C277.338 34.7577 277.345 25.3303 277.32 15.9029C277.32 15.3125 277.489 15.212 278.023 15.2246C279.524 15.2623 281.031 15.2748 282.539 15.2246C283.217 15.1995 283.5 15.3879 283.406 16.0725C283.387 16.1918 283.406 16.3174 283.406 16.443C283.349 16.4996 283.293 16.4996 283.236 16.4493C283.06 16.2232 283.28 15.9155 283.079 15.6956C283.029 15.6454 282.985 15.6014 282.935 15.5512C281.948 15.3628 280.956 15.4821 279.964 15.4758C279.248 15.4695 278.525 15.369 277.809 15.5449C277.759 15.5951 277.709 15.6454 277.659 15.6956C277.514 15.928 277.583 16.1855 277.583 16.4305C277.583 26.5362 277.583 36.6482 277.583 46.7539C277.583 46.9988 277.514 47.2563 277.659 47.4887C278.205 48.613 279.11 49.0024 280.328 48.8642C280.893 48.8014 281.521 48.7135 282.024 49.1657V49.1531Z" fill="#A40600"/>
<path d="M387.421 15.0612C388.558 15.4129 389.104 16.1603 389.104 17.3976C389.104 23.6156 389.104 29.8335 389.104 36.0514C389.104 39.5624 389.104 43.0733 389.104 46.5842C389.104 48.2298 388.2 49.1279 386.56 49.1279C385.983 49.1279 385.405 49.1216 384.827 49.1154C385.204 48.6945 385.712 48.795 386.171 48.839C388.024 49.0149 388.891 47.8969 388.891 46.1069C388.891 36.7549 388.891 27.4029 388.891 18.0508C388.891 15.9782 387.961 15.0738 386.033 15.2245C385.738 15.2496 385.442 15.2245 385.147 15.0549H387.421V15.0612Z" fill="#A40600"/>
<path d="M381.957 49.1341C381.278 49.1341 380.6 49.1341 379.922 49.1341C378.672 49.1341 377.68 48.1732 377.68 46.917C377.673 36.9746 377.68 27.0385 377.68 17.0961C377.68 16.1163 378.345 15.3249 379.338 15.0486C380.11 15.0486 380.876 15.0486 381.649 15.0486C381.649 15.1114 381.649 15.1742 381.649 15.237C381.203 15.237 380.757 15.237 380.311 15.237C378.741 15.237 377.899 16.0598 377.893 17.6488C377.881 19.7026 377.893 21.7627 377.893 23.8165C377.893 31.2906 377.893 38.7584 377.893 46.2324C377.893 46.7914 377.937 47.3567 378.239 47.8215C378.64 48.4495 379.174 48.8766 380.029 48.8578C380.669 48.8389 381.391 48.5814 381.963 49.1404L381.957 49.1341Z" fill="#A40600"/>
<path d="M146.222 56.2188C153.859 56.2188 161.49 56.225 169.128 56.2313C168.788 56.4888 168.399 56.5139 167.991 56.5139C161.113 56.5139 154.23 56.5139 147.352 56.5139C146.944 56.5139 146.555 56.4888 146.222 56.2188Z" fill="#A40600"/>
<path d="M295.446 56.2314C298.536 56.2189 301.626 56.2063 304.716 56.2063C309.163 56.2063 313.61 56.2189 318.056 56.2251C317.724 56.4952 317.328 56.5203 316.926 56.5203C310.149 56.5203 303.366 56.5203 296.589 56.5203C296.181 56.5203 295.791 56.4952 295.452 56.2377L295.446 56.2314Z" fill="#A40600"/>
<path d="M259.419 56.1938C266.479 56.1938 273.532 56.1938 280.592 56.1938C281.019 56.1938 281.446 56.2126 281.873 56.2189C281.534 56.4764 281.138 56.5015 280.736 56.5015C274.003 56.5015 267.27 56.5015 260.537 56.5015C260.135 56.5015 259.733 56.489 259.419 56.1875V56.1938Z" fill="#A40600"/>
<path d="M249.477 7.63116C249.427 7.63116 249.377 7.63116 249.326 7.63116C249.421 7.3234 249.678 7.39877 249.892 7.39877C263.86 7.39877 277.828 7.39877 291.797 7.39877C291.841 7.39877 291.891 7.42389 291.941 7.53695C291.671 7.53695 291.401 7.53695 291.131 7.53695C277.539 7.53695 263.948 7.53695 250.356 7.53695C250.061 7.53695 249.753 7.44902 249.477 7.62488V7.63116Z" fill="#A40600"/>
<path d="M360.257 56.1938C367.492 56.1938 374.728 56.2001 381.957 56.2064C381.63 56.489 381.234 56.5079 380.832 56.5079C374.344 56.5079 367.856 56.5079 361.368 56.5079C360.966 56.5079 360.571 56.4953 360.25 56.1938H360.257Z" fill="#A40600"/>
<path d="M364.314 48.682C364.572 48.4685 364.471 48.167 364.471 47.9095C364.471 38.6705 364.477 29.4379 364.471 20.1989C364.471 19.8786 364.729 19.2819 363.956 19.4389C364.019 19.194 364.006 18.9176 364.182 18.7041C364.396 18.5408 364.515 18.6664 364.603 18.8548C364.609 20.1612 364.628 21.4676 364.628 22.7677C364.628 31.3032 364.622 39.845 364.647 48.3806C364.647 49.0024 364.515 49.1845 363.881 49.1531C362.681 49.1029 361.469 49.1531 360.263 49.1531C360.52 48.7888 360.91 48.8579 361.28 48.8328C362.292 48.7637 363.322 49.0024 364.32 48.682H364.314Z" fill="#A40600"/>
<path d="M335.247 19.4201C335.014 19.4578 334.713 19.4075 334.776 19.8095C334.801 19.9539 334.776 20.1109 334.776 20.2617C334.776 29.4504 334.776 38.6391 334.776 47.8278C334.776 48.1168 334.656 48.4371 334.927 48.682C335.975 49.0149 337.049 48.7574 338.111 48.8328C338.481 48.8579 338.865 48.8013 339.141 49.1405C337.784 49.1405 336.434 49.1279 335.077 49.1405C334.726 49.1405 334.606 49.0589 334.606 48.6883C334.625 38.8401 334.631 28.9919 334.638 19.1437C334.795 19.0621 334.506 18.3272 335.071 18.8485C335.241 19.0055 335.222 19.2191 335.228 19.4263L335.247 19.4201Z" fill="#A40600"/>
<path d="M51.7155 32.2641C44.9826 32.2641 38.2496 32.2704 31.5229 32.2767C31.837 31.9689 32.2327 31.9626 32.6409 31.9626C38.6265 31.9626 44.612 31.9626 50.5975 31.9626C50.9995 31.9626 51.3952 31.9815 51.7218 32.2641H51.7155Z" fill="#A40600"/>
<path d="M424.113 7.51806H385.179C385.179 7.51806 385.179 7.46782 385.179 7.44897H424.144C424.144 7.44897 424.126 7.49922 424.119 7.51806H424.113Z" fill="#A40600"/>
<path d="M185.244 7.49915H146.567C146.567 7.49915 146.567 7.46147 146.567 7.44263H185.244C185.244 7.44263 185.244 7.48031 185.244 7.49915Z" fill="#A40600"/>
<path d="M320.763 56.1938C326.893 56.1938 333.023 56.2001 339.153 56.2064C338.827 56.489 338.431 56.5079 338.029 56.5079C332.647 56.5079 327.264 56.5079 321.881 56.5079C321.479 56.5079 321.084 56.4953 320.77 56.1938H320.763Z" fill="#A40600"/>
<path d="M122.242 15.0989C122.003 15.3815 121.947 15.7018 121.947 16.0724C121.953 26.5549 121.953 37.0375 121.947 47.52C121.947 47.9659 122.047 48.2925 122.411 48.5375C122.066 48.6129 121.796 48.6694 121.796 48.1292C121.815 37.1128 121.821 26.0901 121.827 15.0737C121.965 15.0737 122.104 15.0863 122.242 15.0926V15.0989Z" fill="#A40600"/>
<path d="M143.339 56.2127C143.339 50.5412 143.339 44.8634 143.339 39.1919C143.647 39.4117 143.659 39.732 143.659 40.0649C143.659 45.1021 143.659 50.1392 143.659 55.1764C143.659 55.5532 143.628 55.9238 143.345 56.219L143.339 56.2127Z" fill="#A40600"/>
<path d="M263.634 15.6831C263.891 15.9029 263.785 16.1981 263.785 16.4619C263.785 26.5425 263.785 36.6168 263.785 46.6974C263.785 46.9612 263.879 47.2564 263.634 47.4762C263.634 36.8806 263.634 26.2787 263.634 15.6831Z" fill="#A40600"/>
<path d="M277.659 47.4762C277.407 47.2564 277.508 46.9612 277.508 46.6974C277.508 36.6168 277.508 26.5425 277.508 16.4619C277.508 16.1981 277.407 15.9029 277.652 15.6831C277.652 26.2787 277.652 36.8806 277.652 47.4762H277.659Z" fill="#A40600"/>
<path d="M416.306 39.487C416.306 34.7702 416.318 30.0471 416.325 25.3302C416.325 24.7775 416.331 24.2248 416.337 23.6721C416.639 23.9359 416.626 24.2876 416.626 24.6394C416.626 29.2745 416.626 33.9034 416.626 38.5386C416.626 38.8903 416.645 39.2483 416.306 39.487Z" fill="#A40600"/>
<path d="M47.6582 23.5151C47.652 18.2455 47.6457 12.9697 47.6394 7.7002C47.922 8.02679 47.9409 8.42248 47.9409 8.82445C47.9409 13.3403 47.9409 17.8561 47.9409 22.3783C47.9409 22.7865 47.9158 23.1759 47.6582 23.5151Z" fill="#A40600"/>
<path d="M425.199 56.2127C425.199 51.1441 425.199 46.0693 425.199 41.0007C425.507 41.2206 425.52 41.5409 425.52 41.8738C425.52 46.308 425.52 50.7422 425.52 55.1764C425.52 55.5532 425.488 55.9238 425.206 56.219L425.199 56.2127Z" fill="#A40600"/>
<path d="M185.558 22.6107V7.7002C185.841 8.02679 185.86 8.4162 185.86 8.82445C185.86 13.0514 185.86 17.272 185.86 21.499C185.86 21.9009 185.834 22.2966 185.558 22.6232V22.6107Z" fill="#A40600"/>
<path d="M428.239 41.2959C428.233 46.2137 428.227 51.1378 428.221 56.0556C427.963 55.7165 427.938 55.3271 427.938 54.9188C427.938 50.7547 427.938 46.5843 427.938 42.4202C427.938 42.0182 427.957 41.6225 428.239 41.2959Z" fill="#A40600"/>
<path d="M441.492 56.7025C441.215 56.916 440.889 56.7779 440.587 56.8218C436.781 56.3571 432.95 56.5518 429.131 56.5141C428.842 56.5141 428.585 56.4513 428.39 56.2252C431.443 56.2189 434.501 56.1624 437.554 56.2252C438.873 56.2503 440.179 56.5329 441.492 56.6962V56.7025Z" fill="#A40600"/>
<path d="M104.624 7.63116C104.574 7.63116 104.524 7.63116 104.474 7.63116C104.568 7.3234 104.825 7.39877 105.039 7.39877C112.463 7.39877 119.887 7.39877 127.31 7.39877C127.379 7.39877 127.449 7.43018 127.549 7.4553C127.26 7.59976 126.984 7.53067 126.72 7.53067C119.623 7.53067 112.526 7.53067 105.428 7.53695C105.158 7.53695 104.876 7.4553 104.624 7.62488V7.63116Z" fill="#A40600"/>
<path d="M343.474 7.51806H321.121C321.121 7.51806 321.121 7.46782 321.121 7.44897H343.506C343.506 7.44897 343.487 7.49922 343.474 7.51806Z" fill="#A40600"/>
<path d="M359.402 7.41748H381.605C381.605 7.41748 381.605 7.46773 381.605 7.48657H359.365L359.396 7.41748H359.402Z" fill="#A40600"/>
<path d="M295.647 7.43628H317.736C317.736 7.43628 317.736 7.48652 317.736 7.50537H295.622C295.622 7.50537 295.64 7.45512 295.647 7.43628Z" fill="#A40600"/>
<path d="M75.5133 7.49922H53.5747C53.5747 7.49922 53.5747 7.46154 53.5747 7.44897H75.5133C75.5133 7.44897 75.5133 7.48666 75.5133 7.49922Z" fill="#A40600"/>
<path d="M48.5249 41.2519C48.8515 40.0649 49.5801 39.4871 50.7483 39.4871C51.0686 39.4871 51.3952 39.4871 51.7155 39.4871C51.5082 39.7509 51.2131 39.7823 50.9053 39.7948C49.3916 39.8513 48.707 40.5736 48.707 42.1375C48.707 46.4524 48.707 50.7735 48.707 55.0884C48.707 55.3585 48.707 55.6286 48.707 56.0556C48.4998 55.6474 48.5689 55.371 48.5689 55.1073C48.5689 50.8175 48.5689 46.5215 48.5689 42.2317C48.5689 41.9051 48.55 41.5785 48.5375 41.2519H48.5249Z" fill="#A40600"/>
<path d="M82.7674 7.63116C82.7172 7.63116 82.6669 7.63116 82.6167 7.63116C82.7109 7.3234 82.9684 7.39877 83.1757 7.39877C89.0921 7.39877 95.0086 7.39877 100.925 7.39877C100.994 7.39877 101.063 7.43018 101.164 7.4553C100.875 7.59976 100.598 7.53067 100.335 7.53067C94.7448 7.53067 89.1549 7.53067 83.5588 7.53695C83.2887 7.53695 83.0061 7.4553 82.7549 7.62488L82.7674 7.63116Z" fill="#A40600"/>
<path d="M292.544 8.00806V24.539H292.481V8.00806C292.481 8.00806 292.525 8.00806 292.544 8.00806Z" fill="#A40600"/>
<path d="M248.887 24.5201V8.052C248.887 8.052 248.937 8.052 248.956 8.052V24.5578C248.956 24.5578 248.906 24.5327 248.887 24.5201Z" fill="#A40600"/>
<path d="M453.413 21.21C456.327 21.2225 459.235 21.2414 462.149 21.2539C461.898 21.568 461.546 21.5554 461.188 21.5554C458.958 21.5554 456.735 21.5554 454.505 21.5554C454.104 21.5554 453.708 21.5491 453.413 21.21Z" fill="#A40600"/>
<path d="M177.839 24.8843V40.9567C177.839 40.9567 177.801 40.9567 177.782 40.9567V24.8843C177.782 24.8843 177.82 24.8843 177.839 24.8843Z" fill="#A40600"/>
<path d="M283.23 16.4367C283.286 16.4367 283.343 16.4367 283.399 16.4304C283.594 18.1576 283.795 19.8785 283.984 21.6057C284.103 22.6923 284.197 23.7789 284.304 24.8717C283.739 24.5388 283.914 23.9233 283.864 23.4586C283.657 21.5178 283.506 19.5708 283.242 17.63C283.186 17.2406 283.23 16.8324 283.224 16.4367H283.23Z" fill="#A40600"/>
<path d="M143.358 39.2041C140.594 39.2041 137.831 39.1978 135.073 39.1915C135.3 38.8964 135.626 38.8838 135.953 38.8838C138.132 38.8838 140.305 38.8838 142.485 38.8838C142.818 38.8838 143.138 38.8963 143.358 39.2041Z" fill="#A40600"/>
<path d="M345.334 56.1811C348.148 56.1811 350.955 56.1811 353.769 56.1748C353.474 56.5077 353.072 56.514 352.676 56.514C350.597 56.514 348.518 56.514 346.439 56.514C346.037 56.514 345.642 56.5077 345.34 56.1811H345.334Z" fill="#A40600"/>
<path d="M39.0598 23.6282C41.8673 23.647 44.6811 23.6659 47.4886 23.6847C47.1745 23.9234 46.8165 23.9673 46.4334 23.9673C44.367 23.9673 42.3007 23.9673 40.228 23.9673C39.8135 23.9673 39.3864 23.9485 39.0598 23.6345V23.6282Z" fill="#A40600"/>
<path d="M425.218 41.0131C422.505 41.0069 419.792 41.0006 417.079 40.988C417.336 40.6803 417.688 40.6928 418.04 40.6928C420.119 40.6928 422.191 40.6928 424.27 40.6928C424.622 40.6928 424.98 40.674 425.218 41.0131Z" fill="#A40600"/>
<path d="M249.169 24.8718C251.832 24.8718 254.495 24.8718 257.159 24.8718C256.907 25.1859 256.556 25.1733 256.204 25.1733C254.181 25.1733 252.153 25.1733 250.13 25.1733C249.779 25.1733 249.427 25.1859 249.176 24.8718H249.169Z" fill="#A40600"/>
<path d="M284.291 24.8591C286.954 24.8591 289.617 24.8717 292.274 24.878C292.023 25.192 291.671 25.1794 291.313 25.1794C289.284 25.1794 287.262 25.1794 285.233 25.1794C284.882 25.1794 284.524 25.1983 284.285 24.8591H284.291Z" fill="#A40600"/>
<path d="M416.783 22.146C419.346 22.146 421.908 22.1586 424.471 22.1648C424.144 22.4349 423.749 22.46 423.347 22.46C421.531 22.46 419.71 22.46 417.895 22.46C417.493 22.46 417.097 22.4475 416.783 22.146Z" fill="#A40600"/>
<path d="M424.59 22.0078C424.546 17.2847 424.521 12.5678 424.603 7.84473C424.873 8.05199 424.766 8.35347 424.766 8.61726C424.766 12.8254 424.772 17.0397 424.766 21.2478C424.766 21.5053 424.879 21.8068 424.59 22.0078Z" fill="#A40600"/>
<path d="M75.8274 14.9293C75.8274 12.5175 75.8274 10.112 75.8274 7.7002C76.1414 7.95142 76.1289 8.30315 76.1289 8.65487C76.1289 10.426 76.1289 12.1972 76.1289 13.9746C76.1289 14.3264 76.1414 14.6781 75.8274 14.9293Z" fill="#A40600"/>
<path d="M320.763 7.7002V14.9293C320.449 14.6781 320.462 14.3264 320.462 13.9746C320.462 12.2035 320.462 10.4323 320.462 8.65487C320.462 8.30315 320.449 7.95142 320.763 7.7002Z" fill="#A40600"/>
<path d="M295.295 7.70013V14.9293C295.013 14.6089 294.994 14.2133 294.994 13.8113C294.994 12.1469 294.994 10.4762 294.994 8.81182C294.994 8.40985 295.019 8.02045 295.295 7.69385V7.70013Z" fill="#A40600"/>
<path d="M409.247 39.4683C411.608 39.4683 413.963 39.4683 416.325 39.4683C416.105 39.776 415.785 39.7886 415.452 39.7886C413.674 39.7886 411.897 39.7886 410.12 39.7886C409.787 39.7886 409.466 39.7886 409.253 39.4683H409.247Z" fill="#A40600"/>
<path d="M360.276 49.1343C360.276 51.4958 360.276 53.8511 360.276 56.2127C359.974 55.8986 359.955 55.5029 359.955 55.101C359.955 53.4303 359.955 51.7533 359.955 50.0827C359.955 49.7309 359.936 49.3729 360.276 49.1406V49.1343Z" fill="#A40600"/>
<path d="M320.782 49.1343C320.782 51.4958 320.782 53.8511 320.782 56.2127C320.481 55.8986 320.462 55.5029 320.462 55.101C320.462 53.4303 320.462 51.7533 320.462 50.0827C320.462 49.7309 320.443 49.3729 320.782 49.1406V49.1343Z" fill="#A40600"/>
<path d="M259.438 49.1343C259.438 51.4958 259.438 53.8511 259.438 56.2127C259.137 55.8986 259.118 55.5029 259.118 55.101C259.118 53.424 259.118 51.7533 259.118 50.0764C259.118 49.7247 259.099 49.3667 259.438 49.1343Z" fill="#A40600"/>
<path d="M31.5355 32.2578C31.5229 34.6194 31.5166 36.9746 31.5041 39.3362C31.2026 39.0787 31.2152 38.727 31.2152 38.3752C31.2152 36.7046 31.2152 35.0402 31.2152 33.3695C31.2152 32.9675 31.234 32.5718 31.5355 32.2641V32.2578Z" fill="#A40600"/>
<path d="M462.35 20.94V8.04565H462.4V20.9337C462.4 20.9337 462.363 20.9337 462.35 20.9337V20.94Z" fill="#A40600"/>
<path d="M295.308 49.1343C295.295 51.4456 295.289 53.7506 295.276 56.0619C295.038 55.7479 294.994 55.3836 294.994 55.0005C294.994 53.3926 294.994 51.7847 294.994 50.1769C294.994 49.8 295.025 49.4295 295.308 49.1343Z" fill="#A40600"/>
<path d="M282.043 56.0556C282.03 53.7443 282.024 51.4392 282.011 49.1279C282.294 49.4231 282.325 49.7937 282.325 50.1705C282.325 51.7784 282.325 53.3863 282.325 54.9941C282.325 55.3773 282.281 55.7415 282.043 56.0556Z" fill="#A40600"/>
<path d="M169.297 56.0556C169.285 53.7443 169.278 51.4392 169.266 49.1279C169.549 49.4231 169.58 49.7937 169.58 50.1705C169.58 51.7784 169.58 53.3863 169.58 54.9941C169.58 55.3773 169.536 55.7415 169.297 56.0556Z" fill="#A40600"/>
<path d="M41.6287 56.156C43.8834 56.1748 46.1382 56.1937 48.393 56.2062C48.0915 56.47 47.7273 56.5077 47.3504 56.5077C45.7739 56.5077 44.2038 56.5077 42.6273 56.5077C42.2567 56.5077 41.8799 56.5014 41.6287 56.156Z" fill="#A40600"/>
<path d="M164.003 28.3387C163.776 28.144 163.858 27.8739 163.858 27.6353C163.858 24.0364 163.858 20.4376 163.858 16.8387C163.858 16.6 163.776 16.33 164.003 16.1353C164.003 20.2052 164.003 24.2751 164.003 28.3387Z" fill="#A40600"/>
<path d="M402.608 27.2834C402.382 27.0887 402.463 26.8186 402.463 26.58C402.463 23.2826 402.463 19.9852 402.463 16.6815C402.463 16.4429 402.375 16.1728 402.614 15.9844C402.614 19.7528 402.614 23.515 402.608 27.2834Z" fill="#A40600"/>
<path d="M436.781 41.1011H428.547C428.547 41.1011 428.547 41.0508 428.547 41.032H436.794C436.794 41.032 436.794 41.0822 436.787 41.1011H436.781Z" fill="#A40600"/>
<path d="M178.078 22.7927H185.206C185.206 22.7927 185.206 22.843 185.206 22.8618H178.046L178.078 22.7927Z" fill="#A40600"/>
<path d="M384.689 7.84466C384.758 10.1623 384.758 12.4736 384.689 14.7912C384.488 14.653 384.519 14.4457 384.519 14.2447C384.519 12.2914 384.519 10.3381 384.519 8.3848C384.519 8.1901 384.488 7.97656 384.689 7.83838V7.84466Z" fill="#A40600"/>
<path d="M177.431 24.4383C175.12 24.4509 172.808 24.4572 170.503 24.4697C170.616 24.2374 170.83 24.2688 171.024 24.2688C173.003 24.2688 174.981 24.2688 176.966 24.2688C177.142 24.2688 177.324 24.2688 177.437 24.4383H177.431Z" fill="#A40600"/>
<path d="M53.0847 7.84466C53.1538 10.1623 53.1538 12.4736 53.0847 14.7912C52.8837 14.653 52.9151 14.4457 52.9151 14.2447C52.9151 12.2914 52.9151 10.3381 52.9151 8.3848C52.9151 8.1901 52.8837 7.97656 53.0847 7.83838V7.84466Z" fill="#A40600"/>
<path d="M82.2712 8.01416V14.6027C82.2712 14.6027 82.2273 14.6027 82.2021 14.6027V8.01416C82.2021 8.01416 82.2461 8.01416 82.2712 8.01416Z" fill="#A40600"/>
<path d="M101.591 14.7849C101.522 12.4673 101.522 10.156 101.591 7.83838C101.792 7.97656 101.76 8.18382 101.76 8.3848C101.76 10.3381 101.76 12.2914 101.76 14.2447C101.76 14.4394 101.792 14.653 101.591 14.7912V14.7849Z" fill="#A40600"/>
<path d="M104.141 8.05191V14.5776C104.141 14.5776 104.091 14.5776 104.072 14.5776V8.02051C104.072 8.02051 104.122 8.03935 104.141 8.05191Z" fill="#A40600"/>
<path d="M127.964 14.7849C127.895 12.4673 127.895 10.156 127.964 7.83838C128.165 7.97656 128.133 8.18382 128.133 8.3848C128.133 10.3381 128.133 12.2914 128.133 14.2447C128.133 14.4394 128.165 14.653 127.964 14.7912V14.7849Z" fill="#A40600"/>
<path d="M146.084 7.84466C146.153 10.1623 146.153 12.4736 146.084 14.7912C145.883 14.653 145.914 14.4457 145.914 14.2447C145.914 12.2914 145.914 10.3381 145.914 8.3848C145.914 8.1901 145.883 7.97656 146.084 7.83838V7.84466Z" fill="#A40600"/>
<path d="M318.188 14.7849C318.119 12.4673 318.119 10.156 318.188 7.83838C318.389 7.97656 318.358 8.18382 318.358 8.3848C318.358 10.3381 318.358 12.2914 318.358 14.2447C318.358 14.4394 318.389 14.653 318.188 14.7912V14.7849Z" fill="#A40600"/>
<path d="M382.227 8.0457V14.6216C382.227 14.6216 382.177 14.6216 382.158 14.6216V8.02686C382.158 8.02686 382.208 8.03942 382.227 8.0457Z" fill="#A40600"/>
<path d="M408.656 27.654C408.625 27.4719 408.675 27.2646 408.487 27.1327C408.631 26.0211 408.769 24.9156 408.914 23.804C408.958 23.804 409.002 23.8102 409.046 23.8165C409.071 23.9358 409.096 24.0552 409.121 24.1682C409.033 25.3365 408.901 26.4984 408.656 27.6478V27.654Z" fill="#A40600"/>
<path d="M170.497 41.4026C172.808 41.4151 175.119 41.4214 177.424 41.434C177.286 41.635 177.079 41.6036 176.878 41.6036C174.95 41.6036 173.022 41.6036 171.087 41.6036C170.874 41.6036 170.622 41.6664 170.49 41.4026H170.497Z" fill="#A40600"/>
<path d="M51.9794 32.5657V39.1416C51.9794 39.1416 51.9417 39.1416 51.9229 39.1416V32.5657H51.9794Z" fill="#A40600"/>
<path d="M384.689 49.2787C384.77 51.5398 384.745 53.8009 384.701 56.0557C384.481 55.93 384.519 55.7165 384.519 55.5218C384.519 53.6187 384.519 51.7219 384.519 49.8189C384.519 49.6242 384.488 49.4106 384.689 49.2725V49.2787Z" fill="#A40600"/>
<path d="M382.158 55.8609V49.4546C382.158 49.4546 382.208 49.4546 382.227 49.4546V55.8861L382.158 55.8609Z" fill="#A40600"/>
<path d="M339.436 49.4858V55.8608H339.367V49.4607C339.367 49.4607 339.417 49.4795 339.436 49.4921V49.4858Z" fill="#A40600"/>
<path d="M318.176 56.0555C318.132 53.7944 318.107 51.5333 318.188 49.2786C318.389 49.4167 318.358 49.624 318.358 49.825C318.358 51.7281 318.358 53.6248 318.358 55.5279C318.358 55.7226 318.396 55.9361 318.176 56.0618V56.0555Z" fill="#A40600"/>
<path d="M146.084 49.2787C146.165 51.5398 146.14 53.8009 146.096 56.0557C145.876 55.93 145.914 55.7165 145.914 55.5218C145.914 53.6187 145.914 51.7219 145.914 49.8189C145.914 49.6242 145.883 49.4106 146.084 49.2725V49.2787Z" fill="#A40600"/>
<path d="M104.034 55.8608V49.4858H104.103V55.8859L104.034 55.8545V55.8608Z" fill="#A40600"/>
<path d="M416.18 23.5339C413.913 23.6093 411.652 23.603 409.385 23.5339C409.523 23.3329 409.73 23.3643 409.931 23.3643C411.834 23.3643 413.737 23.3643 415.634 23.3643C415.829 23.3643 416.042 23.3329 416.18 23.5339Z" fill="#A40600"/>
<path d="M408.336 27.428C408.254 27.4782 408.172 27.5724 408.091 27.5724C406.401 27.5787 404.705 27.5787 403.016 27.5724C402.934 27.5724 402.846 27.4845 402.765 27.4405C404.624 27.4405 406.483 27.4343 408.342 27.428H408.336Z" fill="#A40600"/>
<path d="M169.435 28.6464C169.266 28.8537 169.027 28.7909 168.807 28.7909C167.463 28.7909 166.119 28.7909 164.781 28.7909C164.568 28.7909 164.329 28.8537 164.153 28.6401C165.912 28.6401 167.671 28.6401 169.429 28.6401L169.435 28.6464Z" fill="#A40600"/>
<path d="M416.023 19.6021C416.162 19.5204 416.168 19.376 416.193 19.2378C416.425 20.0354 416.57 20.8519 416.639 21.6747C416.557 22.0202 416.432 21.8757 416.394 21.6747C416.256 20.9838 416.143 20.293 416.023 19.5958V19.6021Z" fill="#A40600"/>
<path d="M277.803 15.5323C277.973 15.3251 278.211 15.3816 278.425 15.3816C279.719 15.3816 281.013 15.3816 282.306 15.3816C282.52 15.3816 282.765 15.3188 282.922 15.5386C281.214 15.5386 279.505 15.5386 277.797 15.5323H277.803Z" fill="#A40600"/>
<path d="M258.816 15.5324C259.677 15.1995 260.575 15.4193 261.454 15.4005C262.082 15.3879 262.736 15.212 263.345 15.5324C261.837 15.5324 260.33 15.5324 258.823 15.5324H258.816Z" fill="#A40600"/>
<path d="M226.709 52.1427C226.64 52.0862 226.571 52.0234 226.502 51.9668C226.841 51.4644 227.306 51.2132 227.915 51.2571C227.966 51.3011 228.016 51.3513 228.072 51.3953C227.67 51.7407 227.162 51.8852 226.709 52.1427Z" fill="black"/>
<path d="M261.831 48.8328C261.096 49.1594 260.318 48.8956 259.564 48.9772C260.299 48.6506 261.078 48.9082 261.831 48.8328Z" fill="#A40600"/>
<path d="M257.611 23.2199C257.667 22.7677 257.46 22.2841 257.761 21.8633C257.699 22.3155 257.906 22.7991 257.611 23.2199Z" fill="#A40600"/>
<path d="M257.912 20.0543C257.969 19.6021 257.768 19.1185 258.063 18.6914C258 19.1436 258.213 19.6272 257.912 20.0543Z" fill="#A40600"/>
<path d="M257.761 21.5618C257.818 21.1598 257.617 20.7265 257.906 20.3496C257.849 20.7516 258.05 21.1849 257.761 21.5618Z" fill="#A40600"/>
<path d="M258.063 18.2456C258.119 17.8437 257.912 17.4103 258.207 17.0334C258.144 17.4354 258.352 17.8688 258.063 18.2456Z" fill="#A40600"/>
<path d="M257.46 24.4258C257.504 24.1244 257.34 23.7852 257.604 23.5151C257.56 23.8166 257.724 24.1558 257.46 24.4258Z" fill="#A40600"/>
<path d="M170.032 25.7761C169.988 26.0776 170.151 26.4168 169.888 26.6805C169.932 26.3791 169.768 26.0399 170.032 25.7761Z" fill="#A40600"/>
<path d="M283.073 15.6892C283.343 15.8965 283.192 16.1854 283.23 16.4429C282.985 16.2356 283.117 15.9404 283.073 15.6892Z" fill="#A40600"/>
<path d="M169.881 27.1328C169.85 27.3903 169.982 27.673 169.737 27.8928C169.768 27.6353 169.636 27.3526 169.881 27.1328Z" fill="#A40600"/>
<path d="M335.09 18.8484C334.726 18.6286 334.82 19.0745 334.656 19.1436V17.5923C334.945 17.9566 335.065 18.3837 335.09 18.8484Z" fill="#A40600"/>
<path d="M364.603 18.8485C364.465 18.7983 364.32 18.748 364.182 18.6978C364.17 18.2707 364.358 17.9127 364.603 17.5547V18.8485Z" fill="#A40600"/>
<path d="M351.081 34.8203C351.275 34.9711 351.47 34.9522 351.665 34.8203C351.721 35.1595 351.545 35.4358 351.432 35.8064C351.143 35.4798 351.118 35.1469 351.081 34.8203Z" fill="#A40600"/>
<path d="M322.428 49.109C322.729 48.9143 323.024 48.9206 323.326 49.109H322.428Z" fill="#A40600"/>
<path d="M97.408 16.8888C97.6215 17.1275 97.5273 17.4164 97.5273 17.6802C97.5273 24.834 97.5273 31.994 97.5273 39.1478C97.5273 39.4116 97.6278 39.7068 97.3892 39.9329C97.3892 32.9047 97.3892 25.8703 97.3892 18.8422C97.3892 18.189 97.4017 17.5358 97.4143 16.8826L97.408 16.8888Z" fill="#A40600"/>
<path d="M447.527 56.8029C447.408 56.9725 447.232 56.9662 447.056 56.9662C445.706 56.9662 444.362 56.9662 443.012 56.9662C442.836 56.9662 442.66 56.9662 442.541 56.7966C444.199 56.7966 445.863 56.7966 447.521 56.7966L447.527 56.8029Z" fill="#A40600"/>
<path d="M163.72 28.9417C165.774 28.9417 167.821 28.9417 169.875 28.9417C169.837 29.1175 169.699 29.0798 169.58 29.0798C167.721 29.0798 165.868 29.0798 164.009 29.0798C163.89 29.0798 163.751 29.1175 163.72 28.9417Z" fill="#A40600"/>
<path d="M263.96 47.3693C263.954 47.2185 263.935 47.0678 263.935 46.917C263.935 36.3654 263.935 25.8075 263.942 15.2559C264.212 15.3312 264.067 15.5448 264.067 15.6892C264.067 26.0085 264.067 36.3277 264.067 46.647C264.067 46.8919 264.149 47.1494 263.96 47.3693Z" fill="#A40600"/>
<path d="M227.915 51.257C227.444 51.4956 226.973 51.728 226.502 51.9667C223.745 53.0909 220.887 53.7441 217.897 53.7441C207.515 53.7441 198.666 46.1947 196.995 35.9445C196.336 31.8809 196.832 27.968 198.389 24.1682C198.509 23.873 198.597 23.5652 198.697 23.2637C199.438 22.2086 199.985 21.0341 200.77 19.9978C205.254 14.1127 211.183 11.1231 218.588 11.3052C228.487 11.5502 236.884 18.7416 238.75 28.4328C240.489 37.4645 236.281 46.5276 228.242 51.0623C228.135 51.1251 228.028 51.1942 227.922 51.2633L227.915 51.257Z" fill="white"/>
<path d="M215.787 21.4926C216.214 22.0955 216.585 22.6168 216.993 23.1947C219.631 20.4625 222.269 17.7367 224.844 15.0674C224.844 16.2105 224.882 17.385 224.838 18.5595C224.712 21.6873 224.543 24.8151 224.392 27.9366C224.31 29.5884 224.21 31.234 224.153 32.8858C224.115 33.9724 224.599 34.4309 225.686 34.343C228.531 34.1106 231.376 33.8468 234.221 33.6144C234.523 33.5893 234.648 33.4574 234.755 33.1999C235.006 32.6032 235.308 32.0317 235.578 31.4475C235.628 31.3408 235.622 31.1712 235.791 31.2214C236.005 31.2842 235.93 31.4664 235.873 31.5857C235.747 31.8809 235.609 32.1761 235.452 32.4525C234.498 34.1734 234.284 36.133 233.656 37.9607C233.524 38.3438 233.361 38.5448 232.978 38.6829C232.029 39.0221 231.464 39.8135 230.943 40.6111C230.528 41.2455 229.737 41.9866 229.988 42.5833C230.176 43.0292 231.326 42.7591 232.042 42.8031C232.839 42.8596 233.631 42.9224 234.447 42.979C234.29 43.1925 234.096 43.092 233.939 43.092C225.076 43.092 216.208 43.092 207.346 43.092C206.919 43.092 206.793 42.9915 206.806 42.5644C206.837 41.5595 206.793 40.5546 206.825 39.5497C206.837 39.1352 206.724 39.0095 206.297 38.9844C205.198 38.9279 204.099 38.8148 203 38.7081C202.761 38.6829 202.441 38.7583 202.328 38.5071C202.221 38.2559 202.535 38.1428 202.679 37.9921C206.617 33.9159 210.562 29.846 214.512 25.776C214.833 25.4432 215.046 25.0914 215.121 24.6141C215.285 23.6092 215.536 22.6105 215.787 21.48V21.4926Z" fill="#252525"/>
<path d="M206.498 43.0859H200.588C202.566 43.0106 204.538 42.3762 206.517 42.8347C206.517 42.9164 206.504 42.998 206.498 43.0859Z" fill="white"/>
<path d="M217.665 35.5991C216.673 35.9132 216.177 35.5866 216.177 34.6193C216.177 31.435 216.177 28.2507 216.177 25.0663C216.177 24.9407 216.164 24.8151 216.177 24.6895C216.221 24.2624 216.566 24.0112 216.861 23.8667C217.163 23.7223 217.238 24.1619 217.376 24.3692C219.399 27.2458 221.409 30.1223 223.431 32.9989C223.701 33.382 223.833 33.7463 223.783 34.2362C223.663 35.4547 223.607 36.6794 223.563 37.8979C223.55 38.2559 223.431 38.2998 223.123 38.2747C221.478 38.1491 219.832 38.0298 218.18 37.9418C217.778 37.9167 217.615 37.8162 217.653 37.3829C217.697 36.8113 217.665 36.2335 217.665 35.6054V35.5991Z" fill="white"/>
<path d="M224.649 15.7898C224.373 21.5806 224.097 27.1956 223.82 32.9676C223.368 32.3207 222.985 31.7743 222.602 31.2278C220.887 28.7721 219.185 26.3163 217.458 23.8668C217.282 23.6156 217.175 23.4711 217.452 23.1948C219.75 20.8458 222.024 18.4779 224.304 16.1101C224.367 16.0473 224.436 15.9845 224.649 15.7898Z" fill="white"/>
<path d="M202.83 38.3312C206.887 34.1357 210.794 30.1035 214.701 26.0649C214.738 26.0901 214.776 26.1152 214.814 26.1403C214.387 28.2067 213.966 30.273 213.539 32.3331C213.313 33.426 213.055 34.5188 212.86 35.6179C212.791 36.0199 212.666 36.2021 212.245 36.1644C211.925 36.133 211.592 36.1769 211.271 36.1392C210.285 36.0199 210.229 36.0136 210.304 37.0374C210.361 37.8036 210.141 38.0172 209.356 38.0297C207.252 38.0611 205.154 38.2182 202.836 38.3375L202.83 38.3312Z" fill="white"/>
<path d="M215.693 25.054C215.693 28.7156 215.693 32.2203 215.693 35.7249C215.693 36.0452 215.542 36.0892 215.279 36.1018C214.619 36.1332 213.997 35.7877 213.3 35.995C213.011 36.0829 213.131 35.6998 213.162 35.5428C213.759 32.6222 214.349 29.7017 214.99 26.7874C215.109 26.241 215.015 25.5815 215.681 25.054H215.693Z" fill="white"/>
<path d="M234.177 34.8394C234.083 35.2727 234.008 35.6558 233.913 36.0327C233.819 36.4347 233.474 36.3781 233.185 36.4033C231.043 36.5603 228.908 36.8052 226.772 37.1821C226.621 36.7173 226.892 36.2902 226.854 35.8443C226.822 35.4611 227.137 35.5805 227.331 35.5616C229.573 35.323 231.809 35.0906 234.171 34.8456L234.177 34.8394Z" fill="white"/>
<path d="M223.387 38.5763C223.337 39.4242 222.979 39.7005 222.187 39.6566C220.837 39.5812 219.474 39.6314 218.117 39.6377C217.15 39.6377 217.816 38.9406 217.684 38.5888C217.533 38.1869 217.854 38.2183 218.174 38.2371C219.895 38.3627 221.622 38.4632 223.387 38.57V38.5763Z" fill="white"/>
<path d="M223.852 38.011C224.084 36.6983 223.921 35.4422 224.122 34.0227C224.894 35.103 225.585 36.0702 226.264 37.05C226.433 37.2887 226.201 37.3452 226.025 37.3703C225.309 37.4771 224.637 37.7283 223.852 38.011Z" fill="white"/>
<path d="M212.678 36.4973C212.647 36.6104 212.622 36.7046 212.597 36.7925C212.345 37.8917 212.038 38.0989 210.888 37.9859C210.681 37.967 210.568 37.9356 210.574 37.6969C210.587 37.251 210.574 36.8114 210.574 36.3152C211.297 36.5539 211.975 36.4345 212.672 36.4973H212.678Z" fill="white"/>
<path d="M214.682 37.8853C214.424 37.7911 213.733 38.2559 213.915 37.4394C213.997 37.0626 213.545 36.2963 214.324 36.3842C214.751 36.4282 215.705 35.8253 215.718 37.0751C215.731 37.9167 215.41 38.0738 214.675 37.8916L214.682 37.8853Z" fill="white"/>
<path d="M217.345 36.064C217.345 36.5413 217.326 37.0124 217.351 37.4834C217.37 37.7974 217.213 37.9231 216.968 37.8289C216.704 37.7346 216.302 38.1743 216.17 37.6404C215.976 36.8051 216.17 36.334 216.761 36.1896C216.949 36.1456 217.138 36.1079 217.345 36.064Z" fill="white"/>
<path d="M213.595 37.006C213.595 37.2572 213.608 37.4331 213.595 37.6089C213.558 38.0612 213.206 37.9041 212.961 37.8979C212.622 37.8916 212.735 37.678 212.81 37.4771C212.86 37.3389 212.81 37.1567 212.873 37.0374C213.017 36.7799 212.835 36.2146 213.407 36.334C213.878 36.4282 213.401 36.8615 213.595 37.006Z" fill="white"/>
<path d="M213.589 38.8527C213.457 39.1353 213.746 39.6378 213.325 39.6189C212.842 39.6001 213.074 39.0725 213.049 38.7647C213.03 38.5575 212.892 38.1869 213.3 38.1932C213.865 38.212 213.407 38.6705 213.589 38.8527Z" fill="white"/>
<path d="M230.139 37.9921C230.252 38.438 230.013 38.5134 229.793 38.4945C229.322 38.4506 229.504 38.0172 229.423 37.7534C229.341 37.4896 229.473 37.3452 229.774 37.3766C230.277 37.4331 230.063 37.8539 230.132 37.9921H230.139Z" fill="white"/>
<path d="M228.82 38.1931C228.933 38.5449 228.87 38.7459 228.518 38.7396C227.941 38.7333 228.299 38.256 228.173 38.0173C227.978 37.6467 228.33 37.5776 228.544 37.5776C229.077 37.5776 228.669 38.0487 228.814 38.1931H228.82Z" fill="white"/>
<path d="M225.654 38.5448C225.573 38.2245 225.711 38.0173 226.018 38.0549C226.515 38.1115 226.289 38.5888 226.395 38.8589C226.496 39.1038 226.295 39.198 226.05 39.1918C225.566 39.1792 225.711 38.7961 225.654 38.5448Z" fill="white"/>
<path d="M232.324 37.5965C232.13 37.138 232.305 36.9308 232.626 36.9559C233.128 36.9936 232.827 37.4646 232.946 37.7159C233.091 38.0236 232.833 38.1053 232.601 38.1178C232.035 38.1618 232.419 37.6719 232.318 37.5902L232.324 37.5965Z" fill="white"/>
<path d="M225.039 38.8904C225.19 39.2547 225.077 39.4431 224.762 39.4556C224.185 39.4745 224.524 38.9971 224.417 38.7585C224.273 38.4382 224.48 38.2937 224.769 38.2937C225.328 38.2937 224.894 38.7648 225.039 38.8904Z" fill="white"/>
<path d="M227.658 38.6139C227.727 38.8275 227.538 38.9782 227.249 38.928C226.785 38.8463 227.011 38.3878 226.904 38.1115C226.785 37.8037 227.08 37.8351 227.268 37.8351C227.777 37.8351 227.57 38.2371 227.658 38.6139Z" fill="white"/>
<path d="M231.527 37.7722C231.552 38.0925 231.589 38.2998 231.225 38.2935C230.691 38.281 230.892 37.8413 230.798 37.5901C230.691 37.3012 230.886 37.2007 231.15 37.2007C231.646 37.2007 231.382 37.6592 231.527 37.7722Z" fill="white"/>
<path d="M217.364 38.953C217.364 39.1289 217.37 39.2984 217.364 39.4743C217.351 39.6376 217.213 39.6816 217.1 39.6376C216.679 39.4492 216.968 39.0849 216.93 38.8086C216.899 38.595 216.792 38.2873 217.113 38.1679C217.244 38.1177 217.345 38.2307 217.351 38.3689C217.364 38.5636 217.351 38.7646 217.351 38.9593H217.364V38.953Z" fill="white"/>
<path d="M214.493 38.9218C214.493 38.8213 214.481 38.7208 214.493 38.6203C214.519 38.4696 214.405 38.2247 214.688 38.2184C215.002 38.2121 214.933 38.4696 214.946 38.658C214.958 38.859 214.946 39.06 214.958 39.261C214.971 39.4682 215.002 39.6629 214.682 39.6504C214.299 39.6378 214.519 39.3803 214.487 39.2233C214.468 39.1291 214.487 39.0223 214.487 38.9218H214.493Z" fill="white"/>
<path d="M216.61 38.884C216.61 39.1164 216.616 39.2923 216.61 39.4619C216.604 39.6314 216.478 39.6377 216.346 39.6377C216.227 39.6377 216.164 39.5686 216.164 39.4556C216.164 39.2797 216.139 39.1038 216.164 38.9343C216.214 38.6768 215.957 38.2057 216.415 38.2183C216.83 38.2308 216.491 38.7019 216.61 38.8777V38.884Z" fill="white"/>
<path d="M215.222 38.8715C215.373 38.6705 215.027 38.2183 215.486 38.2371C215.9 38.256 215.706 38.6894 215.68 38.9155C215.655 39.1541 215.969 39.6377 215.454 39.6126C215.008 39.5875 215.404 39.1102 215.222 38.8778V38.8715Z" fill="white"/>
<path d="M212.622 38.1304C212.911 38.6077 212.728 39.0222 212.823 39.4054C212.898 39.6943 212.672 39.644 212.502 39.6566C212.257 39.6754 212.195 39.5498 212.257 39.3363C212.37 38.9594 212.483 38.5826 212.622 38.1304Z" fill="white"/>
<path d="M226.433 36.6166C226.163 36.3466 225.811 36.1205 225.855 35.7499C225.874 35.5866 226.333 35.5112 226.439 35.618C226.753 35.9132 226.433 36.2712 226.439 36.6166H226.433Z" fill="white"/>
<path d="M214.223 38.8903C214.091 39.1478 214.393 39.5624 214.01 39.6063C213.683 39.644 213.84 39.2609 213.834 39.0725C213.834 38.7961 213.696 38.3376 214.041 38.3062C214.38 38.2811 214.041 38.7207 214.223 38.884V38.8903Z" fill="white"/>
<path d="M216.189 23.917C216.189 23.5402 216.189 23.1759 216.189 22.8179C216.662 23.1863 216.662 23.5527 216.189 23.917Z" fill="#A40600"/>
<path d="M215.586 23.9106C215.687 24.187 215.85 24.4633 215.467 24.7271C215.517 24.4005 215.555 24.1556 215.586 23.9106Z" fill="#A40600"/>
<path d="M228.336 42.7217C228.795 42.6463 229.033 42.6212 229.341 42.7342C229.021 42.8347 228.776 42.8285 228.336 42.7217Z" fill="#252525"/>
</svg>
