<?xml version="1.0" encoding="UTF-8"?>
<svg width="155px" height="40px" viewBox="0 0 155 40" version="1.1" xmlns="http://www.w3.org/2000/svg" xmlns:xlink="http://www.w3.org/1999/xlink">
    <!-- Generator: Sketch 46.2 (44496) - http://www.bohemiancoding.com/sketch -->
    <title>logo-purple@2x</title>
    <desc>Created with Sketch.</desc>
    <defs>
        <polygon id="path-1" points="154.657139 0 0 0 0 39.5532093 154.657139 39.5532093 154.657139 6.60969987e-15"></polygon>
    </defs>
    <g id="Design" stroke="none" stroke-width="1" fill="none" fill-rule="evenodd">
        <g id="Home---Old-grid" transform="translate(-52.000000, -51.000000)">
            <g id="logo-purple" transform="translate(52.000000, 51.000000)">
                <g id="Logo">
                    <mask id="mask-2" fill="white">
                        <use xlink:href="#path-1"></use>
                    </mask>
                    <g id="Clip-2"></g>
                    <path d="M70.2572006,38.0341395 L73.279965,38.0341395 L73.279965,39.1969302 L62.3622542,39.1969302 L62.3622542,38.0341395 L65.2239162,38.0341395 L65.2239162,22.8992558 C65.169905,20.6378605 65.1177563,20.1978605 65.0115964,19.6425116 C64.4835904,17.383907 62.6798028,17.1085581 61.886397,17.1085581 C60.7186378,17.1085581 59.4987298,17.6043721 58.4920729,18.4313488 C56.0029019,20.5829767 55.9507532,23.8927442 55.896742,28.0815814 L55.896742,38.0341395 L58.9716551,38.0341395 L58.9716551,39.1969302 L50.7712661,39.1969302 L50.7712661,26.1643721 C50.4378866,26.3094884 50.0933325,26.4350698 49.7320162,26.5569302 C48.3547308,26.9634419 46.7623318,27.1550698 45.3384851,27.2248372 L45.3384851,34.7541395 C45.3384851,36.6266977 45.3384851,37.9522791 46.5574618,37.9522791 C47.2465701,37.9522791 47.8295185,37.2899535 48.200147,36.9569302 L48.8371066,37.7299535 C48.3072382,38.2862326 47.0873302,39.5532093 44.8626278,39.5532093 C43.6948686,39.5532093 42.5811206,39.1671628 41.788646,38.5057674 C40.5668756,37.4546047 40.4094981,36.0787907 40.3033382,34.9746047 C39.1365102,37.4025116 36.8047166,39.5532093 33.2017976,39.5532093 C29.8624159,39.5532093 27.2130738,37.5699535 27.2130738,34.1476279 C27.2130738,30.7829767 29.6510273,28.4136744 33.2017976,27.2546047 C35.5335911,26.5383256 38.4483331,26.3187907 40.4094981,26.3187907 L40.4094981,20.8015814 C40.3033382,19.2053023 40.1990407,16.6136744 36.7013504,16.6136744 C34.3155456,16.6136744 32.3543806,18.1029767 32.3543806,18.9262326 C32.3543806,19.5913488 33.4662662,20.3104186 33.4662662,21.5746047 C33.4662662,22.7904186 32.4605405,23.9485581 31.0283127,23.9485581 C29.5979473,23.9485581 28.6955879,22.7336744 28.6955879,21.3541395 C28.6955879,18.651814 32.1420607,15.5085581 37.4938249,15.5085581 C40.0388696,15.5085581 42.5280406,16.3913488 43.8513148,17.7169302 C45.3384851,19.3141395 45.3384851,21.1327442 45.3384851,23.2294884 L45.3384851,26.2229767 C48.2439147,25.8722791 50.7451917,24.5215814 50.7451917,21.0555349 C50.7451917,18.7234419 49.567189,17.0471628 48.0856061,17.0471628 L47.4169848,17.0471628 L47.4169848,15.8657674 L55.896742,15.8657674 L55.896742,19.4797209 C58.5460841,15.620186 62.1490032,15.5094884 63.0522938,15.5094884 C65.169905,15.5094884 67.2381612,16.3922791 68.5092867,17.7708837 C69.2524062,18.5987907 70.2572006,19.8108837 70.2572006,23.6713488 L70.2572006,38.0341395 Z M40.4094981,27.3104186 C36.2757794,27.3671628 32.1960719,28.6322791 32.1960719,33.156 C32.1960719,35.8583256 33.8387572,37.0127442 35.5335911,37.0127442 C37.0179677,37.0127442 38.0246246,36.1922791 38.5014131,35.7466977 C40.1990407,34.036 40.3033382,32.1094884 40.4094981,29.2973953 L40.4094981,27.3104186 Z M151.211597,15.6750698 C149.146135,15.6750698 147.502518,16.888093 146.283542,18.7076279 C145.539491,19.8666977 145.222874,20.7457674 144.959336,21.5225116 L144.959336,15.8657674 L136.742185,15.8657674 L136.742185,17.023907 L139.923258,17.023907 L139.923258,38.0341395 L136.795265,38.0341395 L136.795265,39.196 L147.928089,39.1941395 L147.928089,38.0350698 L144.959336,38.0350698 L144.959336,31.0043721 C145.008691,27.420186 145.065496,24.4425116 146.54801,20.7457674 C147.659896,17.9857674 148.669346,17.9364651 148.773644,17.9364651 C149.305375,17.9364651 149.305375,18.2090233 149.409672,19.371814 C149.56705,20.8583256 150.47034,21.7978605 151.899774,21.7978605 C153.54246,21.7978605 154.657139,20.5262326 154.657139,18.9271628 C154.657139,16.9997209 153.174625,15.6750698 151.211597,15.6750698 L151.211597,15.6750698 Z M121.534309,25.7132093 L121.534309,28.0815814 C121.534309,31.3913488 121.534309,32.4369302 121.693549,33.596 C121.849996,34.423907 122.4376,38.340186 126.780845,38.340186 C130.914564,38.340186 133.777157,34.7541395 134.360105,31.3355349 L135.6303,31.3355349 C135.100431,35.3076279 131.761981,39.5532093 126.568525,39.5532093 C121.267978,39.5532093 115.703894,34.7541395 115.703894,27.6964651 C115.703894,21.3513488 120.418699,15.5085581 126.355274,15.5085581 C130.491786,15.5085581 135.6303,18.3243721 136.108019,25.7132093 L121.534309,25.7132093 Z M130.225455,24.5541395 L130.225455,22.4015814 C130.172375,20.3066977 130.118364,16.7206512 126.093599,16.7206512 C125.510651,16.7206512 124.183652,16.7755349 123.068972,17.7708837 C121.586458,19.036 121.534309,20.8573953 121.534309,22.5141395 L121.480298,24.5541395 L130.225455,24.5541395 Z M117.207827,15.8657674 L109.734726,15.8657674 L109.734726,17.023907 L113.495954,17.023907 L107.722344,33.2657674 C107.242762,31.4453023 101.838849,17.023907 101.838849,17.023907 L105.445493,17.023907 L105.445493,15.8657674 L94.2055772,15.8657674 L94.2055772,17.023907 L96.4340045,17.023907 L104.913762,39.5532093 L106.873996,39.5532093 L114.983124,17.023907 L117.207827,17.023907 L117.207827,15.8657674 Z M84.4835625,15.5094884 C90.3651952,15.5094884 95.6676043,20.5262326 95.6676043,27.5299535 C95.6676043,34.6425116 90.2068865,39.5532093 84.4835625,39.5532093 C78.3858851,39.5532093 73.0909258,34.3671628 73.0909258,27.583907 C73.0909258,20.6946047 78.3858851,15.5094884 84.4835625,15.5094884 L84.4835625,15.5094884 Z M88.141424,36.8508837 C89.5187094,35.3634419 89.6779493,33.7643721 89.6779493,27.583907 C89.6779493,26.0955349 89.6779493,24.608093 89.6248693,23.0657674 C89.5708582,21.6294884 89.4656294,19.6415814 88.1935727,18.2090233 C87.3992357,17.383907 86.127179,16.7764651 84.5357113,16.7764651 C83.0531972,16.7764651 81.726198,17.2722791 80.8266323,18.1029767 C78.9716272,19.811814 78.9716272,21.6871628 78.9716272,28.7429767 C78.9716272,32.9904186 79.0247072,35.3085581 80.8266323,36.9625116 C81.6759118,37.7904186 83.0001172,38.2862326 84.4835625,38.2862326 C86.8162873,38.2862326 87.9300354,37.0685581 88.141424,36.8508837 L88.141424,36.8508837 Z M26.8629323,38.0350698 L26.8685196,39.1950698 L15.7347641,39.1950698 L15.7310392,38.0350698 L18.6467124,38.0350698 L18.5880451,22.5476279 C18.5759391,20.2294884 18.6169131,17.1420465 15.0139941,17.1578605 C14.4850569,17.1606512 12.1514009,17.1708837 10.3606505,19.5494884 C8.72541505,21.7625116 8.62856739,23.968093 8.53916956,28.436 L8.57734988,38.0350698 L11.4930231,38.0350698 L11.4976792,39.1950698 L0.367648601,39.1950698 L0.362061236,38.0350698 L3.43790553,38.0350698 L3.29170282,1.17088372 L0.0044698918,1.17088372 L-0.000186245492,-0.000279069767 L8.42649103,-0.000279069767 L8.50471414,19.4453023 C9.40055496,18.2294884 11.8273337,15.5150698 16.544932,15.4955349 C19.5118227,15.4815814 21.4767126,16.5243721 22.4880257,17.6750698 C23.7144522,19.1057674 23.7740508,21.3634419 23.7805694,22.8508837 L23.8410992,38.0350698 L26.8629323,38.0350698 Z" id="Fill-1" fill="#312159" mask="url(#mask-2)"></path>
                </g>
            </g>
        </g>
    </g>
</svg>