<?xml version="1.0" encoding="utf-8"?>
<!-- Generator: Adobe Illustrator 21.1.0, SVG Export Plug-In . SVG Version: 6.00 Build 0)  -->
<svg version="1.1" id="レイヤー_4のコピー_3"
	 xmlns="http://www.w3.org/2000/svg" xmlns:xlink="http://www.w3.org/1999/xlink" x="0px" y="0px" width="1659.4px"
	 height="105.3px" viewBox="0 0 1659.4 105.3" style="enable-background:new 0 0 1659.4 105.3;" xml:space="preserve">
<style type="text/css">
	.st0{fill:#3C3C3B;}
</style>
<path class="st0" d="M60.1,10.1c4.5,1.5,9.2,2.6,13.3,4.8c11.2,6,19.6,17.6,21.8,29.6c1.7,4.3,6.2,7.6,10.8,8
	c-4.3,0.3-8.2,3-10.3,6.8c-2,6.4-4,12.6-8.1,18.1c-6.5,8.9-16.1,15-26.5,17.1c-4.3,1.7-7.9,5.9-8.3,10.5c-0.4-4-3-7.9-6.7-9.9
	c-4.1-1.6-8.4-2.3-12.3-4.4c-10.4-4.9-19.2-15.7-22.1-26.5c-0.8-3.8-2.4-7.6-6.3-9.8c-1.6-1-3.4-1.6-5.4-1.8
	c4.4-0.4,8.4-3.1,10.5-7.2c1.3-4.3,2.3-8.6,4.5-12.5c6-11.9,18-19.9,30.3-22.4c4.1-1.7,7.4-5.9,7.8-10.3
	C53.6,4.1,56.3,8.1,60.1,10.1 M48.6,18.7c-6.8,0.8-12.7,3.5-18,7.9l0.1,0.1l17.9-0.1V18.7z M57.4,18.7v8.1l17.9-0.1
	C70.2,22.1,64.2,19.5,57.4,18.7 M23.3,35.5c-5.8,9.5-6.3,24.6,0,34l10.1-0.1c-2.3-2.8-4-5.8-5.1-9.1c-2.6-8.7-0.6-18.3,5.2-24.8
	H23.3z M58.8,36.4c-6-2.1-12.9-0.8-17.5,3.5c-4.7,4.5-6.6,10.9-4.9,17.3c1.4,5.8,7.4,11.2,13.4,12c6.9,1.1,13-1.6,17.1-7
	c3.7-4.9,4.1-13.2,0.6-18.5C65.6,40.4,62.3,37.7,58.8,36.4 M72.4,35.5c1.9,2.6,3.7,5.3,4.8,8.2c3.2,8.7,1.1,19-4.9,25.8l10.3-0.1
	c6-9.5,6-24.4,0-33.9H72.4z M54.6,44.1c-3-0.4-5.9,0.4-8,2.6c-2,2.3-2.8,5.6-1.8,8.6c1,3.2,4.4,5.4,7.6,5.6c3.3,0,6.7-1.7,8.2-4.8
	c1.4-2.9,0.9-6.9-1.3-9.2C58,45.6,56.4,44.5,54.6,44.1 M31.5,78l-1.1,0.1c3.2,2.8,6.7,4.9,10.5,6.3c11.6,4.6,25.5,1.6,34.4-6.3
	L31.5,78z"/>
<g>
	<path class="st0" d="M129.4,18.6v26.1H157V18.6h15v68.1h-15V57.3h-27.6v29.4h-15V18.6H129.4z"/>
	<path class="st0" d="M179.3,29.8V18.6h13.5v11.2H179.3z M192.9,37.4v49.3h-13.5V37.4H192.9z"/>
	<path class="st0" d="M228.8,37.4v9.1h-9.9v24.4c0,2.3,0.4,3.8,1.1,4.6s2.3,1.1,4.6,1.1c0.8,0,1.5,0,2.2-0.1c0.7-0.1,1.4-0.2,2-0.3
		v10.5c-1.1,0.2-2.4,0.3-3.8,0.4c-1.4,0.1-2.8,0.1-4.1,0.1c-2.1,0-4.1-0.1-6-0.4c-1.9-0.3-3.5-0.8-5-1.7c-1.4-0.8-2.6-2-3.4-3.5
		c-0.8-1.5-1.2-3.5-1.2-6V46.5h-8.2v-9.1h8.2V22.6h13.5v14.8H228.8z"/>
	<path class="st0" d="M233.8,52.6c0.2-3.2,1-5.8,2.4-7.9c1.4-2.1,3.2-3.8,5.3-5.1c2.2-1.3,4.6-2.2,7.3-2.7c2.7-0.5,5.4-0.8,8.2-0.8
		c2.5,0,5,0.2,7.5,0.5c2.5,0.4,4.9,1,7,2.1s3.8,2.4,5.2,4.2c1.3,1.8,2,4.2,2,7.2v25.7c0,2.2,0.1,4.4,0.4,6.4c0.3,2,0.7,3.6,1.3,4.6
		h-13.7c-0.3-0.8-0.5-1.5-0.6-2.3c-0.2-0.8-0.3-1.6-0.3-2.4c-2.2,2.2-4.7,3.8-7.6,4.7c-2.9,0.9-5.9,1.3-9,1.3
		c-2.4,0-4.5-0.3-6.6-0.9c-2-0.6-3.8-1.5-5.3-2.7c-1.5-1.2-2.7-2.7-3.6-4.6c-0.9-1.8-1.3-4-1.3-6.6c0-2.8,0.5-5.1,1.5-6.9
		c1-1.8,2.3-3.3,3.8-4.3c1.6-1.1,3.3-1.9,5.3-2.4c2-0.5,4-1,6.1-1.3c2-0.3,4-0.6,6-0.8c2-0.2,3.7-0.5,5.2-0.9
		c1.5-0.4,2.7-0.9,3.6-1.7c0.9-0.7,1.3-1.8,1.2-3.2c0-1.5-0.2-2.6-0.7-3.5c-0.5-0.9-1.1-1.5-1.9-2c-0.8-0.5-1.7-0.8-2.8-1
		c-1-0.2-2.2-0.2-3.4-0.2c-2.7,0-4.8,0.6-6.3,1.7c-1.5,1.1-2.4,3.1-2.7,5.7H233.8z M265.1,62.6c-0.6,0.5-1.3,0.9-2.1,1.2
		c-0.9,0.3-1.8,0.5-2.8,0.7c-1,0.2-2,0.4-3.1,0.5c-1.1,0.1-2.2,0.3-3.2,0.5c-1,0.2-2,0.4-3,0.8c-1,0.3-1.8,0.7-2.6,1.3
		c-0.7,0.5-1.3,1.2-1.8,2.1c-0.4,0.8-0.7,1.9-0.7,3.1c0,1.2,0.2,2.2,0.7,3.1c0.4,0.8,1,1.5,1.8,2c0.8,0.5,1.7,0.8,2.7,1
		c1,0.2,2.1,0.3,3.1,0.3c2.7,0,4.7-0.4,6.2-1.3c1.5-0.9,2.5-2,3.2-3.2c0.7-1.2,1.1-2.5,1.3-3.8c0.2-1.3,0.2-2.3,0.2-3.1V62.6z"/>
	<path class="st0" d="M309.8,46.3c-2.2,0-4,0.5-5.4,1.5c-1.5,1-2.7,2.3-3.6,3.8c-0.9,1.6-1.6,3.3-2,5.2c-0.4,1.9-0.6,3.7-0.6,5.6
		c0,1.8,0.2,3.6,0.6,5.4c0.4,1.8,1,3.5,1.9,5c0.9,1.5,2,2.7,3.5,3.7c1.5,1,3.2,1.4,5.3,1.4c3.2,0,5.7-0.9,7.5-2.7
		c1.7-1.8,2.8-4.2,3.3-7.3h13.1c-0.9,6.6-3.4,11.5-7.6,15c-4.2,3.4-9.6,5.2-16.1,5.2c-3.7,0-7.1-0.6-10.2-1.9
		c-3.1-1.2-5.7-3-7.9-5.2c-2.2-2.2-3.8-4.9-5.1-8c-1.2-3.1-1.8-6.5-1.8-10.2c0-3.8,0.6-7.4,1.7-10.6c1.1-3.3,2.8-6.1,4.9-8.5
		c2.2-2.4,4.8-4.2,7.9-5.6c3.1-1.3,6.7-2,10.7-2c2.9,0,5.7,0.4,8.4,1.1c2.7,0.8,5.1,1.9,7.3,3.5c2.1,1.6,3.9,3.5,5.2,5.8
		c1.3,2.3,2.1,5.1,2.3,8.3h-13.3C319,49.1,315.6,46.3,309.8,46.3z"/>
	<path class="st0" d="M351.2,18.6v25.7h0.3c1.7-2.9,3.9-4.9,6.6-6.2s5.3-2,7.8-2c3.6,0,6.6,0.5,8.9,1.5c2.3,1,4.2,2.4,5.5,4.1
		c1.3,1.8,2.3,3.9,2.8,6.4c0.5,2.5,0.8,5.3,0.8,8.3v30.3h-13.5V58.9c0-4.1-0.6-7.1-1.9-9.1c-1.3-2-3.5-3-6.8-3c-3.7,0-6.4,1.1-8,3.3
		c-1.7,2.2-2.5,5.8-2.5,10.8v25.9h-13.5V18.6H351.2z"/>
	<path class="st0" d="M390.5,29.8V18.6H404v11.2H390.5z M404,37.4v49.3h-13.5V37.4H404z"/>
	<path class="st0" d="M450.1,18.6v26.1h27.6V18.6h15v68.1h-15V57.3h-27.6v29.4h-15V18.6H450.1z"/>
	<path class="st0" d="M499,29.8V18.6h13.5v11.2H499z M512.6,37.4v49.3H499V37.4H512.6z"/>
	<path class="st0" d="M566.2,90.4c-0.5,2.5-1.7,4.9-3.5,7.1c-1.8,2.2-4.4,4.1-7.7,5.6c-3.4,1.5-7.9,2.3-13.5,2.3
		c-2.4,0-4.9-0.3-7.4-0.9c-2.5-0.6-4.8-1.5-6.9-2.8c-2.1-1.3-3.8-2.9-5.2-4.9c-1.4-2-2.1-4.4-2.3-7.2h13.5c0.6,2.5,1.9,4.3,3.7,5.3
		c1.8,1,4,1.5,6.4,1.5c3.8,0,6.6-1.1,8.3-3.4c1.7-2.3,2.6-5.2,2.5-8.7v-6.5h-0.2c-1.5,2.6-3.5,4.5-6.2,5.8c-2.7,1.2-5.6,1.9-8.5,1.9
		c-3.7,0-6.9-0.7-9.5-2c-2.7-1.3-4.9-3.1-6.6-5.3c-1.7-2.3-3-4.9-3.8-7.9c-0.8-3-1.2-6.2-1.2-9.6c0-3.2,0.5-6.2,1.4-9.2
		c0.9-3,2.3-5.6,4.1-7.8c1.8-2.3,4-4.1,6.6-5.4c2.6-1.3,5.7-2,9.1-2c3.2,0,6.1,0.6,8.5,1.8c2.4,1.2,4.5,3.2,6.2,6.1h0.2v-6.6H567
		v46.2C567,85.6,566.7,87.8,566.2,90.4z M547.6,73.9c1.5-0.8,2.7-1.8,3.6-3.1c1-1.3,1.7-2.7,2.1-4.3c0.5-1.6,0.7-3.3,0.7-5.1
		c0-2-0.2-4-0.6-5.8c-0.4-1.8-1-3.4-1.9-4.8c-0.9-1.4-2.1-2.5-3.5-3.3c-1.5-0.8-3.3-1.2-5.5-1.2c-1.9,0-3.5,0.4-4.9,1.1
		c-1.4,0.8-2.5,1.8-3.4,3.1c-0.9,1.3-1.6,2.8-2,4.5c-0.4,1.7-0.6,3.5-0.6,5.3c0,1.8,0.2,3.5,0.5,5.3c0.3,1.8,1,3.3,1.8,4.7
		c0.9,1.4,2,2.5,3.4,3.4c1.4,0.9,3.1,1.3,5.2,1.3C544.5,75.1,546.1,74.7,547.6,73.9z"/>
	<path class="st0" d="M588.6,18.6v25.7h0.3c1.7-2.9,3.9-4.9,6.6-6.2s5.3-2,7.8-2c3.6,0,6.6,0.5,8.9,1.5c2.3,1,4.2,2.4,5.5,4.1
		c1.3,1.8,2.3,3.9,2.8,6.4c0.5,2.5,0.8,5.3,0.8,8.3v30.3h-13.5V58.9c0-4.1-0.6-7.1-1.9-9.1c-1.3-2-3.5-3-6.8-3c-3.7,0-6.4,1.1-8,3.3
		c-1.7,2.2-2.5,5.8-2.5,10.8v25.9h-13.5V18.6H588.6z"/>
	<path class="st0" d="M658.5,54.9v11.6h-28.7V54.9H658.5z"/>
	<path class="st0" d="M656.2,31.2V18.6H712v12.6h-20.4v55.5h-15V31.2H656.2z"/>
	<path class="st0" d="M725.8,74.9c2,2,5,3,8.8,3c2.7,0,5.1-0.7,7.1-2.1c2-1.4,3.2-2.8,3.6-4.3h11.9c-1.9,5.9-4.8,10.1-8.8,12.7
		c-3.9,2.5-8.7,3.8-14.3,3.8c-3.9,0-7.4-0.6-10.5-1.9c-3.1-1.2-5.8-3-7.9-5.3c-2.2-2.3-3.8-5-5-8.2c-1.2-3.2-1.8-6.7-1.8-10.5
		c0-3.7,0.6-7.1,1.8-10.3c1.2-3.2,2.9-5.9,5.2-8.3c2.2-2.3,4.9-4.2,8-5.5c3.1-1.3,6.5-2,10.3-2c4.2,0,7.9,0.8,11,2.4
		c3.1,1.6,5.7,3.8,7.7,6.5c2,2.7,3.5,5.9,4.3,9.4c0.9,3.5,1.2,7.2,1,11h-35.6C722.7,69.7,723.8,72.9,725.8,74.9z M741.1,48.9
		c-1.6-1.8-4.1-2.7-7.4-2.7c-2.2,0-4,0.4-5.4,1.1c-1.4,0.7-2.6,1.6-3.4,2.7c-0.9,1.1-1.5,2.2-1.8,3.4c-0.3,1.2-0.6,2.3-0.6,3.2h22
		C743.9,53.3,742.8,50.7,741.1,48.9z"/>
	<path class="st0" d="M786.8,46.3c-2.2,0-4,0.5-5.4,1.5c-1.5,1-2.7,2.3-3.6,3.8c-0.9,1.6-1.6,3.3-2,5.2c-0.4,1.9-0.6,3.7-0.6,5.6
		c0,1.8,0.2,3.6,0.6,5.4c0.4,1.8,1,3.5,1.9,5c0.9,1.5,2,2.7,3.5,3.7c1.5,1,3.2,1.4,5.3,1.4c3.2,0,5.7-0.9,7.5-2.7
		c1.7-1.8,2.8-4.2,3.3-7.3h13.1c-0.9,6.6-3.4,11.5-7.6,15c-4.2,3.4-9.6,5.2-16.1,5.2c-3.7,0-7.1-0.6-10.2-1.9
		c-3.1-1.2-5.7-3-7.9-5.2c-2.2-2.2-3.8-4.9-5.1-8c-1.2-3.1-1.8-6.5-1.8-10.2c0-3.8,0.6-7.4,1.7-10.6c1.1-3.3,2.8-6.1,4.9-8.5
		c2.2-2.4,4.8-4.2,7.9-5.6c3.1-1.3,6.7-2,10.7-2c2.9,0,5.7,0.4,8.4,1.1c2.7,0.8,5.1,1.9,7.3,3.5c2.1,1.6,3.9,3.5,5.2,5.8
		c1.3,2.3,2.1,5.1,2.3,8.3h-13.3C795.9,49.1,792.6,46.3,786.8,46.3z"/>
	<path class="st0" d="M828.2,18.6v25.7h0.3c1.7-2.9,3.9-4.9,6.6-6.2s5.3-2,7.8-2c3.6,0,6.6,0.5,8.9,1.5c2.3,1,4.2,2.4,5.5,4.1
		c1.3,1.8,2.3,3.9,2.8,6.4c0.5,2.5,0.8,5.3,0.8,8.3v30.3h-13.5V58.9c0-4.1-0.6-7.1-1.9-9.1c-1.3-2-3.5-3-6.8-3c-3.7,0-6.4,1.1-8,3.3
		c-1.7,2.2-2.5,5.8-2.5,10.8v25.9h-13.5V18.6H828.2z"/>
	<path class="st0" d="M923.6,18.6l25.5,68.1h-15.6l-5.2-15.2h-25.5l-5.3,15.2h-15.1l25.8-68.1H923.6z M924.5,60.4l-8.6-25h-0.2
		l-8.9,25H924.5z"/>
	<path class="st0" d="M962.2,37.4v6.9h0.3c1.7-2.9,3.9-4.9,6.7-6.2c2.7-1.3,5.5-2,8.4-2c3.6,0,6.6,0.5,8.9,1.5
		c2.3,1,4.2,2.4,5.5,4.1c1.3,1.8,2.3,3.9,2.8,6.4c0.5,2.5,0.8,5.3,0.8,8.3v30.3H982V58.9c0-4.1-0.6-7.1-1.9-9.1c-1.3-2-3.5-3-6.8-3
		c-3.7,0-6.4,1.1-8,3.3c-1.7,2.2-2.5,5.8-2.5,10.8v25.9h-13.5V37.4H962.2z"/>
	<path class="st0" d="M1002,52.6c0.2-3.2,1-5.8,2.4-7.9c1.4-2.1,3.2-3.8,5.3-5.1c2.2-1.3,4.6-2.2,7.3-2.7c2.7-0.5,5.4-0.8,8.2-0.8
		c2.5,0,5,0.2,7.5,0.5c2.5,0.4,4.9,1,7,2.1c2.1,1,3.8,2.4,5.2,4.2c1.3,1.8,2,4.2,2,7.2v25.7c0,2.2,0.1,4.4,0.4,6.4
		c0.3,2,0.7,3.6,1.3,4.6h-13.7c-0.3-0.8-0.5-1.5-0.6-2.3c-0.2-0.8-0.3-1.6-0.3-2.4c-2.2,2.2-4.7,3.8-7.6,4.7c-2.9,0.9-5.9,1.3-9,1.3
		c-2.4,0-4.5-0.3-6.6-0.9c-2-0.6-3.8-1.5-5.3-2.7c-1.5-1.2-2.7-2.7-3.6-4.6c-0.9-1.8-1.3-4-1.3-6.6c0-2.8,0.5-5.1,1.5-6.9
		c1-1.8,2.3-3.3,3.8-4.3c1.6-1.1,3.3-1.9,5.3-2.4c2-0.5,4-1,6.1-1.3c2-0.3,4-0.6,6-0.8c2-0.2,3.7-0.5,5.2-0.9
		c1.5-0.4,2.7-0.9,3.6-1.7c0.9-0.7,1.3-1.8,1.2-3.2c0-1.5-0.2-2.6-0.7-3.5c-0.5-0.9-1.1-1.5-1.9-2c-0.8-0.5-1.7-0.8-2.8-1
		c-1-0.2-2.2-0.2-3.4-0.2c-2.7,0-4.8,0.6-6.3,1.7c-1.5,1.1-2.4,3.1-2.7,5.7H1002z M1033.3,62.6c-0.6,0.5-1.3,0.9-2.1,1.2
		s-1.8,0.5-2.8,0.7c-1,0.2-2,0.4-3.1,0.5c-1.1,0.1-2.2,0.3-3.2,0.5c-1,0.2-2,0.4-3,0.8c-1,0.3-1.8,0.7-2.6,1.3
		c-0.7,0.5-1.3,1.2-1.8,2.1c-0.4,0.8-0.7,1.9-0.7,3.1c0,1.2,0.2,2.2,0.7,3.1c0.4,0.8,1,1.5,1.8,2c0.8,0.5,1.7,0.8,2.7,1
		c1,0.2,2.1,0.3,3.1,0.3c2.7,0,4.7-0.4,6.2-1.3c1.5-0.9,2.5-2,3.2-3.2c0.7-1.2,1.1-2.5,1.3-3.8c0.2-1.3,0.2-2.3,0.2-3.1V62.6z"/>
	<path class="st0" d="M1067.9,18.6v68.1h-13.5V18.6H1067.9z"/>
	<path class="st0" d="M1093.5,101.4c-2.6,1.7-6.2,2.6-10.9,2.6c-1.4,0-2.8,0-4.2-0.1c-1.4-0.1-2.8-0.2-4.2-0.3V92.4
		c1.3,0.1,2.6,0.3,3.9,0.4c1.3,0.1,2.7,0.2,4,0.1c1.8-0.2,3.1-0.9,4-2.1c0.9-1.2,1.3-2.5,1.3-4c0-1.1-0.2-2.1-0.6-3.1l-17.3-46.3
		h14.4l11.2,33.8h0.2l10.8-33.8h14l-20.6,55.4C1098.1,96.8,1096.1,99.7,1093.5,101.4z"/>
	<path class="st0" d="M1152,37.4v9.1h-9.9v24.4c0,2.3,0.4,3.8,1.1,4.6c0.8,0.8,2.3,1.1,4.6,1.1c0.8,0,1.5,0,2.2-0.1
		c0.7-0.1,1.4-0.2,2-0.3v10.5c-1.1,0.2-2.4,0.3-3.8,0.4c-1.4,0.1-2.8,0.1-4.1,0.1c-2.1,0-4.1-0.1-6-0.4c-1.9-0.3-3.5-0.8-5-1.7
		c-1.4-0.8-2.6-2-3.4-3.5c-0.8-1.5-1.2-3.5-1.2-6V46.5h-8.2v-9.1h8.2V22.6h13.5v14.8H1152z"/>
	<path class="st0" d="M1156.4,29.8V18.6h13.5v11.2H1156.4z M1170,37.4v49.3h-13.5V37.4H1170z"/>
	<path class="st0" d="M1200.9,46.3c-2.2,0-4,0.5-5.4,1.5c-1.5,1-2.7,2.3-3.6,3.8c-0.9,1.6-1.6,3.3-2,5.2c-0.4,1.9-0.6,3.7-0.6,5.6
		c0,1.8,0.2,3.6,0.6,5.4c0.4,1.8,1,3.5,1.9,5c0.9,1.5,2,2.7,3.5,3.7c1.5,1,3.2,1.4,5.3,1.4c3.2,0,5.7-0.9,7.5-2.7
		c1.7-1.8,2.8-4.2,3.3-7.3h13.1c-0.9,6.6-3.4,11.5-7.6,15c-4.2,3.4-9.6,5.2-16.1,5.2c-3.7,0-7.1-0.6-10.2-1.9
		c-3.1-1.2-5.7-3-7.9-5.2c-2.2-2.2-3.8-4.9-5.1-8c-1.2-3.1-1.8-6.5-1.8-10.2c0-3.8,0.6-7.4,1.7-10.6c1.1-3.3,2.8-6.1,4.9-8.5
		c2.2-2.4,4.8-4.2,7.9-5.6c3.1-1.3,6.7-2,10.7-2c2.9,0,5.7,0.4,8.4,1.1c2.7,0.8,5.1,1.9,7.3,3.5c2.1,1.6,3.9,3.5,5.2,5.8
		c1.3,2.3,2.1,5.1,2.3,8.3h-13.3C1210,49.1,1206.7,46.3,1200.9,46.3z"/>
	<path class="st0" d="M1229.1,52.6c0.2-3.2,1-5.8,2.4-7.9c1.4-2.1,3.2-3.8,5.3-5.1c2.2-1.3,4.6-2.2,7.3-2.7c2.7-0.5,5.4-0.8,8.2-0.8
		c2.5,0,5,0.2,7.5,0.5c2.5,0.4,4.9,1,7,2.1c2.1,1,3.8,2.4,5.2,4.2c1.3,1.8,2,4.2,2,7.2v25.7c0,2.2,0.1,4.4,0.4,6.4
		c0.3,2,0.7,3.6,1.3,4.6H1262c-0.3-0.8-0.5-1.5-0.6-2.3c-0.2-0.8-0.3-1.6-0.3-2.4c-2.2,2.2-4.7,3.8-7.6,4.7c-2.9,0.9-5.9,1.3-9,1.3
		c-2.4,0-4.5-0.3-6.6-0.9c-2-0.6-3.8-1.5-5.3-2.7c-1.5-1.2-2.7-2.7-3.6-4.6c-0.9-1.8-1.3-4-1.3-6.6c0-2.8,0.5-5.1,1.5-6.9
		c1-1.8,2.3-3.3,3.8-4.3c1.6-1.1,3.3-1.9,5.3-2.4c2-0.5,4-1,6.1-1.3c2-0.3,4-0.6,6-0.8c2-0.2,3.7-0.5,5.2-0.9
		c1.5-0.4,2.7-0.9,3.6-1.7c0.9-0.7,1.3-1.8,1.2-3.2c0-1.5-0.2-2.6-0.7-3.5c-0.5-0.9-1.1-1.5-1.9-2c-0.8-0.5-1.7-0.8-2.8-1
		c-1-0.2-2.2-0.2-3.4-0.2c-2.7,0-4.8,0.6-6.3,1.7c-1.5,1.1-2.4,3.1-2.7,5.7H1229.1z M1260.4,62.6c-0.6,0.5-1.3,0.9-2.1,1.2
		s-1.8,0.5-2.8,0.7c-1,0.2-2,0.4-3.1,0.5c-1.1,0.1-2.2,0.3-3.2,0.5c-1,0.2-2,0.4-3,0.8c-1,0.3-1.8,0.7-2.6,1.3
		c-0.7,0.5-1.3,1.2-1.8,2.1c-0.4,0.8-0.7,1.9-0.7,3.1c0,1.2,0.2,2.2,0.7,3.1c0.4,0.8,1,1.5,1.8,2c0.8,0.5,1.7,0.8,2.7,1
		c1,0.2,2.1,0.3,3.1,0.3c2.7,0,4.7-0.4,6.2-1.3c1.5-0.9,2.5-2,3.2-3.2c0.7-1.2,1.1-2.5,1.3-3.8c0.2-1.3,0.2-2.3,0.2-3.1V62.6z"/>
	<path class="st0" d="M1296,18.6v68.1h-13.5V18.6H1296z"/>
	<path class="st0" d="M1340.4,69.9c0.8,1.6,1.9,2.9,3.3,3.9c1.4,1,3,1.7,4.8,2.2c1.8,0.5,3.8,0.7,5.7,0.7c1.3,0,2.8-0.1,4.3-0.3
		c1.5-0.2,3-0.7,4.3-1.3c1.3-0.6,2.4-1.5,3.3-2.6c0.9-1.1,1.3-2.5,1.3-4.2c0-1.8-0.6-3.3-1.8-4.5c-1.2-1.1-2.7-2.1-4.6-2.9
		c-1.9-0.8-4.1-1.4-6.5-2c-2.4-0.6-4.9-1.2-7.3-1.9c-2.5-0.6-5-1.4-7.4-2.3c-2.4-0.9-4.6-2.1-6.5-3.6c-1.9-1.5-3.5-3.3-4.6-5.5
		c-1.2-2.2-1.8-4.8-1.8-8c0-3.5,0.7-6.5,2.2-9.1c1.5-2.6,3.5-4.7,5.9-6.4c2.4-1.7,5.2-3,8.2-3.8c3.1-0.8,6.1-1.2,9.2-1.2
		c3.6,0,7,0.4,10.3,1.2c3.3,0.8,6.2,2.1,8.7,3.9c2.5,1.8,4.6,4.1,6.1,6.8c1.5,2.8,2.2,6.1,2.2,10.1h-14.5c-0.1-2-0.6-3.7-1.3-5.1
		c-0.7-1.3-1.7-2.4-2.9-3.1c-1.2-0.8-2.6-1.3-4.2-1.6c-1.6-0.3-3.3-0.5-5.1-0.5c-1.2,0-2.4,0.1-3.6,0.4c-1.2,0.3-2.3,0.7-3.3,1.3
		c-1,0.6-1.8,1.4-2.4,2.4c-0.6,1-1,2.2-1,3.6c0,1.3,0.3,2.4,0.8,3.2c0.5,0.8,1.5,1.6,3,2.3c1.5,0.7,3.6,1.4,6.2,2.1
		c2.6,0.7,6.1,1.6,10.4,2.7c1.3,0.3,3,0.7,5.3,1.4c2.3,0.7,4.5,1.7,6.7,3.2c2.2,1.5,4.2,3.4,5.8,5.9c1.6,2.4,2.4,5.6,2.4,9.4
		c0,3.1-0.6,6-1.8,8.7c-1.2,2.7-3,5-5.4,6.9c-2.4,1.9-5.3,3.5-8.9,4.5c-3.5,1.1-7.6,1.6-12.3,1.6c-3.8,0-7.4-0.5-10.9-1.4
		c-3.5-0.9-6.6-2.4-9.4-4.3c-2.7-2-4.9-4.5-6.4-7.5c-1.6-3.1-2.4-6.7-2.3-10.9h14.5C1339.2,66.4,1339.6,68.3,1340.4,69.9z"/>
	<path class="st0" d="M1409.7,46.3c-2.2,0-4,0.5-5.4,1.5c-1.5,1-2.7,2.3-3.6,3.8c-0.9,1.6-1.6,3.3-2,5.2c-0.4,1.9-0.6,3.7-0.6,5.6
		c0,1.8,0.2,3.6,0.6,5.4c0.4,1.8,1,3.5,1.9,5c0.9,1.5,2,2.7,3.5,3.7c1.5,1,3.2,1.4,5.3,1.4c3.2,0,5.7-0.9,7.5-2.7
		c1.7-1.8,2.8-4.2,3.3-7.3h13.1c-0.9,6.6-3.4,11.5-7.6,15c-4.2,3.4-9.6,5.2-16.1,5.2c-3.7,0-7.1-0.6-10.2-1.9
		c-3.1-1.2-5.7-3-7.9-5.2c-2.2-2.2-3.8-4.9-5.1-8c-1.2-3.1-1.8-6.5-1.8-10.2c0-3.8,0.6-7.4,1.7-10.6c1.1-3.3,2.8-6.1,4.9-8.5
		c2.2-2.4,4.8-4.2,7.9-5.6c3.1-1.3,6.7-2,10.7-2c2.9,0,5.7,0.4,8.4,1.1c2.7,0.8,5.1,1.9,7.3,3.5c2.1,1.6,3.9,3.5,5.2,5.8
		c1.3,2.3,2.1,5.1,2.3,8.3h-13.3C1418.8,49.1,1415.5,46.3,1409.7,46.3z"/>
	<path class="st0" d="M1437.4,29.8V18.6h13.5v11.2H1437.4z M1451,37.4v49.3h-13.5V37.4H1451z"/>
	<path class="st0" d="M1472.4,74.9c2,2,5,3,8.8,3c2.7,0,5.1-0.7,7.1-2.1c2-1.4,3.2-2.8,3.6-4.3h11.9c-1.9,5.9-4.8,10.1-8.8,12.7
		c-3.9,2.5-8.7,3.8-14.3,3.8c-3.9,0-7.4-0.6-10.5-1.9c-3.1-1.2-5.8-3-7.9-5.3c-2.2-2.3-3.8-5-5-8.2c-1.2-3.2-1.8-6.7-1.8-10.5
		c0-3.7,0.6-7.1,1.8-10.3c1.2-3.2,2.9-5.9,5.2-8.3c2.2-2.3,4.9-4.2,8-5.5c3.1-1.3,6.5-2,10.3-2c4.2,0,7.9,0.8,11,2.4
		c3.1,1.6,5.7,3.8,7.7,6.5c2,2.7,3.5,5.9,4.3,9.4c0.9,3.5,1.2,7.2,1,11H1469C1469.2,69.7,1470.3,72.9,1472.4,74.9z M1487.7,48.9
		c-1.6-1.8-4.1-2.7-7.4-2.7c-2.2,0-4,0.4-5.4,1.1c-1.4,0.7-2.6,1.6-3.4,2.7c-0.9,1.1-1.5,2.2-1.8,3.4c-0.4,1.2-0.6,2.3-0.6,3.2h22
		C1490.4,53.3,1489.3,50.7,1487.7,48.9z"/>
	<path class="st0" d="M1521.7,37.4v6.9h0.3c1.7-2.9,3.9-4.9,6.7-6.2c2.7-1.3,5.5-2,8.4-2c3.6,0,6.6,0.5,8.9,1.5
		c2.3,1,4.2,2.4,5.5,4.1c1.3,1.8,2.3,3.9,2.8,6.4c0.5,2.5,0.8,5.3,0.8,8.3v30.3h-13.5V58.9c0-4.1-0.6-7.1-1.9-9.1
		c-1.3-2-3.5-3-6.8-3c-3.7,0-6.4,1.1-8,3.3c-1.7,2.2-2.5,5.8-2.5,10.8v25.9h-13.5V37.4H1521.7z"/>
	<path class="st0" d="M1585.1,46.3c-2.2,0-4,0.5-5.4,1.5c-1.5,1-2.7,2.3-3.6,3.8c-0.9,1.6-1.6,3.3-2,5.2c-0.4,1.9-0.6,3.7-0.6,5.6
		c0,1.8,0.2,3.6,0.6,5.4c0.4,1.8,1,3.5,1.9,5c0.9,1.5,2,2.7,3.5,3.7c1.5,1,3.2,1.4,5.3,1.4c3.2,0,5.7-0.9,7.5-2.7
		c1.7-1.8,2.8-4.2,3.3-7.3h13.1c-0.9,6.6-3.4,11.5-7.6,15c-4.2,3.4-9.6,5.2-16.1,5.2c-3.7,0-7.1-0.6-10.2-1.9
		c-3.1-1.2-5.7-3-7.9-5.2c-2.2-2.2-3.8-4.9-5.1-8c-1.2-3.1-1.8-6.5-1.8-10.2c0-3.8,0.6-7.4,1.7-10.6c1.1-3.3,2.8-6.1,4.9-8.5
		c2.2-2.4,4.8-4.2,7.9-5.6c3.1-1.3,6.7-2,10.7-2c2.9,0,5.7,0.4,8.4,1.1c2.7,0.8,5.1,1.9,7.3,3.5c2.1,1.6,3.9,3.5,5.2,5.8
		c1.3,2.3,2.1,5.1,2.3,8.3h-13.3C1594.3,49.1,1590.9,46.3,1585.1,46.3z"/>
	<path class="st0" d="M1627,74.9c2,2,5,3,8.8,3c2.7,0,5.1-0.7,7.1-2.1c2-1.4,3.2-2.8,3.6-4.3h11.9c-1.9,5.9-4.8,10.1-8.8,12.7
		c-3.9,2.5-8.7,3.8-14.3,3.8c-3.9,0-7.4-0.6-10.5-1.9c-3.1-1.2-5.8-3-7.9-5.3c-2.2-2.3-3.8-5-5-8.2c-1.2-3.2-1.8-6.7-1.8-10.5
		c0-3.7,0.6-7.1,1.8-10.3c1.2-3.2,2.9-5.9,5.2-8.3c2.2-2.3,4.9-4.2,8-5.5c3.1-1.3,6.5-2,10.3-2c4.2,0,7.9,0.8,11,2.4
		c3.1,1.6,5.7,3.8,7.7,6.5c2,2.7,3.5,5.9,4.3,9.4c0.9,3.5,1.2,7.2,1,11h-35.6C1623.9,69.7,1625,72.9,1627,74.9z M1642.3,48.9
		c-1.6-1.8-4.1-2.7-7.4-2.7c-2.2,0-4,0.4-5.4,1.1c-1.4,0.7-2.6,1.6-3.4,2.7c-0.9,1.1-1.5,2.2-1.8,3.4c-0.4,1.2-0.6,2.3-0.6,3.2h22
		C1645.1,53.3,1644,50.7,1642.3,48.9z"/>
</g>
</svg>
