<?xml version="1.0" encoding="utf-8"?>
<!-- Generator: Adobe Illustrator 22.1.0, SVG Export Plug-In . SVG Version: 6.00 Build 0)  -->
<svg version="1.1" id="Layer_1" xmlns="http://www.w3.org/2000/svg" xmlns:xlink="http://www.w3.org/1999/xlink" wide="200px" height="53.1px"
	 viewBox="0 0 200 53.1" style="enable-background:new 0 0 200 53.1;" xml:space="preserve">
<style type="text/css">
	.st0{fill:#4A2560;}
	.st1{fill:#E94E0F;}
</style>
<g>
	<g>
		<path class="st0" d="M163,48.4c-10,0-7.7-25.5,0.2-25.4c3.4,0,5.4,4.3,5.6,9.9C169.2,42,167.8,48.4,163,48.4 M185,43.7
			c-0.6-0.2-1.1,0.2-1.2,0.5c-0.8,2.8-1.7,4.4-4,4.2c-4.2-0.5-3.9-9.3-3.9-13.2c0-14.6,0.4-32.4,0.4-33.1c0-0.6-0.6-1-3.1-1.6
			c-1.5-0.4-2.3-0.5-2.7-0.5c-0.8,0-1.6,0.7-1.6,1.6v19.3c-1.9-2-4.3-3.3-7.3-3.3c-15-0.2-17.3,33.1-2.3,35.2
			c5.1,0.7,8.9-2,11.2-6.1c1.8,4.6,4.5,5.9,6.5,6.3c1.4,0.3,5.9-0.2,8.1-4.8C185.9,46.4,186.3,44.1,185,43.7"/>
		<path class="st0" d="M108.3,48.4c-10-0.2-7.7-25.5,0.2-25.4c3.8,0.1,5.6,5.5,5.7,12.2C114.3,41.8,113,48.5,108.3,48.4 M144.7,17.5
			c-6,1-8.6,9.3-8.6,10.5v-7.3c0-0.6-0.6-1-3.1-1.6c-1.5-0.4-2.3-0.5-2.7-0.5c-0.8,0-1.6,0.7-1.6,1.6v16.4v1c0,0.3,0,0.6-0.1,0.9
			c-0.5,5-0.9,10-4.2,10c-4.3,0-3-9.1-3-12.9c0.2-12,0.4-14.7,0.4-14.7c0-0.6-0.6-1-3.1-1.6c-1.5-0.4-2.3-0.5-2.7-0.5
			c-0.8,0-1.6,0.7-1.6,1.6v1.2c-1.9-2.3-4.5-3.7-7.7-3.7c-10.3-0.1-14.7,15.8-11.4,26.3c-0.5,2.8-1.5,4.8-4.1,4.6
			c-4.2-0.5-3.9-9.3-3.9-13.2c0-14.6,0.4-33,0.4-33.1c0-0.6-0.7-1-3.1-1.6C83.2,0.1,82.4,0,82,0c-0.8,0-1.6,0.7-1.6,1.6v31.9
			c-0.1,3.2,0,5.9,0.4,8.1c-0.7,3.8-2.1,7-4.9,6.8c-4.2-0.5-3.9-9.3-3.9-13.2c0-14.6,0.4-33,0.4-33.1c0-0.6-0.6-1-3.1-1.6
			C67.8,0.1,67,0,66.6,0c-0.8,0-1.6,0.7-1.6,1.6v32.4c-0.5,15.5,4.9,18.4,8.1,18.8c1.6,0.2,7.1-0.3,8.8-6.5c1.7,4.9,4.6,6.4,6.6,6.6
			c1.3,0.1,6.4-0.3,8.5-5.6c1.7,2.9,4.2,5,7.6,5.5c5,0.7,8.7-1.8,11-5.6c1.2,4.1,3.3,5.3,5.5,5.7c1.6,0.3,5.4,0,7.6-3.6v1.8
			c0,0.6,0.2,1,2.7,1.6c1.5,0.4,2.7,0.5,3.1,0.5c0.8,0,1.6-0.7,1.6-1.5v-8.9c0-3.8,2.4-17.7,8.3-18.1c0.4,0,1.2,0,1.8,0.2
			C150.9,26.4,150.8,16.5,144.7,17.5"/>
		<path class="st0" d="M50.9,48.4c-10-0.2-7.2-24.5,0.2-25.4C59.5,22.1,60.7,48.6,50.9,48.4 M49.4,17.5c-15-0.2-17.3,32.8-2.2,35.2
			C66,55.7,67.4,17.7,49.4,17.5"/>
		<path class="st0" d="M33.7,2.1v49.4c0,0.9-0.8,1.6-1.6,1.6c-0.4,0-1.6-0.1-3.1-0.5c-2.5-0.6-2.7-1-2.7-1.6V28.3
			c-3.5,0.3-7.8,0.6-13.3,1.9v21.3c0,0.9-0.8,1.6-1.6,1.6c-0.4,0-1.6-0.1-3.1-0.5c-2.5-0.6-2.7-1-2.7-1.6l0-8.9c0,0,0-4,0-9.6
			c0,0-0.4,0.1-0.7,0.3c-1.4,0.6-3.8-2-4.5-4.2c-0.4-1.3-0.3-2.3,1.1-2.7c1.3-0.4,3.7-0.9,4.2-1.1V1.6C5.5,0.7,6.3,0,7.1,0
			c0.4,0,1.2,0.1,2.7,0.5c2.5,0.6,3.1,1,3.1,1.6c0,0.2,0,21.1,0,21.1c4.6-0.7,8.7-0.8,13.3-0.7v-21C26.2,0.7,27,0,27.9,0
			c0.4,0,1.2,0.1,2.7,0.5C33,1.1,33.7,1.5,33.7,2.1"/>
		<path class="st1" d="M199.9,48c-0.5,3.1-3.3,5.3-6.2,4.8c-2.9-0.5-4.8-3.4-4.2-6.6c0.5-3.1,3.3-5.6,6.2-5.1
			C198.6,41.7,200.4,44.9,199.9,48"/>
	</g>
</g>
</svg>
