<?xml version="1.0" encoding="UTF-8"?>
<svg width="200px" height="30px" viewBox="0 0 200 30" version="1.1" xmlns="http://www.w3.org/2000/svg" xmlns:xlink="http://www.w3.org/1999/xlink">
    <!-- Generator: Sketch 48.2 (47327) - http://www.bohemiancoding.com/sketch -->
    <title>XMLID_1_</title>
    <desc>Created with Sketch.</desc>
    <defs></defs>
    <g id="HOMAG_home" stroke="none" stroke-width="1" fill="none" fill-rule="evenodd" transform="translate(-1687.000000, -25.000000)">
        <g id="HOMAG_Logo_RGB" transform="translate(1687.000000, 25.000000)" fill="#001941" fill-rule="nonzero">
            <g id="HOMAG_Logo">
                <g id="XMLID_1_">
                    <path d="M161.134858,18.7990833 L154.076111,18.7990833 L157.650633,7.40154167 L161.134858,18.7990833 Z M91.9360982,23.0957083 C88.8037209,23.0957083 85.4564987,20.9358333 85.4564987,14.869375 C85.4564987,8.80445833 88.8037209,6.64458333 91.9360982,6.64458333 C95.0684755,6.64458333 98.4156977,8.80445833 98.4156977,14.869375 C98.4156977,20.9358333 95.0684755,23.0957083 91.9360982,23.0957083 Z M67.5916731,29.0203333 L75.2031008,29.0203333 L75.2031008,0.718416667 L67.5916731,0.718416667 L67.5916731,10.94275 L58.0871189,10.94275 L58.0871189,0.718416667 L50.4756912,0.718416667 L50.4756912,29.0203333 L58.0871189,29.0203333 L58.0871189,17.459375 L67.5916731,17.459375 L67.5916731,29.0203333 Z M133.32489,29.0203333 L140.500401,29.0203333 L140.500401,0.718416667 L129.41876,0.718416667 L124.581634,19.2554167 L119.744509,0.718416667 L108.664425,0.718416667 L108.664425,29.0203333 L115.838379,29.0203333 L115.838379,8.13229167 L121.676557,29.0203333 L127.486712,29.0203333 L133.32489,8.13229167 L133.32489,29.0203333 Z M164.237655,29.0203333 L172.185362,29.0203333 L161.497603,0.718416667 L153.836357,0.718416667 L143.148598,29.0203333 L150.974871,29.0203333 L152.762132,23.9867917 L162.489315,23.9867917 L164.237655,29.0203333 Z M91.9360982,0.1295 C87.6500969,0.1295 84.0459948,1.61566667 81.511447,4.42920833 C79.1465956,7.05466667 77.8450711,10.762375 77.8450711,14.869375 C77.8450711,18.9779167 79.1481525,22.685625 81.511447,25.3110833 C84.044438,28.124625 87.6485401,29.6107917 91.9360982,29.6107917 C96.2236563,29.6107917 99.8262016,28.124625 102.360749,25.3110833 C104.725601,22.685625 106.027125,18.9779167 106.027125,14.869375 C106.027125,10.762375 104.724044,7.053125 102.360749,4.42920833 C99.8262016,1.61720833 96.2220995,0.1295 91.9360982,0.1295 Z M185.988372,0.1295 C181.887636,0.1295 178.204134,1.65575 175.619767,4.426125 C173.116357,7.11016667 171.738547,10.8194167 171.738547,14.869375 C171.738547,18.920875 173.116357,22.6285833 175.619767,25.312625 C178.204134,28.083 181.887636,29.6107917 185.988372,29.6107917 C186.450756,29.6107917 190.579516,29.526 193.322681,26.59375 L193.732132,26.1559167 L194.649115,29.0187917 L199.206008,29.0187917 L199.206008,13.42175 L187.184031,13.42175 L187.184031,19.0719583 L192.234444,19.0719583 L192.103669,19.5159583 C191.440452,21.7575417 189.09584,23.0957083 185.83113,23.0957083 C182.698753,23.0957083 179.351531,20.9358333 179.351531,14.869375 C179.351531,8.80445833 182.698753,6.64458333 185.83113,6.64458333 C188.795368,6.64458333 190.889328,7.94883333 191.272313,9.994625 L198.886854,9.994625 C198.01969,3.18508333 191.832778,0.1295 185.988372,0.1295 Z" id="XMLID_2_"></path>
                    <path d="M37.2627261,23.2051667 C35.3991796,24.7052083 33.0218734,25.6055417 30.4312791,25.6055417 C24.4436434,25.6055417 19.5893928,20.798625 19.5893928,14.869375 C19.5893928,8.940125 24.4436434,4.13320833 30.4312791,4.13320833 C33.0218734,4.13320833 35.3976227,5.03354167 37.2627261,6.53358333 L37.2627261,0.718416667 L19.7933398,0.718416667 L13.6515762,0.718416667 L13.6484625,0.718416667 L13.6484625,11.909375 L7.19532946,11.909375 L7.19532946,0.718416667 L0.616091731,0.718416667 L0.616091731,29.0203333 L7.19532946,29.0203333 L7.19532946,17.5225833 L13.6484625,17.5225833 L13.6484625,29.008 L13.6515762,29.008 L13.6515762,29.0203333 L37.2627261,29.0203333 L37.2627261,23.2051667 Z M30.4312791,19.799625 C33.1806718,19.799625 35.4100775,17.5919583 35.4100775,14.869375 C35.4100775,12.1467917 33.1822287,9.939125 30.4312791,9.939125 C27.6803295,9.939125 25.4524806,12.1467917 25.4524806,14.869375 C25.4540375,17.5919583 27.6818863,19.799625 30.4312791,19.799625 Z" id="XMLID_3_"></path>
                </g>
            </g>
        </g>
    </g>
</svg>