<?xml version="1.0" encoding="UTF-8" standalone="no"?>
<!-- Created with Inkscape (http://www.inkscape.org/) -->

<svg
   xmlns:dc="http://purl.org/dc/elements/1.1/"
   xmlns:cc="http://creativecommons.org/ns#"
   xmlns:rdf="http://www.w3.org/1999/02/22-rdf-syntax-ns#"
   xmlns:svg="http://www.w3.org/2000/svg"
   xmlns="http://www.w3.org/2000/svg"
   xmlns:sodipodi="http://sodipodi.sourceforge.net/DTD/sodipodi-0.dtd"
   xmlns:inkscape="http://www.inkscape.org/namespaces/inkscape"
   width="134.3336"
   height="65.4832"
   viewBox="0 0 35.542434 17.325763"
   version="1.1"
   id="svg3440"
   inkscape:version="0.92.0 r15299"
   sodipodi:docname="icom.svg">
  <defs
     id="defs3434">
    <clipPath
       id="clipPath1909"
       clipPathUnits="userSpaceOnUse">
      <path
         inkscape:connector-curvature="0"
         id="path1907"
         d="m 28.346,714.331 h 102.403 v 51.024 H 28.346 Z" />
    </clipPath>
  </defs>
  <sodipodi:namedview
     id="base"
     pagecolor="#ffffff"
     bordercolor="#666666"
     borderopacity="1.0"
     inkscape:pageopacity="0.0"
     inkscape:pageshadow="2"
     inkscape:zoom="6.7274796"
     inkscape:cx="66.666868"
     inkscape:cy="32.241604"
     inkscape:document-units="mm"
     inkscape:current-layer="layer1"
     showgrid="false"
     fit-margin-top="0"
     fit-margin-left="0"
     fit-margin-right="0"
     fit-margin-bottom="0"
     units="px"
     inkscape:window-width="1280"
     inkscape:window-height="744"
     inkscape:window-x="-4"
     inkscape:window-y="-4"
     inkscape:window-maximized="1" />
  <metadata
     id="metadata3437">
    <rdf:RDF>
      <cc:Work
         rdf:about="">
        <dc:format>image/svg+xml</dc:format>
        <dc:type
           rdf:resource="http://purl.org/dc/dcmitype/StillImage" />
        <dc:title></dc:title>
      </cc:Work>
    </rdf:RDF>
  </metadata>
  <g
     inkscape:label="Layer 1"
     inkscape:groupmode="layer"
     id="layer1"
     transform="translate(-39.057486,-132.47864)">
    <g
       id="g3501"
       transform="translate(0.13229072,-0.13228828)">
      <path
         d="m 43.175388,149.49446 h -1.085576 -0.09814 l -7.11e-4,-0.0999 v -8.48772 -0.10138 l 0.09885,10e-4 h 1.085576 0.09921 v 0.0999 8.48772 0.0999 z"
         style="fill:#231f20;fill-opacity:1;fill-rule:nonzero;stroke:none;stroke-width:0.35753897"
         id="path1901"
         inkscape:connector-curvature="0" />
      <path
         d="m 42.617522,132.74322 c -1.965985,0 -3.560036,1.61133 -3.560036,3.59943 0,1.9881 1.594051,3.59944 3.560036,3.59944 1.96634,0 3.560036,-1.61134 3.560036,-3.59944 0,-1.9881 -1.593696,-3.59943 -3.560036,-3.59943 m 0,6.2156 c -1.429064,0 -2.587178,-1.17129 -2.587178,-2.61617 0,-1.44488 1.158114,-2.61581 2.587178,-2.61581 1.429064,0 2.587178,1.17093 2.587178,2.61581 0,1.44488 -1.158114,2.61617 -2.587178,2.61617"
         style="fill:#ed1443;fill-opacity:1;fill-rule:nonzero;stroke:none;stroke-width:0.35753897"
         id="path1913"
         inkscape:connector-curvature="0" />
      <path
         d="m 67.394153,140.828 2.515351,6.16491 2.438902,-6.16815 1.984831,-0.001 0.0021,8.6707 h -1.303189 v -6.61645 l -2.719453,6.61501 h -0.839872 l -2.73972,-6.61501 v 6.61645 H 65.445591 V 140.828 Z"
         style="fill:#231f20;fill-opacity:1;fill-rule:nonzero;stroke:none;stroke-width:0.35753897"
         id="path1917"
         inkscape:connector-curvature="0" />
      <path
         d="m 59.329459,140.45817 c -2.552687,0 -4.622144,2.09236 -4.622144,4.67329 0,2.58094 2.069457,4.67294 4.622144,4.67294 2.552687,0 4.622144,-2.092 4.622144,-4.67294 0,-2.58093 -2.069457,-4.67329 -4.622144,-4.67329 m 0,8.09621 c -1.869623,0 -3.385448,-1.5326 -3.385448,-3.42292 0,-1.89031 1.515825,-3.42291 3.385448,-3.42291 1.869623,0 3.385448,1.5326 3.385448,3.42291 0,1.89032 -1.515825,3.42292 -3.385448,3.42292"
         style="fill:#231f20;fill-opacity:1;fill-rule:nonzero;stroke:none;stroke-width:0.35753897"
         id="path1921"
         inkscape:connector-curvature="0" />
      <path
         d="m 51.997424,146.97133 c -0.589902,0.88368 -1.595474,1.46609 -2.737231,1.46609 -1.816643,0 -3.289087,-1.47364 -3.289087,-3.29133 0,-1.81769 1.472444,-3.29133 3.289087,-3.29133 1.150647,0 2.162619,0.59139 2.750387,1.48694 h 1.33697 c -0.690175,-1.80511 -2.274982,-2.71503 -4.117226,-2.71503 -2.480149,0 -4.490581,2.02333 -4.490581,4.51942 0,2.49609 2.010432,4.51978 4.490581,4.51978 1.834422,0 3.232906,-0.81106 4.107981,-2.69454 z"
         style="fill:#231f20;fill-opacity:1;fill-rule:nonzero;stroke:none;stroke-width:0.35753897"
         id="path1925"
         inkscape:connector-curvature="0" />
    </g>
  </g>
</svg>
