<?xml version="1.0" encoding="utf-8"?>
<!-- Generator: Adobe Illustrator 24.2.0, SVG Export Plug-In . SVG Version: 6.00 Build 0)  -->
<svg version="1.1" id="Layer_1" xmlns="http://www.w3.org/2000/svg" xmlns:xlink="http://www.w3.org/1999/xlink" x="0px" y="0px"
	 viewBox="0 0 484.3 113.8" style="enable-background:new 0 0 484.3 113.8;" xml:space="preserve">
<style type="text/css">
	.st0{fill:#3C3C3C;}
	.st1{fill:#2DCCD3;}
	.st2{fill:#00A3E1;}
	.st3{fill:#FF8200;}
	.st4{fill:#97D700;}
	.st5{fill:#7E93A7;}
	.st6{fill-rule:evenodd;clip-rule:evenodd;fill:#3C3C3C;}
	.st7{fill-rule:evenodd;clip-rule:evenodd;fill:#00A3E1;}
	.st8{font-family:'OpenSans';}
	.st9{font-size:10.494px;}
</style>
<g id="inpixon">
	<polygon class="st0" points="180.9,46.3 171.6,32.8 157.2,32.8 173.7,56.7 157.2,80.5 171.6,80.5 180.9,67 188.1,56.7 	"/>
	<polygon class="st0" points="182.7,46.3 189,55.4 204.6,32.8 190.3,32.8 181.8,45 	"/>
	<polygon class="st0" points="189,58 182.7,67 181.8,68.3 190.3,80.5 204.6,80.5 	"/>
	<path class="st0" d="M28.5,21.7c0,9.2-13.9,9.2-13.9,0C14.6,12.5,28.5,12.5,28.5,21.7z M15.7,32.8v47.8h11.8V32.8H15.7z"/>
	<path class="st0" d="M68.3,80.5V55.6c0-7.2-4-12.7-11.5-12.7c-7.2,0-12.2,6.1-12.2,13.3v24.3H33V32.9h10.5l0.8,6.5
		c4.8-4.7,9.6-7.1,15.6-7.1c11.2,0,20.2,8.4,20.2,23.3v25L68.3,80.5L68.3,80.5z"/>
	<path class="st0" d="M85.3,100.4V33h11l0.8,6.6c3.7-5.3,10-7.6,15.4-7.6c14.7,0,24.4,10.9,24.4,24.9c0,13.9-8.8,24.9-24,24.9
		c-5,0-12.4-1.5-15.8-6.8v25.5L85.3,100.4L85.3,100.4z M125.2,56.8c0-7.4-5-13.5-13.5-13.5s-13.5,6.1-13.5,13.5s5.5,13.5,13.5,13.5
		S125.2,64.2,125.2,56.8z"/>
	<path class="st0" d="M153.7,21.7c0,9.2-13.9,9.2-13.9,0S153.7,12.5,153.7,21.7z M140.8,32.8v47.8h11.8V32.8H140.8z"/>
	<path class="st0" d="M292.5,80.5V55.6c0-7.2-4-12.7-11.5-12.7c-7.2,0-12.2,6.1-12.2,13.3v24.3h-11.7V32.9h10.5l0.8,6.5
		c4.8-4.7,9.6-7.1,15.6-7.1c11.2,0,20.2,8.4,20.2,23.3v25L292.5,80.5L292.5,80.5z"/>
	<g>
		<path class="st1" d="M221.4,64.6c0,0.2-0.1,0.3-0.3,0.3h-2.3c-0.2,0-0.3-0.2-0.3-0.3v-8.5c0-0.2,0.1-0.3,0.3-0.3h2.3
			c0.2,0,0.3,0.1,0.3,0.3V64.6z"/>
		<path class="st2" d="M225.9,62.6c0,0.2-0.1,0.3-0.3,0.3h-2.3c-0.2,0-0.3-0.1-0.3-0.3V48.9c0-0.2,0.1-0.3,0.3-0.3h2.3
			c0.2,0,0.3,0.1,0.3,0.3V62.6z"/>
		<path class="st3" d="M230.4,64.6c0,0.2-0.1,0.3-0.3,0.3h-2.3c-0.2,0-0.3-0.2-0.3-0.3V52.9c0-0.2,0.1-0.3,0.3-0.3h2.3
			c0.2,0,0.3,0.1,0.3,0.3L230.4,64.6L230.4,64.6z"/>
		<path class="st4" d="M235,67.1c0,0.2-0.1,0.3-0.3,0.3h-2.3c-0.2,0-0.3-0.1-0.3-0.3V52.4c0-0.2,0.2-0.3,0.3-0.3h2.3
			c0.2,0,0.3,0.1,0.3,0.3V67.1z"/>
		<path class="st5" d="M239.5,63.2c0,0.2-0.1,0.3-0.3,0.3h-2.4c-0.2,0-0.3-0.1-0.3-0.3v-6.4c0-0.2,0.1-0.3,0.3-0.3h2.3
			c0.2,0,0.3,0.1,0.3,0.3v6.4H239.5z"/>
	</g>
	<g>
		<path class="st6" d="M253.7,53.7c-0.5-3.8-1.9-7.3-3.9-10.4l-5.7,6.8c0.6,1.3,1.1,2.8,1.4,4.3c0.2,1,0.2,1.9,0.2,2.7
			c0,3-0.7,5.7-2,8.2c-0.9,1.6-1.9,3.1-3.1,4.6c-3.2,3.9-6.9,7.4-10.7,10.7c-0.6,0.5-1,0.5-1.6,0c-4.1-3.6-8.2-7.4-11.5-11.8
			c-2-2.7-3.6-5.5-4.2-8.9c-0.6-3.4,0-6.8,1.4-9.8l-5.7-6.8c-4.1,6.2-5.4,14.2-2.7,22c1.4,4.2,4,7.7,6.8,11
			c4.7,5.5,10.1,10.3,15.7,14.7c0.8,0.6,1.3,0.6,2,0c4.4-3.5,8.6-7.2,12.5-11.2c2.3-2.4,4.5-4.8,6.4-7.5c3.2-4.6,5.1-9.6,5.1-15.3
			C253.8,56,253.8,54.8,253.7,53.7z"/>
		<path class="st7" d="M224.8,32.6c-6.1,1.1-11.3,4.2-14.9,8.6l2,2.4l1.1,1.3l0.2-0.2c0.1-0.1,0.2-0.3,0.4-0.4l0.1-0.2l0,0
			c3.2-3.6,7.5-6.1,12.1-6.8c1-0.2,2.1-0.2,3.2-0.2c6.3,0,12.1,2.8,16,7.6l0.2,0.2l2.4-2.8l0.7-0.8C242.6,34.6,233.8,31,224.8,32.6z
			"/>
		<path class="st7" d="M243.6,45.4c-3.6-4.4-8.9-7-14.7-7c-1,0-2,0.1-2.9,0.2c-4.2,0.7-8.2,2.9-11.1,6.3l-0.1,0.1
			c-0.1,0.1-0.2,0.3-0.4,0.4l-0.4,0.4l1.4,1.7c2.5-3.5,6.4-6.2,10.9-6.9c6.4-1,12.7,1.8,16.3,6.8l1.4-1.7L243.6,45.4z"/>
	</g>
</g>
<g>
	<path class="st0" d="M322.5,51.5V32.3h3.2v19.3L322.5,51.5L322.5,51.5z"/>
	<path class="st0" d="M343,51.5h-3.1v-9c0-1.1-0.2-2-0.7-2.5c-0.5-0.6-1.2-0.8-2.2-0.8c-1.3,0-2.3,0.4-2.9,1.2s-0.9,2.1-0.9,3.9v7.3
		h-3.1V37h2.4l0.4,1.9h0.2c0.4-0.7,1.1-1.2,1.9-1.6s1.7-0.6,2.7-0.6c3.5,0,5.2,1.8,5.2,5.3v9.5H343z"/>
	<path class="st0" d="M351.9,51.8c-1.8,0-3.2-0.7-4.3-2s-1.5-3.2-1.5-5.6s0.5-4.3,1.5-5.6c1-1.3,2.5-2,4.3-2c1.9,0,3.4,0.7,4.4,2.1
		h0.2c-0.2-1-0.2-1.9-0.2-2.5v-5.3h3.1v20.5H357l-0.5-1.9h-0.1C355.3,51.1,353.8,51.8,351.9,51.8z M352.8,49.3
		c1.3,0,2.2-0.4,2.8-1.1s0.9-1.9,0.9-3.5v-0.4c0-1.8-0.3-3.1-0.9-3.9s-1.5-1.2-2.8-1.2c-1.1,0-1.9,0.4-2.5,1.3s-0.9,2.1-0.9,3.8
		c0,1.6,0.3,2.9,0.9,3.7C350.8,48.9,351.6,49.3,352.8,49.3z"/>
	<path class="st0" d="M376.5,44.2c0,2.4-0.6,4.2-1.8,5.6s-2.9,2-5.1,2c-1.4,0-2.6-0.3-3.6-0.9s-1.9-1.5-2.4-2.6s-0.8-2.5-0.8-4
		c0-2.4,0.6-4.2,1.8-5.5s2.9-2,5.1-2c2.1,0,3.8,0.7,5,2C375.9,40.1,376.5,41.9,376.5,44.2z M365.9,44.2c0,3.4,1.2,5,3.7,5
		s3.7-1.7,3.7-5s-1.2-5-3.7-5c-1.3,0-2.2,0.4-2.8,1.3C366.2,41.4,365.9,42.6,365.9,44.2z"/>
	<path class="st0" d="M392.7,44.2c0,2.4-0.6,4.2-1.8,5.6s-2.9,2-5.1,2c-1.4,0-2.6-0.3-3.6-0.9s-1.9-1.5-2.4-2.6s-0.8-2.5-0.8-4
		c0-2.4,0.6-4.2,1.8-5.5s2.9-2,5.1-2c2.1,0,3.8,0.7,5,2C392.1,40.1,392.7,41.9,392.7,44.2z M382.1,44.2c0,3.4,1.2,5,3.7,5
		s3.7-1.7,3.7-5s-1.2-5-3.7-5c-1.3,0-2.2,0.4-2.8,1.3C382.4,41.4,382.1,42.6,382.1,44.2z"/>
	<path class="st0" d="M403.4,36.7c0.6,0,1.1,0,1.5,0.1l-0.3,2.9c-0.4-0.1-0.9-0.2-1.4-0.2c-1.2,0-2.2,0.4-3,1.2
		c-0.8,0.8-1.2,1.9-1.2,3.2v7.6h-3.1V37h2.4l0.4,2.6h0.2c0.5-0.9,1.1-1.6,1.9-2.1C401.7,36.9,402.5,36.7,403.4,36.7z"/>
	<path class="st0" d="M322.5,80.4V61.2h3.2v19.3h-3.2V80.4z"/>
	<path class="st0" d="M343,80.4h-3.1v-9c0-1.1-0.2-2-0.7-2.5c-0.5-0.6-1.2-0.8-2.2-0.8c-1.3,0-2.3,0.4-2.9,1.2s-0.9,2.1-0.9,3.9v7.3
		h-3.1V65.9h2.4l0.4,1.9h0.2c0.4-0.7,1.1-1.2,1.9-1.6s1.7-0.6,2.7-0.6c3.5,0,5.2,1.8,5.2,5.3v9.5H343z"/>
	<path class="st0" d="M352.4,78.2c0.8,0,1.5-0.1,2.3-0.4v2.3c-0.3,0.1-0.8,0.3-1.3,0.4s-1.1,0.2-1.7,0.2c-2.9,0-4.4-1.5-4.4-4.6
		v-7.9h-2v-1.4l2.1-1.1l1.1-3.1h1.9v3.2h4.2v2.3h-4.2v7.8c0,0.7,0.2,1.3,0.6,1.7C351.3,78,351.8,78.2,352.4,78.2z"/>
	<path class="st0" d="M363.7,80.7c-2.3,0-4-0.7-5.3-2s-1.9-3.1-1.9-5.5s0.6-4.3,1.8-5.6c1.2-1.4,2.8-2,4.9-2c1.9,0,3.4,0.6,4.6,1.8
		s1.7,2.8,1.7,4.8v1.7h-9.7c0,1.4,0.4,2.5,1.1,3.3s1.7,1.1,3,1.1c0.9,0,1.7-0.1,2.4-0.2c0.7-0.2,1.5-0.4,2.4-0.8v2.5
		c-0.8,0.4-1.5,0.6-2.3,0.8C365.6,80.6,364.7,80.7,363.7,80.7z M363.2,67.9c-1,0-1.8,0.3-2.4,0.9s-0.9,1.5-1.1,2.7h6.6
		c0-1.2-0.3-2.1-0.9-2.7C364.9,68.2,364.1,67.9,363.2,67.9z"/>
	<path class="st0" d="M375.7,80.4h-3.1V59.9h3.1V80.4z"/>
	<path class="st0" d="M383,80.4h-3.1V59.9h3.1V80.4z"/>
	<path class="st0" d="M387,62c0-0.6,0.2-1,0.5-1.3s0.7-0.4,1.3-0.4c0.5,0,1,0.1,1.3,0.4s0.5,0.7,0.5,1.3c0,0.5-0.2,0.9-0.5,1.2
		c-0.3,0.3-0.7,0.5-1.3,0.5c-0.6,0-1-0.2-1.3-0.5C387.1,62.9,387,62.5,387,62z M390.3,80.4h-3.1V65.9h3.1V80.4z"/>
	<path class="st0" d="M406.7,65.9v1.7l-2.5,0.5c0.2,0.3,0.4,0.7,0.6,1.1s0.2,0.9,0.2,1.4c0,1.5-0.5,2.7-1.6,3.5
		c-1,0.9-2.5,1.3-4.3,1.3c-0.5,0-0.9,0-1.3-0.1c-0.7,0.4-1,0.9-1,1.5c0,0.3,0.2,0.6,0.5,0.8c0.3,0.2,0.9,0.3,1.7,0.3h2.5
		c1.6,0,2.8,0.3,3.7,1s1.3,1.7,1.3,3c0,1.7-0.7,2.9-2,3.8s-3.3,1.3-5.9,1.3c-2,0-3.5-0.4-4.5-1.1s-1.6-1.7-1.6-3
		c0-0.9,0.3-1.7,0.9-2.3c0.6-0.6,1.4-1,2.4-1.3c-0.4-0.2-0.8-0.5-1-0.9c-0.3-0.4-0.4-0.8-0.4-1.2c0-0.5,0.2-1,0.5-1.4
		s0.8-0.8,1.4-1.1c-0.8-0.3-1.4-0.9-1.8-1.6c-0.5-0.7-0.7-1.6-0.7-2.6c0-1.6,0.5-2.8,1.5-3.7c1-0.9,2.4-1.3,4.3-1.3
		c0.4,0,0.8,0,1.3,0.1s0.8,0.1,1,0.2L406.7,65.9L406.7,65.9z M395.3,82.7c0,0.7,0.3,1.2,0.9,1.5c0.6,0.4,1.4,0.5,2.5,0.5
		c1.7,0,2.9-0.2,3.8-0.7s1.2-1.1,1.2-1.9c0-0.6-0.2-1.1-0.7-1.4s-1.3-0.4-2.5-0.4h-2.3c-0.9,0-1.6,0.2-2.1,0.6
		C395.5,81.4,395.3,82,395.3,82.7z M396.6,70.6c0,0.9,0.2,1.6,0.7,2.1s1.1,0.7,2,0.7c1.8,0,2.7-1,2.7-2.9c0-0.9-0.2-1.7-0.7-2.2
		c-0.4-0.5-1.1-0.8-2-0.8s-1.6,0.3-2,0.8C396.8,68.9,396.6,69.6,396.6,70.6z"/>
	<path class="st0" d="M415.5,80.7c-2.3,0-4-0.7-5.3-2s-1.9-3.1-1.9-5.5s0.6-4.3,1.8-5.6c1.2-1.4,2.8-2,4.9-2c1.9,0,3.4,0.6,4.6,1.8
		s1.7,2.8,1.7,4.8v1.7h-9.7c0,1.4,0.4,2.5,1.1,3.3s1.7,1.1,3,1.1c0.9,0,1.7-0.1,2.4-0.2c0.7-0.2,1.5-0.4,2.4-0.8v2.5
		c-0.8,0.4-1.5,0.6-2.3,0.8C417.4,80.6,416.5,80.7,415.5,80.7z M415,67.9c-1,0-1.8,0.3-2.4,0.9s-0.9,1.5-1.1,2.7h6.6
		c0-1.2-0.3-2.1-0.9-2.7C416.7,68.2,415.9,67.9,415,67.9z"/>
	<path class="st0" d="M437.3,80.4h-3.1v-9c0-1.1-0.2-2-0.7-2.5c-0.5-0.6-1.2-0.8-2.2-0.8c-1.3,0-2.3,0.4-2.9,1.2s-0.9,2.1-0.9,3.9
		v7.3h-3.1V65.9h2.4l0.4,1.9h0.2c0.4-0.7,1.1-1.2,1.9-1.6s1.7-0.6,2.7-0.6c3.5,0,5.2,1.8,5.2,5.3v9.5H437.3z"/>
	<path class="st0" d="M447.2,80.7c-2.2,0-3.9-0.6-5-1.9s-1.7-3.1-1.7-5.5c0-2.5,0.6-4.3,1.8-5.7c1.2-1.3,2.9-2,5.2-2
		c1.5,0,2.9,0.3,4.2,0.9l-0.9,2.5c-1.3-0.5-2.4-0.8-3.2-0.8c-2.5,0-3.8,1.7-3.8,5c0,1.6,0.3,2.9,0.9,3.7c0.6,0.8,1.5,1.2,2.8,1.2
		c1.4,0,2.7-0.3,3.9-1v2.7c-0.6,0.3-1.1,0.6-1.8,0.7C448.9,80.6,448.1,80.7,447.2,80.7z"/>
	<path class="st0" d="M460.8,80.7c-2.3,0-4-0.7-5.3-2s-1.9-3.1-1.9-5.5s0.6-4.3,1.8-5.6c1.2-1.4,2.8-2,4.9-2c1.9,0,3.4,0.6,4.6,1.8
		s1.7,2.8,1.7,4.8v1.7h-9.7c0,1.4,0.4,2.5,1.1,3.3s1.7,1.1,3,1.1c0.9,0,1.7-0.1,2.4-0.2c0.7-0.2,1.5-0.4,2.4-0.8v2.5
		c-0.8,0.4-1.5,0.6-2.3,0.8C462.7,80.6,461.8,80.7,460.8,80.7z M460.2,67.9c-1,0-1.8,0.3-2.4,0.9s-0.9,1.5-1.1,2.7h6.6
		c0-1.2-0.3-2.1-0.9-2.7C462,68.2,461.2,67.9,460.2,67.9z"/>
</g>
<text transform="matrix(1 0 0 1 467.527 72.5584)" class="st8 st9">™</text>
</svg>
