<?xml version="1.0" encoding="UTF-8"?>
<svg xmlns="http://www.w3.org/2000/svg" viewBox="0 0 210.355 115.362" xml:space="preserve">
  <defs>
    <clipPath id="a" clipPathUnits="userSpaceOnUse">
      <path d="M0 86.522h157.766V0H0Z"/>
    </clipPath>
  </defs>
  <path style="fill:#000;fill-opacity:1;fill-rule:nonzero;stroke:none" d="M0 0h4.765l-2.34 6.206Zm1.832 7.359h1.289L7.869-4.748H6.631L5.156-.983H-.356l-1.458-3.765h-1.239z" transform="matrix(1.33333 0 0 -1.33333 20.856 104.373)"/>
  <g clip-path="url(#a)" transform="matrix(1.33333 0 0 -1.33333 0 115.362)">
    <path style="fill:#000;fill-opacity:1;fill-rule:nonzero;stroke:none" d="M0 0h3.968c1.713-.017 3.188.559 3.188 2.493 0 1.542-1.17 2.341-3.188 2.341H0Zm0 5.815h3.968c1.848 0 2.73.916 2.73 2.053 0 1.51-.932 2.273-2.73 2.273H0Zm-1.154 5.309h5.122c2.035 0 3.884-.713 3.884-2.968 0-1.271-.848-2.442-2.103-2.713V5.41c1.56-.204 2.561-1.375 2.561-2.952 0-1.153-.408-3.441-4.342-3.441h-5.122z" transform="translate(30.475 4.478)"/>
    <path style="fill:#000;fill-opacity:1;fill-rule:nonzero;stroke:none" d="M0 0c0-1.864 1.018-3.729 3.07-3.729S6.139-1.864 6.139 0c0 1.866-1.017 3.731-3.069 3.731S0 1.866 0 0m7.208 0c0-2.51-1.459-4.629-4.138-4.629S-1.068-2.51-1.068 0 .391 4.631 3.07 4.631 7.208 2.51 7.208 0" transform="translate(41.255 7.868)"/>
    <path style="fill:#000;fill-opacity:1;fill-rule:nonzero;stroke:none" d="M0 0c-.051 1.61-1.051 3.119-2.782 3.119-1.745 0-2.713-1.525-2.883-3.119Zm-5.665-.899c.018-1.561.832-3.443 2.883-3.443 1.561 0 2.409.916 2.748 2.239h1.069C.577-4.088-.577-5.241-2.782-5.241c-2.78 0-3.95 2.137-3.95 4.629 0 2.306 1.17 4.631 3.95 4.631 2.816 0 3.935-2.46 3.851-4.918z" transform="translate(56.549 8.48)"/>
    <path style="fill:#000;fill-opacity:1;fill-rule:nonzero;stroke:none" d="M59.31 12.244h1.068v-8.75H59.31Zm0 3.358h1.068V13.89H59.31Z"/>
    <path style="fill:#000;fill-opacity:1;fill-rule:nonzero;stroke:none" d="M0 0h1.069v-1.509h.033C1.493-.458 2.663.255 3.9.255c2.459 0 3.205-1.29 3.205-3.376V-8.75H6.038v5.459c0 1.51-.492 2.646-2.223 2.646-1.695 0-2.713-1.288-2.746-3.001V-8.75H0Z" transform="translate(62.547 12.244)"/>
    <path style="fill:#000;fill-opacity:1;fill-rule:nonzero;stroke:none" d="M0 0c0 1.712-.797 3.628-2.815 3.628-2.035 0-2.883-1.816-2.883-3.628 0-1.766.916-3.478 2.883-3.478C-.966-3.478 0-1.782 0 0m1.068-3.765C1.051-6.378.051-7.972-2.815-7.972c-1.747 0-3.477.782-3.628 2.647h1.067c.238-1.29 1.374-1.747 2.561-1.747C-.847-7.072 0-5.902 0-3.765v1.187h-.034C-.526-3.646-1.56-4.377-2.815-4.377c-2.798 0-3.951 2.002-3.951 4.494 0 2.409 1.424 4.41 3.951 4.41 1.272 0 2.357-.798 2.781-1.763H0v1.508h1.068z" transform="translate(78.145 7.972)"/>
    <path style="fill:#000;fill-opacity:1;fill-rule:nonzero;stroke:none" d="M0 0c-.406 1.867-1.949 2.934-3.714 2.934-3.204 0-4.561-2.679-4.561-5.324s1.357-5.325 4.561-5.325c2.238 0 3.663 1.729 3.883 3.882h1.154C1-6.799-.882-8.699-3.714-8.699c-3.815 0-5.715 3.002-5.715 6.309 0 3.306 1.9 6.308 5.715 6.308C-1.425 3.918.849 2.545 1.153 0z" transform="translate(95.013 11.938)"/>
    <path style="fill:#000;fill-opacity:1;fill-rule:nonzero;stroke:none" d="M0 0c0-1.864 1.019-3.729 3.07-3.729S6.139-1.864 6.139 0c0 1.866-1.017 3.731-3.069 3.731S0 1.866 0 0m7.208 0c0-2.51-1.459-4.629-4.138-4.629S-1.067-2.51-1.067 0 .391 4.631 3.07 4.631 7.208 2.51 7.208 0" transform="translate(98.722 7.868)"/>
    <path style="fill:#000;fill-opacity:1;fill-rule:nonzero;stroke:none" d="M0 0h.983v-1.476h.051C1.595-.424 2.51.255 3.9.255c1.154 0 2.188-.561 2.51-1.714C6.937-.306 8.038.255 9.192.255c1.915 0 2.9-1.001 2.9-3.07V-8.75h-1.07v5.883c0 1.443-.543 2.222-2.068 2.222-1.848 0-2.374-1.525-2.374-3.154V-8.75H5.511v5.935c.017 1.186-.474 2.17-1.83 2.17-1.85 0-2.596-1.391-2.613-3.222V-8.75H0Z" transform="translate(107.69 12.244)"/>
    <path style="fill:#000;fill-opacity:1;fill-rule:nonzero;stroke:none" d="M0 0c-2.357 0-3.069-1.747-3.069-3.731 0-1.814.797-3.73 3.069-3.73 2.035 0 2.866 1.916 2.866 3.73S2.035 0 0 0m-4.138.645h.984v-1.663h.034C-2.628.17-1.407.899 0 .899c2.662 0 3.935-2.154 3.935-4.63S2.662-8.36 0-8.36c-1.306 0-2.577.662-3.035 1.917h-.034v-4.903h-1.069z" transform="translate(126.119 11.6)"/>
    <path style="fill:#000;fill-opacity:1;fill-rule:nonzero;stroke:none" d="M0 0h-.033c-.137-.254-.612-.339-.9-.389-1.814-.322-4.069-.305-4.069-2.019 0-1.068.948-1.729 1.949-1.729C-1.425-4.137.017-3.103 0-1.39zm-5.698 1.29c.101 2.051 1.544 2.934 3.545 2.934 1.543 0 3.221-.476 3.221-2.816v-4.647c0-.406.203-.644.627-.644a1 1 0 0 1 .34.069v-.9a3 3 0 0 0-.695-.067c-1.085 0-1.256.609-1.256 1.525H.051c-.746-1.135-1.51-1.78-3.189-1.78-1.61 0-2.933.796-2.933 2.561 0 2.458 2.39 2.543 4.698 2.814C-.491.442 0 .561 0 1.527c0 1.442-1.034 1.797-2.289 1.797-1.323 0-2.307-.61-2.34-2.034z" transform="translate(137.427 8.275)"/>
    <path style="fill:#000;fill-opacity:1;fill-rule:nonzero;stroke:none" d="M0 0h1.069v-1.509h.034C1.493-.458 2.663.255 3.9.255c2.459 0 3.205-1.29 3.205-3.376V-8.75H6.038v5.459c0 1.51-.492 2.646-2.223 2.646-1.695 0-2.712-1.288-2.746-3.001V-8.75H0Z" transform="translate(140.849 12.244)"/>
    <path style="fill:#000;fill-opacity:1;fill-rule:nonzero;stroke:none" d="M0 0h1.136l2.883-7.462L6.716 0h1.067L3.984-10.09c-.609-1.476-.965-1.9-2.305-1.9-.424.016-.644.016-.814.085v.899c.254-.052.491-.085.729-.085.95 0 1.17.561 1.527 1.373l.372 1.001z" transform="translate(148.952 12.244)"/>
    <path style="fill:#000;fill-opacity:1;fill-rule:nonzero;stroke:none" d="M0 0c-.258 1.762-1.709 2.976-5.753 2.976-2.972 0-4.608-.821-4.608-2.51 0-.859.632-1.359 1.968-1.575C-6.167-1.468.632-2.438 3.23-2.87c4.938-.821 7.91-2.76 7.91-7.276 0-8.682-11.661-8.755-15.299-8.755-8.983 0-15.484 1.541-16.004 8.683h10.47c.221-1.937 1.34-3.158 5.942-3.158 2.227 0 4.642.503 4.642 2.687 0 1.368-1.114 1.834-4.195 2.3l-8.834 1.29c-5.461.789-7.578 3.442-7.578 7.244 0 3.374 2.151 8.144 13.772 8.144C3.678 8.289 9.472 6.061 10.027 0Z" transform="translate(76.26 49.762)"/>
    <path style="fill:#000;fill-opacity:1;fill-rule:nonzero;stroke:none" d="M88.438 57.258h8.84V31.653h-8.84z"/>
    <path style="fill:#000;fill-opacity:1;fill-rule:nonzero;stroke:none" d="M0 0h28.298v-5.736h-9.73v-19.869H9.732v19.869H0z" transform="translate(98.536 57.26)"/>
    <path style="fill:#000;fill-opacity:1;fill-rule:nonzero;stroke:none" d="M0 0h8.834v-15.171c0-4.162 2.008-5.487 6.052-5.487 4.051 0 6.058 1.325 6.058 5.487V0h8.835v-16.569c0-7.064-5.497-9.829-14.893-9.829C5.494-26.398 0-23.633 0-16.569Z" transform="translate(127.987 57.26)"/>
    <path style="fill:#000;fill-opacity:1;fill-rule:nonzero;stroke:none" d="M0 0h-8.84v-5.933c3.166.268 6.142.691 8.84 1.22z" transform="translate(21.601 57.26)"/>
    <path style="fill:#000;fill-opacity:1;fill-rule:nonzero;stroke:none" d="M0 0v-19.663h8.84V.445C7.215.289 5.54.168 3.825.09A96 96 0 0 0 0 0" transform="translate(12.762 51.317)"/>
    <path style="fill:#000;fill-opacity:1;fill-rule:nonzero;stroke:none" d="M0 0h-10.17v-4.263C-5.485-3.168-1.853-1.717.094-.121z" transform="translate(33.89 57.26)"/>
    <path style="fill:#000;fill-opacity:1;fill-rule:nonzero;stroke:none" d="M0 0v-16.031h-.076L-10.305-2.683c-3.294-1.11-7.498-2.012-12.234-2.582v-20.34h8.542v16.174h.07l12.698-16.174h9.771V0Z" transform="translate(46.258 57.26)"/>
    <path style="fill:#000;fill-opacity:1;fill-rule:nonzero;stroke:none" d="m0 0-3.134-.94 7.266-3.262-8.789-2.008 2.519-.96L22.563-.619l-.322.557L11.142-2.6Z" transform="translate(22.094 86.522)"/>
    <path style="fill:#000;fill-opacity:1;fill-rule:nonzero;stroke:none" d="M0 0a5.26 5.26 0 0 1-2.155 4.202c-2.421 1.785-5.877 1.34-7.732-.992A5.2 5.2 0 0 1-11.012.147c-3.864.529-6.491 1.827-6.785 3.678-.466 2.96 5.177 6.3 12.965 7.88a47 47 0 0 1-2.351-.287c-8.965-1.331-15.813-5.04-15.294-8.286.404-2.538 5.178-4.039 11.52-3.943a5.26 5.26 0 0 1 2.098-3.446c2.417-1.786 5.88-1.345 7.729.993A5.2 5.2 0 0 1-.074-.926c7.773-1.004 13.02-3.17 13.148-5.905.046-.935-.52-1.862-1.594-2.745l1.968-2.562c4.71 1.583 7.572 3.589 7.474 5.657C20.752-2.913 11.857-.308 0 0" transform="translate(22.504 66.715)"/>
  </g>
</svg>
