<?xml version="1.0" encoding="UTF-8"?>
<svg width="120px" height="82px" viewBox="0 0 120 82" version="1.1" xmlns="http://www.w3.org/2000/svg" xmlns:xlink="http://www.w3.org/1999/xlink">
    <!-- Generator: Sketch 48.2 (47327) - http://www.bohemiancoding.com/sketch -->
    <title>horizontal_4color_Name_on white</title>
    <desc>Created with Sketch.</desc>
    <defs>
        <polygon id="path-1" points="0.0397804893 0.512505304 16.8622864 0.512505304 16.8622864 78.4007143 0.0397804893 78.4007143"></polygon>
    </defs>
    <g id="Page-1" stroke="none" stroke-width="1" fill="none" fill-rule="evenodd">
        <g id="horizontal_4color_Name_on-white">
            <g id="Group-3" transform="translate(0.000000, 1.326016)">
                <mask id="mask-2" fill="white">
                    <use xlink:href="#path-1"></use>
                </mask>
                <g id="Clip-2"></g>
                <polygon id="Fill-1" fill="#D2AA30" mask="url(#mask-2)" points="0.0397804893 78.4007143 16.8622864 78.4007143 16.8622864 0.512505304 0.0397804893 0.512505304"></polygon>
            </g>
            <path d="M54.1001394,76.8008756 C51.1782625,79.7267306 46.344933,81.1873376 39.3767173,81.1873376 C32.521213,81.1873376 27.6885466,79.7267306 24.6526322,76.8008756 C21.057139,73.2080344 21.1685244,68.1486192 21.1685244,64.8905971 L21.1685244,16.7847144 C21.1685244,13.5266924 21.057139,8.4712552 24.6526322,4.87178392 C27.6885466,1.83852161 32.521213,0.377914648 39.3767173,0.377914648 C46.344933,0.377914648 51.1782625,1.83852161 54.1001394,4.87178392 C57.6962957,8.4712552 57.6962957,13.5266924 57.6962957,16.7847144 L57.6962957,41.4857463 L41.4744751,41.4857463 L41.4744751,13.5266924 C40.9560028,12.7416907 40.165034,12.1787968 39.3767173,12.1787968 C38.5917157,12.1787968 37.7980949,12.7416907 37.2809485,13.5266924 L37.2809485,68.1486192 C37.7980949,68.8235615 38.5917157,69.4965148 39.3767173,69.4965148 C40.165034,69.4965148 40.9560028,68.8235615 41.4744751,68.1486192 L41.4744751,45.6295472 L57.6962957,45.6295472 L57.6962957,64.8905971 C57.6962957,68.1486192 57.6962957,73.2080344 54.1001394,76.8008756" id="Fill-4" fill="#2F90C2"></path>
            <polyline id="Fill-5" fill="#636463" points="78.7043721 20.40275 78.7043721 24.5770493 98.9055675 24.5770493 98.9055675 41.4598889 78.7043721 41.4598889 78.7043721 79.7267306 61.8454007 79.7267306 61.8454007 1.83852161 98.8816992 1.83852161 98.8816992 20.40275 78.7043721 20.40275"></polyline>
            <path d="M115.865316,76.8022017 C112.942776,79.7267306 108.108121,81.1873376 101.139242,81.1873376 C94.1677112,81.1873376 89.4490822,79.7267306 86.4151569,76.8008756 C82.8203267,73.2080344 82.931049,68.1486192 82.931049,64.8912602 C82.931049,64.8912602 82.931049,84.0084373 82.931049,45.6295472 L99.0381692,45.6295472 L99.0381692,68.1486192 C99.5553155,68.8235615 100.350262,69.4965148 101.139242,69.4965148 C101.924907,69.4965148 102.715875,68.8235615 103.235674,68.1486192 L103.235674,1.83852161 L119.346109,1.83852161 L119.346109,64.8912602 C119.346109,68.1486192 119.464124,73.2080344 115.865316,76.8022017" id="Fill-6" fill="#4C8E4A"></path>
        </g>
    </g>
</svg>