<svg xmlns="http://www.w3.org/2000/svg" width="182.494" height="40.184" viewBox="0 0 182.494 40.184">
    <defs>
        <style>
            .cls-1{fill:#ed7203}.cls-1,.cls-2{fill-rule:evenodd}.cls-2,.cls-3{fill:#929191}
        </style>
    </defs>
    <g id="Logo">
        <g id="Group_196" data-name="Group 196">
            <path id="Path_591" d="M20.092 115a4.129 4.129 0 0 0-2.935 1.219c-.088.088-.17.18-.248.274l-.025.03c-1.72 2.09-1.29 5.536-5.557 9.8s-7.716 3.836-9.806 5.559l-.026.021a4.295 4.295 0 0 0-.276.25 4.142 4.142 0 1 0 5.858 5.858c.087-.087.168-.178.245-.27l.031-.037c1.717-2.09 1.29-5.536 5.554-9.8s7.711-3.837 9.8-5.555l.035-.029c.093-.078.184-.159.272-.246A4.143 4.143 0 0 0 20.092 115z" class="cls-1" data-name="Path 591" transform="translate(0 -99.049)"/>
            <path id="Path_592" d="M238.28 234.138a4.143 4.143 0 1 1-4.143-4.143 4.143 4.143 0 0 1 4.143 4.143z" class="cls-2" data-name="Path 592" transform="translate(-198.096 -198.096)"/>
            <path id="Path_593" d="M238.28 4.143A4.143 4.143 0 1 1 234.138 0a4.143 4.143 0 0 1 4.142 4.143z" class="cls-2" data-name="Path 593" transform="translate(-198.096)"/>
            <path id="Path_594" d="M238.28 119.139a4.143 4.143 0 1 1-4.142-4.139 4.143 4.143 0 0 1 4.142 4.139z" class="cls-2" data-name="Path 594" transform="translate(-198.096 -99.047)"/>
            <path id="Path_595" d="M123.282 234.138a4.143 4.143 0 1 1-4.143-4.143 4.143 4.143 0 0 1 4.143 4.143z" class="cls-2" data-name="Path 595" transform="translate(-99.047 -198.096)"/>
            <path id="Path_596" d="M123.282 4.143A4.143 4.143 0 1 1 119.139 0a4.143 4.143 0 0 1 4.143 4.143z" class="cls-2" data-name="Path 596" transform="translate(-99.047)"/>
            <path id="Path_597" d="M8.286 4.143A4.143 4.143 0 1 1 4.143 0a4.143 4.143 0 0 1 4.143 4.143z" class="cls-2" data-name="Path 597"/>
            <path id="Path_598" d="M8.286 119.139A4.143 4.143 0 1 1 4.143 115a4.143 4.143 0 0 1 4.143 4.139z" class="cls-2" data-name="Path 598" transform="translate(0 -99.047)"/>
        </g>
        <g id="Group_198" data-name="Group 198" transform="translate(52.738 4.863)">
            <g id="Group_197" data-name="Group 197">
                <path id="Path_599" d="M386.9 47.35V35.659h1.482V47.35z" class="cls-3" data-name="Path 599" transform="translate(-385.977 -35.577)"/>
                <path id="Path_600" d="M442.994 38.425v8.925h-1.482V35.659h1.153l7.245 9.106v-9.09h1.482V47.35h-1.252z" class="cls-3" data-name="Path 600" transform="translate(-433.015 -35.577)"/>
                <path id="Path_601" d="M558.153 36.976h-4.034V47.35h-1.482V36.976H548.6v-1.317h9.551v1.317z" class="cls-3" data-name="Path 601" transform="translate(-525.253 -35.577)"/>
                <path id="Path_602" d="M661.255 46.033v1.317h-7.937V35.659h7.789v1.317H654.8v3.787h5.483V42H654.8v4.034z" class="cls-3" data-name="Path 602" transform="translate(-615.445 -35.577)"/>
                <path id="Path_603" d="M750.777 45.259a4.736 4.736 0 0 1-3.557 1.663 4.677 4.677 0 0 1-2.165-.511 5.711 5.711 0 0 1-1.721-1.342 6.455 6.455 0 0 1-1.144-1.9 5.99 5.99 0 0 1-.42-2.206 6.2 6.2 0 0 1 1.548-4.125 5.374 5.374 0 0 1 1.729-1.293 5 5 0 0 1 2.174-.477 5.053 5.053 0 0 1 2.791.708 4.7 4.7 0 0 1 1.671 1.844l-1.136.79a3.552 3.552 0 0 0-1.4-1.515 3.909 3.909 0 0 0-1.959-.494 3.374 3.374 0 0 0-1.614.387 3.97 3.97 0 0 0-1.235 1.021 4.7 4.7 0 0 0-.79 1.465 5.349 5.349 0 0 0-.28 1.721 4.98 4.98 0 0 0 .313 1.77 4.847 4.847 0 0 0 .856 1.465 3.973 3.973 0 0 0 1.284 1 3.624 3.624 0 0 0 1.614.362 4.432 4.432 0 0 0 3.441-1.844V42.13h-2.519v-1.12h3.771v5.83h-1.251v-1.581z" class="cls-3" data-name="Path 603" transform="translate(-691.629 -35.066)"/>
                <path id="Path_604" d="M855.746 47.35V35.659h5.006a3.175 3.175 0 0 1 1.424.321 3.588 3.588 0 0 1 1.12.856 4.086 4.086 0 0 1 .733 1.2 3.67 3.67 0 0 1 .264 1.359 4.019 4.019 0 0 1-.173 1.177 3.643 3.643 0 0 1-.494 1.029 3.309 3.309 0 0 1-.774.79 3.018 3.018 0 0 1-1.013.477l2.832 4.479h-1.68l-2.667-4.2h-3.1v4.2h-1.482zm1.482-5.516h3.54a1.739 1.739 0 0 0 .832-.2 1.975 1.975 0 0 0 .634-.535 2.59 2.59 0 0 0 .412-.782 2.892 2.892 0 0 0 .148-.922 2.5 2.5 0 0 0-.173-.93 2.735 2.735 0 0 0-.461-.774 2.1 2.1 0 0 0-.675-.527 1.834 1.834 0 0 0-.815-.189h-3.441z" class="cls-3" data-name="Path 604" transform="translate(-789.798 -35.577)"/>
                <path id="Path_605" d="M953.381 35.659h1.251l4.775 11.691h-1.581l-1.383-3.425h-4.907l-1.366 3.425h-1.581zm2.734 7.114l-2.108-5.4-2.173 5.4z" class="cls-3" data-name="Path 605" transform="translate(-869.764 -35.577)"/>
                <path id="Path_606" d="M1055.139 36.976h-4.039V47.35h-1.482V36.976h-4.034v-1.317h9.551v1.317z" class="cls-3" data-name="Path 606" transform="translate(-953.31 -35.577)"/>
                <path id="Path_607" d="M1158.241 46.033v1.317h-7.941V35.659h7.789v1.317h-6.307v3.787h5.483V42h-5.483v4.034z" class="cls-3" data-name="Path 607" transform="translate(-1043.503 -35.577)"/>
                <path id="Path_608" d="M1245.88 47.35V35.659h4.051a6.136 6.136 0 0 1 2.462.461 5.026 5.026 0 0 1 1.77 1.251 5.217 5.217 0 0 1 1.062 1.852 7.117 7.117 0 0 1 .354 2.264 6.97 6.97 0 0 1-.4 2.412 5.166 5.166 0 0 1-1.136 1.844 5.091 5.091 0 0 1-1.786 1.186 6.2 6.2 0 0 1-2.33.42h-4.051zm8.2-5.862a5.83 5.83 0 0 0-.272-1.82 3.911 3.911 0 0 0-.807-1.424 3.766 3.766 0 0 0-1.309-.93 4.37 4.37 0 0 0-1.762-.338h-2.569v9.057h2.569a4.378 4.378 0 0 0 1.786-.346 3.58 3.58 0 0 0 1.3-.955 4.213 4.213 0 0 0 .79-1.441 5.807 5.807 0 0 0 .275-1.803z" class="cls-3" data-name="Path 608" transform="translate(-1125.823 -35.577)"/>
                <path id="Path_609" d="M388.038 180.072a2.445 2.445 0 0 0-.527-.445 4.71 4.71 0 0 0-.741-.387 5.236 5.236 0 0 0-.9-.28 4.7 4.7 0 0 0-1.013-.107 3.181 3.181 0 0 0-2 .51 1.7 1.7 0 0 0-.634 1.4 1.557 1.557 0 0 0 .181.79 1.489 1.489 0 0 0 .568.535 4.324 4.324 0 0 0 .963.387q.576.165 1.367.346a14.2 14.2 0 0 1 1.638.453 4.783 4.783 0 0 1 1.251.634 2.54 2.54 0 0 1 .79.922 2.96 2.96 0 0 1 .272 1.334 3.056 3.056 0 0 1-.329 1.457 2.921 2.921 0 0 1-.9 1.021 3.883 3.883 0 0 1-1.342.593 7.069 7.069 0 0 1-1.68.189 7.757 7.757 0 0 1-2.561-.42 7.152 7.152 0 0 1-2.2-1.227l.708-1.251a3.915 3.915 0 0 0 .683.56 5.55 5.55 0 0 0 .955.5 7.057 7.057 0 0 0 1.153.362 5.821 5.821 0 0 0 1.293.14 3.585 3.585 0 0 0 1.943-.445 1.644 1.644 0 0 0 .469-2.165 1.89 1.89 0 0 0-.65-.585 5.012 5.012 0 0 0-1.062-.436q-.634-.189-1.441-.387a14.347 14.347 0 0 1-1.564-.461 4.261 4.261 0 0 1-1.128-.593 2.236 2.236 0 0 1-.684-.84 2.784 2.784 0 0 1-.23-1.186 3.344 3.344 0 0 1 .313-1.482 3.108 3.108 0 0 1 .873-1.087 3.8 3.8 0 0 1 1.334-.667 6.066 6.066 0 0 1 1.68-.222 5.881 5.881 0 0 1 3.837 1.334z" class="cls-3" data-name="Path 609" transform="translate(-380.249 -157.776)"/>
                <path id="Path_610" d="M492.485 189.395a4.986 4.986 0 0 1-2.248-.5 5.543 5.543 0 0 1-1.737-1.334 6.056 6.056 0 0 1-1.12-1.9 6.277 6.277 0 0 1-.4-2.19 6.08 6.08 0 0 1 .42-2.239 6.175 6.175 0 0 1 1.161-1.894 5.584 5.584 0 0 1 1.754-1.309 5.018 5.018 0 0 1 2.2-.486 4.808 4.808 0 0 1 2.239.519 5.74 5.74 0 0 1 1.729 1.358 6.3 6.3 0 0 1 1.517 4.063 6.078 6.078 0 0 1-.42 2.239 6.156 6.156 0 0 1-1.153 1.885 5.542 5.542 0 0 1-1.745 1.3 5.017 5.017 0 0 1-2.197.488zm-4-5.928a5.213 5.213 0 0 0 .288 1.721 4.748 4.748 0 0 0 .815 1.474 3.939 3.939 0 0 0 1.268 1.021 3.564 3.564 0 0 0 1.647.379 3.453 3.453 0 0 0 1.68-.4 4.1 4.1 0 0 0 1.26-1.054 4.7 4.7 0 0 0 .79-1.474 5.278 5.278 0 0 0 .272-1.663 5.223 5.223 0 0 0-.288-1.721 4.571 4.571 0 0 0-.823-1.465 4.128 4.128 0 0 0-1.268-1.013 3.714 3.714 0 0 0-3.3.017 4.051 4.051 0 0 0-1.26 1.037 4.734 4.734 0 0 0-.8 1.465 5.183 5.183 0 0 0-.283 1.676z" class="cls-3" data-name="Path 610" transform="translate(-472.181 -157.779)"/>
                <path id="Path_611" d="M614.495 189.822v-11.691h1.482V188.5h6.523v1.317z" class="cls-3" data-name="Path 611" transform="translate(-582.007 -158.289)"/>
                <path id="Path_612" d="M717.891 188.57a3.314 3.314 0 0 0 1.7-.4 3.128 3.128 0 0 0 1.078-1.029 4.233 4.233 0 0 0 .568-1.449 8.352 8.352 0 0 0 .165-1.655v-5.907h1.482v5.912a9.034 9.034 0 0 1-.272 2.248 5.37 5.37 0 0 1-.864 1.869 4.176 4.176 0 0 1-1.54 1.276 5.858 5.858 0 0 1-4.652-.025 4.272 4.272 0 0 1-1.54-1.309 5.309 5.309 0 0 1-.84-1.877 9.29 9.29 0 0 1-.255-2.182v-5.912h1.479v5.912a8.109 8.109 0 0 0 .173 1.688 4.266 4.266 0 0 0 .576 1.441 3.1 3.1 0 0 0 1.07 1.013 3.289 3.289 0 0 0 1.672.386z" class="cls-3" data-name="Path 612" transform="translate(-666.779 -158.288)"/>
                <path id="Path_613" d="M838.464 179.448h-4.034v10.374h-1.482v-10.374h-4.034v-1.317h9.551v1.317z" class="cls-3" data-name="Path 613" transform="translate(-766.686 -158.289)"/>
                <path id="Path_614" d="M943.128 189.822v-11.691h1.482v11.691z" class="cls-3" data-name="Path 614" transform="translate(-865.06 -158.289)"/>
                <path id="Path_615" d="M1007.275 189.395a4.986 4.986 0 0 1-2.248-.5 5.544 5.544 0 0 1-1.737-1.334 6.059 6.059 0 0 1-1.12-1.9 6.276 6.276 0 0 1-.4-2.19 6.079 6.079 0 0 1 .42-2.239 6.175 6.175 0 0 1 1.161-1.894 5.584 5.584 0 0 1 1.754-1.309 5.018 5.018 0 0 1 2.2-.486 4.808 4.808 0 0 1 2.239.519 5.742 5.742 0 0 1 1.729 1.358 6.3 6.3 0 0 1 1.515 4.067 6.077 6.077 0 0 1-.42 2.239 6.154 6.154 0 0 1-1.153 1.885 5.543 5.543 0 0 1-1.745 1.3 5.016 5.016 0 0 1-2.195.484zm-4-5.928a5.213 5.213 0 0 0 .288 1.721 4.751 4.751 0 0 0 .815 1.474 3.941 3.941 0 0 0 1.268 1.021 3.564 3.564 0 0 0 1.647.379 3.453 3.453 0 0 0 1.68-.4 4.1 4.1 0 0 0 1.26-1.054 4.7 4.7 0 0 0 .79-1.474 5.28 5.28 0 0 0 .272-1.663 5.225 5.225 0 0 0-.288-1.721 4.572 4.572 0 0 0-.823-1.465 4.126 4.126 0 0 0-1.268-1.013 3.714 3.714 0 0 0-3.3.017 4.05 4.05 0 0 0-1.26 1.037 4.735 4.735 0 0 0-.8 1.465 5.177 5.177 0 0 0-.283 1.676z" class="cls-3" data-name="Path 615" transform="translate(-915.574 -157.779)"/>
                <path id="Path_616" d="M1130.766 180.9v8.925h-1.482v-11.694h1.153l7.245 9.106v-9.09h1.482v11.675h-1.251z" class="cls-3" data-name="Path 616" transform="translate(-1025.398 -158.289)"/>
                <path id="Path_617" d="M1255.09 180.072a2.443 2.443 0 0 0-.527-.445 4.7 4.7 0 0 0-.741-.387 5.233 5.233 0 0 0-.9-.28 4.7 4.7 0 0 0-1.013-.107 3.181 3.181 0 0 0-2 .51 1.7 1.7 0 0 0-.634 1.4 1.557 1.557 0 0 0 .181.79 1.489 1.489 0 0 0 .568.535 4.326 4.326 0 0 0 .963.387q.576.165 1.367.346a14.2 14.2 0 0 1 1.638.453 4.783 4.783 0 0 1 1.251.634 2.541 2.541 0 0 1 .79.922 2.962 2.962 0 0 1 .272 1.334 3.055 3.055 0 0 1-.329 1.457 2.919 2.919 0 0 1-.9 1.021 3.883 3.883 0 0 1-1.342.593 7.07 7.07 0 0 1-1.68.189 7.757 7.757 0 0 1-2.561-.42 7.155 7.155 0 0 1-2.2-1.227l.708-1.251a3.921 3.921 0 0 0 .683.56 5.551 5.551 0 0 0 .955.5 7.056 7.056 0 0 0 1.153.362 5.82 5.82 0 0 0 1.293.14 3.585 3.585 0 0 0 1.943-.445 1.644 1.644 0 0 0 .469-2.165 1.891 1.891 0 0 0-.65-.585 5.013 5.013 0 0 0-1.062-.436q-.634-.189-1.441-.387a14.35 14.35 0 0 1-1.564-.461 4.26 4.26 0 0 1-1.128-.593 2.234 2.234 0 0 1-.683-.84 2.782 2.782 0 0 1-.231-1.186 3.343 3.343 0 0 1 .313-1.482 3.108 3.108 0 0 1 .873-1.087 3.8 3.8 0 0 1 1.334-.667 6.065 6.065 0 0 1 1.68-.222 5.881 5.881 0 0 1 3.837 1.334z" class="cls-3" data-name="Path 617" transform="translate(-1127.047 -157.776)"/>
            </g>
        </g>
    </g>
</svg>
