<svg xmlns="http://www.w3.org/2000/svg" xmlns:xlink="http://www.w3.org/1999/xlink" preserveAspectRatio="xMidYMid" width="220" height="50" viewBox="0 0 220 50">
  <defs>
    <style>
      .cls-1 {
        opacity: 1;
      }

      .cls-2 {
        fill: #000;
        fill-rule: evenodd;
      }
    </style>
  </defs>
  <g class="cls-1">
    <path d="M196.581,50.008 L190.728,37.514 L202.444,12.494 L220.014,50.008 L196.581,50.008 ZM149.736,50.008 L173.157,-0.011 L173.160,-0.011 L196.585,-0.011 L173.163,50.008 L149.736,50.008 Z" class="cls-2"/>
    <path d="M143.805,37.492 L132.088,12.478 L137.935,-0.011 L161.363,-0.011 L143.805,37.492 ZM137.939,50.008 L114.512,50.008 L91.084,-0.011 L114.516,-0.011 L137.942,50.008 L137.939,50.008 Z" class="cls-2"/>
    <path d="M80.836,50.008 L74.986,37.518 L86.700,12.496 L104.267,50.008 L80.836,50.008 ZM33.989,50.008 L57.410,-0.011 L80.840,-0.011 L57.415,50.008 L33.989,50.008 Z" class="cls-2"/>
    <path d="M46.867,-0.011 L23.444,50.008 L0.015,50.008 L23.444,-0.011 L46.867,-0.011 Z" class="cls-2"/>
  </g>
</svg>
