<?xml version="1.0" encoding="UTF-8" standalone="no"?>
<svg
   xmlns:dc="http://purl.org/dc/elements/1.1/"
   xmlns:cc="http://creativecommons.org/ns#"
   xmlns:rdf="http://www.w3.org/1999/02/22-rdf-syntax-ns#"
   xmlns="http://www.w3.org/2000/svg"
   xmlns:xlink="http://www.w3.org/1999/xlink"
   xmlns:sodipodi="http://sodipodi.sourceforge.net/DTD/sodipodi-0.dtd"
   xmlns:inkscape="http://www.inkscape.org/namespaces/inkscape"
   width="427.34375"
   height="435.78125"
   viewBox="0 0 8.546875 8.7156249"
   version="1.1"
   inkscape:version="0.48.4 r9939"
   sodipodi:docname="Iraqi Naval Emblem.svg">
  <metadata>
    <rdf:RDF>
      <cc:Work rdf:about="">
        <dc:format>image/svg+xml</dc:format>
        <dc:type rdf:resource="http://purl.org/dc/dcmitype/StillImage" />
        <dc:title>Iraqi Naval Emblem</dc:title>
      </cc:Work>
    </rdf:RDF>
  </metadata>
  <g
     id="g3007-1"
     transform="matrix(0.02,0,0,0.02,93.505625,96.622499)">
    <path
       sodipodi:type="arc"
       style="fill:#fffefe;fill-opacity:1;stroke:#000000;stroke-width:1;stroke-linecap:square;stroke-miterlimit:4;stroke-opacity:1;stroke-dasharray:none"
       id="path7546-40"
       sodipodi:cx="-3171.0674"
       sodipodi:cy="-3021.0208"
       sodipodi:rx="152.23915"
       sodipodi:ry="94.088966"
       d="m -3060.3525,-3085.6015 c 57.7104,37.7904 54.9251,97.3393 -6.221,133.0063 -61.1462,35.667 -157.4984,33.9456 -215.2088,-3.8448 -57.7104,-37.7904 -54.9251,-97.3393 6.221,-133.0063 59.2697,-34.5725 152.0807,-34.1651 210.5498,0.9242"
       transform="matrix(-0.31502414,-0.69401108,1.3843326,-0.53451292,-1287.407,-8462.6498)"
       sodipodi:start="5.526686"
       sodipodi:end="11.766278"
       sodipodi:open="true" />
    <path
       sodipodi:type="arc"
       style="fill:#253768;fill-opacity:1;stroke:#2d98bd;stroke-width:2.98834991;stroke-linecap:square;stroke-miterlimit:4;stroke-opacity:1;stroke-dasharray:none"
       id="path7886-7"
       sodipodi:cx="-3108.584"
       sodipodi:cy="-2951.4617"
       sodipodi:rx="190.15935"
       sodipodi:ry="190.15935"
       d="m -2918.4246,-2951.4617 c 0,105.0221 -85.1373,190.1594 -190.1594,190.1594 -105.0221,0 -190.1593,-85.1373 -190.1593,-190.1594 0,-105.0221 85.1372,-190.1593 190.1593,-190.1593 105.0221,0 190.1594,85.1372 190.1594,190.1593 z"
       transform="matrix(1.0078226,0,0,0.99998975,-1327.8402,-1664.4956)" />
    <path
       style="fill:#97584e;fill-opacity:1;stroke:#000000;stroke-width:1px;stroke-linecap:butt;stroke-linejoin:miter;stroke-opacity:1"
       d="m -4482.1963,-4825.093 12.6917,-5.2058 c 31.2838,-0.254 39.852,7.5253 22.5417,16.194 -6.7093,-1.0334 -19.1727,0.4127 -22.7493,-0.3916 -5.37,-2.6357 -5.5474,-7.5486 -12.4841,-10.5966 z"
       id="path8404-1-0-9-2-4-0-5-9-5"
       inkscape:connector-curvature="0"
       sodipodi:nodetypes="ccccc" />
    <path
       style="fill:#97584e;fill-opacity:1;stroke:#000000;stroke-width:1px;stroke-linecap:butt;stroke-linejoin:miter;stroke-opacity:1"
       d="m -4504.5899,-4823.9562 12.4405,-5.7806 c 12.1852,3.1082 20.5562,10.6244 23.2584,15.1466 -6.7495,-0.7256 -19.1338,1.2888 -22.7434,0.6488 -5.4849,-2.3875 -5.8867,-7.2871 -12.9555,-10.0148 z"
       id="path8404-1-0-9-2-4-0-5-3"
       inkscape:connector-curvature="0"
       sodipodi:nodetypes="ccccc" />
    <path
       style="fill:#97584e;fill-opacity:1;stroke:#000000;stroke-width:1px;stroke-linecap:butt;stroke-linejoin:miter;stroke-opacity:1"
       d="m -4520.5227,-4818.1004 10.95,-7.3095 c 12.4423,1.8247 20.847,7.7277 24.0047,11.9445 l -10.0437,2.0475 c -5.2692,-2.6832 -14.7642,-3.9382 -24.911,-6.6825 z"
       id="path8404-1-0-9-2-4-0-39-82"
       inkscape:connector-curvature="0"
       sodipodi:nodetypes="ccccc" />
    <path
       style="fill:#bba456;fill-opacity:1;stroke:#000000;stroke-width:1px;stroke-linecap:butt;stroke-linejoin:miter;stroke-opacity:1"
       d="m -4470.8508,-4704.0248 0.094,12.9688 -16.2813,0.031 c -0.8217,-5.0354 -21.4039,-15.2104 -23.3125,8.9375 -1.3381,19.1236 21.1758,12.2835 23.0938,6.5 l 17,-0.1563 0,148.1876 c -11.6423,39.8971 -37.6704,15.1742 -65.2813,-16.625 l 20,-3.0938 -50.4063,-25.2188 2.9063,49.5 9.8437,-13.1562 c 20.1295,41.617 43.3164,57.4617 74.2813,69.1562 7.7677,3.3842 12.4053,11.103 18.3437,16.9688 4.7481,-6.1897 11.103,-14.7797 18.375,-17 30.9649,-11.6945 54.1207,-27.5392 74.25,-69.1562 l 9.8438,13.1874 2.9062,-49.5312 -50.375,25.2188 19.9688,3.0937 c -27.6109,31.7993 -53.6391,56.5221 -65.2812,16.625 l 0,-148.1875 17,0.1562 c 1.9178,5.7836 24.463,12.6236 23.125,-6.5 -1.9086,-24.1479 -22.5221,-13.9729 -23.3438,-8.9374 l -16.2812,0 0.125,-13 c -6.8991,-0.2156 -13.6962,-0.053 -20.594,0.031 z"
       id="path3673-1-1-3"
       inkscape:connector-curvature="0"
       sodipodi:nodetypes="cccccccccccccccccccccccccccc" />
    <path
       sodipodi:type="arc"
       style="fill:#bba456;fill-opacity:1;stroke:#000000;stroke-width:0.69311357;stroke-linecap:square;stroke-miterlimit:4;stroke-opacity:1;stroke-dasharray:none"
       id="path3675-0-2"
       sodipodi:cx="-3062.7188"
       sodipodi:cy="-3063.4136"
       sodipodi:rx="18.519377"
       sodipodi:ry="18.519377"
       d="m -3049.2507,-3076.1249 c 7.0203,7.4382 6.6815,19.1591 -0.7567,26.1794 -7.4382,7.0203 -19.1592,6.6815 -26.1794,-0.7567 -7.0203,-7.4383 -6.6815,-19.1592 0.7567,-26.1795 7.21,-6.8048 18.5001,-6.7246 25.6127,0.1819"
       transform="matrix(1.5358104,0,0,1.5358104,243.11606,-22.705313)"
       sodipodi:start="5.526686"
       sodipodi:end="11.766278"
       sodipodi:open="true" />
    <path
       sodipodi:type="arc"
       style="fill:#253768;fill-opacity:1;stroke:#000000;stroke-width:1;stroke-linecap:square;stroke-miterlimit:4;stroke-opacity:1;stroke-dasharray:none"
       id="path3675-1"
       sodipodi:cx="-3062.7188"
       sodipodi:cy="-3063.4136"
       sodipodi:rx="18.519377"
       sodipodi:ry="18.519377"
       d="m -3049.2507,-3076.1249 c 7.0203,7.4382 6.6815,19.1591 -0.7567,26.1794 -7.4382,7.0203 -19.1592,6.6815 -26.1794,-0.7567 -7.0203,-7.4383 -6.6815,-19.1592 0.7567,-26.1795 7.21,-6.8048 18.5001,-6.7246 25.6127,0.1819"
       transform="matrix(1.064491,0,0,1.064491,-1200.4028,-1466.5515)"
       sodipodi:start="5.526686"
       sodipodi:end="11.766278"
       sodipodi:open="true" />
    <text
       xml:space="preserve"
       style="font-size:39.51364899px;font-style:normal;font-weight:normal;line-height:125%;letter-spacing:0px;word-spacing:0px;fill:#000000;fill-opacity:1;stroke:none;font-family:Sans"
       x="-3971.2922"
       y="-5072.019"
       id="text7400-8-0-4-0"
       sodipodi:linespacing="125%"
       transform="scale(1.1322339,0.88320974)"><tspan
         sodipodi:role="line"
         id="tspan7402-6-2-9-9"
         x="-3971.2922"
         y="-5072.019"
         style="font-weight:bold;font-family:Times New Roman;-inkscape-font-specification:Times New Roman">IqN</tspan></text>
    <g
       transform="matrix(0.99963271,0.02815952,-0.02710053,1.0386949,-3116.7222,-1386.9164)"
       style="font-size:40px;font-style:normal;font-weight:normal;line-height:125%;letter-spacing:0px;word-spacing:0px;fill:#bba456;fill-opacity:1;stroke:none;font-family:Sans"
       id="text7521-5-8-9-8">
      <path
         d="m -1276.1591,-3174.7105 -5.5231,0.4945 -0.2758,-3.8898 -4.2091,0.4868 -0.4169,-5.0583 5.2444,-0.4824 0.4746,3.9304 4.3418,-0.4596 z m -25.3574,19.4766 -9.1527,-13.8541 5.4298,-3.5873 7.9131,11.9777 c 1.1578,-0.765 1.9609,-1.3434 2.4094,-1.7352 0.6882,-0.6077 1.2019,-1.2625 1.5411,-1.9644 -1.1065,0.1192 -2.1167,-0.035 -3.0307,-0.4639 -0.9139,-0.4285 -1.6391,-1.0487 -2.1754,-1.8605 -0.7034,-1.0647 -0.9442,-2.196 -0.7224,-3.394 0.2217,-1.1979 0.865,-2.1486 1.9297,-2.852 1.5703,-1.0375 3.75,-1.7893 6.5391,-2.2554 3.0635,-0.5137 4.9513,-0.2315 5.6635,0.8465 0.9231,1.3974 0.5759,3.5194 -1.0419,6.3661 -1.6178,2.8466 -3.7841,5.1668 -6.499,6.9604 z m 10.573,-13.2077 c 0.3881,-0.7726 0.6152,-1.3766 0.6812,-1.8121 0.066,-0.4355 -0.01,-0.8129 -0.2176,-1.1323 -0.2638,-0.3993 -0.6809,-0.6399 -1.2512,-0.7219 -0.5704,-0.082 -1.0951,0.035 -1.5742,0.3518 -0.3061,0.2022 -0.4809,0.4945 -0.5245,0.877 -0.044,0.3825 0.062,0.7667 0.317,1.1527 0.2022,0.3061 0.4964,0.5561 0.8827,0.7502 0.3863,0.1941 0.9485,0.3723 1.6866,0.5346 z"
         style="font-size:49px;font-weight:bold;fill:#bba456"
         id="path7850-9"
         inkscape:connector-curvature="0" />
      <path
         d="m -1310.3957,-3168.431 -9.8871,-11.2504 4.8883,-4.296 8.3077,9.4532 c 0.6989,-0.8477 1.1773,-1.6928 1.435,-2.5352 0.1536,-0.4534 0.3242,-1.3466 0.5119,-2.6795 l 5.5409,-2.3212 c -0.2288,1.7936 -0.7555,3.3448 -1.5801,4.6535 -0.8248,1.3087 -2.3334,2.9265 -4.5259,4.8534 z m -3.4158,2.4923 -5.4036,1.245 -0.805,-3.8155 -4.1031,1.0577 -1.1046,-4.9537 5.1292,-1.195 1.0076,3.8286 4.2381,-1.049 z"
         style="font-size:49px;font-weight:bold;fill:#bba456"
         id="path7852-1"
         inkscape:connector-curvature="0" />
      <path
         d="m -1319.7956,-3178.9638 -2.485,-2.246 c -1.3845,-1.2513 -1.8711,-2.7231 -1.4597,-4.4153 0.4474,-1.8746 2.0134,-4.297 4.6979,-7.2672 l 4.5722,-5.0588 c 1.0375,-1.1478 1.6852,-2.1856 1.9433,-3.1134 0.1242,-0.4467 0.1703,-1.2113 0.1382,-2.2939 l 5.9277,-2.7049 c -0.1693,1.5671 -0.5349,2.9351 -1.097,4.104 -0.6538,1.3657 -1.7347,2.8827 -3.2427,4.5512 l -3.1605,3.4968 c -2.2353,2.4732 -3.6205,4.3388 -4.1554,5.5967 -0.4349,1.0045 -0.3683,1.7634 0.1997,2.2768 l 2.485,2.246 z"
         style="font-size:49px;font-weight:bold;fill:#bba456"
         id="path7854-7"
         inkscape:connector-curvature="0" />
      <path
         d="m -1328.9525,-3187.3622 -8.8767,-6.2188 c -0.8623,-0.6041 -1.3938,-1.2491 -1.5948,-1.9352 -0.2506,-0.8377 -0.024,-1.7595 0.6812,-2.7654 0.4027,-0.5748 0.8668,-1.1748 1.3923,-1.7998 0.5256,-0.6251 1.0851,-1.2361 1.6786,-1.8331 l 0.772,0.4825 c -0.2158,0.5305 -0.2173,1.026 0,1.4867 0.2128,0.4607 0.5739,0.8696 1.0834,1.2265 l 6.7409,4.7224 c 1.0448,-2.1308 1.5976,-4.0319 1.6584,-5.7032 0.054,-1.3838 -0.225,-2.8062 -0.8373,-4.2674 l 5.694,-5.1254 c 0.8105,2.457 0.8684,4.9319 0.1736,7.4249 -0.6373,2.2995 -2.0221,4.9712 -4.1545,8.0151 z"
         style="font-size:49px;font-weight:bold;fill:#bba456"
         id="path7856-3"
         inkscape:connector-curvature="0" />
      <path
         d="m -1333.6186,-3223.7931 -4.5698,3.1411 -2.149,-3.2539 -3.4287,2.4895 -2.8453,-4.2028 4.3328,-2.9938 2.3422,3.1918 3.5576,-2.5311 z m -7.5972,17.4268 c -0.4369,0.8515 -0.9466,1.6791 -1.5293,2.4827 -0.5826,0.8036 -1.1224,1.4275 -1.6192,1.8717 -0.9508,0.8747 -2.4179,1.3231 -4.4012,1.3452 -1.8408,0.024 -3.3998,-0.2922 -4.677,-0.9476 -1.1069,-0.5679 -1.7902,-1.4026 -2.0498,-2.5039 -0.2596,-1.1013 -0.062,-2.2905 0.5936,-3.5678 0.5971,-1.1636 1.35,-2.2205 2.2588,-3.1705 0.9087,-0.95 2.2328,-2.0544 3.9723,-3.3132 l -0.5042,-0.9041 c 0.5762,-0.529 1.3086,-1.1527 2.1971,-1.8711 0.8885,-0.7184 1.6598,-1.3131 2.3139,-1.7843 l 1.4526,2.3051 c 0.6242,1.0195 1.1841,2.0597 1.6795,3.1206 0.7123,1.477 1.0899,2.7151 1.133,3.7142 0.043,0.9992 -0.2303,2.0735 -0.8201,3.223 z m -4.0243,0.087 c 0.1384,-0.2696 -0.067,-1.0832 -0.6165,-2.4408 -0.5495,-1.3575 -1.143,-2.5854 -1.7807,-3.6835 -1.6437,0.9673 -2.7095,1.9264 -3.1974,2.8772 -0.233,0.4542 -0.2452,0.9409 -0.037,1.4603 0.2086,0.5193 0.5754,0.9137 1.1005,1.1831 0.7096,0.3641 1.6111,0.6161 2.7047,0.7559 1.0936,0.1398 1.7022,0.089 1.826,-0.1522 z"
         style="font-size:49px;font-weight:bold;fill:#bba456"
         id="path7858-3"
         inkscape:connector-curvature="0" />
      <path
         d="m -1372.4659,-3217.4987 c -0.3858,1.3661 -0.8992,2.5678 -1.5402,3.605 -0.641,1.0372 -1.6907,2.3775 -3.1493,4.0208 l -1.2254,-0.9428 c 0.9233,-1.8608 1.5583,-3.4052 1.9051,-4.6332 0.2645,-0.9363 0.5757,-2.3318 0.9338,-4.1865 0.358,-1.8547 0.6722,-3.701 0.9427,-5.5389 0.2704,-1.838 0.4915,-4.0587 0.6632,-6.6621 0.059,-0.9116 0.1334,-1.5286 0.2244,-1.851 0.1344,-0.4758 0.601,-1.2183 1.3999,-2.2276 0.7988,-1.0091 1.8577,-2.2059 3.1769,-3.5903 l -0.9205,8.5411 c -0.3691,3.2438 -0.7747,6.0298 -1.2167,8.3579 -0.3407,1.7933 -0.7387,3.4958 -1.1939,5.1076 z"
         style="font-size:49px;font-weight:bold;fill:#bba456"
         id="path7860-0"
         inkscape:connector-curvature="0" />
      <path
         d="m -1383.389,-3213.3419 -12.8957,-2.6198 1.2955,-6.3775 10.0822,2.0481 0.3971,-16.4967 -1.3006,-1.2896 c 0.1874,-0.9222 0.517,-1.8237 0.9889,-2.7045 0.6008,-1.1149 1.4978,-2.4057 2.691,-3.8723 l 0.9642,0.7818 c -0.019,0.094 -0.1011,0.3376 -0.2462,0.7313 -0.1048,0.5158 0.1218,1.0827 0.6799,1.7006 0.4895,0.5552 1.3133,1.2271 2.4714,2.0158 -0.3439,0.9718 -0.7495,1.9067 -1.2167,2.8046 -0.4672,0.898 -0.949,1.6871 -1.4453,2.3676 l -0.7774,-0.4998 -0.3927,15.0328 z"
         style="font-size:49px;font-weight:bold;fill:#bba456"
         id="path7862-7"
         inkscape:connector-curvature="0" />
      <path
         d="m -1395.0483,-3244.7559 -3.1554,4.5599 -3.165,-2.278 -2.3204,3.5455 -4.153,-2.9176 2.9863,-4.338 3.3235,2.1512 2.426,-3.6299 z m -0.2104,28.9369 -17.4538,-1.9419 0.7196,-6.4679 4.2803,0.4763 c 0.7292,0.081 1.4152,0.1895 2.0582,0.3252 1.7226,0.3843 3.6883,0.8197 5.8971,1.3061 -2.3039,-0.7859 -3.8794,-1.6633 -4.7265,-2.6323 -0.8471,-0.9689 -1.1789,-2.2777 -0.9955,-3.9263 0.2734,-2.4572 1.0866,-4.6096 2.4397,-6.4571 1.353,-1.8476 2.735,-2.6928 4.1459,-2.5359 1.6011,0.1782 2.8462,1.717 3.7353,4.6164 0.8891,2.8995 1.1158,6.307 0.6802,10.2226 z m -2.136,-10.2281 c -0.419,-1.4268 -0.9349,-2.5595 -1.5478,-3.398 -0.6128,-0.8385 -1.268,-1.2966 -1.9655,-1.3742 -0.3171,-0.035 -0.606,0.037 -0.8667,0.2165 -0.2607,0.1796 -0.407,0.4121 -0.4387,0.6975 -0.076,0.6817 0.3618,1.4004 1.3128,2.1562 0.9511,0.7558 2.1197,1.3231 3.5059,1.702 z"
         style="font-size:49px;font-weight:bold;fill:#bba456"
         id="path7864-6"
         inkscape:connector-curvature="0" />
      <path
         d="m -1411.9109,-3219.4429 c 0.024,2.7434 -1.1177,5.4648 -3.4235,8.1643 -2.3058,2.6995 -4.5912,4.0589 -6.856,4.0782 -1.3239,0.011 -2.775,-0.399 -4.3532,-1.2309 -1.5783,-0.8319 -4.005,-2.4781 -7.28,-4.9385 l 0.9929,-1.3962 c 1.7325,1.1337 3.1506,1.8872 4.2544,2.2606 0.9118,0.3112 1.942,0.4619 3.0904,0.4521 1.5471,-0.013 3.0746,-0.4569 4.5825,-1.3312 1.7777,-1.036 3.6138,-2.6947 5.5085,-4.9759 -0.6691,0.1014 -1.2269,0.154 -1.6735,0.1579 -1.5791,0.014 -2.8395,-0.4902 -3.7814,-1.511 -0.9418,-1.0208 -1.4203,-2.4164 -1.4355,-4.1869 -0.02,-2.3924 0.5102,-4.7019 1.5918,-6.9284 1.1756,-2.4186 2.5291,-3.6345 4.0603,-3.6476 1.276,-0.011 2.368,0.8491 3.2761,2.58 0.908,1.731 1.3725,3.8246 1.3935,6.2808 z m -2.9124,-4.8323 c -0.4686,-2.5641 -1.3887,-3.8403 -2.7604,-3.8286 -0.4945,0 -0.8875,0.203 -1.1793,0.5963 -0.2917,0.3933 -0.4356,0.8212 -0.4316,1.2838 0,0.5742 0.3239,1.046 0.9572,1.4154 0.6332,0.3695 1.4682,0.5498 2.5049,0.5409 z"
         style="font-size:49px;font-weight:bold;fill:#bba456"
         id="path7866-6"
         inkscape:connector-curvature="0" />
      <path
         d="m -1441.4914,-3244.7063 -1.996,5.1735 -3.6115,-1.4708 -1.4227,3.9913 -4.7221,-1.8604 1.8837,-4.9181 3.7359,1.3104 1.5055,-4.0983 z m 3.5768,18.6713 c 0.1206,0.9495 0.1675,1.9203 0.1407,2.9125 -0.027,0.9922 -0.1196,1.812 -0.2786,2.4592 -0.2903,1.2589 -1.2475,2.4577 -2.8716,3.5965 -1.5055,1.0594 -2.9703,1.6795 -4.3944,1.8603 -1.2342,0.1568 -2.2695,-0.1459 -3.1059,-0.9079 -0.8364,-0.7621 -1.345,-1.8551 -1.5258,-3.2792 -0.1648,-1.2976 -0.1406,-2.595 0.072,-3.8922 0.2131,-1.2973 0.6817,-2.9566 1.4059,-4.978 l -0.9268,-0.4612 c 0.1765,-0.762 0.4284,-1.6904 0.7557,-2.7851 0.3273,-1.0947 0.6277,-2.0211 0.9012,-2.7794 l 2.5009,1.0812 c 1.091,0.4886 2.1406,1.0306 3.1488,1.6261 1.4221,0.8163 2.4332,1.6245 3.0332,2.4246 0.6001,0.8001 0.9814,1.841 1.1442,3.1226 z m -3.2717,2.3449 c -0.038,-0.3006 -0.6674,-0.8558 -1.8877,-1.6656 -1.2203,-0.8097 -2.4037,-1.4875 -3.5503,-2.0333 -0.8097,1.7268 -1.1473,3.1202 -1.0127,4.1804 0.064,0.5064 0.3292,0.9149 0.7948,1.2256 0.4655,0.3107 0.991,0.4288 1.5765,0.3545 0.7912,-0.1005 1.6774,-0.4019 2.6587,-0.9044 0.9813,-0.5024 1.4549,-0.8882 1.4207,-1.1572 z"
         style="font-size:49px;font-weight:bold;fill:#bba456"
         id="path7868-0"
         inkscape:connector-curvature="0" />
      <path
         d="m -1469.5807,-3218.1627 c 0.4018,1.3616 0.608,2.652 0.6186,3.8712 0.011,1.2192 -0.1631,2.9128 -0.5211,5.0806 l -1.5394,-0.1443 c -0.2107,-2.0665 -0.4967,-3.7117 -0.8579,-4.9356 -0.2755,-0.9332 -0.756,-2.2798 -1.4418,-4.0398 -0.6858,-1.76 -1.4041,-3.4896 -2.1551,-5.1889 -0.751,-1.6992 -1.7477,-3.6959 -2.9903,-5.9901 -0.4364,-0.8025 -0.702,-1.3643 -0.7968,-1.6856 -0.14,-0.4742 -0.141,-1.3512 0,-2.6309 0.1379,-1.2797 0.3959,-2.8567 0.774,-4.7312 l 3.7743,7.7169 c 1.4169,2.9413 2.5589,5.5146 3.426,7.72 0.6677,1.6989 1.2386,3.3515 1.7127,4.9577 z"
         style="font-size:49px;font-weight:bold;fill:#bba456"
         id="path7870-2"
         inkscape:connector-curvature="0" />
      <path
         d="m -1476.5404,-3208.8489 -12.3529,4.5353 -2.243,-6.109 9.6578,-3.5459 -8.3168,-14.2524 -1.7838,-0.4156 c -0.3243,-0.8834 -0.5166,-1.8238 -0.577,-2.8211 -0.073,-1.2644 0.013,-2.8339 0.2594,-4.7085 l 1.231,0.1597 c 0.033,0.09 0.091,0.3405 0.174,0.7517 0.1815,0.4942 0.6718,0.8579 1.4711,1.0911 0.708,0.2159 1.7618,0.3557 3.1615,0.4195 0.2171,1.0078 0.3623,2.0165 0.4356,3.026 0.073,1.0096 0.077,1.9342 0.012,2.7739 l -0.924,-0.018 7.5524,13.0038 z"
         style="font-size:49px;font-weight:bold;fill:#bba456"
         id="path7872-8"
         inkscape:connector-curvature="0" />
      <path
         d="m -1487.9877,-3204.7602 -3.2057,1.504 c -1.1408,0.5353 -2.2528,0.7751 -3.336,0.7195 -1.0832,-0.056 -2.1325,-0.4707 -3.1478,-1.2452 -0.3966,1.5956 -1.234,2.9839 -2.5122,4.165 -0.8473,0.7852 -1.8558,1.4522 -3.0255,2.0009 l -2.2743,1.0671 -2.7642,-5.8916 2.2743,-1.067 c 1.1985,-0.5624 2.0109,-1.0184 2.437,-1.3681 0.4262,-0.3497 0.9492,-0.9342 1.569,-1.7536 -0.8329,-0.6487 -1.4963,-1.0863 -1.9901,-1.3127 -0.5999,-0.2647 -1.1093,-0.2988 -1.528,-0.1023 -0.1589,0.074 -0.2815,0.1981 -0.3678,0.3707 -0.086,0.1727 -0.1451,0.4513 -0.1761,0.8358 l -1.014,0.3172 c -1.2263,-2.6136 -1.6507,-4.6917 -1.2733,-6.2343 0.3775,-1.5425 1.5409,-2.7711 3.4903,-3.6858 2.0072,-0.9417 3.7694,-1.2883 5.2866,-1.04 1.5173,0.2484 2.5977,1.0585 3.2413,2.4303 0.3455,0.7365 0.5242,1.5116 0.536,2.3253 0.012,0.8137 -0.1301,1.9947 -0.4256,3.5428 0.3309,0.1796 0.7069,0.2674 1.128,0.2637 0.4211,0 0.7904,-0.08 1.1081,-0.2293 l 3.2058,-1.504 z"
         style="font-size:49px;font-weight:bold;fill:#bba456"
         id="path7874-9"
         inkscape:connector-curvature="0" />
      <path
         d="m -1504.5359,-3196.461 c 0.5155,0.8252 0.7243,2.2134 0.6266,4.1645 -0.098,1.9511 -0.4697,3.8243 -1.1161,5.6197 -0.714,1.9882 -1.5715,3.2949 -2.5726,3.9202 -1.1905,0.7437 -2.6802,1.204 -4.469,1.3811 -1.5539,0.1619 -4.1407,0.1603 -7.7606,0 l 0.066,-1.7905 c 1.7246,0.051 3.0476,-0.014 3.9691,-0.1942 0.9215,-0.1807 1.8152,-0.5414 2.681,-1.0823 0.9334,-0.583 1.7021,-1.4299 2.306,-2.5406 0.6039,-1.1106 1.2629,-2.8857 1.977,-5.3253 0.995,-3.4049 1.1546,-5.6485 0.4785,-6.7308 -0.338,-0.5411 -0.9981,-1.1161 -1.9802,-1.7251 -1.1124,-0.6968 -2.2273,-1.157 -3.3448,-1.3805 l -2.286,-6.1887 c 1.5114,0.3724 2.9019,1.0177 4.1714,1.9361 1.2695,0.9185 2.3944,2.1623 3.3746,3.7315 z"
         style="font-size:49px;font-weight:bold;fill:#bba456"
         id="path7876-8"
         inkscape:connector-curvature="0" />
      <path
         d="m -1528.9273,-3189.4748 c 0.8712,1.1209 1.5344,2.2469 1.9894,3.3781 0.455,1.1312 0.9116,2.7712 1.3698,4.9201 l -1.4858,0.4277 c -0.9507,-1.8469 -1.8176,-3.2741 -2.6008,-4.2816 -0.5971,-0.7682 -1.5362,-1.8464 -2.8172,-3.2345 -1.281,-1.3881 -2.5813,-2.7361 -3.9008,-4.0438 -1.3195,-1.3077 -2.9765,-2.8026 -4.9709,-4.4848 -0.6993,-0.5877 -1.1517,-1.0138 -1.3573,-1.2783 -0.3035,-0.3904 -0.6246,-1.2064 -0.9635,-2.4481 -0.3389,-1.2417 -0.6745,-2.804 -1.0069,-4.6872 l 6.3313,5.8062 c 2.393,2.2208 4.3957,4.1996 6.0082,5.9361 1.2418,1.3378 2.3767,2.6678 3.4045,3.9901 z"
         style="font-size:49px;font-weight:bold;fill:#bba456"
         id="path7878-9"
         inkscape:connector-curvature="0" />
      <path
         d="m -1555.5215,-3200.0717 1.387,5.3689 -3.793,0.9053 1.1654,4.0738 -4.9229,1.2346 -1.3297,-5.0959 3.8008,-1.1081 -1.1603,-4.209 z m 23.3445,21.8488 -12.1795,11.2858 -4.4233,-4.7735 10.5298,-9.7572 c -0.9431,-1.0178 -1.6446,-1.7161 -2.1042,-2.0948 -0.7115,-0.5802 -1.4412,-0.9804 -2.1891,-1.2008 0.2978,1.0723 0.3097,2.0943 0.036,3.0658 -0.2741,0.9715 -0.7679,1.7879 -1.4816,2.4492 -0.936,0.8673 -2.013,1.2891 -3.2311,1.2653 -1.2181,-0.024 -2.2608,-0.5037 -3.1281,-1.4397 -1.2792,-1.3806 -2.3758,-3.4089 -3.2898,-6.0848 -1.0054,-2.939 -1.0343,-4.8476 -0.087,-5.7258 1.2285,-1.1383 3.3787,-1.141 6.4507,-0.01 3.0721,1.1329 5.7139,2.8927 7.9255,5.2794 z m -14.7526,-8.2821 c -0.8254,-0.2571 -1.4584,-0.3828 -1.8988,-0.377 -0.4404,0.01 -0.801,0.1388 -1.0818,0.399 -0.351,0.3252 -0.5205,0.7759 -0.5086,1.3519 0.012,0.5762 0.213,1.0748 0.6033,1.496 0.2494,0.2691 0.5663,0.394 0.9508,0.3748 0.3845,-0.019 0.7464,-0.186 1.0856,-0.5004 0.2691,-0.2494 0.468,-0.5804 0.5966,-0.9931 0.1286,-0.4127 0.2129,-0.9964 0.2529,-1.7512 z"
         style="font-size:49px;font-weight:bold;fill:#bba456"
         id="path7880-9"
         inkscape:connector-curvature="0" />
      <path
         d="m -1543.6057,-3167.5412 -9.9097,11.2305 -4.8797,-4.3058 8.3266,-9.4365 c -0.9293,-0.586 -1.8281,-0.9537 -2.6963,-1.1029 -0.4692,-0.095 -1.3768,-0.1512 -2.7227,-0.1689 l -3.0033,-5.2028 c 1.8081,10e-5 3.4134,0.3264 4.8159,0.979 1.4025,0.6525 3.1981,1.9445 5.3868,3.8757 z m 2.9041,3.0732 1.9185,5.2028 -3.6831,1.281 1.5681,3.9364 -4.7743,1.7222 -1.834,-4.9368 3.6704,-1.4837 -1.5765,-4.0715 z"
         style="font-size:49px;font-weight:bold;fill:#bba456"
         id="path7882-9"
         inkscape:connector-curvature="0" />
      <path
         d="m -1584.0549,-3171.1945 2.2075,4.6753 -3.4905,1.7387 2.0556,3.7052 -4.5168,2.3148 -2.0899,-4.4221 3.4521,-1.9381 -1.8626,-3.7767 z m 30.8688,14.2429 -1.7583,2.5946 c -0.3222,0.4754 -0.7165,0.844 -1.183,1.1059 -0.9019,0.5064 -2.0402,0.6791 -3.4148,0.5182 -1.8829,-0.2354 -4.1106,-1.0708 -6.6834,-2.506 0.5007,1.6495 0.8121,2.8818 0.9342,3.6967 0.1813,1.1826 0.1063,2.0182 -0.2247,2.5067 -0.1701,0.2509 -0.4244,0.541 -0.7632,0.8702 l -2.1128,2.0942 c -0.9092,0.8867 -1.4906,1.4176 -1.7441,1.5927 -0.2535,0.175 -0.4991,0.182 -0.7368,0.021 -0.3565,-0.2416 -1.1712,-1.4633 -2.4441,-3.665 -1.2728,-2.2018 -1.9951,-3.6594 -2.1666,-4.373 -0.1328,-0.5717 -0.1968,-1.4725 -0.1919,-2.7023 0,-0.7344 0.038,-1.7472 0.1226,-3.0384 l 0.097,-1.4658 c -0.2117,-0.086 -0.4199,-0.1834 -0.6248,-0.2934 -0.2049,-0.1099 -0.3932,-0.2231 -0.5648,-0.3394 -0.5018,-0.34 -1.054,-0.8828 -1.6566,-1.6284 -0.6027,-0.7456 -1.2638,-1.7958 -1.9835,-3.1506 l 13.6476,6.4741 c 2.1468,1.0117 3.729,1.506 4.7467,1.4827 0.6637,-0.013 1.1835,-0.2962 1.5593,-0.8508 l 1.7583,-2.5946 z m -16.4118,0.121 -2.6451,-1.2146 c -0.088,0.5568 -0.1536,0.9943 -0.1958,1.3125 -0.1092,0.9857 -0.1464,1.8083 -0.1116,2.4677 0.049,0.4959 0.1146,0.9255 0.1959,1.2889 0.1115,0.461 0.2399,0.7407 0.3851,0.8391 0.1849,0.1253 0.4868,-0.01 0.9056,-0.398 0.4188,-0.3905 0.7803,-0.8102 1.0846,-1.2592 0.1968,-0.2905 0.3201,-0.6501 0.3698,-1.0789 0.05,-0.4287 0.054,-1.0812 0.012,-1.9575 z"
         style="font-size:49px;font-weight:bold;fill:#bba456"
         id="path7884-4"
         inkscape:connector-curvature="0" />
    </g>
    <path
       style="fill:#97584e;fill-opacity:1;stroke:#000000;stroke-width:1px;stroke-linecap:butt;stroke-linejoin:miter;stroke-opacity:1"
       d="m -4540.2957,-4807.8049 8.4895,-10.0629 c 12.4596,-1.7024 24.7981,1.2363 29.0026,4.4104 l -10.8355,5.6338 c -5.3857,-1.2364 -16.1468,-0.1628 -26.6566,0.019 z"
       id="path8404-1-0-9-2-4-0-7-2"
       inkscape:connector-curvature="0"
       sodipodi:nodetypes="cccccc" />
    <path
       style="fill:#97584e;fill-opacity:1;stroke:#000000;stroke-width:1px;stroke-linecap:butt;stroke-linejoin:miter;stroke-opacity:1"
       d="m -4560.1581,-4796.8119 7.3594,-10.9165 c 12.1725,-3.0014 19.6553,-1.7339 26.1334,-0.8117 l -6.9925,8.8465 c -5.4873,-0.6507 -16.0709,1.5725 -26.5003,2.8817 z"
       id="path8404-1-0-9-2-4-0-3-08"
       inkscape:connector-curvature="0"
       sodipodi:nodetypes="ccccc" />
    <path
       style="fill:#97584e;fill-opacity:1;stroke:#000000;stroke-width:1px;stroke-linecap:butt;stroke-linejoin:miter;stroke-opacity:1"
       d="m -4578.2119,-4784.8674 5.4517,-11.9838 c 11.535,-5.0085 22.7558,-4.1963 27.662,-2.2776 l -7.4555,7.0345 c -5.5193,0.2662 -15.5891,4.21 -25.6582,7.2269 z"
       id="path8404-1-0-9-2-4-0-78"
       inkscape:connector-curvature="0"
       sodipodi:nodetypes="ccccc" />
    <path
       style="fill:#97584e;fill-opacity:1;stroke:#000000;stroke-width:1px;stroke-linecap:butt;stroke-linejoin:miter;stroke-opacity:1"
       d="m -4596.4739,-4768.6448 3.9495,-12.5592 c 10.8156,-6.3406 20.9373,-6.9858 27.4101,-7.9449 l -6.7743,10.2019 c -5.4456,0.9373 -14.9593,6.0798 -24.5853,10.3022 z"
       id="path8404-1-0-9-2-4-7"
       inkscape:connector-curvature="0"
       sodipodi:nodetypes="ccccc" />
    <path
       style="fill:#97584e;fill-opacity:1;stroke:#000000;stroke-width:1px;stroke-linecap:butt;stroke-linejoin:miter;stroke-opacity:1"
       d="m -4614.0292,-4755.0207 3.3796,-12.7243 c 10.5328,-6.9322 23.4608,-9.453 29.6036,-8.4616 -8.3634,10.0436 -21.7051,14.9861 -32.9832,21.1859 z"
       id="path8404-1-0-9-2-3"
       inkscape:connector-curvature="0"
       sodipodi:nodetypes="cccc" />
    <path
       style="fill:#97584e;fill-opacity:1;stroke:#000000;stroke-width:1px;stroke-linecap:butt;stroke-linejoin:miter;stroke-opacity:1"
       d="m -4625.797,-4742.1066 2.2391,-12.9737 c 9.8734,-7.7265 21.1457,-9.5944 26.7305,-9.3019 l -5.978,8.7864 c -5.272,1.6552 -14.0147,8.0206 -22.9916,13.4892 z"
       id="path8404-1-0-9-0"
       inkscape:connector-curvature="0"
       sodipodi:nodetypes="ccccc" />
    <path
       style="fill:#97584e;fill-opacity:1;stroke:#000000;stroke-width:1px;stroke-linecap:butt;stroke-linejoin:miter;stroke-opacity:1"
       d="m -4635.3643,-4727.1866 1.0848,-13.1207 c 9.1526,-8.5681 19.0635,-10.2382 25.1658,-12.6001 l -4.5398,10.2542 c -5.1053,2.1142 -13.2518,9.2267 -21.7108,15.4666 z"
       id="path8404-1-0-7"
       inkscape:connector-curvature="0"
       sodipodi:nodetypes="ccccc" />
    <g
       transform="matrix(0.99979662,0.02016723,-0.02016723,0.99979662,-2417.1331,-1829.7338)"
       style="font-size:39.51364899px;font-style:normal;font-weight:normal;line-height:125%;letter-spacing:0px;word-spacing:0px;fill:#bba456;fill-opacity:1;stroke:none;font-family:Sans"
       id="text7400-8-0-0-7-4-6">
      <path
         d="m -2205.7749,-2604.8087 14.6701,-15.6826 3.1665,2.9621 -14.6701,15.6826 z"
         style="font-size:30px;font-weight:bold;fill:#bba456;fill-opacity:1;font-family:Sans;-inkscape-font-specification:Sans"
         id="path7993-4"
         inkscape:connector-curvature="0" />
      <path
         d="m -2195.1266,-2596.1646 11.7414,-17.9805 7.6411,4.9897 c 1.9215,1.2548 3.2122,2.328 3.8721,3.2196 0.6599,0.8917 0.9819,1.9213 0.9659,3.0888 -0.016,1.1676 -0.371,2.2829 -1.0651,3.3458 -0.8811,1.3492 -2.0051,2.2043 -3.3722,2.5654 -1.3672,0.361 -2.9146,0.1408 -4.6421,-0.6608 0.4859,0.9705 0.8055,1.8965 0.9588,2.778 0.1533,0.8816 0.2068,2.3045 0.1605,4.2687 l -0.095,4.9414 -4.3418,-2.8353 -0.07,-5.6265 c -0.019,-2.0069 -0.082,-3.3044 -0.1873,-3.8925 -0.1059,-0.5881 -0.3069,-1.0751 -0.6031,-1.461 -0.2962,-0.3859 -0.8613,-0.8511 -1.6953,-1.3957 l -0.7359,-0.4806 -4.9016,7.5062 z m 10.4062,-8.0055 2.686,1.754 c 1.7416,1.1373 2.8772,1.7739 3.4066,1.9097 0.5295,0.1358 1.0344,0.1039 1.5146,-0.096 0.4802,-0.1995 0.8965,-0.5692 1.249,-1.1088 0.3951,-0.6051 0.5526,-1.1991 0.4726,-1.7821 -0.08,-0.5829 -0.3824,-1.1156 -0.907,-1.5982 -0.2677,-0.2331 -1.1374,-0.8302 -2.6092,-1.7913 l -2.8332,-1.8502 z"
         style="font-size:30px;font-weight:bold;fill:#bba456;fill-opacity:1;font-family:Sans;-inkscape-font-specification:Sans"
         id="path7995-2"
         inkscape:connector-curvature="0" />
      <path
         d="m -2156.2411,-2575.4483 -4.2727,-1.9982 0.3634,-5.2132 -7.7757,-3.6364 -3.6721,3.6678 -4.1664,-1.9486 16.6738,-15.9092 4.1533,1.9424 z m -3.6325,-11.0781 0.6954,-8.4718 -6.0031,5.9896 z"
         style="font-size:30px;font-weight:bold;fill:#bba456;fill-opacity:1;font-family:Sans;-inkscape-font-specification:Sans"
         id="path7997-1"
         inkscape:connector-curvature="0" />
      <path
         d="m -2132.8002,-2571.715 c 0.868,0.9796 1.8613,1.8276 2.9798,2.544 l -2.2385,2.629 c -0.5943,-0.3362 -1.158,-0.7404 -1.6913,-1.2129 -0.118,-0.097 -0.9144,-0.9302 -2.389,-2.4993 -1.508,0.2863 -3.095,0.2396 -4.761,-0.1411 -3.2179,-0.7353 -5.5219,-2.2584 -6.9122,-4.5695 -1.3903,-2.3111 -1.6939,-5.1802 -0.9108,-8.6076 0.7809,-3.4177 2.3023,-5.8675 4.5642,-7.3491 2.2618,-1.4817 4.9588,-1.8646 8.0914,-1.1459 3.1036,0.7092 5.3477,2.2212 6.7321,4.5359 1.3844,2.3148 1.6861,5.181 0.9052,8.5988 -0.4132,1.8088 -1.0288,3.3411 -1.8466,4.5968 -0.6201,0.9602 -1.461,1.8348 -2.5229,2.624 z m -2.8539,-3.1614 c 0.6885,-0.5139 1.2716,-1.1921 1.7496,-2.0345 0.4779,-0.8425 0.8507,-1.8492 1.1183,-3.0202 0.5524,-2.4181 0.4321,-4.3464 -0.3612,-5.7848 -0.7933,-1.4385 -2.0516,-2.3545 -3.7747,-2.7482 -1.7231,-0.3938 -3.2573,-0.1132 -4.6024,0.8417 -1.3451,0.9548 -2.2928,2.6366 -2.8431,5.0451 -0.5591,2.4468 -0.4417,4.3994 0.3519,5.858 0.7938,1.4586 2.0094,2.3749 3.6468,2.749 0.6093,0.1392 1.2081,0.1709 1.7964,0.095 -0.7285,-0.7574 -1.4995,-1.3944 -2.313,-1.9109 l 1.7366,-2.1426 c 1.2812,0.7936 2.4461,1.8111 3.4948,3.0525 z"
         style="font-size:30px;font-weight:bold;fill:#bba456;fill-opacity:1;font-family:Sans;-inkscape-font-specification:Sans"
         id="path7999-9"
         inkscape:connector-curvature="0" />
      <path
         d="m -2124.0848,-2566.2651 3.035,-21.2591 4.2923,0.6128 -3.035,21.2591 z"
         style="font-size:30px;font-weight:bold;fill:#bba456;fill-opacity:1;font-family:Sans;-inkscape-font-specification:Sans"
         id="path8001-1"
         inkscape:connector-curvature="0" />
      <path
         d="m -2067.1728,-2566.6767 -3.6985,-21.1538 4.1557,-0.7266 11.1276,12.6129 -2.4698,-14.1265 3.968,-0.6939 3.6985,21.1538 -4.2855,0.7493 -10.9398,-12.3038 2.4119,13.7948 z"
         style="font-size:30px;font-weight:bold;fill:#bba456;fill-opacity:1;font-family:Sans;-inkscape-font-specification:Sans"
         id="path8003-6"
         inkscape:connector-curvature="0" />
      <path
         d="m -2024.0237,-2581.6965 -4.3644,1.7892 -3.5851,-3.8023 -7.9425,3.2559 0.2101,5.1856 -4.2559,1.7447 -0.406,-23.0425 4.2424,-1.7391 z m -10.6094,-4.8331 -5.7604,-6.2509 0.3388,8.4733 z"
         style="font-size:30px;font-weight:bold;fill:#bba456;fill-opacity:1;font-family:Sans;-inkscape-font-specification:Sans"
         id="path8005-0"
         inkscape:connector-curvature="0" />
      <path
         d="m -2015.5049,-2586.6792 -17.3289,-14.8252 4.081,-2.3357 12.6116,11.0946 -3.3308,-16.4063 3.992,-2.2847 3.9926,22.4579 z"
         style="font-size:30px;font-weight:bold;fill:#bba456;fill-opacity:1;font-family:Sans;-inkscape-font-specification:Sans"
         id="path8007-3"
         inkscape:connector-curvature="0" />
      <path
         d="m -1996.4599,-2599.914 -5.5065,-7.1668 -13.8149,-5.0692 4.0307,-3.0969 9.1838,3.6581 -1.2502,-9.7537 3.9609,-3.0433 1.3341,14.6954 5.4887,7.1437 z"
         style="font-size:30px;font-weight:bold;fill:#bba456;fill-opacity:1;font-family:Sans;-inkscape-font-specification:Sans"
         id="path8009-3"
         inkscape:connector-curvature="0" />
    </g>
    <g
       transform="translate(-3036.3692,-1553.4713)"
       id="g8292-6">
      <g
         style="fill:#1e8951;fill-opacity:1"
         id="g8267-2">
        <path
           style="fill:#1e8951;fill-opacity:1;stroke:#000000;stroke-width:1px;stroke-linecap:butt;stroke-linejoin:miter;stroke-opacity:1"
           d="m -3217.9831,-3003.9936 c -3.2754,-10.0934 1.3899,-14.4707 11.7612,-21.9424 -0.967,7.8935 -3.4806,17.5942 -11.7612,21.9424 z"
           id="path8031-2"
           inkscape:connector-curvature="0"
           transform="translate(1638.0372,-110.99409)"
           sodipodi:nodetypes="ccc" />
        <path
           style="fill:#1e8951;fill-opacity:1;stroke:#000000;stroke-width:1px;stroke-linecap:butt;stroke-linejoin:miter;stroke-opacity:1"
           d="m -1586.329,-3096.7569 c 4.4926,-10.6967 7.0365,-11.0637 15.8365,-15.333 -3.0718,7.2597 -6.4096,12.607 -15.8365,15.333 z"
           id="path8031-1-1"
           inkscape:connector-curvature="0"
           sodipodi:nodetypes="ccc" />
        <path
           style="fill:#1e8951;fill-opacity:1;stroke:#000000;stroke-width:1px;stroke-linecap:butt;stroke-linejoin:miter;stroke-opacity:1"
           d="m -1587.3252,-3097.117 c 3.5147,-8.4686 1.3611,-12.6707 -3.0581,-21.3963 -1.9504,7.6377 -2.7944,13.5194 3.0581,21.3963 z"
           id="path8031-1-3-4"
           inkscape:connector-curvature="0"
           sodipodi:nodetypes="ccc" />
        <path
           style="fill:#1e8951;fill-opacity:1;stroke:#000000;stroke-width:1px;stroke-linecap:butt;stroke-linejoin:miter;stroke-opacity:1"
           d="m -1589.7046,-3079.7772 c 2.8911,-11.2359 5.3547,-11.9685 13.4411,-17.4709 -1.9846,7.6289 -4.5102,13.4044 -13.4411,17.4709 z"
           id="path8031-1-2-32"
           inkscape:connector-curvature="0"
           sodipodi:nodetypes="ccc" />
        <path
           style="fill:#1e8951;fill-opacity:1;stroke:#000000;stroke-width:1px;stroke-linecap:butt;stroke-linejoin:miter;stroke-opacity:1"
           d="m -1590.7425,-3079.9888 c 2.2472,-8.8893 -0.494,-12.734 -6.1339,-20.7251 -0.8202,7.84 -0.8008,13.782 6.1339,20.7251 z"
           id="path8031-1-3-1-6"
           inkscape:connector-curvature="0"
           sodipodi:nodetypes="ccc" />
        <path
           style="fill:#1e8951;fill-opacity:1;stroke:#000000;stroke-width:1px;stroke-linecap:butt;stroke-linejoin:miter;stroke-opacity:1"
           d="m -1591.0165,-3066.6785 c 3.3134,-11.1187 3.9597,-10.4412 12.2481,-15.6341 -2.2713,7.5484 -3.17,11.9079 -12.2481,15.6341 z"
           id="path8031-1-2-6-0"
           inkscape:connector-curvature="0"
           sodipodi:nodetypes="ccc" />
        <path
           style="fill:#1e8951;fill-opacity:1;stroke:#000000;stroke-width:1px;stroke-linecap:butt;stroke-linejoin:miter;stroke-opacity:1"
           d="m -1591.3957,-3066.7028 c 0.4244,-9.1591 -3.0302,-12.3781 -10.154,-19.0801 0.7639,7.8457 1.971,13.6638 10.154,19.0801 z"
           id="path8031-1-3-1-3-5"
           inkscape:connector-curvature="0"
           sodipodi:nodetypes="ccc" />
        <path
           style="fill:#1e8951;fill-opacity:1;stroke:#000000;stroke-width:1px;stroke-linecap:butt;stroke-linejoin:miter;stroke-opacity:1"
           d="m -1590.248,-3052.2135 c 0.3666,-11.3847 4.8964,-11.1781 13.1067,-16.9379 -1.5485,7.7291 -4.4209,12.3712 -13.1067,16.9379 z"
           id="path8031-1-2-6-8-4"
           inkscape:connector-curvature="0"
           sodipodi:nodetypes="ccc" />
        <path
           style="fill:#1e8951;fill-opacity:1;stroke:#000000;stroke-width:1px;stroke-linecap:butt;stroke-linejoin:miter;stroke-opacity:1"
           d="m -1591.3105,-3052.264 c -0.4422,-9.1583 -3.782,-11.8815 -11.5067,-17.8809 1.5012,7.7385 2.8489,13.2614 11.5067,17.8809 z"
           id="path8031-1-3-1-3-3-9"
           inkscape:connector-curvature="0"
           sodipodi:nodetypes="ccc" />
        <path
           style="fill:#1e8951;fill-opacity:1;stroke:#000000;stroke-width:1px;stroke-linecap:butt;stroke-linejoin:miter;stroke-opacity:1"
           d="m -1589.1102,-3035.6204 c -1.1531,-11.3321 3.3639,-11.7307 10.7338,-18.5328 -0.5052,7.8664 -2.7337,12.8498 -10.7338,18.5328 z"
           id="path8031-1-2-6-8-2-60"
           inkscape:connector-curvature="0"
           sodipodi:nodetypes="ccc" />
        <path
           style="fill:#1e8951;fill-opacity:1;stroke:#000000;stroke-width:1px;stroke-linecap:butt;stroke-linejoin:miter;stroke-opacity:1"
           d="m -1590.1699,-3035.529 c -1.6581,-9.0177 -5.331,-11.2718 -13.786,-16.1888 2.5186,7.4696 4.59,12.7637 13.786,16.1888 z"
           id="path8031-1-3-1-3-3-8-8"
           inkscape:connector-curvature="0"
           sodipodi:nodetypes="ccc" />
        <path
           style="fill:#1e8951;fill-opacity:1;stroke:#000000;stroke-width:1px;stroke-linecap:butt;stroke-linejoin:miter;stroke-opacity:1"
           d="m -1586.2086,-3017.613 c -2.1373,-11.1884 2.3276,-11.9796 9.076,-19.3987 0.183,7.8804 -1.6021,13.0393 -9.076,19.3987 z"
           id="path8031-1-2-6-8-2-6-2"
           inkscape:connector-curvature="0"
           sodipodi:nodetypes="ccc" />
        <path
           style="fill:#1e8951;fill-opacity:1;stroke:#000000;stroke-width:1px;stroke-linecap:butt;stroke-linejoin:miter;stroke-opacity:1"
           d="m -1587.2562,-3017.4296 c -2.4385,-8.8386 -6.2941,-10.7636 -15.146,-14.9242 3.1608,7.2214 5.6863,12.3146 15.146,14.9242 z"
           id="path8031-1-3-1-3-3-8-0-7"
           inkscape:connector-curvature="0"
           sodipodi:nodetypes="ccc" />
        <path
           style="fill:#1e8951;fill-opacity:1;stroke:#000000;stroke-width:1px;stroke-linecap:butt;stroke-linejoin:miter;stroke-opacity:1"
           d="m -1578.3645,-3000.5841 c -3.5375,-10.8275 0.7912,-12.1779 6.5453,-20.3922 1.1799,7.7937 0.063,13.1372 -6.5453,20.3922 z"
           id="path8031-1-2-6-8-2-6-1-4"
           inkscape:connector-curvature="0"
           sodipodi:nodetypes="ccc" />
        <path
           style="fill:#1e8951;fill-opacity:1;stroke:#000000;stroke-width:1px;stroke-linecap:butt;stroke-linejoin:miter;stroke-opacity:1"
           d="m -1579.3804,-3000.2694 c -3.5386,-8.4585 -7.607,-9.8795 -16.9147,-12.8852 4.0502,6.7628 7.2006,11.495 16.9147,12.8852 z"
           id="path8031-1-3-1-3-3-8-0-2-07"
           inkscape:connector-curvature="0"
           sodipodi:nodetypes="ccc" />
        <path
           style="fill:#1e8951;fill-opacity:1;stroke:#000000;stroke-width:1.07725525px;stroke-linecap:butt;stroke-linejoin:miter;stroke-opacity:1"
           d="m -1569.0429,-2984.2273 c -4.6239,-11.3662 -0.075,-13.1462 5.4841,-22.4102 1.86,8.2853 1.0657,14.1121 -5.4841,22.4102 z"
           id="path8031-1-2-6-8-2-6-1-6-60"
           inkscape:connector-curvature="0"
           sodipodi:nodetypes="ccc" />
        <path
           style="fill:#1e8951;fill-opacity:1;stroke:#000000;stroke-width:1.07725525px;stroke-linecap:butt;stroke-linejoin:miter;stroke-opacity:1"
           d="m -1570.0792,-2983.6481 c -4.9282,-8.56 -9.4687,-9.5271 -19.823,-11.4778 5.2449,6.6784 9.253,11.3087 19.823,11.4778 z"
           id="path8031-1-3-1-3-3-8-0-2-0-1"
           inkscape:connector-curvature="0"
           sodipodi:nodetypes="ccc" />
        <path
           style="fill:#1e8951;fill-opacity:1;stroke:#000000;stroke-width:1.07725525px;stroke-linecap:butt;stroke-linejoin:miter;stroke-opacity:1"
           d="m -1555.7988,-2966.5343 c -5.9715,-10.7197 -1.6727,-13.0396 2.7189,-22.9107 2.8535,7.9977 2.7734,13.8779 -2.7189,22.9107 z"
           id="path8031-1-2-6-8-2-6-1-6-6-2"
           inkscape:connector-curvature="0"
           sodipodi:nodetypes="ccc" />
        <path
           style="fill:#1e8951;fill-opacity:1;stroke:#000000;stroke-width:1.07725525px;stroke-linecap:butt;stroke-linejoin:miter;stroke-opacity:1"
           d="m -1556.757,-2965.8334 c -5.9324,-7.8973 -10.5567,-8.3053 -21.0714,-8.9827 6.0179,5.9912 10.5592,10.0999 21.0714,8.9827 z"
           id="path8031-1-3-1-3-3-8-0-2-0-7-9"
           inkscape:connector-curvature="0"
           sodipodi:nodetypes="ccc" />
        <path
           style="fill:#1e8951;fill-opacity:1;stroke:#000000;stroke-width:1.27380991px;stroke-linecap:butt;stroke-linejoin:miter;stroke-opacity:1"
           d="m -1539.6093,-2951.466 c -8.925,-11.4401 -4.3236,-14.9318 -0.9861,-27.2632 4.7873,8.8261 5.7622,15.7112 0.9861,27.2632 z"
           id="path8031-1-2-6-8-2-6-1-6-6-9-3"
           inkscape:connector-curvature="0"
           sodipodi:nodetypes="ccc" />
        <path
           style="fill:#1e8951;fill-opacity:1;stroke:#000000;stroke-width:1.27380991px;stroke-linecap:butt;stroke-linejoin:miter;stroke-opacity:1"
           d="m -1540.6015,-2950.473 c -8.3665,-8.1495 -13.8437,-7.7859 -26.2523,-6.6669 8.12,5.9068 14.1726,9.8824 26.2523,6.6669 z"
           id="path8031-1-3-1-3-3-8-0-2-0-7-3-8"
           inkscape:connector-curvature="0"
           sodipodi:nodetypes="ccc" />
      </g>
      <path
         sodipodi:nodetypes="cccccsc"
         transform="translate(1638.0372,-110.99409)"
         inkscape:connector-curvature="0"
         id="path8290-5"
         d="m -3219.6137,-3005.2387 3.1957,0.8563 c -11.3852,32.1392 -18.9996,65.4528 -2.1966,106.3719 10.5127,18.5301 12.9876,32.9171 53.8638,67.0985 l -3.0281,3.028 c -18.8635,-16.6268 -55.4632,-50.8551 -62.1425,-99.9113 -2.7326,-20.0694 -0.4983,-41.6423 10.3077,-77.4434 z"
         style="fill:#3d423d;fill-opacity:1;stroke:#000000;stroke-width:1px;stroke-linecap:butt;stroke-linejoin:miter;stroke-opacity:1" />
    </g>
    <g
       transform="matrix(-1,0,0,1,-5886.5328,-1555.7195)"
       id="g8292-4-1">
      <g
         style="fill:#1e8951;fill-opacity:1"
         id="g8267-7-5">
        <path
           style="fill:#1e8951;fill-opacity:1;stroke:#000000;stroke-width:1px;stroke-linecap:butt;stroke-linejoin:miter;stroke-opacity:1"
           d="m -3217.9831,-3003.9936 c -3.2754,-10.0934 1.3899,-14.4707 11.7612,-21.9424 -0.967,7.8935 -3.4806,17.5942 -11.7612,21.9424 z"
           id="path8031-8-6"
           inkscape:connector-curvature="0"
           transform="translate(1638.0372,-110.99409)"
           sodipodi:nodetypes="ccc" />
        <path
           style="fill:#1e8951;fill-opacity:1;stroke:#000000;stroke-width:1px;stroke-linecap:butt;stroke-linejoin:miter;stroke-opacity:1"
           d="m -1586.329,-3096.7569 c 4.4926,-10.6967 7.0365,-11.0637 15.8365,-15.333 -3.0718,7.2597 -6.4096,12.607 -15.8365,15.333 z"
           id="path8031-1-8-6"
           inkscape:connector-curvature="0"
           sodipodi:nodetypes="ccc" />
        <path
           style="fill:#1e8951;fill-opacity:1;stroke:#000000;stroke-width:1px;stroke-linecap:butt;stroke-linejoin:miter;stroke-opacity:1"
           d="m -1587.3252,-3097.117 c 3.5147,-8.4686 1.3611,-12.6707 -3.0581,-21.3963 -1.9504,7.6377 -2.7944,13.5194 3.0581,21.3963 z"
           id="path8031-1-3-16-8"
           inkscape:connector-curvature="0"
           sodipodi:nodetypes="ccc" />
        <path
           style="fill:#1e8951;fill-opacity:1;stroke:#000000;stroke-width:1px;stroke-linecap:butt;stroke-linejoin:miter;stroke-opacity:1"
           d="m -1589.7046,-3079.7772 c 2.8911,-11.2359 5.3547,-11.9685 13.4411,-17.4709 -1.9846,7.6289 -4.5102,13.4044 -13.4411,17.4709 z"
           id="path8031-1-2-3-8"
           inkscape:connector-curvature="0"
           sodipodi:nodetypes="ccc" />
        <path
           style="fill:#1e8951;fill-opacity:1;stroke:#000000;stroke-width:1px;stroke-linecap:butt;stroke-linejoin:miter;stroke-opacity:1"
           d="m -1590.7425,-3079.9888 c 2.2472,-8.8893 -0.494,-12.734 -6.1339,-20.7251 -0.8202,7.84 -0.8008,13.782 6.1339,20.7251 z"
           id="path8031-1-3-1-8-9"
           inkscape:connector-curvature="0"
           sodipodi:nodetypes="ccc" />
        <path
           style="fill:#1e8951;fill-opacity:1;stroke:#000000;stroke-width:1px;stroke-linecap:butt;stroke-linejoin:miter;stroke-opacity:1"
           d="m -1591.0165,-3066.6785 c 3.3134,-11.1187 3.9597,-10.4412 12.2481,-15.6341 -2.2713,7.5484 -3.17,11.9079 -12.2481,15.6341 z"
           id="path8031-1-2-6-7-8"
           inkscape:connector-curvature="0"
           sodipodi:nodetypes="ccc" />
        <path
           style="fill:#1e8951;fill-opacity:1;stroke:#000000;stroke-width:1px;stroke-linecap:butt;stroke-linejoin:miter;stroke-opacity:1"
           d="m -1591.3957,-3066.7028 c 0.4244,-9.1591 -3.0302,-12.3781 -10.154,-19.0801 0.7639,7.8457 1.971,13.6638 10.154,19.0801 z"
           id="path8031-1-3-1-3-6-7"
           inkscape:connector-curvature="0"
           sodipodi:nodetypes="ccc" />
        <path
           style="fill:#1e8951;fill-opacity:1;stroke:#000000;stroke-width:1px;stroke-linecap:butt;stroke-linejoin:miter;stroke-opacity:1"
           d="m -1590.248,-3052.2135 c 0.3666,-11.3847 4.8964,-11.1781 13.1067,-16.9379 -1.5485,7.7291 -4.4209,12.3712 -13.1067,16.9379 z"
           id="path8031-1-2-6-8-1-0"
           inkscape:connector-curvature="0"
           sodipodi:nodetypes="ccc" />
        <path
           style="fill:#1e8951;fill-opacity:1;stroke:#000000;stroke-width:1px;stroke-linecap:butt;stroke-linejoin:miter;stroke-opacity:1"
           d="m -1591.3105,-3052.264 c -0.4422,-9.1583 -3.782,-11.8815 -11.5067,-17.8809 1.5012,7.7385 2.8489,13.2614 11.5067,17.8809 z"
           id="path8031-1-3-1-3-3-7-7"
           inkscape:connector-curvature="0"
           sodipodi:nodetypes="ccc" />
        <path
           style="fill:#1e8951;fill-opacity:1;stroke:#000000;stroke-width:1px;stroke-linecap:butt;stroke-linejoin:miter;stroke-opacity:1"
           d="m -1589.1102,-3035.6204 c -1.1531,-11.3321 3.3639,-11.7307 10.7338,-18.5328 -0.5052,7.8664 -2.7337,12.8498 -10.7338,18.5328 z"
           id="path8031-1-2-6-8-2-2-9"
           inkscape:connector-curvature="0"
           sodipodi:nodetypes="ccc" />
        <path
           style="fill:#1e8951;fill-opacity:1;stroke:#000000;stroke-width:1px;stroke-linecap:butt;stroke-linejoin:miter;stroke-opacity:1"
           d="m -1590.1699,-3035.529 c -1.6581,-9.0177 -5.331,-11.2718 -13.786,-16.1888 2.5186,7.4696 4.59,12.7637 13.786,16.1888 z"
           id="path8031-1-3-1-3-3-8-3-1"
           inkscape:connector-curvature="0"
           sodipodi:nodetypes="ccc" />
        <path
           style="fill:#1e8951;fill-opacity:1;stroke:#000000;stroke-width:1px;stroke-linecap:butt;stroke-linejoin:miter;stroke-opacity:1"
           d="m -1586.2086,-3017.613 c -2.1373,-11.1884 2.3276,-11.9796 9.076,-19.3987 0.183,7.8804 -1.6021,13.0393 -9.076,19.3987 z"
           id="path8031-1-2-6-8-2-6-7-5"
           inkscape:connector-curvature="0"
           sodipodi:nodetypes="ccc" />
        <path
           style="fill:#1e8951;fill-opacity:1;stroke:#000000;stroke-width:1px;stroke-linecap:butt;stroke-linejoin:miter;stroke-opacity:1"
           d="m -1587.2562,-3017.4296 c -2.4385,-8.8386 -6.2941,-10.7636 -15.146,-14.9242 3.1608,7.2214 5.6863,12.3146 15.146,14.9242 z"
           id="path8031-1-3-1-3-3-8-0-8-8"
           inkscape:connector-curvature="0"
           sodipodi:nodetypes="ccc" />
        <path
           style="fill:#1e8951;fill-opacity:1;stroke:#000000;stroke-width:1px;stroke-linecap:butt;stroke-linejoin:miter;stroke-opacity:1"
           d="m -1578.3645,-3000.5841 c -3.5375,-10.8275 0.7912,-12.1779 6.5453,-20.3922 1.1799,7.7937 0.063,13.1372 -6.5453,20.3922 z"
           id="path8031-1-2-6-8-2-6-1-5-6"
           inkscape:connector-curvature="0"
           sodipodi:nodetypes="ccc" />
        <path
           style="fill:#1e8951;fill-opacity:1;stroke:#000000;stroke-width:1px;stroke-linecap:butt;stroke-linejoin:miter;stroke-opacity:1"
           d="m -1579.3804,-3000.2694 c -3.5386,-8.4585 -7.607,-9.8795 -16.9147,-12.8852 4.0502,6.7628 7.2006,11.495 16.9147,12.8852 z"
           id="path8031-1-3-1-3-3-8-0-2-8-3"
           inkscape:connector-curvature="0"
           sodipodi:nodetypes="ccc" />
        <path
           style="fill:#1e8951;fill-opacity:1;stroke:#000000;stroke-width:1.07725525px;stroke-linecap:butt;stroke-linejoin:miter;stroke-opacity:1"
           d="m -1569.0429,-2984.2273 c -4.6239,-11.3662 -0.075,-13.1462 5.4841,-22.4102 1.86,8.2853 1.0657,14.1121 -5.4841,22.4102 z"
           id="path8031-1-2-6-8-2-6-1-6-5-9"
           inkscape:connector-curvature="0"
           sodipodi:nodetypes="ccc" />
        <path
           style="fill:#1e8951;fill-opacity:1;stroke:#000000;stroke-width:1.07725525px;stroke-linecap:butt;stroke-linejoin:miter;stroke-opacity:1"
           d="m -1570.0792,-2983.6481 c -4.9282,-8.56 -9.4687,-9.5271 -19.823,-11.4778 5.2449,6.6784 9.253,11.3087 19.823,11.4778 z"
           id="path8031-1-3-1-3-3-8-0-2-0-8-4"
           inkscape:connector-curvature="0"
           sodipodi:nodetypes="ccc" />
        <path
           style="fill:#1e8951;fill-opacity:1;stroke:#000000;stroke-width:1.07725525px;stroke-linecap:butt;stroke-linejoin:miter;stroke-opacity:1"
           d="m -1555.7988,-2966.5343 c -5.9715,-10.7197 -1.6727,-13.0396 2.7189,-22.9107 2.8535,7.9977 2.7734,13.8779 -2.7189,22.9107 z"
           id="path8031-1-2-6-8-2-6-1-6-6-7-5"
           inkscape:connector-curvature="0"
           sodipodi:nodetypes="ccc" />
        <path
           style="fill:#1e8951;fill-opacity:1;stroke:#000000;stroke-width:1.07725525px;stroke-linecap:butt;stroke-linejoin:miter;stroke-opacity:1"
           d="m -1556.757,-2965.8334 c -5.9324,-7.8973 -10.5567,-8.3053 -21.0714,-8.9827 6.0179,5.9912 10.5592,10.0999 21.0714,8.9827 z"
           id="path8031-1-3-1-3-3-8-0-2-0-7-33-3"
           inkscape:connector-curvature="0"
           sodipodi:nodetypes="ccc" />
        <path
           style="fill:#1e8951;fill-opacity:1;stroke:#000000;stroke-width:1.27380991px;stroke-linecap:butt;stroke-linejoin:miter;stroke-opacity:1"
           d="m -1539.6093,-2951.466 c -8.925,-11.4401 -4.3236,-14.9318 -0.9861,-27.2632 4.7873,8.8261 5.7622,15.7112 0.9861,27.2632 z"
           id="path8031-1-2-6-8-2-6-1-6-6-9-1-8"
           inkscape:connector-curvature="0"
           sodipodi:nodetypes="ccc" />
        <path
           style="fill:#1e8951;fill-opacity:1;stroke:#000000;stroke-width:1.27380991px;stroke-linecap:butt;stroke-linejoin:miter;stroke-opacity:1"
           d="m -1540.6015,-2950.473 c -8.3665,-8.1495 -13.8437,-7.7859 -26.2523,-6.6669 8.12,5.9068 14.1726,9.8824 26.2523,6.6669 z"
           id="path8031-1-3-1-3-3-8-0-2-0-7-3-0-2"
           inkscape:connector-curvature="0"
           sodipodi:nodetypes="ccc" />
      </g>
      <path
         sodipodi:nodetypes="cccccsc"
         transform="translate(1638.0372,-110.99409)"
         inkscape:connector-curvature="0"
         id="path8290-8-3"
         d="m -3219.6137,-3005.2387 3.1957,0.8563 c -11.3852,32.1392 -18.9996,65.4528 -2.1966,106.3719 10.5127,18.5301 12.9876,32.9171 53.8638,67.0985 l -3.0281,3.028 c -18.8635,-16.6268 -55.4632,-50.8551 -62.1425,-99.9113 -2.7326,-20.0694 -0.4983,-41.6423 10.3077,-77.4434 z"
         style="fill:#3d423d;fill-opacity:1;stroke:#000000;stroke-width:1px;stroke-linecap:butt;stroke-linejoin:miter;stroke-opacity:1" />
    </g>
    <path
       style="fill:#97584e;fill-opacity:1;stroke:#000000;stroke-width:1px;stroke-linecap:butt;stroke-linejoin:miter;stroke-opacity:1"
       d="m -4645.3669,-4709.184 0,-13.1654 c 8.4155,-9.2931 17.3306,-12.3427 23.2175,-15.1993 l -2.8549,11.1619 c -4.9138,2.5276 -12.4465,10.2872 -20.3626,17.2028 z"
       id="path8404-1-9"
       inkscape:connector-curvature="0"
       sodipodi:nodetypes="ccccc" />
    <path
       style="fill:#97584e;fill-opacity:1;stroke:#000000;stroke-width:1px;stroke-linecap:butt;stroke-linejoin:miter;stroke-opacity:1"
       d="m -4654.5826,-4690.5769 0,-13.1654 c 8.4155,-9.2931 14.4757,-12.5909 20.3626,-15.4475 l 0,11.4101 c -4.9138,2.5276 -12.4465,10.2872 -20.3626,17.2028 z"
       id="path8404-4"
       inkscape:connector-curvature="0"
       sodipodi:nodetypes="ccccc" />
    <path
       style="fill:#97584e;fill-opacity:1;stroke:#000000;stroke-width:1px;stroke-linecap:butt;stroke-linejoin:miter;stroke-opacity:1"
       d="m -4660.7769,-4668.5119 -1.7928,-13.0428 c 7.0716,-10.3525 12.6263,-14.4448 18.0694,-18.0765 l 1.5537,11.3038 c -4.5238,3.1732 -10.9296,11.8863 -17.8303,19.8155 z"
       id="path8404-9-8"
       inkscape:connector-curvature="0"
       sodipodi:nodetypes="ccccc" />
    <path
       style="fill:#97584e;fill-opacity:1;stroke:#000000;stroke-width:1px;stroke-linecap:butt;stroke-linejoin:miter;stroke-opacity:1"
       d="m -4664.9569,-4647.8557 -3.2341,-12.762 c 5.8748,-11.0756 11.5536,-14.6201 16.5584,-18.8353 l 2.1884,9.9194 c -4.1423,3.6573 -9.5379,13.0295 -15.5127,21.6779 z"
       id="path8404-9-1-51"
       inkscape:connector-curvature="0"
       sodipodi:nodetypes="ccccc" />
    <path
       style="fill:#97584e;fill-opacity:1;stroke:#000000;stroke-width:1px;stroke-linecap:butt;stroke-linejoin:miter;stroke-opacity:1"
       d="m -4669.9492,-4626.6171 -3.2341,-12.762 c 5.8748,-11.0756 10.9392,-15.7611 15.944,-19.9763 l 2.8028,11.0604 c -4.1423,3.6573 -9.5379,13.0295 -15.5127,21.6779 z"
       id="path8404-9-1-5-3"
       inkscape:connector-curvature="0"
       sodipodi:nodetypes="ccccc" />
    <path
       style="fill:#97584e;fill-opacity:1;stroke:#000000;stroke-width:1px;stroke-linecap:butt;stroke-linejoin:miter;stroke-opacity:1"
       d="m -4670.9262,-4608.6017 -3.8187,-12.5995 c 5.3583,-11.3345 10.2015,-16.2483 15.0067,-20.6896 l 0.4546,12.7814 c -2.6859,8.6571 -6.0694,11.6052 -11.6426,20.5077 z"
       id="path8404-9-1-5-7-2"
       inkscape:connector-curvature="0"
       sodipodi:nodetypes="ccccc" />
    <path
       style="fill:#97584e;fill-opacity:1;stroke:#000000;stroke-width:1px;stroke-linecap:butt;stroke-linejoin:miter;stroke-opacity:1"
       d="m -4500.547,-4422.3531 c 4.9975,-0.061 8.7722,-0.6105 15.8863,0.1755 7.1178,4.0684 10.5898,7.4076 14.3064,10.7957 -7.717,1.4403 -15.8711,2.4435 -26.5942,0.8777 l -3.5107,-11.4101 z"
       id="path8875-8"
       inkscape:connector-curvature="0"
       sodipodi:nodetypes="cccccc" />
    <path
       style="fill:#97584e;fill-opacity:1;stroke:#000000;stroke-width:1px;stroke-linecap:butt;stroke-linejoin:miter;stroke-opacity:1"
       d="m -4493.3923,-4410.0299 c -7.0696,0.019 -26.5813,-3.4766 -26.9093,-8.5394 -19.3879,-8.4705 0.651,-5.2709 -0.2724,-10.5596 l 21.7012,7.2104 c 4.2682,4.6901 2.4712,2.8577 5.4805,11.8886 z"
       id="path8404-9-1-5-7-3-3-4-2-2-1-2-7-7-0-2-4-1-16"
       inkscape:connector-curvature="0"
       sodipodi:nodetypes="ccccc" />
    <path
       style="fill:#97584e;fill-opacity:1;stroke:#000000;stroke-width:1px;stroke-linecap:butt;stroke-linejoin:miter;stroke-opacity:1"
       d="m -4508.191,-4412.0669 c -5.3645,-0.2866 -27.9206,-8.1062 -28.6173,-13.2169 -18.8746,-9.5597 0.9498,-5.2253 0.3287,-10.558 l 21.7203,8.7675 c 3.9945,4.9253 4.0777,5.8199 6.5683,15.0074 z"
       id="path8404-9-1-5-7-3-3-4-2-2-1-2-7-7-0-2-4-4"
       inkscape:connector-curvature="0"
       sodipodi:nodetypes="ccccc" />
    <path
       style="fill:#97584e;fill-opacity:1;stroke:#000000;stroke-width:1px;stroke-linecap:butt;stroke-linejoin:miter;stroke-opacity:1"
       d="m -4529.4784,-4419.3373 c -5.3135,-0.7917 -27.0309,-10.7052 -27.2421,-15.8588 -17.8881,-11.2985 1.4387,-5.1124 1.3237,-10.4799 l 20.7959,10.7783 c 3.5118,5.2804 3.5102,6.1788 5.1225,15.5604 z"
       id="path8404-9-1-5-7-3-3-4-2-2-1-2-7-7-0-2-6"
       inkscape:connector-curvature="0"
       sodipodi:nodetypes="ccccc" />
    <path
       style="fill:#97584e;fill-opacity:1;stroke:#000000;stroke-width:1px;stroke-linecap:butt;stroke-linejoin:miter;stroke-opacity:1"
       d="m -4550.1694,-4429.0686 c -5.2541,-1.1202 -26.3137,-12.3638 -26.2043,-17.5205 -17.1516,-12.388 1.7535,-5.0132 1.9722,-10.3774 l 20.0861,12.0494 c 3.177,5.4883 3.1196,6.3849 4.146,15.8485 z"
       id="path8404-9-1-5-7-3-3-4-2-2-1-2-7-7-0-77"
       inkscape:connector-curvature="0"
       sodipodi:nodetypes="ccccc" />
    <path
       style="fill:#97584e;fill-opacity:1;stroke:#000000;stroke-width:1px;stroke-linecap:butt;stroke-linejoin:miter;stroke-opacity:1"
       d="m -4571.9949,-4440.8434 c -6.1263,-4.2684 -12.4125,-5.2529 -16.5938,-11.4636 -6.0727,-9.6897 -4.9314,-13.8795 -4.0612,-19.1771 l 18.4695,14.4053 c 2.4852,5.8343 2.319,6.7173 2.1855,16.2354 z"
       id="path8404-9-1-5-7-3-3-4-2-2-1-2-7-7-9"
       inkscape:connector-curvature="0"
       sodipodi:nodetypes="ccccc" />
    <path
       style="fill:#97584e;fill-opacity:1;stroke:#000000;stroke-width:1px;stroke-linecap:butt;stroke-linejoin:miter;stroke-opacity:1"
       d="m -4589.6175,-4453.9704 c -5.8288,-4.6666 -12.0356,-6.0671 -15.7944,-12.5423 -5.4145,-10.0722 -3.997,-14.1768 -2.7763,-19.4048 l 17.4702,15.6022 c 2.0915,5.9867 1.8669,6.8567 1.1005,16.3449 z"
       id="path8404-9-1-5-7-3-3-4-2-2-1-2-7-6"
       inkscape:connector-curvature="0"
       sodipodi:nodetypes="ccccc" />
    <path
       style="fill:#97584e;fill-opacity:1;stroke:#000000;stroke-width:1px;stroke-linecap:butt;stroke-linejoin:miter;stroke-opacity:1"
       d="m -4605.0133,-4466.1912 c -5.3655,-5.1926 -11.4136,-7.1691 -14.5486,-13.9682 -4.446,-10.5356 -2.6498,-14.4892 -0.9442,-19.5797 l 15.93,17.1719 c 1.5208,6.1564 1.2156,7.0015 -0.4372,16.376 z"
       id="path8404-9-1-5-7-3-3-4-2-2-1-2-4"
       inkscape:connector-curvature="0"
       sodipodi:nodetypes="ccccc" />
    <path
       style="fill:#97584e;fill-opacity:1;stroke:#000000;stroke-width:1px;stroke-linecap:butt;stroke-linejoin:miter;stroke-opacity:1"
       d="m -4618.0308,-4477.8523 -8.9357,-8.651 c -7.5303,-16.0688 -7.1022,-23.3661 -4.7278,-29.4869 l 13.5284,18.5069 c 1.2314,6.2208 2.2241,10.344 0.1351,19.631 z"
       id="path8404-9-1-5-7-3-3-4-2-2-1-1"
       inkscape:connector-curvature="0"
       sodipodi:nodetypes="ccccc" />
    <path
       style="fill:#97584e;fill-opacity:1;stroke:#000000;stroke-width:1px;stroke-linecap:butt;stroke-linejoin:miter;stroke-opacity:1"
       d="m -4629.2193,-4492.4089 -8.5565,-9.0264 c -6.8339,-16.377 -3.5491,-25.0307 -0.9144,-31.0441 l 10.178,20.4517 c 0.9634,6.2679 1.7783,10.43 -0.7071,19.6188 z"
       id="path8404-9-1-5-7-3-3-4-2-2-0-9"
       inkscape:connector-curvature="0"
       sodipodi:nodetypes="ccccc" />
    <path
       style="fill:#97584e;fill-opacity:1;stroke:#000000;stroke-width:1px;stroke-linecap:butt;stroke-linejoin:miter;stroke-opacity:1"
       d="m -4640.3399,-4510.4042 -7.1392,-10.1551 c -6.0735,-16.674 -2.3941,-25.1675 0.5144,-31.0533 l 9.2265,20.8982 c 0.6741,6.3056 0.3037,11.2454 -2.6017,20.3102 z"
       id="path8404-9-1-5-7-3-3-4-2-2-2"
       inkscape:connector-curvature="0"
       sodipodi:nodetypes="ccccc" />
    <path
       style="fill:#97584e;fill-opacity:1;stroke:#000000;stroke-width:1px;stroke-linecap:butt;stroke-linejoin:miter;stroke-opacity:1"
       d="m -4650.2794,-4531.2671 -6.9887,-10.2882 c -4.1035,-17.2647 0.5339,-25.2754 4.1039,-30.7852 l 6.7465,21.8254 c -0.06,6.3413 0.073,10.5802 -3.8617,19.248 z"
       id="path8404-9-1-5-7-3-3-4-2-6"
       inkscape:connector-curvature="0"
       sodipodi:nodetypes="ccccc" />
    <path
       style="fill:#97584e;fill-opacity:1;stroke:#000000;stroke-width:1px;stroke-linecap:butt;stroke-linejoin:miter;stroke-opacity:1"
       d="m -4659.0339,-4551.3702 -5.6341,-11.0881 c 2.0366,-15.6825 3.8061,-24.9628 7.957,-30.0209 l 3.9376,22.5024 c -0.8595,6.2831 -1.2631,10.5048 -6.2605,18.6066 z"
       id="path8404-9-1-5-7-3-3-4-3"
       inkscape:connector-curvature="0"
       sodipodi:nodetypes="ccccc" />
    <path
       style="fill:#97584e;fill-opacity:1;stroke:#000000;stroke-width:1px;stroke-linecap:butt;stroke-linejoin:miter;stroke-opacity:1"
       d="m -4663.166,-4572.5196 -5.51,-11.957 c 2.0366,-15.6825 6.0403,-23.9697 10.1912,-29.0278 l 1.7034,21.5093 c -0.8595,6.2831 -1.3872,11.3737 -6.3846,19.4755 z"
       id="path8404-9-1-5-7-3-3-15"
       inkscape:connector-curvature="0"
       sodipodi:nodetypes="ccccc" />
    <path
       style="fill:#97584e;fill-opacity:1;stroke:#000000;stroke-width:1px;stroke-linecap:butt;stroke-linejoin:miter;stroke-opacity:1"
       d="m -4667.7838,-4593.4486 -3.8187,-12.5995 c 5.3583,-11.3345 6.1054,-14.1382 10.9106,-18.5795 l 3.3095,10.9195 c -3.9694,3.8442 -4.8314,11.345 -10.4014,20.2595 z"
       id="path8404-9-1-5-7-3-9"
       inkscape:connector-curvature="0"
       sodipodi:nodetypes="ccccc" />
    <path
       style="fill:#97584e;fill-opacity:1;stroke:#000000;stroke-width:1px;stroke-linecap:butt;stroke-linejoin:miter;stroke-opacity:1"
       d="m -4521.0662,-4406.5283 c 4.8824,-0.2214 9.4693,-0.5645 16.2604,0 4.5292,2.8971 8.144,6.4301 12.1472,10.5425 l -16.716,0.098 c -6.6675,-1.6341 -8.1747,-7.6206 -11.6916,-10.641 z"
       id="path8974-70"
       inkscape:connector-curvature="0"
       sodipodi:nodetypes="cccccc" />
    <path
       style="fill:#97584e;fill-opacity:1;stroke:#000000;stroke-width:1px;stroke-linecap:butt;stroke-linejoin:miter;stroke-opacity:1"
       d="m -4468.9958,-4422.7266 15.0191,0 1.3654,12.909 c -4.7995,5.355 -13.6331,8.5181 -18.4326,-0.1862 z"
       id="path9152-2"
       inkscape:connector-curvature="0"
       sodipodi:nodetypes="ccccc" />
    <path
       style="fill:#97584e;fill-opacity:1;stroke:#000000;stroke-width:1px;stroke-linecap:butt;stroke-linejoin:miter;stroke-opacity:1"
       d="m -4472.9057,-4409.9417 18.6187,-0.4965 0.3724,5.2753 -19.4256,1.1792 z"
       id="path9154-6"
       inkscape:connector-curvature="0"
       sodipodi:nodetypes="ccccc" />
    <path
       style="fill:#97584e;fill-opacity:1;stroke:#000000;stroke-width:1px;stroke-linecap:butt;stroke-linejoin:miter;stroke-opacity:1"
       d="m -4433.155,-4408.7282 c -4.7366,-1.2046 -9.1593,-2.4684 -15.9241,-3.2894 -5.0217,1.921 -9.1169,4.2457 -13.8692,7.4632 l 15.464,4.7322 c 6.8602,-0.2515 10.2742,-6.6598 14.3294,-8.9063 z"
       id="path8974-7-2-9-1"
       inkscape:connector-curvature="0"
       sodipodi:nodetypes="cccccc" />
    <path
       style="fill:#97584e;fill-opacity:1;stroke:#000000;stroke-width:1px;stroke-linecap:butt;stroke-linejoin:miter;stroke-opacity:1"
       d="m -4490.063,-4407.8641 c 4.7366,-1.2046 9.1593,-2.4684 15.9241,-3.2894 5.0217,1.921 9.1169,4.2457 13.8692,7.4632 l -15.464,4.7322 c -6.8602,-0.2515 -10.2742,-6.6598 -14.3294,-8.9063 z"
       id="path8974-7-2-7"
       inkscape:connector-curvature="0"
       sodipodi:nodetypes="cccccc" />
    <path
       style="fill:#97584e;fill-opacity:1;stroke:#000000;stroke-width:1px;stroke-linecap:butt;stroke-linejoin:miter;stroke-opacity:1"
       d="m -4505.0921,-4406.4026 c 4.8463,-0.6324 9.3879,-1.3611 16.2024,-1.3713 4.7574,2.5048 8.5469,5.3002 12.8827,9.0603 l -15.9172,2.8587 c -6.7816,-1.066 -9.4089,-7.8349 -13.168,-10.548 z"
       id="path8974-7-6"
       inkscape:connector-curvature="0"
       sodipodi:nodetypes="cccccc" />
    <path
       style="fill:#97584e;fill-opacity:1;stroke:#000000;stroke-width:1px;stroke-linecap:butt;stroke-linejoin:miter;stroke-opacity:1"
       d="m -4418.6281,-4824.8203 -12.4405,-5.7806 c -12.1852,3.1082 -20.5562,10.6244 -23.2584,15.1466 6.7495,-0.7256 19.1338,1.2888 22.7434,0.6488 5.4849,-2.3875 5.8867,-7.2871 12.9555,-10.0148 z"
       id="path8404-1-0-9-2-4-0-5-2-2"
       inkscape:connector-curvature="0"
       sodipodi:nodetypes="ccccc" />
    <path
       style="fill:#97584e;fill-opacity:1;stroke:#000000;stroke-width:1px;stroke-linecap:butt;stroke-linejoin:miter;stroke-opacity:1"
       d="m -4402.6953,-4818.9645 -10.95,-7.3095 c -12.4423,1.8247 -20.847,7.7277 -24.0047,11.9445 l 10.0437,2.0475 c 5.2692,-2.6832 14.7642,-3.9382 24.911,-6.6825 z"
       id="path8404-1-0-9-2-4-0-39-8-5"
       inkscape:connector-curvature="0"
       sodipodi:nodetypes="ccccc" />
    <path
       style="fill:#97584e;fill-opacity:1;stroke:#000000;stroke-width:1px;stroke-linecap:butt;stroke-linejoin:miter;stroke-opacity:1"
       d="m -4363.0599,-4797.676 -7.3594,-10.9165 c -12.1725,-3.0014 -29.31,-2.9627 -35.7881,-2.0405 l 16.6472,10.0753 c 5.4873,-0.6507 16.0709,1.5725 26.5003,2.8817 z"
       id="path8404-1-0-9-2-4-0-3-0-3"
       inkscape:connector-curvature="0"
       sodipodi:nodetypes="ccccc" />
    <path
       style="fill:#97584e;fill-opacity:1;stroke:#000000;stroke-width:1px;stroke-linecap:butt;stroke-linejoin:miter;stroke-opacity:1"
       d="m -4382.9223,-4808.669 -8.4895,-10.0629 c -12.4596,-1.7024 -24.7981,1.2363 -29.0026,4.4104 l 10.8355,5.6338 c 5.3857,-1.2364 14.918,-2.0937 25.4278,-1.9119 z"
       id="path8404-1-0-9-2-4-0-7-7-4"
       inkscape:connector-curvature="0"
       sodipodi:nodetypes="cccccc" />
    <path
       style="fill:#97584e;fill-opacity:1;stroke:#000000;stroke-width:1px;stroke-linecap:butt;stroke-linejoin:miter;stroke-opacity:1"
       d="m -4345.0061,-4785.7315 c 23.1063,6.3309 1.4233,-5.8938 -5.4517,-11.9838 -11.535,-5.0085 -25.3889,-4.5474 -30.2951,-2.6287 l 7.4555,7.0345 c 5.5193,0.2662 18.2222,4.5611 28.2913,7.578 z"
       id="path8404-1-0-9-2-4-0-8-0"
       inkscape:connector-curvature="0"
       sodipodi:nodetypes="ccccc" />
    <path
       style="fill:#97584e;fill-opacity:1;stroke:#000000;stroke-width:1px;stroke-linecap:butt;stroke-linejoin:miter;stroke-opacity:1"
       d="m -4326.7441,-4769.5089 c 2.4871,-1.9248 9.8627,-0.9429 -3.9495,-12.5592 -10.8156,-6.3406 -27.4322,-9.0923 -33.905,-10.0514 l 6.7743,10.2019 c 5.4456,0.9373 21.4542,8.1863 31.0802,12.4087 z"
       id="path8404-1-0-9-2-4-1-7"
       inkscape:connector-curvature="0"
       sodipodi:nodetypes="ccccc" />
    <path
       style="fill:#97584e;fill-opacity:1;stroke:#000000;stroke-width:1px;stroke-linecap:butt;stroke-linejoin:miter;stroke-opacity:1"
       d="m -4309.1888,-4755.8848 -3.3796,-12.7243 c -10.5328,-6.9322 -23.4608,-9.453 -29.6036,-8.4616 8.3634,10.0436 21.7051,14.9861 32.9832,21.1859 z"
       id="path8404-1-0-9-2-8-5"
       inkscape:connector-curvature="0"
       sodipodi:nodetypes="cccc" />
    <path
       style="fill:#97584e;fill-opacity:1;stroke:#000000;stroke-width:1px;stroke-linecap:butt;stroke-linejoin:miter;stroke-opacity:1"
       d="m -4297.421,-4742.9707 -2.2391,-12.9737 c -9.8734,-7.7265 -21.1457,-9.5944 -26.7305,-9.3019 l 5.978,8.7864 c 5.272,1.6552 14.0147,8.0206 22.9916,13.4892 z"
       id="path8404-1-0-9-3-5"
       inkscape:connector-curvature="0"
       sodipodi:nodetypes="ccccc" />
    <path
       style="fill:#97584e;fill-opacity:1;stroke:#000000;stroke-width:1px;stroke-linecap:butt;stroke-linejoin:miter;stroke-opacity:1"
       d="m -4287.8537,-4728.0507 -1.0848,-13.1207 c -9.1526,-8.5681 -19.0635,-10.2382 -25.1658,-12.6001 l 4.5398,10.2542 c 5.1053,2.1142 13.2518,9.2267 21.7108,15.4666 z"
       id="path8404-1-0-0-3"
       inkscape:connector-curvature="0"
       sodipodi:nodetypes="ccccc" />
    <path
       style="fill:#97584e;fill-opacity:1;stroke:#000000;stroke-width:1px;stroke-linecap:butt;stroke-linejoin:miter;stroke-opacity:1"
       d="m -4277.8511,-4710.0481 0,-13.1654 c -8.4155,-9.2931 -17.3306,-12.3427 -23.2175,-15.1993 l 2.8549,11.1619 c 4.9138,2.5276 12.4465,10.2872 20.3626,17.2028 z"
       id="path8404-1-3-1"
       inkscape:connector-curvature="0"
       sodipodi:nodetypes="ccccc" />
    <path
       style="fill:#97584e;fill-opacity:1;stroke:#000000;stroke-width:1px;stroke-linecap:butt;stroke-linejoin:miter;stroke-opacity:1"
       d="m -4268.6354,-4691.441 0,-13.1654 c -8.4155,-9.2931 -14.4757,-12.5909 -20.3626,-15.4475 l 0,11.4101 c 4.9138,2.5276 12.4465,10.2872 20.3626,17.2028 z"
       id="path8404-6-8"
       inkscape:connector-curvature="0"
       sodipodi:nodetypes="ccccc" />
    <path
       style="fill:#97584e;fill-opacity:1;stroke:#000000;stroke-width:1px;stroke-linecap:butt;stroke-linejoin:miter;stroke-opacity:1"
       d="m -4262.4411,-4669.376 1.7928,-13.0428 c -7.0716,-10.3525 -12.6263,-14.4448 -18.0694,-18.0765 l -1.5537,11.3038 c 4.5238,3.1732 10.9296,11.8863 17.8303,19.8155 z"
       id="path8404-9-2-8"
       inkscape:connector-curvature="0"
       sodipodi:nodetypes="ccccc" />
    <path
       style="fill:#97584e;fill-opacity:1;stroke:#000000;stroke-width:1px;stroke-linecap:butt;stroke-linejoin:miter;stroke-opacity:1"
       d="m -4258.2611,-4648.7198 3.2341,-12.762 c -5.8748,-11.0756 -11.5536,-14.6201 -16.5584,-18.8353 l -2.1884,9.9194 c 4.1423,3.6573 9.5379,13.0295 15.5127,21.6779 z"
       id="path8404-9-1-0-8"
       inkscape:connector-curvature="0"
       sodipodi:nodetypes="ccccc" />
    <path
       style="fill:#97584e;fill-opacity:1;stroke:#000000;stroke-width:1px;stroke-linecap:butt;stroke-linejoin:miter;stroke-opacity:1"
       d="m -4253.2688,-4627.4812 3.2341,-12.762 c -5.8748,-11.0756 -10.9392,-15.7611 -15.944,-19.9763 l -2.8028,11.0604 c 4.1423,3.6573 9.5379,13.0295 15.5127,21.6779 z"
       id="path8404-9-1-5-2-0"
       inkscape:connector-curvature="0"
       sodipodi:nodetypes="ccccc" />
    <path
       style="fill:#97584e;fill-opacity:1;stroke:#000000;stroke-width:1px;stroke-linecap:butt;stroke-linejoin:miter;stroke-opacity:1"
       d="m -4252.2918,-4609.4658 3.8187,-12.5995 c -5.3583,-11.3345 -10.2015,-16.2483 -15.0067,-20.6896 l -0.4546,12.7814 c 2.6859,8.6571 6.0694,11.6052 11.6426,20.5077 z"
       id="path8404-9-1-5-7-8-1"
       inkscape:connector-curvature="0"
       sodipodi:nodetypes="ccccc" />
    <path
       style="fill:#97584e;fill-opacity:1;stroke:#000000;stroke-width:1px;stroke-linecap:butt;stroke-linejoin:miter;stroke-opacity:1"
       d="m -4422.671,-4423.2172 c -4.9975,-0.061 -8.7722,-0.6105 -15.8863,0.1755 -7.1178,4.0684 -10.5898,7.4076 -14.3064,10.7957 7.717,1.4403 15.8711,2.4435 26.5942,0.8777 l 3.5107,-11.4101 z"
       id="path8875-4-7"
       inkscape:connector-curvature="0"
       sodipodi:nodetypes="cccccc" />
    <path
       style="fill:#97584e;fill-opacity:1;stroke:#000000;stroke-width:1px;stroke-linecap:butt;stroke-linejoin:miter;stroke-opacity:1"
       d="m -4429.8257,-4410.894 c 7.0696,0.019 26.5813,-3.4766 26.9093,-8.5394 19.3879,-8.4705 -0.651,-5.2709 0.2724,-10.5596 l -21.7012,7.2104 c -4.2682,4.6901 -2.4712,2.8577 -5.4805,11.8886 z"
       id="path8404-9-1-5-7-3-3-4-2-2-1-2-7-7-0-2-4-1-1-5"
       inkscape:connector-curvature="0"
       sodipodi:nodetypes="ccccc" />
    <path
       style="fill:#97584e;fill-opacity:1;stroke:#000000;stroke-width:1px;stroke-linecap:butt;stroke-linejoin:miter;stroke-opacity:1"
       d="m -4415.027,-4412.931 c 5.3645,-0.2866 27.9206,-8.1062 28.6173,-13.2169 18.8746,-9.5597 -0.9498,-5.2253 -0.3287,-10.558 l -21.7203,8.7675 c -3.9945,4.9253 -4.0777,5.8199 -6.5683,15.0074 z"
       id="path8404-9-1-5-7-3-3-4-2-2-1-2-7-7-0-2-4-8-0"
       inkscape:connector-curvature="0"
       sodipodi:nodetypes="ccccc" />
    <path
       style="fill:#97584e;fill-opacity:1;stroke:#000000;stroke-width:1px;stroke-linecap:butt;stroke-linejoin:miter;stroke-opacity:1"
       d="m -4393.7396,-4420.2014 c 5.3135,-0.7917 27.0309,-10.7052 27.2421,-15.8588 17.8881,-11.2985 -1.4387,-5.1124 -1.3237,-10.4799 l -20.7959,10.7783 c -3.5118,5.2804 -3.5102,6.1788 -5.1225,15.5604 z"
       id="path8404-9-1-5-7-3-3-4-2-2-1-2-7-7-0-2-3-5"
       inkscape:connector-curvature="0"
       sodipodi:nodetypes="ccccc" />
    <path
       style="fill:#97584e;fill-opacity:1;stroke:#000000;stroke-width:1px;stroke-linecap:butt;stroke-linejoin:miter;stroke-opacity:1"
       d="m -4373.0486,-4429.9327 c 5.2541,-1.1202 26.3137,-12.3638 26.2043,-17.5205 17.1516,-12.388 -1.7535,-5.0132 -1.9722,-10.3774 l -20.0861,12.0494 c -3.177,5.4883 -3.1196,6.3849 -4.146,15.8485 z"
       id="path8404-9-1-5-7-3-3-4-2-2-1-2-7-7-0-7-9"
       inkscape:connector-curvature="0"
       sodipodi:nodetypes="ccccc" />
    <path
       style="fill:#97584e;fill-opacity:1;stroke:#000000;stroke-width:1px;stroke-linecap:butt;stroke-linejoin:miter;stroke-opacity:1"
       d="m -4351.2231,-4441.7075 c 6.1263,-4.2684 12.4125,-5.2529 16.5938,-11.4636 6.0727,-9.6897 4.9314,-13.8795 4.0612,-19.1771 l -18.4695,14.4053 c -2.4852,5.8343 -2.319,6.7173 -2.1855,16.2354 z"
       id="path8404-9-1-5-7-3-3-4-2-2-1-2-7-7-5-0"
       inkscape:connector-curvature="0"
       sodipodi:nodetypes="ccccc" />
    <path
       style="fill:#97584e;fill-opacity:1;stroke:#000000;stroke-width:1px;stroke-linecap:butt;stroke-linejoin:miter;stroke-opacity:1"
       d="m -4333.6005,-4454.8345 c 5.8288,-4.6666 12.0356,-6.0671 15.7944,-12.5423 5.4145,-10.0722 3.997,-14.1768 2.7763,-19.4048 l -17.4702,15.6022 c -2.0915,5.9867 -1.8669,6.8567 -1.1005,16.3449 z"
       id="path8404-9-1-5-7-3-3-4-2-2-1-2-7-8-9"
       inkscape:connector-curvature="0"
       sodipodi:nodetypes="ccccc" />
    <path
       style="fill:#97584e;fill-opacity:1;stroke:#000000;stroke-width:1px;stroke-linecap:butt;stroke-linejoin:miter;stroke-opacity:1"
       d="m -4318.2047,-4467.0553 c 5.3655,-5.1926 11.4136,-7.1691 14.5486,-13.9682 4.446,-10.5356 2.6498,-14.4892 0.9442,-19.5797 l -15.93,17.1719 c -1.5208,6.1564 -1.2156,7.0015 0.4372,16.376 z"
       id="path8404-9-1-5-7-3-3-4-2-2-1-2-1-3"
       inkscape:connector-curvature="0"
       sodipodi:nodetypes="ccccc" />
    <path
       style="fill:#97584e;fill-opacity:1;stroke:#000000;stroke-width:1px;stroke-linecap:butt;stroke-linejoin:miter;stroke-opacity:1"
       d="m -4305.1872,-4478.7164 8.9357,-8.651 c 7.5303,-16.0688 7.1022,-23.3661 4.7278,-29.4869 l -13.5284,18.5069 c -1.2314,6.2208 -2.2241,10.344 -0.1351,19.631 z"
       id="path8404-9-1-5-7-3-3-4-2-2-1-7-5"
       inkscape:connector-curvature="0"
       sodipodi:nodetypes="ccccc" />
    <path
       style="fill:#97584e;fill-opacity:1;stroke:#000000;stroke-width:1px;stroke-linecap:butt;stroke-linejoin:miter;stroke-opacity:1"
       d="m -4293.9987,-4493.273 8.5565,-9.0264 c 6.8339,-16.377 3.5491,-25.0307 0.9144,-31.0441 l -10.178,20.4517 c -0.9634,6.2679 -1.7783,10.43 0.7071,19.6188 z"
       id="path8404-9-1-5-7-3-3-4-2-2-0-0-4"
       inkscape:connector-curvature="0"
       sodipodi:nodetypes="ccccc" />
    <path
       style="fill:#97584e;fill-opacity:1;stroke:#000000;stroke-width:1px;stroke-linecap:butt;stroke-linejoin:miter;stroke-opacity:1"
       d="m -4282.8781,-4511.2683 7.1392,-10.1551 c 6.0735,-16.674 2.3941,-25.1675 -0.5144,-31.0533 l -9.2265,20.8982 c -0.6741,6.3056 -0.3037,11.2454 2.6017,20.3102 z"
       id="path8404-9-1-5-7-3-3-4-2-2-4-2"
       inkscape:connector-curvature="0"
       sodipodi:nodetypes="ccccc" />
    <path
       style="fill:#97584e;fill-opacity:1;stroke:#000000;stroke-width:1px;stroke-linecap:butt;stroke-linejoin:miter;stroke-opacity:1"
       d="m -4272.9386,-4532.1312 6.9887,-10.2882 c 4.1035,-17.2647 -0.5339,-25.2754 -4.1039,-30.7852 l -6.7465,21.8254 c 0.06,6.3413 -0.073,10.5802 3.8617,19.248 z"
       id="path8404-9-1-5-7-3-3-4-2-8-7"
       inkscape:connector-curvature="0"
       sodipodi:nodetypes="ccccc" />
    <path
       style="fill:#97584e;fill-opacity:1;stroke:#000000;stroke-width:1px;stroke-linecap:butt;stroke-linejoin:miter;stroke-opacity:1"
       d="m -4264.1841,-4552.2343 5.6341,-11.0881 c -2.0366,-15.6825 -3.8061,-24.9628 -7.957,-30.0209 l -3.9376,22.5024 c 0.8595,6.2831 1.2631,10.5048 6.2605,18.6066 z"
       id="path8404-9-1-5-7-3-3-4-8-2"
       inkscape:connector-curvature="0"
       sodipodi:nodetypes="ccccc" />
    <path
       style="fill:#97584e;fill-opacity:1;stroke:#000000;stroke-width:1px;stroke-linecap:butt;stroke-linejoin:miter;stroke-opacity:1"
       d="m -4260.052,-4573.3837 5.51,-11.957 c -2.0366,-15.6825 -6.0403,-23.9697 -10.1912,-29.0278 l -1.7034,21.5093 c 0.8595,6.2831 1.3872,11.3737 6.3846,19.4755 z"
       id="path8404-9-1-5-7-3-3-1-6"
       inkscape:connector-curvature="0"
       sodipodi:nodetypes="ccccc" />
    <path
       style="fill:#97584e;fill-opacity:1;stroke:#000000;stroke-width:1px;stroke-linecap:butt;stroke-linejoin:miter;stroke-opacity:1"
       d="m -4255.4342,-4594.3127 3.8187,-12.5995 c -5.3583,-11.3345 -6.1054,-14.1382 -10.9106,-18.5795 l -3.3095,10.9195 c 3.9694,3.8442 4.8314,11.345 10.4014,20.2595 z"
       id="path8404-9-1-5-7-3-36-7"
       inkscape:connector-curvature="0"
       sodipodi:nodetypes="ccccc" />
    <path
       style="fill:#97584e;fill-opacity:1;stroke:#000000;stroke-width:1px;stroke-linecap:butt;stroke-linejoin:miter;stroke-opacity:1"
       d="m -4402.1518,-4407.3924 c -4.8824,-0.2214 -9.4693,-0.5645 -16.2604,0 -4.5292,2.8971 -8.144,6.4301 -12.1472,10.5425 l 16.716,0.098 c 6.6675,-1.6341 8.1747,-7.6206 11.6916,-10.641 z"
       id="path8974-78-2"
       inkscape:connector-curvature="0"
       sodipodi:nodetypes="cccccc" />
    <path
       style="fill:#97584e;fill-opacity:1;stroke:#000000;stroke-width:1px;stroke-linecap:butt;stroke-linejoin:miter;stroke-opacity:1"
       d="m -4418.1259,-4407.2667 c -4.8463,-0.6324 -9.3879,-1.3611 -16.2024,-1.3713 -4.7574,2.5048 -8.5469,5.3002 -12.8827,9.0603 l 15.9172,2.8587 c 6.7816,-1.066 9.4089,-7.8349 13.168,-10.548 z"
       id="path8974-7-5-2"
       inkscape:connector-curvature="0"
       sodipodi:nodetypes="cccccc" />
    <path
       style="fill:#97584e;fill-opacity:1;stroke:#000000;stroke-width:1px;stroke-linecap:butt;stroke-linejoin:miter;stroke-opacity:1"
       d="m -4484.9459,-4422.4163 16.2604,0 4.3444,12.4125 -10.4265,-0.1241 z"
       id="path9132-0"
       inkscape:connector-curvature="0" />
    <path
       style="fill:#97584e;fill-opacity:1;stroke:#000000;stroke-width:1px;stroke-linecap:butt;stroke-linejoin:miter;stroke-opacity:1"
       d="m -4438.7714,-4422.7886 -16.2604,0 -4.3444,12.4125 10.4265,-0.1241 z"
       id="path9132-5-1"
       inkscape:connector-curvature="0" />
  </g>
<g transform="translate(2.58,3.15)scale(0.007)">
<path
   style="fill:#ffffff;stroke:#000000;stroke-width:1.2;stroke-miterlimit:4;stroke-opacity:1;stroke-dasharray:none"
   d="m 105.725,149.81875 -1.4375,2.90625 -2.8125,5.125 -0.0312,0.0312 -100.84379998,51.4375 10.96874998,47 L 6.6,257.85 l 2.28125,9.1875 11.125,-2.5625 1.03125,6.8125 -4.75,3.71875 54.40625,16.4375 17.0625,11.09375 322.53125,0 0.0625,-0.1875 0.6875,-1.78125 0.15625,-0.90625 -0.4375,-0.46875 -0.125,-0.34375 -0.53125,-0.3125 -1.4375,-0.875 -0.0937,-0.5 0,-0.5 -0.15625,-1.3125 -0.1875,-0.5 -0.65625,-0.53125 -0.375,-0.21875 -0.40625,-0.15625 -0.5625,-0.1875 -0.3125,-0.0937 -0.25,-0.0625 -0.1875,-0.375 -0.59375,-0.84375 -0.34375,-0.40625 0.125,-0.625 0.0625,-0.46875 -0.21875,-0.5625 -0.3125,-0.625 -1.5,-2.5625 -1.25,-1.5 -0.25,-0.78125 -0.375,-0.78125 -0.625,-0.53125 -0.84375,-0.375 -3.71875,-2.375 0.59375,-2.09375 0.375,-0.625 -0.0312,-1.03125 -0.4375,-0.25 -0.4375,-0.4375 -0.46875,-0.15625 -0.28125,-0.5 -0.5,-0.5625 -0.34375,-0.125 -0.4375,-1.53125 -0.3125,-0.5625 -0.3125,-0.53125 -0.375,-0.28125 -1.21875,-0.28125 -0.25,-0.28125 -0.375,-0.90625 -0.6875,-0.28125 0.0312,-0.375 0.3125,-0.21875 0.46875,-0.0312 0.3125,-0.3125 0.1875,-0.375 0.21875,-0.40635 -0.0625,-0.59375 -0.4375,-0.375 -0.28125,-0.59375 -1.03125,-0.71875 -0.28125,-0.15625 -0.40625,-0.3125 -0.28125,-0.40625 -0.0312,-0.6875 -0.0937,-0.40625 -0.40625,-0.25 -0.375,0.0312 -0.375,0.1875 -0.5,0.0937 -0.5625,0.0312 -0.46875,-0.46875 -0.46875,-0.28125 -0.28125,-0.28125 -0.375,-0.375 -0.4375,-0.25 -0.5625,0.0937 -0.4375,0.25 -0.40625,0.15625 -1.375,1.25 -0.71875,0.21875 -0.9375,0.15625 -0.625,0.15625 -1.3125,0.1875 -0.71875,-0.71875 -2.03125,-0.53125 -0.84375,-0.78125 -3.15625,-3 -5.34375,-4.5625 -0.84375,-0.75 -1.625,-1.25 -1.4375,-1.46875 -1.21875,-0.6875 -1.125,-0.5 -1,-1.5625 -3.9375,-2.84375 -2.40625,-1.65625 -4.625,-3.1875 -0.5,-0.28125 -0.5625,0.1875 -0.8125,-0.125 -0.71875,-0.5 -2.84375,-1.4375 -1.0625,-0.375 -1.6875,0.0937 -2.46875,-0.0625 -2.40625,0.28125 -0.8125,-0.5625 -0.84375,-0.21875 -0.84375,0.0312 -2.46875,-0.1875 -0.34375,-0.0625 -0.46875,-0.3125 -0.40625,-0.59375 0.0937,-0.6875 0.15625,-0.4375 0.4375,-0.59375 0.34375,-0.25 0.3125,-0.21875 0.1875,-0.0937 1.09375,-0.78125 0.28125,-0.1875 0.5,-0.5 -0.0937,-0.4375 -0.4375,-0.40625 -0.375,-0.0312 -0.5,-0.0312 -0.53125,-0.125 -0.4375,-0.0625 -2.75,-0.90625 -0.5625,-0.59375 -0.15625,-0.625 0.25,-0.46875 0.28125,-0.34375 0.65625,0 0.34375,0.0625 0.78125,0.15625 0.78125,0.3125 2.375,-1.15625 1.3125,-3.375 -0.0312,-1.1875 0.1875,-1.21875 -0.25,-0.75 -0.5,-0.375 -2.125,-1.15625 -0.40625,-0.3125 -0.1875,-0.46875 -0.125,-0.625 -1.40625,-1.40625 -2.28125,-2.59375 -0.8125,-0.53125 -0.21875,-0.34375 0,-0.25 c -0.06,-0.611 0.941,-1.698 1.125,-2.125 0.183,-0.427 0.174,-0.98225 -0.375,-1.53125 -0.55,-0.55 -1.40975,-0.1875 -1.59375,-0.1875 -0.184,0 -1.59375,0.71875 -1.59375,0.71875 -0.916,0.305 -2.1725,-0.781 -1.5625,-2.125 0.61,-1.344 1.09725,-1.5105 1.28125,-1.9375 0.182,-0.427 -0.3125,-1.46875 -0.3125,-1.46875 0,0 -0.67425,-1.29525 -1.40625,-1.90625 -0.732,-0.61 -1.288,-0.543 -2.875,0.25 -1.588,0.794 -2.75,0.59375 -2.75,0.59375 l -1.40625,-0.25 -0.28125,-1.28125 0.3125,-0.625 -1.53125,-1.40625 -1.21875,-0.8125 -0.625,-0.78125 -1.34375,-1.09375 -0.25,-0.4375 -0.0312,-2.15625 -0.125,-0.53125 -1.21875,-0.8125 -0.65625,-0.90625 -0.625,-1.0625 -0.46875,-0.59375 -0.625,-0.90625 -0.5625,-1.25 -1.90625,-3.125 -0.75,-0.5 -0.6875,-0.0312 -0.5,0.0625 -1.15625,-0.0937 -0.71875,-0.21875 -0.9375,-1.1875 -0.15625,-0.25 0.0312,-0.28125 0.125,-0.3125 0.5,-0.125 0.78125,-0.75 0.5,-0.34375 0.40625,-0.3125 0.46875,-0.65625 0.375,-0.84375 0.375,-0.5 -0.21875,-0.71875 -0.0937,-0.40625 0.0937,-0.1875 0.3125,-0.5 0.3125,-0.25 0.5625,-0.59375 0.2812,-0.5937 0.25,-0.4375 1.59375,-1.34375 0.1875,-0.8125 0.0312,-0.53125 -0.46875,-1.8125 0.40625,-0.59375 0.0312,-0.71875 0.53125,-0.6875 0.28125,-1.46875 0,-0.71875 -0.1875,-1.03125 -1,-2.03125 -0.1875,-0.3125 -0.46875,-0.5 -0.21875,0.0625 -0.46875,-0.0937 -0.3125,0.25 -0.34375,0.21875 -0.21875,0.5 -0.0625,0.25 -0.0937,0.15625 -0.90625,-0.8125 -0.1875,-0.40625 0.0312,-0.25 -0.0625,-0.375 -0.125,-0.28125 -0.15625,-0.40625 -0.15625,-0.5 -0.65625,-1.53125 -0.125,-0.8125 -0.21875,-0.46875 -0.0937,-0.5625 -0.0312,-0.46875 -0.0312,-0.6875 0.125,-0.40625 0.15625,-0.15625 0.34375,0.0625 1.375,0.125 0.28125,-0.25 0.28125,-0.3125 0.3125,-0.25 0.5,-1.5 -0.28125,-1.40625 0.125,-0.3125 -0.0937,-0.625 0.0625,-0.59375 0.46875,-1.0625 0.28125,-0.15625 0.34375,-0.125 1,0.78125 0.46875,0.34375 0.53125,0.65625 0.53125,0.25 0.4375,0.0937 1.90625,-0.25 1.3125,0 0.21875,-0.125 0.375,0.0312 0.5625,0.53125 0.5625,0.28125 0.75,-0.0312 0.15625,-0.34375 -0.0312,-0.90625 -0.375,-1.71875 0.0625,-0.90625 -205.625,0 z"/>
<g transform="translate(-202,-72)scale(2,2)">
	<path
   d="m 138.086,170.796 -1.652,-1.667 1.667,-1.652 1.667,-1.652 1.652,1.667 1.652,1.667 -1.667,1.652 -1.667,1.652 -1.652,-1.667 z m -11.34,-0.837 c -0.594,-0.217 -1.558,-0.932 -2.19,-1.623 -1.191,-1.303 -1.462,-1.911 -0.662,-1.483 1.193,0.639 3.556,1.054 4.397,0.774 3.102,-1.036 3.807,-5.177 1.33,-7.804 -0.486,-0.515 -0.884,-1.114 -0.884,-1.331 0,-0.217 0.517,-0.623 1.148,-0.902 0.884,-0.391 1.316,-0.817 1.882,-1.856 0.574,-1.055 0.81,-1.285 1.086,-1.056 0.394,0.327 1.725,3.503 1.725,4.117 0,0.324 0.481,0.395 2.658,0.395 h 2.658 l -0.415,-0.996 c -0.228,-0.547 -0.604,-1.284 -0.835,-1.637 -0.374,-0.572 -0.376,-0.673 -0.017,-0.929 0.221,-0.158 0.957,-0.676 1.636,-1.151 0.678,-0.475 1.312,-1.072 1.407,-1.327 0.235,-0.632 1.705,-2.455 1.978,-2.455 0.121,0 0.221,1.911 0.221,4.247 v 4.247 h 16.591 16.59 v -6.084 -6.084 l -0.923,-0.571 -0.923,-0.571 -0.935,0.713 -0.935,0.713 v 4.349 4.348 h -13.936 c -7.666,0 -13.937,-0.048 -13.937,-0.106 0,-0.093 6.935,-9.459 7.783,-10.512 0.176,-0.219 0.612,-0.816 0.968,-1.327 0.356,-0.511 0.719,-0.989 0.805,-1.062 0.088,-0.073 0.447,-0.551 0.801,-1.062 0.353,-0.511 0.765,-1.069 0.916,-1.239 0.151,-0.171 2.663,-3.538 5.583,-7.483 2.92,-3.945 5.396,-7.18 5.504,-7.189 0.107,-0.009 0.259,0.313 0.338,0.714 0.438,2.222 0.774,3.466 1.121,4.15 0.444,0.875 0.184,1.202 -0.989,1.238 -0.555,0.017 -1.834,1.587 -7.831,9.615 -3.942,5.277 -7.207,9.689 -7.256,9.805 -0.049,0.116 3.505,0.211 7.897,0.211 h 7.986 l 0.004,-2.854 c 0.002,-1.569 0.092,-2.977 0.199,-3.128 0.501,-0.706 5.781,-4.395 6.149,-4.297 0.229,0.061 1.641,1.043 3.138,2.182 l 2.721,2.072 v 8.853 8.853 h -23.055 -23.055 l -0.463,1.712 c -0.556,2.052 -1.465,3.532 -2.686,4.368 -1.151,0.788 -3.756,1.006 -5.293,0.443 z m 57.471,-20.305 c 0,-9.637 0.087,-13.847 0.288,-13.972 0.158,-0.098 0.845,0.406 1.526,1.12 0.681,0.714 1.895,1.861 2.699,2.548 1.268,1.086 1.4,1.286 1.009,1.524 -1.307,0.794 -1.274,0.544 -1.274,9.705 v 8.608 h 2.541 c 2.256,0 2.673,-0.077 3.716,-0.689 1.295,-0.759 1.381,-0.659 0.74,0.856 -0.24,0.565 -0.508,1.685 -0.598,2.488 l -0.162,1.46 -5.243,0.072 -5.242,0.072 v -13.792 z"
   style="fill:#009e60" />
	<path
   d="m 211.666,159.855 c 0.139,-3.881 0.54,-5.198 1.964,-6.448 1.096,-0.962 2.664,-1.418 4.479,-1.301 l 1.359,0.088 0.082,-1.588 c 0.103,-2.012 -0.079,-2.73 -0.748,-2.943 -0.803,-0.255 -0.639,-1.089 0.334,-1.696 0.476,-0.297 1.642,-1.326 2.59,-2.287 0.948,-0.961 1.818,-1.747 1.932,-1.747 0.114,0 0.208,3.837 0.208,8.527 v 8.528 h 1.865 1.865 v -8.775 c 0,-7.622 -0.055,-8.83 -0.419,-9.194 -0.23,-0.23 -0.53,-0.419 -0.666,-0.419 -0.598,0 -0.175,-1.067 0.618,-1.562 0.477,-0.297 1.636,-1.32 2.578,-2.274 0.941,-0.954 1.811,-1.673 1.932,-1.598 0.121,0.075 0.22,5.465 0.22,11.979 v 11.843 h 1.865 1.865 v -12.127 -12.126 l -0.666,-0.579 c -0.366,-0.318 -0.666,-0.724 -0.666,-0.901 0,-0.177 0.829,-0.991 1.842,-1.81 1.013,-0.819 2.1,-1.851 2.416,-2.295 1.36,-1.911 1.338,-2.196 1.338,16.647 v 17.454 h -14.155 -14.155 l 0.123,-3.396 z m 7.936,-2.598 v -1.732 h -1.045 c -1.403,0 -2.685,1.218 -2.685,2.552 v 0.912 h 1.865 1.865 v -1.732 z m 23.184,-7.84 c 0,-9.674 0.087,-13.901 0.289,-14.026 0.159,-0.098 0.849,0.408 1.532,1.125 0.684,0.717 1.902,1.868 2.708,2.558 1.273,1.09 1.406,1.291 1.013,1.53 -1.312,0.797 -1.279,0.547 -1.279,9.743 v 8.642 h 2.603 c 2.361,0 2.697,-0.064 3.618,-0.69 0.559,-0.379 1.081,-0.624 1.161,-0.544 0.08,0.08 -0.064,0.66 -0.321,1.289 -0.257,0.629 -0.542,1.803 -0.633,2.609 l -0.166,1.466 -5.263,0.072 -5.263,0.072 v -13.846 z m -20.974,-14.498 c -0.47,-0.172 -1.01,-0.477 -1.199,-0.677 -0.29,-0.306 -0.146,-0.336 0.908,-0.185 1.894,0.27 3.055,-0.051 4.111,-1.14 l 0.929,-0.956 1.291,0.458 c 0.71,0.252 1.452,0.396 1.65,0.32 0.512,-0.197 1.44,-1.668 1.347,-2.136 -0.113,-0.571 0.411,-0.484 0.735,0.121 0.636,1.188 0.105,2.695 -1.11,3.154 -0.595,0.225 -1.17,0.231 -2.134,0.025 -1.184,-0.254 -1.378,-0.227 -1.897,0.259 -1.164,1.09 -2.932,1.379 -4.631,0.757 z m 3.226,-4.394 c -0.642,-0.438 -1.997,-2.683 -2.048,-3.397 -0.045,-0.612 0.064,-0.799 0.499,-0.862 0.762,-0.109 1.114,0.398 1.7,2.449 0.479,1.674 0.435,2.209 -0.151,1.81 z"
   style="fill:#009e60" />
</g>
<path
   d="m 82.4125,299.06875 34.8125,22.625 30,15.84375 118.84375,103.96875 2.78125,0.3125 78.78125,6.46875 5.25,-2.40625 1.3125,0.0312 1.9375,-2.28125 4.78125,-5.09375 2.78125,-4.78125 5.4375,-6.875 0.59375,-1.65625 1.125,-2.0625 3.15625,-7.25 1.875,-5.1875 0.65625,-1.09375 0.125,-1.375 0.875,-1.78125 1.28125,-3.875 0.90625,-2.1875 0.84375,-1.75 2.6875,-3.125 6.25,-3.125 1.28125,-0.46875 16,-0.40625 11.6875,4.6875 0,-0.96875 -0.25,-1.65625 -0.25,-1.4375 -0.40625,-0.75 -0.40625,-0.5937 -0.6875,-0.9375 -0.84375,-0.875 -0.21875,-1.03125 -0.0937,-0.875 -0.40625,-1.21875 0,-0.96875 0.5,0.375 0.21875,0.625 0.4375,0.875 0.15625,1.125 0.125,0.625 0.3125,0.6875 2.25,3.09375 0.0625,0.9375 0.28125,0.9375 0.65625,0.96875 0.875,0.59375 0.0312,0 0.40625,-0.1875 0.46875,-0.40625 0.625,-0.46875 0.59375,-0.5 0.625,-0.53125 0.59375,-0.4375 1.8125,-0.28125 1.3125,0.1875 1.34375,0.0312 0.90625,0.0937 0.9375,0.25 1.28125,0.75 0.6875,0.625 1.4375,1.03125 1.28125,0.625 0.71875,0.6875 1.15625,0.8125 0.6875,0.15625 0.5,0.28125 0.34375,0.3125 0.875,0.34375 0.75,0.25 0.8125,0.21875 1.21875,0.15625 3.84375,-0.25 1.03125,-0.15625 0.59375,-0.8125 -0.4375,-0.0312 -0.90625,-0.0937 -0.96875,-0.1875 -0.4375,-0.375 -0.40625,-0.4375 -0.6875,-0.53125 -1.78125,-1.0625 -0.34375,-0.625 -0.5,-0.90625 -0.28125,-0.71875 -0.0312,-0.6875 -0.125,-0.75 -0.4375,-0.59375 -0.96875,-1.09375 -1.15625,-1.75 -0.15625,-0.59375 0.4375,-0.71875 0.625,-0.9375 0.125,-0.75 -0.1875,-0.8125 -0.375,-0.4375 -0.3125,-0.5 -0.46875,-0.5 -0.625,-0.46875 -0.6875,-0.59375 -0.5625,-0.4375 -0.875,-0.78125 -0.84375,-0.875 -0.4375,-0.8125 -1.65625,-1.625 -0.28125,-0.0937 -0.25,0.1875 -0.46875,0.4375 -0.4375,0.3125 -0.5625,0.21875 -0.53125,-0.25 -0.5,-0.21875 -0.28125,-0.5 -0.34375,-0.90625 -0.28125,-1.28125 -0.15625,-1.59375 -0.65625,-0.40625 -0.875,-0.40625 -0.71875,-0.34375 -0.96875,-0.3125 -0.59375,-0.0312 -0.6875,-0.28125 -0.65625,-0.0937 -1.21875,-0.4375 -1.21875,-0.28125 -1.125,-0.28125 -0.6875,-0.125 -0.53125,0.1561 -1.78125,-0.375 0.4375,-0.6875 4.375,0.875 0.53125,0.0625 -1.375,-28.28125 -15.25,0.4375 -0.96875,-21.4375 5.375,-16.75 0.3125,-1.21875 0.53125,-1.59375 0.6875,-1.78125 0.15625,-0.90625 -0.4375,-0.46875 -0.0312,-0.125 -328.3125,0 z"
   style="fill:#000000;fill-opacity:1;stroke:#000000;stroke-width:1.2;stroke-miterlimit:4;stroke-opacity:1;stroke-dasharray:none" />
<path
   style="fill:#ce1126;stroke:#ce1126;stroke-width:1.2;stroke-miterlimit:4;stroke-opacity:1;stroke-dasharray:none"
   d="m 183.53745,0.60000002 -0.75,0.65624998 -0.6875,0.9375 -1.09375,-0.4375 -0.1875,0.71875 0.53125,1.375 -0.375,0.59375 -1.375,0.28125 -0.1875,1.3125 -1.21875,0.84375 -1.1875,2.34375 -1.90625,3.34375 -0.71875,0.53125 -1.3125,0 -2.5,0.78125 -2.3125,-0.09375 -1.0625,0.53125 -1.28125,-0.15625 0.0625,0.9375 0.75,0.90625 -0.90625,0.71875 -25.09375,25.4375 -18.03125,3.375 -5.3125,8.8125 -0.34375,6.0625 -0.21875,5.25 -1.125,4.8125 5.09375,22.6875 -5.28125,7.34375 -0.0937,4 -1.96875,7.125 -0.71875,3.875 -0.1875,5.59375 0,16.8125 -2.59375,3.375 -4.21875,8.53125 205.625,0 -0.28125,-0.84375 -0.25,-1.625 -0.375,-0.28125 -0.3125,-0.0937 -0.28125,-0.59375 -0.125,-0.25 -0.5625,-0.84375 -0.59375,-0.3125 -0.375,-0.21875 -0.0625,-0.46875 0,-0.40625 0.0312,-0.46875 1.25,-2.65625 -0.0312,-0.40625 -0.0625,-0.46875 0.0937,-0.34375 0.15625,-0.1875 2.15625,-0.625 0.53125,-0.3125 0.5625,-0.40625 0.53125,-0.53125 0.0625,-2.21875 0.0312,-0.8125 0.5,-0.4375 0.8125,0.3125 0.65625,0.46875 0.59375,-0.0625 0.40625,-0.34375 0.3125,-0.375 0.125,-0.65625 0.6875,-0.96875 0.5,-0.5 0,-0.53125 -0.28125,-0.59375 -0.3125,-0.65625 0,-0.5625 0.1875,-0.5625 -0.0312,-0.5 0.125,-1.375 0.6875,-0.40625 0.46875,-0.25 0.3125,-0.21875 -0.0937,-0.59375 0.375,-0.28125 0.6875,-0.25 1.03125,-0.34375 0.78125,-0.3125 0.8125,0.625 0.96875,0.53125 0.65625,0.375 1.1875,-0.46875 0,-0.625 0.96875,-0.71875 0.59375,-0.1875 1.125,0 0.96875,-0.25 0.78125,-0.5625 0.6875,-1 -0.21875,-0.1875 -0.53125,0.0937 -0.125,-0.15625 -0.3125,-0.75 -0.1875,-0.53125 0.375,-1.40625 0.46875,0 0.46875,-0.0937 0.3125,-0.0937 0.40625,-0.375 -0.25,-0.71875 -0.125,-0.625 -0.34375,-0.46875 -1.0625,-0.25 -0.53125,0.15625 -0.34375,-0.15625 -0.0937,-0.1875 -0.1875,-0.21875 -0.21875,0.0312 -0.25,-0.0312 -0.1875,-1.375 0.34375,-0.21875 0.625,-0.53125 0.0937,-1.46875 -0.28125,-0.5 -0.1875,-0.375 -0.0937,-0.625 0,-0.40625 -0.46875,-0.25 -0.53125,-0.125 -0.5625,-0.0312 -0.3125,-0.34375 -0.34375,-0.53125 -0.875,-0.8125 -0.375,-0.625 -0.34375,-0.625 -0.21875,-0.46875 -0.65635,-0.9375 -0.4375,-0.75 -0.40625,-1.3125 -0.59375,-0.6875 -0.21875,-0.5 0.6875,-1.40625 -0.125,-0.5625 -0.0312,-0.5 -0.40625,-0.40625 -0.25,-0.21875 -0.1875,-0.59375 0.21875,-1.1875 0.6875,0.28125 0.3125,0.21875 0.28125,0.0625 0.21875,-0.5 -0.21875,-0.40625 -0.40625,-0.46875 -0.0312,-0.625 0,-0.59375 -0.125,-0.5 -0.0312,-0.75 0.9375,-2.4375 0.75,-0.4375 0.28125,-0.0625 0.84375,0.3125 0.34375,0.03125 0.4375,-0.25 0.5,-0.125 0.65625,-0.0625 0.53125,0.1875 0.34375,0.1875 1,-0.25 0.25,-0.5625 0.59375,-0.5625 1.21875,-0.28125 0.25,-0.34375 0.375,0.03125 0.4375,-0.09375 0.53125,0.28125 1.3125,-1.0625 0.125,-0.40625 0.4375,-0.03125 0.5,-0.34375 0.4375,-0.34375 0.8125,-0.625 0.28125,-0.375 0.625,-0.78125 -0.0937,-1.09375 -0.625,-0.375 -1.15625,-0.46875 -0.84375,-0.21875 -0.65625,1.15625 -0.4375,0.15625 -0.21875,-0.03125 -0.71875,-0.34375 -0.65625,0.09375 -0.25,0.25 0,0.25 -0.0312,0.3125 -0.40625,-0.09375 -0.375,-0.0625 -0.219,-0.21875 -0.9375,0.25 -0.71875,-0.03125 -0.5625,-0.40625 -0.25,-0.53125 -0.3125,-1.53125 -0.5625,-0.15625 -0.46875,0.21875 -0.40625,-0.25 -0.34375,-0.25 -0.40625,-0.28125 -0.375,-0.125 -0.28125,0.125 -0.5,0.28125 -0.375,0.375 -0.46875,0.25 -0.46875,0.4686 -2.0625,-0.1875 -1.28125,0.75 -0.25,0 -0.25,-0.1875 -0.1875,-0.15625 -0.4375,-0.1875 -0.90625,0.4375 -1.59375,0.875 -0.9375,-0.03125 -0.9375,-0.21875 -0.4375,-0.0625 -0.28125,-0.03125 -0.375,0.15625 -0.34375,0.125 -0.125,0.28125 -0.0937,0.21875 -0.5625,-0.15625 -0.28125,-0.09375 -0.25,-0.59375 -0.90625,-1.375 -3,-3.34375 -0.8125,-1.34375 -1.25,-1.3125 -0.65625,-0.5 -1.375,-0.9375 -1.25,-0.46875 -0.71875,-0.25 -1.34375,-0.03125 -0.90625,0.15625 -1.34375,0.25 -0.59375,0.28125 -1.40625,1.375 -0.34375,0 -0.71875,-0.125 -0.59375,-0.25 -0.28125,-0.625 -0.375,-0.5 0.0312,-2.21875 0.21875,-0.78125 0.3125,-0.71875 0.15625,-0.3125 0.34375,-0.71875 0.1875,-0.21875 0.0937,-0.40625 0,-0.40625 -0.28125,-0.25 -0.1875,-0.03125 -0.78125,-0.90625 -0.15625,-0.3125 -0.15625,-0.34375 -0.65625,-0.53125 0.3125,-3.6875 -0.1875,-0.28125 -0.28125,-0.6875 -0.25,-0.21875 -0.3125,-0.0625 -0.34375,0.1875 -0.375,0.21875 -0.4375,-0.15625 -0.46875,-0.15625 -0.21875,-0.34375 0.0625,-0.40625 0.3125,-0.34375 0.25,-0.3125 0.53125,-0.75 -1.21875,-1.375 0.1875,-0.53125 0.25,-0.5 -0.0625,-0.6875 -0.15625,-0.75 -0.59375,-1.96875 -1.4375,-1.90625 -0.5625,0.03125 -0.75,0.3125 -1.40625,0.3125 -0.5625,0.1875 -0.625,0.1875 -2.15625,-1.15625 -0.0937,-0.9375 -0.46875,-0.375 -0.40625,-0.4375 -0.25,-0.6875 0.0937,-0.6875 -0.5625,-0.6875 -0.53125,-0.59375 -0.6875,-0.5 -0.21875,-0.21875 -0.25,-0.375 0.0625,-0.5625 0.15625,-0.3125 0.3125,-0.15625 0.4375,-0.25 -0.0937,-2.0625 1,-1.25 0.25,-0.75 -0.125,-2.5625 -0.375,-1.6875 -0.59375,-0.71875 -0.59375,-0.75 -0.8125,-0.5 -0.84375,-0.40625 -0.46875,-0.625 -1.9375,-0.9375 -0.65625,0.09375 -0.59375,0.1875 -1.4375,-0.34375 -0.5625,-0.4375 -0.25,-1.3125 0.3125,-0.59375 0.25,-0.375 0.0625,-0.59375 0.125,-0.59375 0.28125,-0.25 1.15625,-0.90625 0.40625,-0.59375 -0.0625,-1.5 -0.5,-1 -0.28125,-0.84375 -0.15625,-0.6875 0.0312,-0.34375 0.1875,-0.5 0.25,-0.375 0.15625,-0.8125 0.125,-0.6875 -0.0312,-0.625 -0.3125,-0.46875 -0.5,-0.09375 -0.5625,-0.25 -0.34375,-0.34375 -0.40625,0.0625 -0.1875,0.28125 -0.4375,0.21875 -1.28125,-0.75 -0.0625,-0.5 -0.34375,-0.3125 -0.625,-0.5625 -0.1875,-0.53125 -0.625,-1.6875 0.0625,-0.4375 0.1875,-0.375 0.3125,-0.34375 -0.125,-0.1875 -0.3125,-0.3125 -0.5625,-0.5625 -0.375,-0.75 -1.40625,-0.96875 -2,-0.1875 -3.8125,1.25 -0.21875,0.21875 -0.40625,0.3125 -2.46875,2.75 -0.40625,0.28125 -1.125,0.875 -0.3125,0.09375 -0.71875,0.625 -0.75,0.625 -0.6875,0.03125 -0.53125,0.0625 -0.5,-0.0625 -0.4375,0.03125 -1.125,0.625 -0.125,0.03125 -0.3125,0.6875 0.0625,0.34375 0.1875,0.34375 -0.0625,0.3125 -0.3125,0.34375 -0.375,0.53125 -2.6875,1.625 -0.5,-0.34375 -0.625,-0.375 0.21875,-0.9375 -0.375,-0.75 -0.46875,-1.4375 0.0625,-0.34375 -0.28125,-0.59375 -1,-0.5 -0.8125,-0.65625 0.0937,-1.125 0.5625,-1 1.09375,-1.28125 0.78125,-0.625 1.09375,-3.28125 0.0312,-0.3125 -0.4375,-1.03125 -0.6875,-0.5625 -0.28125,-0.84375 -0.78125,-0.65625 -0.875,-0.3125 -0.375,-0.5625 -0.78125,-0.1875 -2.03125,-0.84375 -1.84375,-0.0625 -1.125,-0.4375 -1.71875,0.03125 -1.5,1.5 -0.59375,0.4375 -0.5625,0.625 -0.25,0.5625 -0.5,1.03125 -0.46875,0.8125 -0.6875,0.75 -0.9375,-0.21875 -0.78125,-0.09375 -0.75,1.1875 -0.90625,0.375 -2.09375,-2.1875 -0.875,-0.03125 -1.46875,0 -1.65625,0.21875 -0.90625,0.34375 -1,-0.0625 -0.96875,-0.09375 -1.65625,-1.375 -0.8125,-0.0625 -0.65625,0.15625 -0.3125,0.3125 -2.03125,-0.875 -0.59375,-0.625 -1,-0.28125 -1.59375,-0.90625 -0.5,-0.3125 -0.5625,-0.21875 -0.59375,-1.0625 -0.8125,-0.375 -1.125,0.28125 -0.375,0.5 -0.5,0.40625 -0.53125,-0.28125 -2.84375,-2.0625 -1.15625,-0.3125 -1.21875,-0.65625 -1.4375,-0.5625 -1,0.09375 -1.5625,0.375 -1.625,0.21875 -1,0.71875 -0.65625,0.6875 -1.03125,0.375 -0.96875,0.40625 -1.53125,-0.6875 -0.8125,-0.1875 -1.15625,-0.34375 -0.6875,-0.34375 -1.25,-0.5 -0.28125,-0.71875 -1.59375,-0.84374998 z"/>
</g>
</svg>
