<?xml version="1.0" encoding="UTF-8" standalone="no"?>
<!-- Created with Inkscape (http://www.inkscape.org/) -->
<svg
   xmlns:svg="http://www.w3.org/2000/svg"
   xmlns="http://www.w3.org/2000/svg"
   version="1.0"
   width="94"
   height="49"
   id="svg2">
  <defs
     id="defs4" />
  <g
     transform="translate(-321.02679,-361.01729)"
     id="layer1">
    <g
       transform="translate(323.6278,362.75123)"
       id="g2412">
      <polygon
         points="4.545,27.124 9.092,31.67 11.363,29.398 15.909,33.943 20.456,29.398 20.456,26.416 15.909,30.964 11.363,26.416 9.093,28.686 4.545,24.145 4.545,27.124 "
         id="polygon2384" />
      <polygon
         points="13.637,9.092 9.093,4.545 9.091,7.529 13.637,12.074 18.183,7.526 18.183,4.545 13.637,9.092 "
         id="polygon2386" />
      <polygon
         points="13.637,12.074 4.546,21.167 0,16.622 0,19.598 4.546,24.144 13.637,15.052 16.692,18.109 18.183,16.622 13.637,12.074 "
         id="polygon2388" />
      <polygon
         points="20.456,23.436 15.91,18.891 15.91,21.87 20.456,26.416 29.547,17.326 29.547,14.344 20.456,23.436 "
         id="polygon2390" />
      <polygon
         points="20.456,23.436 29.547,14.344 25.001,9.8 22.728,12.074 18.183,7.526 13.637,12.074 18.183,16.622 16.692,18.109 13.637,15.053 4.545,24.144 9.094,28.686 11.364,26.416 15.91,30.964 20.456,26.416 15.91,21.87 15.91,18.891 20.456,23.436 "
         id="polygon2392"
         style="fill:#fcb034" />
      <rect
         width="6.428"
         height="12.858"
         x="3.6040001"
         y="7.9190001"
         transform="matrix(0.7072,0.707,-0.707,0.7072,12.1411,-0.6194)"
         id="rect2394"
         style="fill:#fcb034" />
      <rect
         width="6.427"
         height="6.428"
         x="10.424"
         y="1.331"
         transform="matrix(0.707,0.7072,-0.7072,0.707,7.2095,-8.3128)"
         id="rect2396"
         style="fill:#fcb034" />
      <rect
         width="4.2940001"
         height="21.410999"
         x="40.647999"
         y="24.135"
         id="rect2398" />
      <polygon
         points="68.381,24.136 51.434,24.136 51.434,27.831 57.74,27.831 57.74,45.547 62.075,45.547 62.075,27.831 68.381,27.831 68.381,24.136 "
         id="polygon2400" />
      <polygon
         points="89.375,24.136 72.425,24.136 72.425,27.831 78.733,27.831 78.733,45.547 83.066,45.547 83.066,27.831 89.375,27.831 89.375,24.136 "
         id="polygon2402" />
    </g>
  </g>
</svg>
