<svg xmlns="http://www.w3.org/2000/svg" xmlns:xlink="http://www.w3.org/1999/xlink" version="1.1" x="0px" y="0px" viewBox="0 0 221.004 19.751" enable-background="new 0 0 221.004 19.751" xml:space="preserve">

<path fill="#1F130D" d="M2.08 14.54c0.793 0 1.47-0.24 2.03-0.723s0.955-1.048 1.185-1.697c0.229-0.649 0.343-1.497 0.343-2.543V2.779 c0-0.834 0.082-1.36 0.246-1.579c0.26-0.335 0.673-0.502 1.241-0.502h0.502V0.318H1.669v0.379h0.502 c0.328 0 0.6 0.1 0.9 0.246c0.219 0.1 0.4 0.3 0.4 0.441c0.089 0.2 0.1 0.7 0.1 1.395v9.496 c0 0.574-0.081 0.974-0.241 1.199c-0.161 0.226-0.333 0.338-0.518 0.338c-0.246 0-0.448-0.184-0.605-0.553 c-0.267-0.623-0.487-1.006-0.661-1.148c-0.175-0.145-0.371-0.216-0.59-0.216c-0.301 0-0.564 0.106-0.79 0.3 c-0.171 0.172-0.256 0.424-0.256 0.76c0 0.4 0.2 0.8 0.6 1.092S1.437 14.5 2.1 14.54z"/>

<path fill="#1F130D" d="M13.658 13.843c-0.67-0.048-1.106-0.152-1.307-0.312c-0.202-0.16-0.303-0.348-0.303-0.559c0-0.268 0.116-0.67 0.349-1.211 l0.943-2.194h5.383l0.841 2c0.273 0.6 0.4 1.1 0.4 1.425c0 0.227-0.097 0.418-0.292 0.6 c-0.194 0.158-0.569 0.25-1.123 0.277v0.379h5.486v-0.379c-0.567-0.034-1.01-0.189-1.328-0.467c-0.317-0.277-0.671-0.88-1.061-1.81 L16.816 0h-0.359l-4.891 11.443c-0.424 1.005-0.81 1.671-1.159 1.999c-0.171 0.164-0.547 0.298-1.128 0.4v0.379h4.378V13.843z M16.078 3.189l2.358 5.619h-4.778L16.078 3.189z"/>

<path fill="#1F130D" d="M35.871 7.126c0.827-0.267 1.453-0.675 1.876-1.226c0.424-0.55 0.636-1.174 0.636-1.871c0-0.813-0.27-1.533-0.81-2.158 c-0.54-0.626-1.323-1.062-2.348-1.308c-0.677-0.164-1.576-0.246-2.697-0.246h-6.009v0.379h0.523c0.526 0 0.9 0.1 1.2 0.5 c0.198 0.2 0.3 0.8 0.3 1.63v8.982c0 0.779-0.079 1.289-0.236 1.528c-0.253 0.369-0.67 0.554-1.251 0.554h-0.523v0.379 h6.562c1.565 0 2.729-0.145 3.491-0.436c0.762-0.29 1.362-0.752 1.8-1.385c0.438-0.631 0.656-1.293 0.656-1.983 c0-0.909-0.332-1.678-0.995-2.307C37.556 7.7 36.8 7.3 35.9 7.126z M30.498 1.23c0.547-0.15 1.162-0.226 1.846-0.226 c1.271 0 2.2 0.3 2.9 0.861s0.995 1.3 1 2.082c0 0.526-0.133 1.012-0.4 1.456s-0.651 0.774-1.154 1 c-0.502 0.216-1.252 0.323-2.25 0.323c-0.39 0-0.747-0.012-1.072-0.036c-0.325-0.023-0.613-0.06-0.866-0.107V1.23z M35.676 12.7 c-0.649 0.557-1.593 0.835-2.83 0.835c-0.772 0-1.555-0.093-2.348-0.276V7.516c0.185-0.034 0.427-0.058 0.728-0.072 s0.663-0.021 1.087-0.021c0.978 0 1.8 0.1 2.5 0.431s1.142 0.7 1.4 1.179s0.441 1 0.4 1.6 C36.65 11.4 36.3 12.1 35.7 12.659z"/>

<path fill="#1F130D" d="M57.995 0.697h0.492c0.328 0 0.6 0.1 0.9 0.246c0.219 0.1 0.4 0.3 0.4 0.4 c0.089 0.2 0.1 0.7 0.1 1.405v3.979h-6.46V2.789c0-0.684 0.041-1.136 0.123-1.359c0.082-0.222 0.229-0.388 0.441-0.497 c0.294-0.157 0.605-0.236 0.933-0.236h0.502V0.318h-5.958v0.379h0.492c0.328 0 0.6 0.1 0.9 0.2 c0.212 0.1 0.4 0.3 0.4 0.441c0.089 0.2 0.1 0.7 0.1 1.405v8.972c0 0.834-0.082 1.361-0.246 1.6 c-0.26 0.334-0.677 0.502-1.251 0.502h-0.492v0.379h5.958v-0.379h-0.502c-0.328 0-0.639-0.082-0.933-0.246 c-0.219-0.123-0.362-0.27-0.431-0.441c-0.089-0.225-0.133-0.689-0.133-1.395V7.526h6.46v4.234c0 0.834-0.085 1.361-0.256 1.6 c-0.26 0.334-0.673 0.502-1.241 0.502h-0.492v0.379h5.947v-0.379H63.45c-0.328 0-0.643-0.082-0.943-0.246 c-0.212-0.123-0.352-0.27-0.42-0.441c-0.089-0.225-0.133-0.689-0.133-1.395V2.789c0-0.684 0.039-1.136 0.118-1.359 c0.079-0.222 0.228-0.388 0.446-0.497c0.294-0.157 0.605-0.236 0.933-0.236h0.492V0.318h-5.947V0.697z"/>

<path fill="#1F130D" d="M71.009 4.267c-1.273 0-2.366 0.423-3.28 1.271c-1.053 0.976-1.579 2.237-1.579 3.783c0 1.5 0.5 2.7 1.4 3.7 c0.912 1 2 1.4 3.4 1.428c1.326 0 2.455-0.488 3.388-1.464c0.933-0.976 1.399-2.204 1.399-3.682 c0-1.436-0.463-2.633-1.389-3.593C73.367 4.7 72.3 4.3 71 4.267z M73.145 12.866c-0.596 0.713-1.351 1.068-2.265 1.1 c-0.857 0-1.546-0.324-2.067-0.976c-0.68-0.856-1.019-2.079-1.019-3.668c0-1.55 0.328-2.728 0.983-3.531 c0.526-0.646 1.225-0.969 2.096-0.969c0.928 0 1.7 0.3 2.2 0.976c0.655 0.8 1 2.1 1 3.7 C74.038 11 73.7 12.2 73.1 12.866z"/>

<path fill="#1F130D" d="M85.252 12.854c-0.249 0.28-0.524 0.475-0.826 0.586c-0.301 0.109-0.825 0.164-1.572 0.164h-0.71 c-0.627 0-1-0.023-1.12-0.071s-0.208-0.122-0.266-0.223c-0.077-0.148-0.115-0.421-0.115-0.818V6.377 c0-0.579 0.038-0.945 0.115-1.098c0.076-0.153 0.219-0.28 0.427-0.38c0.208-0.101 0.571-0.148 1.087-0.144V4.489h-4.407v0.266 h0.366c0.369 0 0.6 0.1 0.8 0.316c0.134 0.2 0.2 0.5 0.2 1.141v6.28c0 0.556-0.05 0.909-0.151 1.1 c-0.177 0.269-0.471 0.401-0.883 0.401h-0.366v0.266h7.537l0.833-2.641l-0.237-0.051C85.75 12.1 85.5 12.6 85.3 12.854z"/>

<path fill="#1F130D" d="M95.113 4.984c-0.759-0.33-1.865-0.495-3.32-0.495h-3.962v0.266h0.366c0.369 0 0.6 0.1 0.8 0.3 c0.134 0.2 0.2 0.5 0.2 1.141v6.287c0 0.551-0.053 0.904-0.158 1.062c-0.172 0.264-0.464 0.395-0.876 0.395h-0.366v0.266 h4.35c1.89 0 3.297-0.507 4.22-1.521c0.823-0.908 1.235-2.041 1.235-3.395c0-1.009-0.231-1.899-0.693-2.67 S95.872 5.3 95.1 4.984z M94.901 12.55c-0.732 0.779-1.653 1.17-2.764 1.17c-0.411 0-0.921-0.066-1.529-0.201V5.243 c0.55-0.139 1.041-0.208 1.472-0.208c1.148 0 2.1 0.4 2.8 1.163C95.633 7 96 8 96 9.4 C96 10.7 95.6 11.8 94.9 12.55z"/>

<path fill="#1F130D" d="M100.032 4.755h0.344c0.23 0 0.5 0.1 0.7 0.172c0.148 0.1 0.2 0.2 0.3 0.3 c0.062 0.2 0.1 0.5 0.1 0.976v6.287c0 0.584-0.058 0.953-0.172 1.105c-0.182 0.234-0.474 0.352-0.876 0.352h-0.344v0.266 h4.17v-0.266h-0.352c-0.229 0-0.447-0.057-0.653-0.172c-0.153-0.086-0.253-0.189-0.301-0.309c-0.062-0.158-0.093-0.483-0.093-0.977 V6.212c0-0.584 0.06-0.952 0.179-1.105c0.182-0.234 0.472-0.352 0.869-0.352h0.352V4.489h-4.17V4.755z"/>

<path fill="#1F130D" d="M113.198 4.755h0.337c0.382 0 0.7 0.1 0.8 0.301c0.134 0.1 0.2 0.5 0.2 1.12v5.613l-5.95-7.3h-2.642v0.266 c0.282 0 0.5 0 0.6 0.064c0.282 0.1 0.5 0.2 0.6 0.294c0.146 0.1 0.4 0.3 0.6 0.653v6.77 c0 0.545-0.053 0.895-0.158 1.047c-0.172 0.249-0.467 0.373-0.883 0.373h-0.337v0.266h3.388v-0.266h-0.345 c-0.378 0-0.658-0.1-0.84-0.301c-0.129-0.148-0.193-0.521-0.193-1.119V6.542l6.417 7.838h0.259V6.176 c0-0.545 0.052-0.895 0.158-1.048c0.172-0.249 0.464-0.373 0.875-0.373h0.345V4.489h-3.388V4.755z"/>

<path fill="#1F130D" d="M124.506 9.184c0.392 0 0.7 0 0.8 0.118c0.155 0.1 0.3 0.2 0.3 0.345c0.074 0.1 0.1 0.5 0.1 1 v2.814c-0.311 0.176-0.634 0.311-0.969 0.401c-0.335 0.091-0.682 0.136-1.041 0.136c-0.612 0-1.209-0.178-1.791-0.534 c-0.581-0.356-1.051-0.917-1.41-1.683s-0.539-1.613-0.539-2.542c0-1.144 0.271-2.129 0.811-2.957 c0.646-0.981 1.589-1.472 2.828-1.472c0.909 0 1.7 0.3 2.2 0.84c0.402 0.4 0.7 1 1 1.73h0.251l-0.251-3.072 h-0.266c-0.014 0.244-0.054 0.408-0.119 0.492c-0.064 0.084-0.142 0.125-0.233 0.125c-0.091 0-0.271-0.05-0.539-0.15 c-0.531-0.196-0.941-0.323-1.231-0.38c-0.29-0.058-0.611-0.086-0.965-0.086c-0.972 0-1.813 0.208-2.526 0.6 c-0.852 0.502-1.522 1.22-2.01 2.153c-0.412 0.785-0.618 1.605-0.618 2.462c0 1.2 0.4 2.2 1.1 3.1 c0.976 1.2 2.4 1.8 4.3 1.809c0.656 0 1.251-0.068 1.788-0.208c0.536-0.139 1.079-0.356 1.629-0.653v-2.979 c0-0.521 0.047-0.871 0.144-1.048c0.139-0.249 0.395-0.373 0.768-0.373h0.179V8.911h-3.768V9.184z"/>

<path fill="#1F130D" d="M147.63 13.058c-0.69 0.387-1.487 0.58-2.39 0.58c-1.039 0-1.963-0.246-2.773-0.738c-0.81-0.492-1.416-1.199-1.82-2.123 c-0.402-0.922-0.604-2.013-0.604-3.271c0-1.524 0.214-2.799 0.641-3.825s1.014-1.772 1.759-2.24s1.579-0.703 2.502-0.703 c1.101 0 2 0.3 2.8 0.933s1.391 1.6 1.8 3.056h0.318L149.588 0h-0.358c-0.075 0.328-0.202 0.584-0.38 0.8 c-0.137 0.13-0.297 0.195-0.481 0.195c-0.123 0-0.328-0.075-0.615-0.226C146.775 0.2 145.8 0 144.8 0 c-1.292 0-2.483 0.32-3.573 0.958c-1.091 0.64-1.946 1.54-2.569 2.702c-0.621 1.162-0.933 2.437-0.933 3.8 c0 1.7 0.5 3.2 1.4 4.491c1.265 1.7 3 2.6 5.4 2.563c1.278 0 2.382-0.287 3.312-0.861s1.744-1.48 2.441-2.717 l-0.318-0.205C149.079 11.9 148.3 12.7 147.6 13.058z"/>

<path fill="#1F130D" d="M157.693 4.267c-1.273 0-2.367 0.423-3.281 1.271c-1.053 0.976-1.578 2.237-1.578 3.783c0 1.5 0.5 2.7 1.4 3.7 c0.912 1 2 1.4 3.4 1.428c1.326 0 2.455-0.488 3.389-1.464c0.932-0.976 1.398-2.204 1.398-3.682 c0-1.436-0.463-2.633-1.389-3.593C160.051 4.7 159 4.3 157.7 4.267z M159.828 12.9 c-0.596 0.713-1.351 1.068-2.264 1.068c-0.857 0-1.547-0.324-2.068-0.976c-0.68-0.856-1.019-2.079-1.019-3.668 c0-1.55 0.327-2.728 0.983-3.531c0.526-0.646 1.225-0.969 2.096-0.969c0.928 0 1.7 0.3 2.2 1 c0.656 0.8 1 2.1 1 3.726C160.723 11 160.4 12.2 159.8 12.866z"/>

<path fill="#1F130D" d="M170.494 12.104l-3.531-7.615h-2.756v0.266c0.396 0 0.7 0 0.9 0.14c0.178 0.1 0.3 0.2 0.4 0.3 c0.096 0.2 0.1 0.5 0.1 0.933v6.36c0 0.545-0.053 0.895-0.158 1.047c-0.172 0.249-0.463 0.373-0.875 0.373h-0.344v0.266 h3.387v-0.266h-0.344c-0.383 0-0.662-0.1-0.84-0.301c-0.129-0.148-0.193-0.521-0.193-1.119V6.032l3.76 8.189h0.238l3.754-8.189 v6.504c0 0.545-0.053 0.895-0.158 1.047c-0.168 0.249-0.459 0.373-0.875 0.373h-0.346v0.266h4.135v-0.266h-0.338 c-0.383 0-0.662-0.1-0.84-0.301c-0.133-0.148-0.201-0.521-0.201-1.119v-6.36c0-0.545 0.053-0.895 0.158-1.048 c0.172-0.249 0.467-0.373 0.883-0.373h0.338V4.489h-2.756L170.494 12.104z"/>

<path fill="#1F130D" d="M184.594 4.758c-0.502-0.179-1.188-0.269-2.059-0.269h-3.568v0.266h0.367c0.367 0 0.6 0.1 0.8 0.3 c0.129 0.1 0.2 0.5 0.2 1.141v6.287c0 0.556-0.047 0.907-0.143 1.056c-0.178 0.269-0.473 0.401-0.883 0.401h-0.367v0.266 h4.17v-0.266h-0.373c-0.367 0-0.643-0.104-0.824-0.315c-0.135-0.147-0.201-0.528-0.201-1.142V9.665 c0.311 0.1 0.6 0.1 0.9 0.15s0.527 0.1 0.8 0.05c0.957 0 1.697-0.249 2.221-0.747c0.523-0.498 0.785-1.144 0.785-1.938 c0-0.583-0.172-1.088-0.516-1.514C185.52 5.2 185.1 4.9 184.6 4.758z M184.203 8.821c-0.361 0.385-0.791 0.578-1.289 0.6 c-0.139 0-0.305-0.012-0.502-0.036c-0.195-0.024-0.42-0.06-0.674-0.107V5.207c0.383-0.091 0.695-0.136 0.939-0.136 c0.402 0 0.8 0.1 1.1 0.269c0.316 0.2 0.6 0.5 0.7 0.811s0.26 0.8 0.3 1.2 C184.746 7.9 184.6 8.4 184.2 8.821z"/>

<path fill="#1F130D" d="M195.65 12.363l-3.387-8.097h-0.252l-3.424 8.01c-0.297 0.704-0.566 1.17-0.811 1.4c-0.119 0.115-0.383 0.208-0.789 0.3 v0.266h3.064v-0.266c-0.469-0.033-0.775-0.105-0.916-0.219c-0.141-0.111-0.211-0.242-0.211-0.391c0-0.188 0.08-0.469 0.244-0.848 l0.66-1.535h3.768l0.59 1.399c0.191 0.5 0.3 0.8 0.3 0.997c0 0.158-0.068 0.293-0.205 0.4 c-0.137 0.11-0.398 0.175-0.787 0.193v0.266h3.842v-0.266c-0.398-0.023-0.707-0.133-0.93-0.326S195.924 13 195.7 12.363z M190.053 10.433l1.693-3.934l1.65 3.934H190.053z"/>

<path fill="#1F130D" d="M205.684 4.755h0.338c0.383 0 0.7 0.1 0.8 0.301c0.135 0.1 0.2 0.5 0.2 1.12v5.613l-5.951-7.3h-2.641v0.266 c0.283 0 0.5 0 0.6 0.064c0.283 0.1 0.5 0.2 0.6 0.294c0.146 0.1 0.4 0.3 0.6 0.653v6.77 c0 0.545-0.053 0.895-0.158 1.047c-0.172 0.249-0.465 0.373-0.883 0.373h-0.336v0.266h3.387v-0.266h-0.344 c-0.379 0-0.658-0.1-0.84-0.301c-0.129-0.148-0.193-0.521-0.193-1.119V6.542l6.416 7.838h0.258V6.176 c0-0.545 0.053-0.895 0.158-1.048c0.172-0.249 0.465-0.373 0.877-0.373h0.344V4.489h-3.389V4.755z"/>

<path fill="#1F130D" d="M217.609 4.489v0.266c0.258 0 0.5 0 0.6 0.089c0.129 0.1 0.2 0.1 0.3 0.2 c0.068 0.1 0.1 0.2 0.1 0.359c0 0.22-0.143 0.555-0.43 1.005l-1.91 3l-2.031-3.137c-0.293-0.45-0.438-0.761-0.438-0.933 c0-0.21 0.094-0.368 0.283-0.474c0.189-0.105 0.396-0.158 0.621-0.158h0.215V4.489h-4.162v0.266c0.182 0 0.3 0 0.4 0.1 c0.354 0.2 0.6 0.3 0.7 0.431s0.326 0.4 0.6 0.897l2.67 4.077v2.305c0 0.545-0.053 0.895-0.158 1 c-0.172 0.249-0.463 0.373-0.875 0.373h-0.346v0.266h4.135v-0.266h-0.314c-0.393 0-0.68-0.1-0.861-0.301 c-0.135-0.148-0.201-0.521-0.201-1.119v-2.441l2.346-3.696c0.287-0.464 0.529-0.799 0.727-1.005 c0.195-0.206 0.412-0.364 0.652-0.474c0.238-0.11 0.422-0.165 0.545-0.165h0.188V4.489H217.609z"/>
<rect fill="#1F130D" y="18.8" width="39" height="1"/>
</svg>