<?xml version="1.0" encoding="utf-8"?>
<!-- Generator: Adobe Illustrator 23.0.2, SVG Export Plug-In . SVG Version: 6.00 Build 0)  -->
<svg version="1.1" id="Layer_1" xmlns="http://www.w3.org/2000/svg" xmlns:xlink="http://www.w3.org/1999/xlink" x="0px" y="0px"
	 viewBox="0 0 492.6 238.9" style="enable-background:new 0 0 492.6 238.9;" xml:space="preserve">
<style type="text/css">
	.st0{fill:#000000;}
</style>
<title>JadeLogo2018_2_blue_2f337a</title>
<path class="st0" d="M48.9,52.2v121.7c0,26.6-7.6,48.3-22.8,65L0,220.7c10.4-11.3,15.7-26.9,15.7-46.8V52.2H48.9z"/>
<path class="st0" d="M74,138.3c0-27,19.1-40.5,57.2-40.5c10.3-0.1,20.5,0.7,30.6,2.5v-8.6c0-11.8-11.4-17.7-34.3-17.7
	c-14.5,0-29,2.1-42.9,6.3V53.9c13.9-4.2,28.4-6.3,42.9-6.3c45,0,67.5,14.5,67.5,43.4v88.3h-16.8l-14.3-9.3
	c-11.2,6.1-23.8,9.3-36.6,9.3C91.8,179.4,74,165.7,74,138.3z M131.3,122.9c-16,0-24,5-24,15.1s6.7,15.1,20.1,15.1s25-3.4,34.5-10.3
	v-17.3C153.5,123.7,143.3,122.9,131.3,122.9z"/>
<path class="st0" d="M348.2,180h-17.4c0,0-15.6-9.9-15.6-8.8c0,0-16.3,7.3-28.6,8.2c-44.1,3-66.4-22.8-66.4-68.5
	c0-42.2,21.2-63.3,63.7-63.2c10.7-0.1,21.2,2,31,6.3V0h33.3V180z M314.9,82c-8.5-4.5-18.8-6.8-30.9-6.8c-20.7,0-31,11.6-31,34.8
	c0,27.5,10.3,41.3,31,41.3c12,0,22.3-1.6,30.9-4.9V82z"/>
<path class="st0" d="M490.9,126.4h-86.2c0,17.7,14.5,26.6,43.4,26.6c13.4,0,26.8-1.2,39.9-3.8v26.4c-11.6,2.5-26.6,3.8-44.9,3.8
	c-47.8,0-71.7-22.5-71.7-67.4c0-42.9,21.9-64.4,65.6-64.4S498.7,73.8,490.9,126.4z M404.7,102.1h55c1.2-18.9-7.6-28.4-26.3-28.4
	C415.7,73.7,406.2,83.2,404.7,102.1z"/>
</svg>
