<?xml version="1.0" encoding="UTF-8" standalone="no"?>
<svg
   xmlns:dc="http://purl.org/dc/elements/1.1/"
   xmlns:cc="http://creativecommons.org/ns#"
   xmlns:rdf="http://www.w3.org/1999/02/22-rdf-syntax-ns#"
   xmlns:svg="http://www.w3.org/2000/svg"
   xmlns="http://www.w3.org/2000/svg"
   xmlns:sodipodi="http://sodipodi.sourceforge.net/DTD/sodipodi-0.dtd"
   xmlns:inkscape="http://www.inkscape.org/namespaces/inkscape"
   inkscape:version="1.0 (4035a4fb49, 2020-05-01)"
   height="46.519295"
   width="400.00003"
   sodipodi:docname="Just Eat Takeaway.com Logo 6.2020.svg"
   id="svg61"
   xml:space="preserve"
   viewBox="0 0 400.00002 46.519295"
   y="0px"
   x="0px"
   version="1.1"><metadata
   id="metadata67"><rdf:RDF><cc:Work
       rdf:about=""><dc:format>image/svg+xml</dc:format><dc:type
         rdf:resource="http://purl.org/dc/dcmitype/StillImage" /><dc:title></dc:title></cc:Work></rdf:RDF></metadata><defs
   id="defs65">
	
	
	

		
		
	
			
			
			
			
			
			
			
		
			
			
			
			
			
			
			
			
			
			
			
			
		</defs><sodipodi:namedview
   inkscape:current-layer="svg61"
   inkscape:window-maximized="1"
   inkscape:window-y="-8"
   inkscape:window-x="-8"
   inkscape:cy="29.957885"
   inkscape:cx="257.59583"
   inkscape:zoom="1.614345"
   fit-margin-bottom="0"
   fit-margin-right="0"
   fit-margin-left="0"
   fit-margin-top="0"
   showgrid="false"
   id="namedview63"
   inkscape:window-height="837"
   inkscape:window-width="1600"
   inkscape:pageshadow="2"
   inkscape:pageopacity="0"
   guidetolerance="10"
   gridtolerance="10"
   objecttolerance="10"
   borderopacity="1"
   bordercolor="#666666"
   pagecolor="#ffffff" />
<style
   id="style2"
   type="text/css">
	.st0{display:none;fill:#EF7E19;}
	.st1{fill:#FF8000;}
	.st2{fill:#FFFFFF;}
	.st3{display:none;}
	.st4{display:inline;opacity:0.5;fill:#446CB2;}
</style>
<path
   class="st0"
   d="m 180.67082,8.8478853 c 0,0 7.73,-3.99 11.39,-9.31000005 3.66,-5.31999995 -25.61,2.33000005 -25.61,2.33000005 z"
   id="path4" /><path
   style="stroke-width:0.776396"
   id="House_1_"
   class="st1"
   d="m 46.165162,22.599262 c -1.5295,-2.554343 -3.21428,-5.01552 -5.054339,-7.360236 l -0.04658,-0.06211 -0.01553,-0.01553 c -0.09317,-0.116459 -0.33385,-0.41149 -0.419254,-0.527949 C 39.790951,13.48437 38.804928,4.2840743 38.688468,3.6086103 c -0.139751,-0.799689 -0.364906,-1.630433 -1.521736,-1.754656 -0.93944,-0.100932 -2.329189,-0.256211 -3.866454,-0.33385 -0.714284,-0.03882 -1.079191,0.349378 -1.265526,0.698756 -0.131987,0.240683 -0.186335,0.512422 -0.186335,0.78416 -0.02329,1.180123 0.0078,1.754656 0.0078,1.902171 0,0.01553 0,0.03106 -0.0078,0.04658 -0.01553,0.0854 -0.06211,0.147515 -0.124223,0.201863 -0.131988,0.108696 -0.326087,0.100932 -0.465838,-0.0078 -0.729812,-0.551241 -4.52639,-3.439435 -6.630424,-4.73601705 -0.100932,-0.05435 -0.201863,-0.108696 -0.302795,-0.155279 -0.768632,-0.341615 -1.661488,-0.357143 -2.3913,0.06211 -0.05435,0.03106 -0.100932,0.06211 -0.147515,0.09317 C 21.095329,0.84460025 9.2552858,7.5681923 0.29567279,22.521584 c 0,0 -0.559006,0.78416 -0.139752,1.513972 0.403727,0.838508 4.31676401,1.079191 4.94564501,1.149067 0.70652,0.07764 0.698756,0.652173 0.698756,0.652173 0.06988,6.141294 0.178571,9.114892 1.180123,19.526366 0,0 0.163043,1.086955 1.23447,1.141302 0.434782,0.02329 2.0496862,-0.06987 6.3431572,-0.170807 0.163043,0.01553 0.310559,-0.100931 0.326087,-0.263974 0,-0.02329 0,-0.04658 0,-0.07764 -0.41149,-4.246888 -0.543478,-7.927006 -0.551242,-8.136633 -0.0078,-0.155279 -0.147515,-0.380434 -0.287266,-0.434782 -1.583849,-0.908384 -2.523288,-2.492232 -2.538816,-4.316763 -0.11646,-8.408372 0.395962,-14.867989 0.395962,-14.867989 0,0 0.04658,-0.892855 0.838508,-0.82298 0.78416,0.06988 0.737576,0.954968 0.737576,0.954968 -0.279502,3.62577 -0.388198,10.155263 -0.388198,10.155263 0,0 0,1.242234 1.187887,1.242234 1.187886,0 1.187886,-1.242234 1.187886,-1.242234 -0.03882,-5.108688 0.395962,-10.248431 0.395962,-10.248431 0,0 0,-0.869564 0.838508,-0.869564 0.458074,0 0.628881,0.310559 0.698757,0.56677 0.03882,0.131987 0.04658,0.271738 0.03106,0.41149 -0.349378,4.425458 -0.388198,10.131971 -0.388198,10.131971 0,0 0,1.242234 1.187887,1.242234 1.187886,0 1.187886,-1.343166 1.187886,-1.343166 -0.02329,-4.239123 0.395962,-10.131971 0.395962,-10.131971 0.03882,-0.458074 0.263975,-0.8618 0.830744,-0.8618 0.698757,0.02329 0.753104,0.690993 0.737576,0.8618 -0.37267,4.596266 -0.380434,11.645944 -0.364906,14.666126 0.05435,1.816767 -0.869564,3.524839 -2.414592,4.472042 -0.139751,0.09317 -0.217391,0.263975 -0.201863,0.434782 0.100931,2.795027 0.33385,5.900612 0.535713,8.121105 0.0078,0.147515 0.124224,0.271739 0.271739,0.287267 1.187886,0 3.470491,-0.01553 4.89906,-0.01553 2.298133,0 3.214281,0.01553 4.899061,0.03882 0.186335,0 0.279503,-0.139752 0.29503,-0.333851 0.434782,-4.021733 0.590062,-6.940983 0.60559,-7.197193 0.02329,-0.287267 -0.326087,-0.341615 -0.326087,-0.341615 -0.527949,-0.06987 -1.762419,-0.217391 -2.810554,-0.388198 -1.048135,-0.170807 -1.086955,-1.366457 -1.086955,-1.366457 -0.885092,-12.554328 5.737568,-20.380402 5.737568,-20.380402 0,0 0.659937,-0.869564 1.576085,-0.52795 0.807452,0.302795 1.017079,2.62422 1.032607,2.763971 0.885091,10.395946 -0.11646,22.515492 -0.690993,27.461136 -0.02329,0.201863 0.06988,0.364906 0.256211,0.403726 0.225155,0.03882 4.208068,0.170807 4.572974,0.131987 0.644409,-0.06988 1.164594,-0.559005 1.265526,-1.203414 1.413041,-9.728245 1.19565,-19.479782 1.19565,-19.479782 0.03106,-0.349379 0.302795,-0.621117 0.652173,-0.652173 l 3.812106,-0.41149 c 0.496893,-0.06988 0.923911,-0.271739 1.149066,-0.698757 0.201863,-0.465837 0.186335,-1.024843 -0.07764,-1.467389" /><path
   style="stroke-width:0.776396"
   class="st1"
   d="m 66.413577,15.922254 h -6.001543 c -1.948755,0 -1.948755,0 -2.352481,2.274841 -0.403726,2.274842 -0.403726,2.352481 1.381986,2.352481 h 3.571422 l -2.026394,11.59936 c -0.489129,2.593164 -1.622668,4.378875 -5.108687,5.434774 -0.892856,0.240683 -1.133539,0.56677 -1.133539,0.970496 0,0.489129 0.163043,0.892855 0.566769,1.863351 0.56677,1.381985 0.892856,1.622668 1.381986,1.622668 0.489129,0 1.381985,-0.240683 1.700308,-0.326087 4.945644,-1.622668 6.972038,-5.434773 7.787254,-9.976692 l 2.274841,-13.058985 c 0.388198,-2.756207 0.388198,-2.756207 -2.041922,-2.756207"
   id="path7" /><path
   style="stroke-width:0.776396"
   class="st1"
   d="m 86.770685,15.922254 c -2.43012,0 -2.43012,0 -2.7562,2.026395 l -1.78572,10.543461 c -0.48913,3.082293 -1.29658,4.868005 -4.30123,4.868005 -2.91925,0 -3.97515,-1.785712 -3.48602,-4.541919 l 1.70031,-10.054331 c 0.48913,-2.841611 0.40372,-2.841611 -2.1118,-2.841611 -2.430121,0 -2.515524,0 -2.841611,1.948755 L 69.402703,28.41447 c -1.055899,6.001544 2.678567,9.73601 7.950302,9.73601 5.9239,0 8.92079,-2.678568 9.89905,-9.006197 l 1.78571,-10.465822 c 0.41149,-2.756207 0.24845,-2.756207 -2.26708,-2.756207"
   id="path9" /><path
   style="stroke-width:0.776396"
   class="st1"
   d="m 97.880915,33.197071 c 1.94876,-0.07764 3.004655,-0.970495 3.004655,-1.863351 0,-1.133538 -1.381985,-1.537264 -3.245335,-2.111798 -3.64906,-1.133538 -6.97204,-2.43012 -6.97204,-6.327629 0,-4.619558 3.81211,-7.135082 8.59471,-7.135082 2.026385,0 4.301225,0.07764 5.760855,0.240683 1.29658,0.163043 1.62267,0.566769 1.21894,2.593164 -0.40373,2.026394 -0.89285,2.189437 -2.02639,2.111797 -1.38199,-0.07764 -3.15994,-0.240682 -5.271725,-0.240682 -2.43012,0 -3.15994,0.892855 -3.15994,1.700307 0,1.055899 0.9705,1.622669 3.24534,2.274841 4.215825,1.218943 6.972035,2.91925 6.972035,6.568313 0,4.301235 -3.15993,6.816759 -8.276385,6.972038 -2.7562,0.07764 -5.19409,-0.07764 -7.29812,-0.403726 -1.62267,-0.240682 -1.70031,-0.240682 -1.29658,-2.593163 0.40372,-2.111798 0.40372,-2.274841 1.94875,-2.111798 2.98913,0.326086 4.86024,0.41149 6.80123,0.326086"
   id="path11" /><path
   style="stroke-width:0.776396"
   class="st1"
   d="m 124.41037,15.922254 h -13.71115 c -1.94876,0 -1.94876,0 -2.35249,2.352481 -0.40372,2.352481 -0.32608,2.352481 1.38199,2.352481 h 4.46428 l -2.51553,14.51861 c -0.48912,2.84161 -0.40372,2.84161 2.1118,2.84161 2.35248,0 2.43012,0 2.75621,-2.026394 l 2.59316,-15.326062 h 4.30124 c 1.94875,0 1.94875,0 2.35248,-2.352481 0.39596,-2.360245 0.39596,-2.360245 -1.38199,-2.360245"
   id="path13" /><path
   style="stroke-width:0.776396"
   class="st1"
   d="m 148.57959,20.549576 c 1.94875,0 1.94875,0 2.35248,-2.352481 0.40373,-2.35248 0.40373,-2.35248 -1.38199,-2.35248 h -9.81364 c -3.48602,0 -3.40838,0 -3.97515,3.486019 l -2.51553,14.681653 c -0.65217,3.812106 -0.56677,3.812106 2.91925,3.812106 h 9.57297 c 2.02639,0 1.94875,0 2.35248,-2.274841 0.40373,-2.352481 0.40373,-2.352481 -1.38199,-2.352481 h -8.27638 l 0.65217,-4.215831 h 6.8944 c 1.86335,0 1.86335,0 2.18944,-2.189438 0.32609,-2.274841 0.32609,-2.274841 -2.18944,-2.274841 h -6.08694 l 0.65217,-3.975149 z"
   id="path15" /><path
   style="stroke-width:0.776396"
   class="st1"
   d="m 158.96001,28.329067 3.15993,-6.972039 c 0.24068,-0.566769 0.24068,-0.566769 0.65217,-0.566769 0.40373,0 0.40373,0 0.48913,0.652173 l 0.9705,6.894399 h -5.27173 z m 8.5947,-9.728245 c -0.48913,-2.756207 -0.48913,-2.756207 -4.37887,-2.756207 -3.64906,0 -3.57142,0 -4.70496,2.274841 L 150.2799,35.23123 c -1.21894,2.43012 -0.9705,2.678567 2.02639,2.678567 2.35248,0 2.35248,0 3.32298,-2.189438 l 1.29658,-2.91925 h 7.9503 l 0.40372,2.91925 c 0.32609,2.189438 0.40373,2.189438 2.75621,2.189438 2.67857,0 2.91925,-0.163043 2.43012,-2.841611 z"
   id="path17" /><path
   style="stroke-width:0.776396"
   class="st1"
   d="m 186.94133,15.922254 h -13.7888 c -1.94875,0 -1.94875,0 -2.35248,2.352481 -0.40373,2.352481 -0.32609,2.352481 1.38199,2.352481 h 4.46427 l -2.51552,14.51861 c -0.48913,2.84161 -0.40373,2.84161 2.1118,2.84161 2.35248,0 2.43012,0 2.75621,-2.026394 l 2.59316,-15.326062 h 4.30123 c 1.94876,0 1.94876,0 2.35248,-2.352481 0.48137,-2.360245 0.48137,-2.360245 -1.30434,-2.360245"
   id="path19" /><path
   style="stroke-width:0.776396"
   class="st1"
   d="m 204.30155,20.510756 h -5.21738 c -0.36491,0 -0.6677,-0.29503 -0.6677,-0.6677 v -3.121113 c 0,-0.364907 0.29503,-0.667701 0.6677,-0.667701 h 16.34314 c 0.3649,0 0.6677,0.29503 0.6677,0.667701 v 3.121113 c 0,0.364906 -0.29503,0.6677 -0.6677,0.6677 h -5.21738 c -0.18634,0 -0.33386,0.147516 -0.33386,0.333851 v 16.141278 c 0,0.364906 -0.29503,0.667701 -0.6677,0.667701 h -3.9208 c -0.3649,0 -0.6677,-0.295031 -0.6677,-0.667701 V 20.844607 c 0.0155,-0.178571 -0.13199,-0.333851 -0.31832,-0.333851 z"
   id="path23" /><path
   style="stroke-width:0.776396"
   class="st1"
   d="m 212.71769,33.034028 c 0,-2.989125 2.22825,-4.681669 6.84005,-4.914588 l 4.08384,-0.201863 v -0.06988 c 0,-1.925463 -1.42857,-2.686331 -3.28416,-2.686331 -1.31987,0 -2.58539,0.388198 -3.34626,1.024843 -0.17081,0.139751 -0.41926,0.124223 -0.5823,-0.02329 -0.52019,-0.504657 -1.59161,-1.545028 -2.21273,-2.142854 -0.27174,-0.263974 -0.27174,-0.698756 0,-0.954967 1.35869,-1.281054 3.63353,-2.220493 6.63819,-2.220493 4.88353,0 7.70185,2.686331 7.70185,6.739119 v 9.402161 c 0,0.364906 -0.29503,0.667701 -0.6677,0.667701 h -3.28416 c -0.3649,0 -0.6677,-0.295031 -0.6677,-0.667701 V 36.05421 h -0.0699 c -0.99379,1.296581 -2.75621,1.995338 -4.91459,1.995338 -3.51708,0 -6.23446,-1.824531 -6.23446,-5.01552 z m 10.92389,-1.389749 v -0.11646 c 0,-0.194099 -0.16304,-0.341614 -0.34938,-0.33385 l -3.10558,0.178571 c -1.66149,0.100932 -2.52329,0.597825 -2.52329,1.591613 0,1.125774 1.09472,1.630432 2.42236,1.630432 2.02639,0 3.55589,-1.125775 3.55589,-2.950306 z"
   id="path25" /><path
   style="stroke-width:0.776396"
   class="st1"
   d="m 234.61206,37.653586 h -3.58695 c -0.36491,0 -0.6677,-0.295031 -0.6677,-0.667701 v -22.08071 c 0,-0.364906 0.29503,-0.667701 0.6677,-0.667701 h 3.58695 c 0.36491,0 0.6677,0.295031 0.6677,0.667701 v 11.746876 c 0,0.302794 0.36491,0.45031 0.57453,0.225155 l 5.10869,-5.42701 c 0.12422,-0.131988 0.3028,-0.209627 0.48137,-0.209627 h 4.16925 c 0.58229,0 0.88509,0.690993 0.48912,1.11801 l -5.35713,5.791917 c -0.10869,0.116459 -0.11646,0.29503 -0.0233,0.427018 l 5.95496,8.020173 c 0.32608,0.434782 0.0155,1.063663 -0.53572,1.063663 h -4.23135 c -0.20963,0 -0.40373,-0.09317 -0.52795,-0.256211 l -3.81987,-4.953408 c -0.24845,-0.318322 -0.71429,-0.349378 -0.99379,-0.06211 l -1.09472,1.094719 c -0.12422,0.124223 -0.1941,0.295031 -0.1941,0.473602 v 3.043473 c 0,0.349378 -0.30279,0.652173 -0.6677,0.652173 z"
   id="path27" /><path
   style="stroke-width:0.776396"
   class="st1"
   d="m 245.73782,29.447077 c 0,-4.021732 2.46117,-8.60247 8.40061,-8.60247 5.97825,0 8.29967,4.580738 8.29967,8.60247 0,0.310559 -0.0388,0.745341 -0.0932,1.118011 -0.0466,0.326086 -0.32608,0.574533 -0.65993,0.574533 h -10.50464 c -0.24069,0 -0.40373,0.248447 -0.3028,0.465838 0.64441,1.467389 2.18168,2.127326 3.68788,2.127326 1.21895,0 2.4146,-0.349378 3.18323,-0.923912 0.25621,-0.194099 0.62888,-0.163043 0.8618,0.06988 l 2.06521,2.003102 c 0.27174,0.263975 0.27174,0.690993 0,0.954968 -1.3354,1.281054 -3.59471,2.220493 -6.28104,2.220493 -5.93167,-0.0078 -8.65682,-4.588502 -8.65682,-8.610235 z m 5.3416,-1.723599 h 6.08695 c 0.22516,0 0.38044,-0.217391 0.31832,-0.434782 -0.50465,-1.64596 -1.809,-2.321425 -3.34626,-2.321425 -1.56056,0 -2.87267,0.675465 -3.37733,2.321425 -0.0621,0.209627 0.0932,0.434782 0.31832,0.434782 z"
   id="path29" /><path
   style="stroke-width:0.776396"
   class="st1"
   d="m 279.50329,21.248333 h 4.00621 c 0.29503,0 0.55124,0.186335 0.63664,0.465838 l 3.01242,9.759301 h 0.0699 l 3.06676,-9.767065 c 0.0854,-0.279503 0.34161,-0.465838 0.63665,-0.465838 h 4.10713 c 0.28727,0 0.54348,0.186335 0.62888,0.458074 l 3.13664,9.767065 h 0.0699 l 3.01242,-9.759301 c 0.0854,-0.279503 0.34161,-0.465838 0.63664,-0.465838 h 4.00621 c 0.45807,0 0.78416,0.458074 0.62111,0.892856 l -5.46583,15.077615 c -0.0932,0.263975 -0.34161,0.434782 -0.62111,0.434782 h -4.23913 c -0.2795,0 -0.53571,-0.178571 -0.62888,-0.45031 l -2.91148,-8.400607 c -0.10094,-0.302795 -0.52795,-0.295031 -0.62888,0 l -2.82609,8.392843 c -0.0932,0.271739 -0.34161,0.45031 -0.62888,0.45031 h -4.23912 c -0.2795,0 -0.52795,-0.178571 -0.62112,-0.434782 l -5.46583,-15.077615 c -0.15528,-0.419254 0.16304,-0.877328 0.62888,-0.877328 z"
   id="path31" /><path
   style="stroke-width:0.776396"
   class="st1"
   d="m 324.0762,43.344571 v -3.012418 c 0,-0.395962 0.34162,-0.698757 0.73758,-0.659937 0.25621,0.03106 0.53571,0.04658 0.79192,0.04658 1.64596,0 2.3059,-0.551241 2.87267,-1.793475 0.0776,-0.163044 0.0854,-0.357143 0.0155,-0.52795 l -5.98602,-15.240659 c -0.17081,-0.434781 0.14752,-0.908383 0.62112,-0.908383 h 3.93633 c 0.2795,0 0.52795,0.178571 0.62888,0.442546 l 3.56366,9.984456 h 0.0699 l 3.56366,-9.984456 c 0.0932,-0.263975 0.34162,-0.442546 0.62888,-0.442546 h 3.80435 c 0.46583,0 0.79192,0.473602 0.62111,0.908383 l -6.118,15.49687 c -1.66149,4.15372 -3.2531,6.444089 -7.74067,6.444089 -0.45808,0 -0.9705,-0.03106 -1.42857,-0.09317 -0.34161,-0.05435 -0.5823,-0.33385 -0.5823,-0.659936 z"
   id="path33" /><path
   style="stroke-width:0.776396"
   class="st1"
   d="m 341.0094,29.447077 c 0,-4.083844 2.59317,-8.60247 8.36956,-8.60247 2.35248,0 4.2857,0.830744 5.57452,2.05745 0.27174,0.256211 0.26398,0.690993 0,0.954967 l -1.02484,0.986024 c -0.24845,0.240682 -0.63665,0.248446 -0.89286,0.02329 -1.02484,-0.900619 -2.35248,-1.304345 -3.65682,-1.304345 -3.09006,0 -5.38043,2.492232 -5.38043,5.877319 0,3.385088 2.29037,5.87732 5.38043,5.87732 1.39751,0 2.62422,-0.41149 3.73446,-1.296582 0.26398,-0.209627 0.64441,-0.201863 0.89286,0.03882 l 1.00931,0.993787 c 0.27174,0.271739 0.26398,0.714285 -0.0233,0.970496 -1.36646,1.242234 -3.22981,2.026394 -5.61334,2.026394 -5.78416,0 -8.36956,-4.518626 -8.36956,-8.602471 z"
   id="path35" /><path
   style="stroke-width:0.776396"
   class="st1"
   d="m 355.74541,29.447077 c 0,-4.021732 2.72515,-8.60247 8.50154,-8.60247 5.77638,0 8.50153,4.580738 8.50153,8.60247 0,4.021733 -2.72515,8.602471 -8.50153,8.602471 -5.77639,0 -8.50154,-4.580738 -8.50154,-8.602471 z m 8.5093,5.947196 c 3.19099,0 5.51241,-2.523288 5.51241,-5.947196 0,-3.423907 -2.32142,-5.947195 -5.51241,-5.947195 -3.19099,0 -5.51241,2.523288 -5.51241,5.947195 0,3.423908 2.32142,5.947196 5.51241,5.947196 z"
   id="path37" /><path
   style="stroke-width:0.776396"
   class="st1"
   d="m 374.68171,21.248333 h 1.45963 c 0.3649,0 0.6677,0.29503 0.6677,0.667701 v 0.993787 h 0.0699 c 0.8618,-1.226706 2.59317,-2.05745 4.85248,-2.05745 2.33695,0 4.19254,0.830744 5.35713,2.329189 0.13199,0.170807 0.3882,0.178571 0.52795,0.0078 1.22671,-1.5295 3.17546,-2.329188 5.6444,-2.329188 4.1149,0 6.73912,2.523288 6.73912,6.909926 v 9.231352 c 0,0.364906 -0.29503,0.667701 -0.6677,0.667701 h -1.59161 c -0.36491,0 -0.6677,-0.295031 -0.6677,-0.667701 v -8.68011 c 0,-3.121113 -1.49845,-4.852477 -4.25465,-4.852477 -2.6941,0 -4.34782,1.7236 -4.34782,4.852477 v 8.664545 c 0,0.364906 -0.29503,0.667701 -0.6677,0.667701 h -1.59161 c -0.36491,0 -0.6677,-0.295031 -0.6677,-0.667701 v -8.664582 c 0,-3.121113 -1.49845,-4.852477 -4.25466,-4.852477 -2.69409,0 -4.34782,1.7236 -4.34782,4.852477 v 8.664582 c 0,0.364906 -0.29503,0.667701 -0.6677,0.667701 h -1.59161 c -0.36491,0 -0.6677,-0.295031 -0.6677,-0.667701 V 21.90827 c 0.008,-0.364907 0.30279,-0.659937 0.6677,-0.659937 z"
   id="path39" /><path
   style="stroke-width:0.776396"
   class="st1"
   d="m 262.86512,33.034028 c 0,-2.989125 2.22826,-4.681669 6.84005,-4.914588 l 4.08385,-0.201863 v -0.06988 c 0,-1.925463 -1.42857,-2.686331 -3.28416,-2.686331 -1.31987,0 -2.5854,0.388198 -3.34627,1.024843 -0.17081,0.139751 -0.41925,0.124223 -0.5823,-0.02329 -0.52018,-0.504657 -1.59161,-1.545028 -2.21272,-2.142854 -0.27174,-0.263974 -0.27174,-0.698756 0,-0.954967 1.35869,-1.281054 3.63353,-2.220493 6.63818,-2.220493 4.88354,0 7.70185,2.686331 7.70185,6.739119 v 9.402161 c 0,0.364906 -0.29503,0.667701 -0.6677,0.667701 h -3.28415 c -0.36491,0 -0.6677,-0.295031 -0.6677,-0.667701 V 36.05421 h -0.0699 c -0.99379,1.296581 -2.75621,1.995338 -4.91459,1.995338 -3.51707,0 -6.23446,-1.824531 -6.23446,-5.01552 z m 10.9239,-1.389749 v -0.11646 c 0,-0.194099 -0.16305,-0.341614 -0.34938,-0.33385 l -3.10559,0.178571 c -1.66149,0.100932 -2.52329,0.597825 -2.52329,1.591613 0,1.125774 1.09472,1.630432 2.42236,1.630432 2.0264,0 3.5559,-1.125775 3.5559,-2.950306 z"
   id="path41" /><path
   style="stroke-width:0.776396"
   class="st1"
   d="m 306.60729,33.034028 c 0,-2.989125 2.22825,-4.681669 6.84005,-4.914588 l 4.08384,-0.201863 v -0.06988 c 0,-1.925463 -1.42857,-2.686331 -3.28415,-2.686331 -1.31988,0 -2.5854,0.388198 -3.34627,1.024843 -0.17081,0.139751 -0.41926,0.124223 -0.5823,-0.02329 -0.52019,-0.504657 -1.59161,-1.545028 -2.21273,-2.142854 -0.27174,-0.263974 -0.27174,-0.698756 0,-0.954967 1.35869,-1.281054 3.63354,-2.220493 6.63819,-2.220493 4.88353,0 7.70185,2.686331 7.70185,6.739119 v 9.402161 c 0,0.364906 -0.29503,0.667701 -0.6677,0.667701 h -3.28416 c -0.3649,0 -0.6677,-0.295031 -0.6677,-0.667701 V 36.05421 h -0.0699 c -0.99379,1.296581 -2.75621,1.995338 -4.91459,1.995338 -3.50931,0 -6.23446,-1.824531 -6.23446,-5.01552 z m 10.93166,-1.389749 v -0.11646 c 0,-0.194099 -0.16305,-0.341614 -0.34938,-0.33385 l -3.10559,0.178571 c -1.66149,0.100932 -2.52329,0.597825 -2.52329,1.591613 0,1.125774 1.09472,1.630432 2.42236,1.630432 2.0264,0 3.5559,-1.125775 3.5559,-2.950306 z"
   id="path43" /><circle
   style="stroke-width:0.776396"
   class="st1"
   cx="338.72681"
   cy="35.992104"
   r="1.9720465"
   id="circle45" />
<g
   transform="translate(-27.659175,-30.042115)"
   class="st3"
   id="Layer_2">
	<path
   id="path52"
   d="m 46.12,21.28 c 0,-5.22 3.89,-8.18 11.95,-8.58 l 7.13,-0.35 v -0.12 c 0,-3.36 -2.49,-4.7 -5.74,-4.7 -2.3,0 -4.52,0.68 -5.84,1.79 C 53.33,9.57 52.89,9.54 52.61,9.27 51.7,8.39 49.83,6.58 48.74,5.53 48.27,5.07 48.26,4.31 48.74,3.86 51.11,1.64 55.08,0 60.33,0 68.86,0 73.79,4.7 73.79,11.77 v 16.41 c 0,0.64 -0.52,1.16 -1.16,1.16 h -5.74 c -0.64,0 -1.16,-0.52 -1.16,-1.16 V 26.56 H 65.6 c -1.74,2.26 -4.81,3.48 -8.58,3.48 -6.15,0 -10.9,-3.19 -10.9,-8.76 z M 65.2,18.85 v -0.2 c 0,-0.33 -0.28,-0.6 -0.61,-0.58 l -5.42,0.31 c -2.9,0.17 -4.41,1.04 -4.41,2.78 0,1.97 1.91,2.84 4.23,2.84 3.54,0.01 6.21,-1.96 6.21,-5.15 z"
   class="st4" />
	<path
   id="path54"
   d="m 0,68.46 c 0,-5.22 3.89,-8.18 11.95,-8.58 l 7.13,-0.35 v -0.12 c 0,-3.36 -2.49,-4.7 -5.74,-4.7 -2.3,0 -4.52,0.68 -5.84,1.79 -0.29,0.25 -0.73,0.22 -1.01,-0.05 -0.91,-0.88 -2.78,-2.69 -3.87,-3.74 -0.47,-0.46 -0.48,-1.22 0,-1.67 2.37,-2.23 6.34,-3.88 11.59,-3.88 8.53,0 13.46,4.7 13.46,11.77 v 16.41 c 0,0.64 -0.52,1.16 -1.16,1.16 h -5.74 c -0.64,0 -1.16,-0.52 -1.16,-1.16 V 73.72 H 19.49 C 17.75,75.98 14.68,77.2 10.91,77.2 4.76,77.22 0,74.03 0,68.46 Z m 19.08,-2.44 v -0.2 c 0,-0.33 -0.28,-0.6 -0.61,-0.58 l -5.42,0.31 c -2.9,0.17 -4.41,1.04 -4.41,2.78 0,1.97 1.91,2.84 4.23,2.84 3.54,0.02 6.21,-1.96 6.21,-5.15 z"
   class="st4" />
	<path
   id="path56"
   d="m 542.85,70.24 c 0,-5.22 3.89,-8.18 11.95,-8.58 l 7.13,-0.35 v -0.12 c 0,-3.36 -2.49,-4.7 -5.74,-4.7 -2.3,0 -4.52,0.68 -5.84,1.79 -0.29,0.25 -0.73,0.22 -1.01,-0.05 -0.91,-0.88 -2.78,-2.69 -3.87,-3.74 -0.47,-0.46 -0.48,-1.22 0,-1.67 2.37,-2.23 6.34,-3.88 11.59,-3.88 8.53,0 13.46,4.7 13.46,11.77 v 16.41 c 0,0.64 -0.52,1.16 -1.16,1.16 h -5.74 c -0.64,0 -1.16,-0.52 -1.16,-1.16 V 75.5 h -0.12 c -1.74,2.26 -4.81,3.48 -8.58,3.48 -6.16,0.01 -10.91,-3.18 -10.91,-8.74 z m 19.08,-2.44 v -0.2 c 0,-0.33 -0.28,-0.6 -0.61,-0.58 l -5.42,0.31 c -2.9,0.17 -4.41,1.04 -4.41,2.78 0,1.97 1.91,2.84 4.23,2.84 3.54,0.01 6.21,-1.96 6.21,-5.15 z"
   class="st4" />
	<path
   id="path58"
   d="m 24.67,111.24 c 0,-5.22 3.89,-8.18 11.95,-8.58 l 7.13,-0.35 v -0.12 c 0,-3.36 -2.49,-4.7 -5.74,-4.7 -2.3,0 -4.52,0.68 -5.84,1.79 -0.29,0.25 -0.73,0.22 -1.01,-0.05 -0.91,-0.88 -2.78,-2.69 -3.87,-3.74 -0.47,-0.46 -0.48,-1.22 0,-1.67 2.37,-2.23 6.34,-3.88 11.59,-3.88 8.53,0 13.46,4.7 13.46,11.77 v 16.41 c 0,0.64 -0.52,1.16 -1.16,1.16 h -5.74 c -0.64,0 -1.16,-0.52 -1.16,-1.16 v -1.62 h -0.12 c -1.74,2.26 -4.81,3.48 -8.58,3.48 -6.15,0.02 -10.91,-3.17 -10.91,-8.74 z m 19.09,-2.43 v -0.2 c 0,-0.33 -0.28,-0.6 -0.61,-0.58 l -5.42,0.31 c -2.9,0.17 -4.41,1.04 -4.41,2.78 0,1.97 1.91,2.84 4.23,2.84 3.54,0.01 6.21,-1.96 6.21,-5.15 z"
   class="st4" />
</g>
</svg>
