<?xml version="1.0" encoding="UTF-8" standalone="no"?>
<svg id="svg10" height="282.36206" viewBox="0 0 610 282.36206" width="610" xmlns="http://www.w3.org/2000/svg">
   <path id="path6" d="m51.505068 18.266617v-18.21067628h-2.927222v18.23063328c0 4.250821 3.316181 7.675426 7.388227 7.675426v-3.041432c-2.462074 0-4.460003-2.075519-4.460003-4.653951m-46.9167477 0c0 2.558476-2.0460478 4.653951-4.5893223 4.653951v3.041432c4.1923429 0 7.5686726-3.444562 7.5686726-7.674428v-18.23063343h-2.9783479v18.21067643zm37.4945027-18.20967843v18.23063343c0 2.557477-2.094167 4.652952-4.696587 4.652952-2.581369 0-4.695585-2.075518-4.695585-4.652952v-18.23063343h-3.069573v18.23063343c0 4.250821 3.475575 7.674428 7.745108 7.674428 4.289583 0 7.745108-3.444562 7.745108-7.674428v-18.23063343zm-18.891608 0v18.23063343c0 2.557477-2.045045 4.652952-4.589322 4.652952-2.523225 0-4.589322-2.075518-4.589322-4.652952v-18.23063343h-2.9994v18.23063343c0 4.250821 3.397382 7.674428 7.568673 7.674428 4.192342 0 7.569675-3.444562 7.569675-7.674428v-18.23063343z" fill="#424242" transform="matrix(10.89946 0 0 10.89946 0 -.60972364)"/>
</svg>
