<?xml version="1.0" encoding="UTF-8" standalone="no"?>
<!-- Created with Inkscape (http://www.inkscape.org/) -->
<svg
   xmlns:svg="http://www.w3.org/2000/svg"
   xmlns="http://www.w3.org/2000/svg"
   version="1.0"
   width="629.106246471"
   height="158.955662197" viewBox="0 0 896.10236 226.41731"
   id="svg16586"
   xml:space="preserve"><defs
     id="defs16589"><clipPath
       id="clipPath16601"><path
         d="M 0,580.155 L 603.78,580.155 L 603.78,540.771 L 0,540.771 L 0,580.155 z"
         id="path16603" /></clipPath><clipPath
       id="clipPath16607"><path
         d="M -331.971,701.981 L 110.387,-233.403 L 935.93,157.009 L 493.573,1092.39"
         id="path16609" /></clipPath><clipPath
       id="clipPath16613"><path
         d="M 0,858.84 L 603.78,858.84 L 603.78,0 L 0,0 L 0,858.84 z"
         id="path16615" /></clipPath><clipPath
       id="clipPath16623"><path
         d="M -148.682,-285.171 L 145.047,-285.171 L 145.047,277.485 L -148.682,277.485 L -148.682,-285.171 z"
         id="path16625" /></clipPath><linearGradient
       x1="-109.739"
       y1="0"
       x2="109.739"
       y2="0"
       id="linearGradient16627"
       gradientUnits="userSpaceOnUse"
       gradientTransform="matrix(0.42752,-0.90401,0.90401,0.42752,170.61928,520.83592)"
       spreadMethod="pad"><stop
         id="stop16629"
         style="stop-color:#008c54;stop-opacity:1"
         offset="0" /><stop
         id="stop16631"
         style="stop-color:#b8d2c6;stop-opacity:1"
         offset="1" /></linearGradient><clipPath
       id="clipPath18881"><path
         d="M 267.494,784.397 L 248.589,784.405 L 248.589,784.72 C 248.746,786.153 249.604,791.872 253.627,796.429 C 257.897,801.274 264.965,802.893 267.252,803.304 L 267.502,803.303 L 267.494,784.397"
         id="path18883" /></clipPath><clipPath
       id="clipPath18887"><path
         d="M -0.000305,858.898 L 603.7797,858.898 L 603.7797,0 L -0.000305,0 L -0.000305,858.898 z"
         id="path18889" /></clipPath><clipPath
       id="clipPath18893"><path
         d="M -3.1e-05,858.975 L 603.95997,858.975 L 603.95997,0.015 L -3.1e-05,0.015 L -3.1e-05,858.975 z"
         id="path18895" /></clipPath><clipPath
       id="clipPath18899"><path
         d="M -324.819,710.468 L 104.42,-228.375 L 928.779,148.522 L 499.54,1087.36"
         id="path18901" /></clipPath><clipPath
       id="clipPath18905"><path
         d="M 0,858.84 L 603.78,858.84 L 603.78,0 L 0,0 L 0,858.84 z"
         id="path18907" /></clipPath><clipPath
       id="clipPath18913"><path
         d="M -12.529,-12.5308 L 12.5303,-12.5308 L 12.5303,12.5314 L -12.529,12.5314 L -12.529,-12.5308 z"
         id="path18915" /></clipPath><linearGradient
       x1="-10.8062"
       y1="0"
       x2="10.8062"
       y2="0"
       id="linearGradient18917"
       gradientUnits="userSpaceOnUse"
       gradientTransform="matrix(0.4158,-0.90945,0.90945,0.4158,122.5233,754.22392)"
       spreadMethod="pad"><stop
         id="stop18919"
         style="stop-color:#d63929;stop-opacity:1"
         offset="0" /><stop
         id="stop18921"
         style="stop-color:#f9a33a;stop-opacity:1"
         offset="1" /></linearGradient><clipPath
       id="clipPath18989"><path
         d="M 363.692,784.397 L 344.784,784.405 L 344.784,784.719 C 344.941,786.153 345.8,791.872 349.823,796.429 C 354.093,801.274 361.162,802.893 363.449,803.304 L 363.699,803.304 L 363.692,784.397"
         id="path18991" /></clipPath><clipPath
       id="clipPath18995"><path
         d="M -0.000305,858.898 L 603.7797,858.898 L 603.7797,0 L -0.000305,0 L -0.000305,858.898 z"
         id="path18997" /></clipPath><clipPath
       id="clipPath19001"><path
         d="M -3.1e-05,858.975 L 603.95997,858.975 L 603.95997,0.015 L -3.1e-05,0.015 L -3.1e-05,858.975 z"
         id="path19003" /></clipPath><clipPath
       id="clipPath19007"><path
         d="M -371.94,644.237 L 150.989,-261.507 L 975.9,214.753 L 452.971,1120.5"
         id="path19009" /></clipPath><clipPath
       id="clipPath19013"><path
         d="M 0,858.84 L 603.78,858.84 L 603.78,0 L 0,0 L 0,858.84 z"
         id="path19015" /></clipPath><clipPath
       id="clipPath19021"><path
         d="M -12.9164,-12.9173 L 12.9149,-12.9173 L 12.9149,12.917 L -12.9164,12.917 L -12.9164,-12.9173 z"
         id="path19023" /></clipPath><linearGradient
       x1="-11.4456"
       y1="0"
       x2="11.4456"
       y2="0"
       id="linearGradient19025"
       gradientUnits="userSpaceOnUse"
       gradientTransform="matrix(0.5,-0.86603,0.86603,0.5,218.72029,754.22295)"
       spreadMethod="pad"><stop
         id="stop19027"
         style="stop-color:#d63929;stop-opacity:1"
         offset="0" /><stop
         id="stop19029"
         style="stop-color:#f9a33a;stop-opacity:1"
         offset="1" /></linearGradient><clipPath
       id="clipPath19067"><path
         d="M 480.457,784.379 L 461.533,784.387 L 461.533,784.702 C 461.69,786.137 462.55,791.861 466.576,796.422 C 470.851,801.272 477.926,802.892 480.215,803.304 L 480.465,803.304 L 480.457,784.379"
         id="path19069" /></clipPath><clipPath
       id="clipPath19073"><path
         d="M -0.000305,858.898 L 603.7797,858.898 L 603.7797,0 L -0.000305,0 L -0.000305,858.898 z"
         id="path19075" /></clipPath><clipPath
       id="clipPath19079"><path
         d="M -3.1e-05,858.975 L 603.95997,858.975 L 603.95997,0.015 L -3.1e-05,0.015 L -3.1e-05,858.975 z"
         id="path19081" /></clipPath><clipPath
       id="clipPath19085"><path
         d="M -371.94,644.237 L 150.989,-261.507 L 975.9,214.753 L 452.971,1120.5"
         id="path19087" /></clipPath><clipPath
       id="clipPath19091"><path
         d="M 0,858.84 L 603.78,858.84 L 603.78,0 L 0,0 L 0,858.84 z"
         id="path19093" /></clipPath><clipPath
       id="clipPath19099"><path
         d="M -12.9278,-12.93 L 12.9276,-12.93 L 12.9276,12.9279 L -12.9278,12.9279 L -12.9278,-12.93 z"
         id="path19101" /></clipPath><linearGradient
       x1="-11.4597"
       y1="0"
       x2="11.4597"
       y2="0"
       id="linearGradient19103"
       gradientUnits="userSpaceOnUse"
       gradientTransform="matrix(0.5,-0.86603,0.86603,0.5,335.47829,754.21489)"
       spreadMethod="pad"><stop
         id="stop19105"
         style="stop-color:#d63929;stop-opacity:1"
         offset="0" /><stop
         id="stop19107"
         style="stop-color:#f9a33a;stop-opacity:1"
         offset="1" /></linearGradient><clipPath
       id="clipPath19125"><path
         d="M 524.726,785.07 L 506.48,785.078 L 506.48,785.381 C 506.631,786.765 507.46,792.284 511.342,796.681 C 515.463,801.358 522.286,802.92 524.492,803.317 L 524.734,803.316 L 524.726,785.07"
         id="path19127" /></clipPath><clipPath
       id="clipPath19131"><path
         d="M -0.000305,858.898 L 603.7797,858.898 L 603.7797,0 L -0.000305,0 L -0.000305,858.898 z"
         id="path19133" /></clipPath><clipPath
       id="clipPath19137"><path
         d="M -3.1e-05,858.975 L 603.95997,858.975 L 603.95997,0.015 L -3.1e-05,0.015 L -3.1e-05,858.975 z"
         id="path19139" /></clipPath><clipPath
       id="clipPath19143"><path
         d="M -371.94,644.237 L 150.989,-261.507 L 975.9,214.753 L 452.971,1120.5"
         id="path19145" /></clipPath><clipPath
       id="clipPath19149"><path
         d="M 0,858.84 L 603.78,858.84 L 603.78,0 L 0,0 L 0,858.84 z"
         id="path19151" /></clipPath><clipPath
       id="clipPath19157"><path
         d="M -12.4651,-12.4656 L 12.4641,-12.4656 L 12.4641,12.4662 L -12.4651,12.4662 L -12.4651,-12.4656 z"
         id="path19159" /></clipPath><linearGradient
       x1="-11.0461"
       y1="0"
       x2="11.0461"
       y2="0"
       id="linearGradient19161"
       gradientUnits="userSpaceOnUse"
       gradientTransform="matrix(0.5,-0.86603,0.86603,0.5,380.08528,754.5659)"
       spreadMethod="pad"><stop
         id="stop19163"
         style="stop-color:#d63929;stop-opacity:1"
         offset="0" /><stop
         id="stop19165"
         style="stop-color:#f9a33a;stop-opacity:1"
         offset="1" /></linearGradient><clipPath
       id="clipPath19499"><path
         d="M 314.053,391.057 C 317.051,391.057 319.484,393.49 319.484,396.488 C 319.484,396.917 319.433,397.335 319.339,397.735 L 318.021,396.643 C 318.023,396.591 318.024,396.54 318.024,396.488 C 318.024,394.296 316.246,392.517 314.053,392.517 C 311.861,392.517 310.083,394.296 310.083,396.488 C 310.083,398.68 311.861,400.458 314.053,400.458 C 314.925,400.458 315.732,400.177 316.387,399.7 L 313.63,397.446 L 314.621,396.3 L 320.172,400.715 C 321.043,399.499 321.557,398.01 321.557,396.4 C 321.557,392.305 318.236,388.985 314.141,388.985 C 310.046,388.985 306.725,392.305 306.725,396.4 C 306.725,400.495 310.046,403.816 314.141,403.816 C 315.424,403.816 316.631,403.49 317.683,402.916 L 319.077,404.056 C 317.655,404.975 315.96,405.509 314.141,405.509 C 309.112,405.509 305.032,401.43 305.032,396.4 C 305.032,391.371 309.112,387.291 314.141,387.291 C 319.17,387.291 323.25,391.371 323.25,396.4 C 323.25,398.996 322.163,401.339 320.419,402.999 L 319.096,401.916 L 319.097,401.916 L 317.544,400.646 C 316.6,401.44 315.383,401.918 314.053,401.918 C 311.055,401.918 308.623,399.486 308.623,396.488 C 308.623,393.49 311.055,391.057 314.053,391.057"
         id="path19501" /></clipPath><clipPath
       id="clipPath19505"><path
         d="M -0.000305,858.898 L 603.7797,858.898 L 603.7797,0 L -0.000305,0 L -0.000305,858.898 z"
         id="path19507" /></clipPath><clipPath
       id="clipPath19511"><path
         d="M -3.1e-05,858.975 L 603.95997,858.975 L 603.95997,0.015 L -3.1e-05,0.015 L -3.1e-05,858.975 z"
         id="path19513" /></clipPath><clipPath
       id="clipPath19517"><path
         d="M 551.447,-170.156 L 845.979,784.29 L 52.513,1029.15 L -242.019,74.7"
         id="path19519" /></clipPath><clipPath
       id="clipPath19523"><path
         d="M 0,858.84 L 603.78,858.84 L 603.78,0 L 0,0 L 0,858.84 z"
         id="path19525" /></clipPath><clipPath
       id="clipPath19531"><path
         d="M -7.66999,-6.49126 L 15.1099,-6.49126 L 15.1099,16.2886 L -7.66999,16.2886 L -7.66999,-6.49126 z"
         id="path19533" /></clipPath><linearGradient
       x1="-24.544001"
       y1="0"
       x2="24.544001"
       y2="0"
       id="linearGradient19535"
       gradientUnits="userSpaceOnUse"
       gradientTransform="matrix(0.29487,0.95554,-0.95554,0.29487,182.2033,351.77394)"
       spreadMethod="pad"><stop
         id="stop19537"
         style="stop-color:#788793;stop-opacity:1"
         offset="0" /><stop
         id="stop19539"
         style="stop-color:#ffffff;stop-opacity:1"
         offset="1" /></linearGradient><clipPath
       id="clipPath19625"><path
         d="M 408.262,622.633 C 407.553,622.005 406.918,621.275 406.478,620.529 C 406.153,619.979 405.933,619.421 405.867,618.888 C 405.792,618.276 405.91,617.689 406.251,617.201 C 406.566,616.724 407.044,616.363 407.606,616.201 C 407.587,616.226 407.569,616.251 407.552,616.277 L 407.551,616.279 C 407.173,616.847 407.27,617.421 407.523,617.942 C 407.575,618.049 407.63,618.146 407.691,618.248 C 407.744,618.333 407.799,618.417 407.854,618.498 C 407.97,618.667 408.093,618.828 408.217,618.992 L 408.218,618.992 L 408.244,619.027 L 408.27,618.992 L 408.271,618.992 L 408.298,618.957 L 408.298,618.956 L 408.325,618.921 L 408.326,618.92 L 408.353,618.885 C 408.383,618.848 408.41,618.809 408.44,618.772 C 408.519,618.67 408.597,618.566 408.672,618.461 L 408.673,618.46 L 408.677,618.455 L 408.702,618.419 L 408.706,618.413 L 408.731,618.379 L 408.735,618.372 C 408.772,618.319 408.808,618.265 408.843,618.211 C 408.897,618.126 408.95,618.038 408.997,617.949 C 409.044,617.861 409.086,617.772 409.123,617.681 L 409.123,617.68 C 409.171,617.559 409.209,617.437 409.232,617.313 L 409.233,617.306 C 409.297,616.946 409.235,616.573 408.951,616.201 L 408.952,616.201 L 408.951,616.201 C 408.911,616.188 408.869,616.178 408.828,616.167 C 409.905,616.416 410.71,617.381 410.71,618.534 C 410.71,619.142 410.485,619.698 410.116,620.124 C 409.573,620.834 408.762,621.489 408.262,622.633"
         id="path19627" /></clipPath><clipPath
       id="clipPath19631"><path
         d="M -0.000305,858.898 L 603.7797,858.898 L 603.7797,0 L -0.000305,0 L -0.000305,858.898 z"
         id="path19633" /></clipPath><clipPath
       id="clipPath19637"><path
         d="M -3.1e-05,858.975 L 603.95997,858.975 L 603.95997,0.015 L -3.1e-05,0.015 L -3.1e-05,858.975 z"
         id="path19639" /></clipPath><clipPath
       id="clipPath19643"><path
         d="M 0.82657,881.302 L -31.754,1.1904 L 603.134,-22.312 L 635.714,857.799"
         id="path19645" /></clipPath><clipPath
       id="clipPath19649"><path
         d="M 0,858.84 L 603.78,858.84 L 603.78,0 L 0,0 L 0,858.84 z"
         id="path19651" /></clipPath><clipPath
       id="clipPath19657"><path
         d="M -3.32181,-2.57588 L 3.32167,-2.57588 L 3.32167,2.57792 L -3.32181,2.57792 L -3.32181,-2.57588 z"
         id="path19659" /></clipPath><linearGradient
       x1="-3.4900501"
       y1="0"
       x2="3.4900501"
       y2="0"
       id="linearGradient19661"
       gradientUnits="userSpaceOnUse"
       gradientTransform="matrix(-3.6993e-2,-0.99932,0.99932,-3.6993e-2,272.72829,579.77293)"
       spreadMethod="pad"><stop
         id="stop19663"
         style="stop-color:#f5821f;stop-opacity:1"
         offset="0" /><stop
         id="stop19665"
         style="stop-color:#fff200;stop-opacity:1"
         offset="1" /></linearGradient><clipPath
       id="clipPath20741"><path
         d="M 330.39,186.785 C 330.385,186.777 330.378,186.771 330.37,186.766 L 330.371,186.765 L 330.206,186.581 C 330.192,186.56 330.12,186.54 330.077,186.568 C 330.034,186.597 330.036,186.663 330.049,186.684 L 330.2,186.911 C 330.225,186.95 330.287,186.953 330.34,186.919 C 330.392,186.884 330.415,186.824 330.39,186.785"
         id="path20743" /></clipPath><clipPath
       id="clipPath20747"><path
         d="M 329.831,186.708 L 330.26,186.353 L 330.618,186.785 L 330.189,187.14"
         id="path20749" /></clipPath><clipPath
       id="clipPath20755"><path
         d="M -0.262911,-0.281277 L 0.294017,-0.281277 L 0.294017,0.279816 L -0.262911,0.279816 L -0.262911,-0.281277 z"
         id="path20757" /></clipPath><linearGradient
       x1="-0.239563"
       y1="0"
       x2="0.239563"
       y2="0"
       id="linearGradient20759"
       gradientUnits="userSpaceOnUse"
       gradientTransform="matrix(0.76973,-0.63836,0.63836,0.76973,194.6913,147.12994)"
       spreadMethod="pad"><stop
         id="stop20761"
         style="stop-color:#787878;stop-opacity:1"
         offset="0" /><stop
         id="stop20763"
         style="stop-color:#6a6968;stop-opacity:1"
         offset="1" /></linearGradient><clipPath
       id="clipPath20793"><path
         d="M 329.823,188.121 C 330.024,188.433 330.469,188.521 330.916,188.375 C 330.791,188.362 330.683,188.309 330.621,188.213 C 330.489,188.009 330.611,187.697 330.892,187.516 C 331.174,187.335 331.509,187.353 331.64,187.557 C 331.691,187.636 331.703,187.731 331.684,187.828 C 331.927,187.503 331.99,187.121 331.81,186.843 C 331.554,186.446 330.901,186.41 330.352,186.763 C 329.804,187.116 329.567,187.724 329.823,188.121"
         id="path20795" /></clipPath><clipPath
       id="clipPath20799"><path
         d="M 333.045,187.466 L 330.778,189.732 L 328.511,187.465 L 330.779,185.199"
         id="path20801" /></clipPath><clipPath
       id="clipPath20807"><path
         d="M -1.5811,-1.60299 L 1.62496,-1.60299 L 1.62496,1.60297 L -1.5811,1.60297 L -1.5811,-1.60299 z"
         id="path20809" /></clipPath><linearGradient
       x1="-2.3236401"
       y1="0"
       x2="2.3236401"
       y2="0"
       id="linearGradient20811"
       gradientUnits="userSpaceOnUse"
       gradientTransform="matrix(-0.70723,0.70698,-0.70698,-0.70723,195.2723,147.82294)"
       spreadMethod="pad"><stop
         id="stop20813"
         style="stop-color:#ee2527;stop-opacity:1"
         offset="0" /><stop
         id="stop20815"
         style="stop-color:#ee2527;stop-opacity:1"
         offset="1" /></linearGradient><clipPath
       id="clipPath20847"><path
         d="M 330.524,188.205 C 330.554,188.252 330.596,188.288 330.644,188.317 L 330.642,188.319 L 331.617,189.382 C 331.697,189.505 331.968,189.472 332.223,189.308 C 332.479,189.143 332.621,188.91 332.541,188.787 L 331.65,187.48 C 331.505,187.254 331.135,187.234 330.824,187.434 C 330.512,187.634 330.378,187.979 330.524,188.205"
         id="path20849" /></clipPath><clipPath
       id="clipPath20853"><path
         d="M 333.739,188.565 L 331.306,190.61 L 329.26,188.173 L 331.693,186.129"
         id="path20855" /></clipPath><clipPath
       id="clipPath20861"><path
         d="M -1.55574,-1.59086 L 1.62242,-1.59086 L 1.62242,1.59071 L -1.55574,1.59071 L -1.55574,-1.59086 z"
         id="path20863" /></clipPath><linearGradient
       x1="-1.53079"
       y1="0"
       x2="1.53079"
       y2="0"
       id="linearGradient20865"
       gradientUnits="userSpaceOnUse"
       gradientTransform="matrix(-0.76571,0.64319,-0.64319,-0.76571,196.00328,148.72095)"
       spreadMethod="pad"><stop
         id="stop20867"
         style="stop-color:#ee2527;stop-opacity:1"
         offset="0" /><stop
         id="stop20869"
         style="stop-color:#ee2527;stop-opacity:1"
         offset="1" /></linearGradient><clipPath
       id="clipPath20899"><path
         d="M 331.476,189.796 C 331.292,189.555 331.479,189.124 331.896,188.833 C 332.311,188.542 332.797,188.502 332.982,188.743 C 333.165,188.984 332.977,189.416 332.561,189.706 C 332.145,189.997 331.659,190.037 331.476,189.796"
         id="path20901" /></clipPath><clipPath
       id="clipPath20905"><path
         d="M 333.372,190.008 L 331.327,190.29 L 331.085,188.531 L 333.13,188.249"
         id="path20907" /></clipPath><clipPath
       id="clipPath20913"><path
         d="M -1.03089,-0.888361 L 1.03398,-0.888361 L 1.03398,0.887786 L -1.03089,0.887786 L -1.03089,-0.888361 z"
         id="path20915" /></clipPath><linearGradient
       x1="-1.0278"
       y1="0"
       x2="1.0278"
       y2="0"
       id="linearGradient20917"
       gradientUnits="userSpaceOnUse"
       gradientTransform="matrix(-0.99065,0.13641,-0.13641,-0.99065,196.7083,149.64194)"
       spreadMethod="pad"><stop
         id="stop20919"
         style="stop-color:#f57e20;stop-opacity:1"
         offset="0" /><stop
         id="stop20921"
         style="stop-color:#f57e20;stop-opacity:1"
         offset="1" /></linearGradient><clipPath
       id="clipPath20933"><path
         d="M 301.891,187.036 C 301.895,187.027 301.902,187.021 301.91,187.015 L 302.065,186.823 C 302.077,186.801 302.148,186.777 302.193,186.803 C 302.237,186.829 302.239,186.895 302.226,186.917 L 302.087,187.151 C 302.065,187.191 302.003,187.198 301.948,187.166 C 301.894,187.134 301.868,187.076 301.891,187.036"
         id="path20935" /></clipPath><clipPath
       id="clipPath20939"><path
         d="M 302.103,187.377 L 301.665,187.044 L 302.004,186.598 L 302.442,186.931"
         id="path20941" /></clipPath><clipPath
       id="clipPath20947"><path
         d="M -0.257943,-0.279585 L 0.292086,-0.279585 L 0.292086,0.280047 L -0.257943,0.280047 L -0.257943,-0.279585 z"
         id="path20949" /></clipPath><linearGradient
       x1="-0.269714"
       y1="0"
       x2="0.269714"
       y2="0"
       id="linearGradient20951"
       gradientUnits="userSpaceOnUse"
       gradientTransform="matrix(-0.79653,-0.6046,0.6046,-0.79653,166.54528,147.37094)"
       spreadMethod="pad"><stop
         id="stop20953"
         style="stop-color:#787878;stop-opacity:1"
         offset="0" /><stop
         id="stop20955"
         style="stop-color:#6a6968;stop-opacity:1"
         offset="1" /></linearGradient><clipPath
       id="clipPath20985"><path
         d="M 302.526,188.34 C 302.341,188.662 301.902,188.773 301.448,188.65 C 301.572,188.631 301.677,188.573 301.734,188.473 C 301.855,188.263 301.718,187.958 301.427,187.791 C 301.137,187.625 300.803,187.66 300.682,187.871 C 300.635,187.952 300.628,188.047 300.653,188.144 C 300.394,187.831 300.311,187.453 300.476,187.166 C 300.712,186.756 301.362,186.687 301.928,187.012 C 302.494,187.336 302.762,187.931 302.526,188.34"
         id="path20987" /></clipPath><clipPath
       id="clipPath20991"><path
         d="M 301.411,185.468 L 303.799,187.623 L 301.662,189.992 L 299.273,187.837"
         id="path20993" /></clipPath><clipPath
       id="clipPath20999"><path
         d="M -1.59331,-1.59558 L 1.62382,-1.59558 L 1.62382,1.59501 L -1.59331,1.59501 L -1.59331,-1.59558 z"
         id="path21001" /></clipPath><linearGradient
       x1="-2.1183801"
       y1="0"
       x2="2.1183801"
       y2="0"
       id="linearGradient21003"
       gradientUnits="userSpaceOnUse"
       gradientTransform="matrix(0.74256,0.66978,-0.66978,0.74256,166.00328,148.09292)"
       spreadMethod="pad"><stop
         id="stop21005"
         style="stop-color:#ee2527;stop-opacity:1"
         offset="0" /><stop
         id="stop21007"
         style="stop-color:#ee2527;stop-opacity:1"
         offset="1" /></linearGradient><clipPath
       id="clipPath21039"><path
         d="M 301.831,188.46 C 301.803,188.509 301.763,188.547 301.717,188.579 L 301.719,188.58 L 300.8,189.692 C 300.726,189.819 300.453,189.8 300.19,189.649 C 299.927,189.498 299.773,189.273 299.846,189.146 L 300.668,187.794 C 300.802,187.561 301.17,187.522 301.491,187.706 C 301.813,187.89 301.965,188.228 301.831,188.46"
         id="path21041" /></clipPath><clipPath
       id="clipPath21045"><path
         d="M 300.567,186.468 L 303.069,188.354 L 301.171,190.872 L 298.669,188.987"
         id="path21047" /></clipPath><clipPath
       id="clipPath21053"><path
         d="M -1.53391,-1.57688 L 1.59899,-1.57688 L 1.59899,1.57673 L -1.53391,1.57673 L -1.53391,-1.57688 z"
         id="path21055" /></clipPath><linearGradient
       x1="-1.4955699"
       y1="0"
       x2="1.4955699"
       y2="0"
       id="linearGradient21057"
       gradientUnits="userSpaceOnUse"
       gradientTransform="matrix(0.79864,0.60181,-0.60181,0.79864,165.32128,149.02394)"
       spreadMethod="pad"><stop
         id="stop21059"
         style="stop-color:#ee2527;stop-opacity:1"
         offset="0" /><stop
         id="stop21061"
         style="stop-color:#ee2527;stop-opacity:1"
         offset="1" /></linearGradient><clipPath
       id="clipPath21091"><path
         d="M 300.962,190.098 C 301.133,189.848 300.924,189.427 300.493,189.158 C 300.063,188.889 299.576,188.874 299.404,189.124 C 299.233,189.374 299.443,189.796 299.873,190.064 C 300.303,190.333 300.791,190.349 300.962,190.098"
         id="path21093" /></clipPath><clipPath
       id="clipPath21097"><path
         d="M 299.247,188.713 L 301.258,188.885 L 301.119,190.51 L 299.108,190.338"
         id="path21099" /></clipPath><clipPath
       id="clipPath21105"><path
         d="M -1.00812,-0.815073 L 1.01021,-0.815073 L 1.01021,0.815905 L -1.00812,0.815905 L -1.00812,-0.815073 z"
         id="path21107" /></clipPath><linearGradient
       x1="-1.10742"
       y1="0"
       x2="1.10742"
       y2="0"
       id="linearGradient21109"
       gradientUnits="userSpaceOnUse"
       gradientTransform="matrix(0.99639,8.4895e-2,-8.4895e-2,0.99639,164.6603,149.98393)"
       spreadMethod="pad"><stop
         id="stop21111"
         style="stop-color:#f57e20;stop-opacity:1"
         offset="0" /><stop
         id="stop21113"
         style="stop-color:#f57e20;stop-opacity:1"
         offset="1" /></linearGradient><clipPath
       id="clipPath24097"><path
         d="M 543.856,158.994 L 578.511,158.994 L 578.511,150.6633 L 543.856,150.6633 L 543.856,158.994 z"
         id="path24099" /></clipPath><clipPath
       id="clipPath24105"><path
         d="M -17.327,-4.16467 L 17.328,-4.16467 L 17.328,4.16603 L -17.327,4.16603 L -17.327,-4.16467 z"
         id="path24107" /></clipPath><linearGradient
       x1="-17.327299"
       y1="0"
       x2="17.327299"
       y2="0"
       id="linearGradient24109"
       gradientUnits="userSpaceOnUse"
       gradientTransform="translate(425.66127,115.20094)"><stop
         id="stop24111"
         style="stop-color:#f0e0ca;stop-opacity:1"
         offset="0" /><stop
         id="stop24113"
         style="stop-color:#ffffff;stop-opacity:1"
         offset="1" /></linearGradient><clipPath
       id="clipPath24125"><path
         d="M 555.274,157.982 L 557.14,157.982 C 557.14,156.507 557.14,155.343 557.14,153.868 C 557.253,153.615 557.324,153.406 557.821,153.401 L 574.522,153.401 L 574.522,151.435 C 568.858,151.435 563.193,151.435 557.528,151.435 C 556.374,151.368 555.398,151.629 555.274,153.479 L 555.274,157.982"
         id="path24127" /></clipPath><clipPath
       id="clipPath24133"><path
         d="M -9.62402,-3.33601 L 9.62396,-3.33601 L 9.62396,3.27798 L -9.62402,3.27798 L -9.62402,-3.33601 z"
         id="path24135" /></clipPath><linearGradient
       x1="-9.6244497"
       y1="0"
       x2="9.6244497"
       y2="0"
       id="linearGradient24137"
       gradientUnits="userSpaceOnUse"
       gradientTransform="translate(429.3763,115.07693)"><stop
         id="stop24139"
         style="stop-color:#000000;stop-opacity:1"
         offset="0" /><stop
         id="stop24141"
         style="stop-color:#ffffff;stop-opacity:1"
         offset="1" /></linearGradient><clipPath
       id="clipPath24155"><path
         d="M 87.806,160.093 C 87.444,156.672 87.082,153.382 86.72,149.962 C 86.505,149.677 86.14,149.594 85.757,150.176 C 84.192,152.553 83.095,154.612 81.852,157.099 C 80.974,157.465 80.58,156.696 80.273,155.488 C 79.591,152.972 79.061,150.7 78.333,148.416 C 79.229,149.873 80.145,151.562 81.129,154.073 C 82.526,151.047 83.996,148.021 85.569,144.995 C 86.731,143.24 88.354,143.471 89.286,145.554 C 91.09,150.084 92.504,154.094 93.957,158.711 C 91.907,159.172 89.856,159.632 87.806,160.093"
         id="path24157" /></clipPath><clipPath
       id="clipPath24161"><path
         d="M -0.000305,858.898 L 603.7797,858.898 L 603.7797,0 L -0.000305,0 L -0.000305,858.898 z"
         id="path24163" /></clipPath><clipPath
       id="clipPath24167"><path
         d="M -3.1e-05,858.975 L 603.95997,858.975 L 603.95997,0.015 L -3.1e-05,0.015 L -3.1e-05,858.975 z"
         id="path24169" /></clipPath><clipPath
       id="clipPath24173"><path
         d="M 85.563,1069.58 L -299.529,121.704 L 518.397,-210.593 L 903.489,737.286"
         id="path24175" /></clipPath><clipPath
       id="clipPath24179"><path
         d="M 0,858.84 L 603.78,858.84 L 603.78,0 L 0,0 L 0,858.84 z"
         id="path24181" /></clipPath><clipPath
       id="clipPath24187"><path
         d="M -10.4781,-10.2998 L 11.0163,-10.2998 L 11.0163,10.5185 L -10.4781,10.5185 L -10.4781,-10.2998 z"
         id="path24189" /></clipPath><linearGradient
       x1="-10.5729"
       y1="0"
       x2="10.5729"
       y2="0"
       id="linearGradient24191"
       gradientUnits="userSpaceOnUse"
       gradientTransform="matrix(-0.37639,-0.92646,0.92646,-0.37639,-49.376704,112.32994)"
       spreadMethod="pad"><stop
         id="stop24193"
         style="stop-color:#0089cf;stop-opacity:1"
         offset="0" /><stop
         id="stop24195"
         style="stop-color:#e1f3fd;stop-opacity:1"
         offset="1" /></linearGradient><clipPath
       id="clipPath24617"><path
         d="M 0,858.898 L 180.6,858.898 L 180.6,735.024 L 0,735.024 L 0,858.898 z"
         id="path24619" /></clipPath><clipPath
       id="clipPath24623"><path
         d="M 351.2,1156.92 L -423.737,499.497 L 252.76,-297.927 L 1027.7,359.493"
         id="path24625" /></clipPath><clipPath
       id="clipPath24629"><path
         d="M 0,858.84 L 603.78,858.84 L 603.78,0 L 0,0 L 0,858.84 z"
         id="path24631" /></clipPath><clipPath
       id="clipPath24637"><path
         d="M -109.34,-105.299 L 108.515,-105.299 L 108.515,105.996 L -109.34,105.996 L -109.34,-105.299 z"
         id="path24639" /></clipPath><linearGradient
       x1="-110.958"
       y1="0"
       x2="110.958"
       y2="0"
       id="linearGradient24641"
       gradientUnits="userSpaceOnUse"
       gradientTransform="matrix(-0.76256,-0.64692,0.64692,-0.76256,-45.761706,757.33293)"
       spreadMethod="pad"><stop
         id="stop24643"
         style="stop-color:#008c54;stop-opacity:1"
         offset="0" /><stop
         id="stop24645"
         style="stop-color:#b8d2c6;stop-opacity:1"
         offset="1" /></linearGradient><clipPath
       id="clipPath24841"><path
         d="M 8.503,279.015 L 603.78,279.015 L 603.78,277.9211 L 8.503,277.9211 L 8.503,279.015 z"
         id="path24843" /></clipPath><clipPath
       id="clipPath24847"><path
         d="M -51.001,3.0539 L 601.823,-35.846 L 654.961,855.936 L 2.1368,894.835"
         id="path24849" /></clipPath><clipPath
       id="clipPath24853"><path
         d="M 0,858.84 L 603.78,858.84 L 603.78,0 L 0,0 L 0,858.84 z"
         id="path24855" /></clipPath><clipPath
       id="clipPath24861"><path
         d="M -301.388,-18.5036 L 292.9,-18.5036 L 292.9,17.996 L -301.388,17.996 L -301.388,-18.5036 z"
         id="path24863" /></clipPath><linearGradient
       x1="-54.278599"
       y1="0"
       x2="54.278599"
       y2="0"
       id="linearGradient24865"
       gradientUnits="userSpaceOnUse"
       gradientTransform="matrix(0.99823,-5.9481e-2,5.9481e-2,0.99823,174.87129,238.84193)"
       spreadMethod="pad"><stop
         id="stop24867"
         style="stop-color:#008c54;stop-opacity:1"
         offset="0" /><stop
         id="stop24869"
         style="stop-color:#b8d2c6;stop-opacity:1"
         offset="1" /></linearGradient><clipPath
       id="clipPath24877"><path
         d="M 0,538.599 L 603.78,538.599 L 603.78,537.5049 L 0,537.5049 L 0,538.599 z"
         id="path24879" /></clipPath><clipPath
       id="clipPath24883"><path
         d="M -50.256,2.9655 L 601.885,-35.322 L 654.216,856.024 L 2.0746,894.312"
         id="path24885" /></clipPath><clipPath
       id="clipPath24889"><path
         d="M 0,858.84 L 603.78,858.84 L 603.78,0 L 0,0 L 0,858.84 z"
         id="path24891" /></clipPath><clipPath
       id="clipPath24897"><path
         d="M -305.647,-18.4888 L 297.16,-18.4888 L 297.16,17.9905 L -305.647,17.9905 L -305.647,-18.4888 z"
         id="path24899" /></clipPath><linearGradient
       x1="-55.044899"
       y1="0"
       x2="55.044899"
       y2="0"
       id="linearGradient24901"
       gradientUnits="userSpaceOnUse"
       gradientTransform="matrix(0.99828,-5.8609e-2,5.8609e-2,0.99828,170.61928,498.42491)"
       spreadMethod="pad"><stop
         id="stop24903"
         style="stop-color:#008c54;stop-opacity:1"
         offset="0" /><stop
         id="stop24905"
         style="stop-color:#b8d2c6;stop-opacity:1"
         offset="1" /></linearGradient><clipPath
       id="clipPath24913"><path
         d="M 8.503,71.861 L 603.78,71.861 L 603.78,70.7671 L 8.503,70.7671 L 8.503,71.861 z"
         id="path24915" /></clipPath><clipPath
       id="clipPath24919"><path
         d="M -51.001,3.0539 L 601.823,-35.846 L 654.961,855.936 L 2.1368,894.835"
         id="path24921" /></clipPath><clipPath
       id="clipPath24925"><path
         d="M 0,858.84 L 603.78,858.84 L 603.78,0 L 0,0 L 0,858.84 z"
         id="path24927" /></clipPath><clipPath
       id="clipPath24933"><path
         d="M -301.388,-18.5036 L 292.9,-18.5036 L 292.9,17.996 L -301.388,17.996 L -301.388,-18.5036 z"
         id="path24935" /></clipPath><linearGradient
       x1="-54.2785"
       y1="0"
       x2="54.2785"
       y2="0"
       id="linearGradient24937"
       gradientUnits="userSpaceOnUse"
       gradientTransform="matrix(0.99823,-5.9481e-2,5.9481e-2,0.99823,174.87129,31.687952)"
       spreadMethod="pad"><stop
         id="stop24939"
         style="stop-color:#008c54;stop-opacity:1"
         offset="0" /><stop
         id="stop24941"
         style="stop-color:#b8d2c6;stop-opacity:1"
         offset="1" /></linearGradient></defs><g
     transform="matrix(1.25,0,0,-1.25,169.40214,1024.0887)"
     id="g16595"><g
       id="g16597"><g
         clip-path="url(#clipPath16601)"
         id="g16599"><g
           clip-path="url(#clipPath16607)"
           id="g16605"><g
             clip-path="url(#clipPath16613)"
             id="g16611"><g
               id="g16617"><g
                 id="g16619"><g
                   clip-path="url(#clipPath16623)"
                   id="g16621"><path
                     d="M 0,858.84 L 603.78,858.84 L 603.78,0 L 0,0 L 0,858.84 z"
                     id="path16633"
                     style="fill:url(#linearGradient16627);stroke:none" /></g></g></g></g></g></g></g><g
       transform="matrix(5.0329614,0,0,5.0329614,-498.50797,-2343.1916)"
       id="g30571"><path
         d="M 86.462,621.716 C 94.005,621.716 100.12,615.601 100.12,608.058 C 100.12,600.515 94.005,594.401 86.462,594.401 C 78.919,594.401 72.804,600.515 72.804,608.058 C 72.804,615.601 78.919,621.716 86.462,621.716 z"
         id="path18739"
         style="fill:none;stroke:#ffffff;stroke-width:0.21600001;stroke-linecap:butt;stroke-linejoin:miter;stroke-miterlimit:22.9260006;stroke-dasharray:none;stroke-opacity:1" /><path
         d="M 77.649,597.614 C 76.133,598.891 74.918,600.51 74.08,602.316 C 73.249,604.106 72.797,606.074 72.797,608.066 C 72.797,611.827 74.329,615.24 76.801,617.712 C 79.273,620.184 82.686,621.717 86.448,621.717 C 90.209,621.717 93.622,620.184 96.094,617.712 C 98.566,615.24 100.099,611.827 100.099,608.066 C 100.099,606.903 99.936,605.702 99.626,604.533 C 99.319,603.377 98.864,602.258 98.275,601.24 L 97.853,600.564 L 93.867,604.531 C 94.088,604.977 94.231,605.387 94.372,605.916 C 94.557,606.611 94.653,607.342 94.653,608.066 C 94.653,610.324 93.731,612.375 92.244,613.862 C 90.757,615.349 88.706,616.271 86.448,616.271 C 84.19,616.271 82.139,615.349 80.651,613.862 C 79.164,612.375 78.243,610.324 78.243,608.066 C 78.243,606.859 78.515,605.67 79.015,604.591 C 79.422,603.716 79.986,602.908 80.682,602.219 L 80.545,595.754 C 79.55,596.256 78.581,596.86 77.649,597.614"
         id="path18741"
         style="fill:#231f20;fill-opacity:1;fill-rule:nonzero;stroke:none" /><path
         d="M 90.996,597.359 C 91.603,597.359 92.095,596.867 92.095,596.26 C 92.095,595.653 91.603,595.161 90.996,595.161 C 90.389,595.161 89.897,595.653 89.897,596.26 C 89.897,596.867 90.389,597.359 90.996,597.359"
         id="path18743"
         style="fill:#00adef;fill-opacity:1;fill-rule:evenodd;stroke:none" /><path
         d="M 88.793,597.367 C 89.4,597.367 89.892,596.875 89.892,596.268 C 89.892,595.661 89.4,595.169 88.793,595.169 C 88.186,595.169 87.694,595.661 87.694,596.268 C 87.694,596.875 88.186,597.367 88.793,597.367"
         id="path18745"
         style="fill:#00adef;fill-opacity:1;fill-rule:evenodd;stroke:none" /><path
         d="M 90.996,601.767 C 91.603,601.767 92.095,601.275 92.095,600.668 C 92.095,600.061 91.603,599.57 90.996,599.57 C 90.389,599.57 89.897,600.061 89.897,600.668 C 89.897,601.275 90.389,601.767 90.996,601.767"
         id="path18747"
         style="fill:#00adef;fill-opacity:1;fill-rule:evenodd;stroke:none" /><path
         d="M 88.793,601.775 C 89.4,601.775 89.892,601.283 89.892,600.676 C 89.892,600.069 89.4,599.577 88.793,599.577 C 88.186,599.577 87.694,600.069 87.694,600.676 C 87.694,601.283 88.186,601.775 88.793,601.775"
         id="path18749"
         style="fill:#00adef;fill-opacity:1;fill-rule:evenodd;stroke:none" /><path
         d="M 95.399,597.34 C 96.006,597.34 96.498,596.848 96.498,596.241 C 96.498,595.634 96.006,595.142 95.399,595.142 C 94.792,595.142 94.3,595.634 94.3,596.241 C 94.3,596.848 94.792,597.34 95.399,597.34"
         id="path18751"
         style="fill:#00adef;fill-opacity:1;fill-rule:evenodd;stroke:none" /><path
         d="M 93.196,597.348 C 93.803,597.348 94.295,596.856 94.295,596.249 C 94.295,595.642 93.803,595.15 93.196,595.15 C 92.589,595.15 92.097,595.642 92.097,596.249 C 92.097,596.856 92.589,597.348 93.196,597.348"
         id="path18753"
         style="fill:#00adef;fill-opacity:1;fill-rule:evenodd;stroke:none" /><path
         d="M 90.996,599.555 C 91.603,599.555 92.095,599.063 92.095,598.456 C 92.095,597.849 91.603,597.357 90.996,597.357 C 90.389,597.357 89.897,597.849 89.897,598.456 C 89.897,599.063 90.389,599.555 90.996,599.555"
         id="path18755"
         style="fill:#00adef;fill-opacity:1;fill-rule:evenodd;stroke:none" /><path
         d="M 88.793,599.562 C 89.4,599.562 89.892,599.07 89.892,598.463 C 89.892,597.856 89.4,597.364 88.793,597.364 C 88.186,597.364 87.694,597.856 87.694,598.463 C 87.694,599.07 88.186,599.562 88.793,599.562"
         id="path18757"
         style="fill:#00adef;fill-opacity:1;fill-rule:evenodd;stroke:none" /><path
         d="M 95.399,599.536 C 96.006,599.536 96.498,599.044 96.498,598.437 C 96.498,597.83 96.006,597.338 95.399,597.338 C 94.792,597.338 94.3,597.83 94.3,598.437 C 94.3,599.044 94.792,599.536 95.399,599.536"
         id="path18759"
         style="fill:#00adef;fill-opacity:1;fill-rule:evenodd;stroke:none" /><path
         d="M 93.196,599.543 C 93.803,599.543 94.295,599.051 94.295,598.444 C 94.295,597.837 93.803,597.345 93.196,597.345 C 92.589,597.345 92.097,597.837 92.097,598.444 C 92.097,599.051 92.589,599.543 93.196,599.543"
         id="path18761"
         style="fill:#00adef;fill-opacity:1;fill-rule:evenodd;stroke:none" /><path
         d="M 97.597,599.549 C 98.204,599.549 98.696,599.057 98.696,598.45 C 98.696,597.843 98.204,597.351 97.597,597.351 C 96.99,597.351 96.498,597.843 96.498,598.45 C 96.498,599.057 96.99,599.549 97.597,599.549"
         id="path18763"
         style="fill:#00adef;fill-opacity:1;fill-rule:evenodd;stroke:none" /><path
         d="M 95.399,601.748 C 96.006,601.748 96.498,601.256 96.498,600.649 C 96.498,600.042 96.006,599.551 95.399,599.551 C 94.792,599.551 94.3,600.042 94.3,600.649 C 94.3,601.256 94.792,601.748 95.399,601.748"
         id="path18765"
         style="fill:#00adef;fill-opacity:1;fill-rule:evenodd;stroke:none" /><path
         d="M 93.196,601.756 C 93.803,601.756 94.295,601.264 94.295,600.657 C 94.295,600.05 93.803,599.559 93.196,599.559 C 92.589,599.559 92.097,600.05 92.097,600.657 C 92.097,601.264 92.589,601.756 93.196,601.756"
         id="path18767"
         style="fill:#00adef;fill-opacity:1;fill-rule:evenodd;stroke:none" /><path
         d="M 93.19,595.123 C 93.797,595.123 94.289,594.631 94.289,594.024 C 94.289,593.417 93.797,592.926 93.19,592.926 C 92.583,592.926 92.091,593.417 92.091,594.024 C 92.091,594.631 92.583,595.123 93.19,595.123"
         id="path18769"
         style="fill:#00adef;fill-opacity:1;fill-rule:evenodd;stroke:none" /><path
         d="M 93.19,603.94 C 93.797,603.94 94.289,603.448 94.289,602.841 C 94.289,602.234 93.797,601.742 93.19,601.742 C 92.583,601.742 92.091,602.234 92.091,602.841 C 92.091,603.448 92.583,603.94 93.19,603.94"
         id="path18771"
         style="fill:#00adef;fill-opacity:1;fill-rule:evenodd;stroke:none" /><path
         d="M 79.164,606.268 C 78.652,607.569 78.249,610.461 78.223,611.718 L 78.704,614.448 L 80.872,617.524 L 84.858,621.964 L 86.067,621.661 L 84.856,616.364 L 79.864,610.666 L 79.164,606.268"
         id="path18773"
         style="fill:#ffffff;fill-opacity:1;fill-rule:evenodd;stroke:none" /><path
         d="M 86.556,624.637 C 86.681,619.543 85.689,614.853 83.569,611.905 C 81.795,609.439 81.231,607.712 81.255,606.047 C 81.269,605.048 81.494,604.072 81.796,602.971 C 80.619,604.505 78.844,607.643 78.688,609.383 C 78.497,611.512 78.706,613.4 80.465,614.92 C 83.787,617.79 85.87,620.184 86.556,624.637"
         id="path18775"
         style="fill:#00adef;fill-opacity:1;fill-rule:evenodd;stroke:none" /><path
         d="M 86.176,627.785 C 87.231,623.942 84.261,619.463 82.743,617.799 C 81.797,616.761 80.15,615.571 79.051,614.155 C 78.476,613.413 78.45,612.861 78.213,611.561 C 76.821,617.65 85.307,622.355 86.176,627.785"
         id="path18777"
         style="fill:#8ed8f8;fill-opacity:1;fill-rule:evenodd;stroke:none" /><path
         d="M 86.254,614.67 C 89.14,612.127 91.078,608.884 91.078,606.221 C 91.078,603.558 89.014,602.158 86.664,602.158 C 84.314,602.158 82.544,603.558 82.544,606.221 C 82.544,608.884 84.87,610.991 86.254,614.67"
         id="path18779"
         style="fill:#231f20;fill-opacity:1;fill-rule:evenodd;stroke:none" /><path
         d="M 86.254,614.67 C 89.14,612.127 91.078,608.884 91.078,606.221 C 91.078,603.558 89.014,602.158 86.664,602.158 C 84.314,602.158 82.544,603.558 82.544,606.221 C 82.544,608.884 84.87,610.991 86.254,614.67 z"
         id="path18781"
         style="fill:none;stroke:#231f20;stroke-width:0.21600001;stroke-linecap:butt;stroke-linejoin:miter;stroke-miterlimit:22.9260006;stroke-dasharray:none;stroke-opacity:1" /><path
         d="M 87.489,611.556 C 88.319,610.832 88.922,610.123 89.16,609.5 C 88.622,609.71 87.984,609.68 87.446,609.52 C 87.78,610.554 87.717,610.931 87.489,611.556"
         id="path18783"
         style="fill:#231f20;fill-opacity:1;fill-rule:evenodd;stroke:none" /><path
         d="M 87.489,611.556 C 88.319,610.832 88.922,610.123 89.16,609.5 C 88.622,609.71 87.984,609.68 87.446,609.52 C 87.78,610.554 87.717,610.931 87.489,611.556 z"
         id="path18785"
         style="fill:none;stroke:#231f20;stroke-width:0.21600001;stroke-linecap:butt;stroke-linejoin:miter;stroke-miterlimit:22.9260006;stroke-dasharray:none;stroke-opacity:1" /><path
         d="M 87.651,611.225 C 88.568,610.278 89.224,609.363 89.462,608.574 C 88.852,608.865 88.111,608.864 87.478,608.695 C 87.928,609.962 87.878,610.434 87.651,611.225"
         id="path18787"
         style="fill:#ffffff;fill-opacity:1;fill-rule:evenodd;stroke:none" /><path
         d="M 87.651,611.225 C 88.568,610.278 89.224,609.363 89.462,608.574 C 88.852,608.865 88.111,608.864 87.478,608.695 C 87.928,609.962 87.878,610.434 87.651,611.225 z"
         id="path18789"
         style="fill:none;stroke:#231f20;stroke-width:0.21600001;stroke-linecap:butt;stroke-linejoin:miter;stroke-miterlimit:22.9260006;stroke-dasharray:none;stroke-opacity:1" /><path
         d="M 127.377,603.521 L 124.143,603.521 L 124.143,604.421 L 124.087,604.421 C 123.768,603.999 123.355,603.704 122.849,603.535 C 122.484,603.413 122.043,603.352 121.527,603.352 C 120.693,603.352 120.046,603.568 119.587,603.999 C 119.165,604.393 118.954,604.913 118.954,605.56 C 118.954,606.338 119.221,606.933 119.756,607.346 C 120.196,607.692 120.81,607.922 121.598,608.035 C 122.057,608.1 122.741,608.133 123.651,608.133 L 124.143,608.133 L 124.143,608.358 C 124.143,608.696 123.946,608.939 123.552,609.089 C 123.252,609.202 122.877,609.258 122.427,609.258 C 122.184,609.258 121.912,609.235 121.612,609.188 C 121.021,609.094 120.435,608.925 119.854,608.681 L 119.854,610.608 C 120.398,610.748 120.972,610.859 121.577,610.938 C 122.181,611.018 122.765,611.058 123.327,611.058 C 124.471,611.058 125.39,610.861 126.083,610.467 C 126.946,609.98 127.377,609.23 127.377,608.217 L 127.377,603.521 z M 124.143,606.319 L 124.143,606.727 L 123.96,606.727 C 123.351,606.727 122.927,606.659 122.688,606.523 C 122.448,606.387 122.329,606.16 122.329,605.841 C 122.329,605.635 122.404,605.466 122.554,605.335 C 122.704,605.204 122.905,605.138 123.158,605.138 C 123.43,605.138 123.662,605.237 123.855,605.433 C 124.047,605.63 124.143,605.925 124.143,606.319"
         id="path18791"
         style="fill:#00adef;fill-opacity:1;fill-rule:evenodd;stroke:none" /><path
         d="M 135.673,605.701 C 135.673,605.092 135.411,604.585 134.886,604.182 C 134.164,603.629 133.02,603.353 131.455,603.353 C 130.742,603.353 130.145,603.39 129.662,603.465 C 129.179,603.54 128.68,603.653 128.164,603.803 L 128.164,605.743 C 128.549,605.584 128.966,605.448 129.416,605.335 C 129.866,605.223 130.283,605.167 130.667,605.167 C 131.117,605.167 131.441,605.244 131.638,605.399 C 131.834,605.553 131.933,605.729 131.933,605.926 C 131.933,606.188 131.806,606.371 131.553,606.474 C 131.384,606.54 131.164,606.573 130.892,606.573 L 129.697,606.573 L 129.697,607.979 L 131.075,607.979 C 131.441,607.979 131.699,608.054 131.849,608.204 C 131.952,608.307 132.003,608.434 132.003,608.584 C 132.003,608.78 131.919,608.935 131.75,609.048 C 131.544,609.188 131.225,609.258 130.794,609.258 C 130.41,609.258 130.02,609.223 129.627,609.153 C 129.233,609.083 128.802,608.93 128.333,608.696 L 128.333,610.608 C 128.924,610.777 129.505,610.894 130.077,610.96 C 130.649,611.025 131.216,611.058 131.778,611.058 C 133.119,611.058 134.089,610.81 134.689,610.313 C 135.12,609.957 135.336,609.516 135.336,608.991 C 135.336,608.626 135.242,608.302 135.054,608.021 C 134.839,607.702 134.52,607.491 134.098,607.388 C 134.567,607.313 134.946,607.121 135.237,606.812 C 135.528,606.502 135.673,606.132 135.673,605.701"
         id="path18793"
         style="fill:#00adef;fill-opacity:1;fill-rule:evenodd;stroke:none" /><path
         d="M 150.339,603.521 L 146.964,603.521 L 146.964,611.255 L 146.88,611.255 L 144.94,603.521 L 141.804,603.521 L 139.92,611.255 L 139.821,611.255 L 139.821,603.521 L 136.615,603.521 L 136.615,613.364 L 142.198,613.364 L 143.477,607.978 L 143.547,607.978 L 144.771,613.364 L 150.339,613.364 L 150.339,603.521"
         id="path18795"
         style="fill:#231f20;fill-opacity:1;fill-rule:evenodd;stroke:none" /><path
         d="M 168.885,603.521 L 165.341,603.521 L 165.341,606.235 L 164.076,606.235 L 164.076,603.521 L 160.532,603.521 L 160.532,610.889 L 164.076,610.889 L 164.076,608.344 L 165.341,608.344 L 165.341,610.889 L 168.885,610.889 L 168.885,603.521"
         id="path18797"
         style="fill:#231f20;fill-opacity:1;fill-rule:evenodd;stroke:none" /><path
         d="M 178.222,603.521 L 174.988,603.521 L 174.988,604.421 L 174.932,604.421 C 174.613,603.999 174.2,603.704 173.694,603.535 C 173.329,603.413 172.888,603.352 172.372,603.352 C 171.538,603.352 170.891,603.568 170.432,603.999 C 170.01,604.393 169.799,604.913 169.799,605.56 C 169.799,606.338 170.066,606.933 170.601,607.346 C 171.041,607.692 171.655,607.922 172.443,608.035 C 172.902,608.1 173.587,608.133 174.496,608.133 L 174.988,608.133 L 174.988,608.358 C 174.988,608.696 174.791,608.939 174.397,609.089 C 174.097,609.202 173.722,609.258 173.272,609.258 C 173.029,609.258 172.757,609.235 172.457,609.188 C 171.866,609.094 171.281,608.925 170.699,608.681 L 170.699,610.608 C 171.243,610.748 171.817,610.859 172.422,610.938 C 173.026,611.018 173.61,611.058 174.172,611.058 C 175.316,611.058 176.235,610.861 176.928,610.467 C 177.791,609.98 178.222,609.23 178.222,608.217 L 178.222,603.521 z M 174.988,606.319 L 174.988,606.727 L 174.805,606.727 C 174.196,606.727 173.772,606.659 173.533,606.523 C 173.293,606.387 173.174,606.16 173.174,605.841 C 173.174,605.635 173.249,605.466 173.399,605.335 C 173.549,605.204 173.751,605.138 174.004,605.138 C 174.276,605.138 174.507,605.237 174.7,605.433 C 174.892,605.63 174.988,605.925 174.988,606.319"
         id="path18799"
         style="fill:#231f20;fill-opacity:1;fill-rule:evenodd;stroke:none" /><path
         d="M 186.434,613.814 C 186.359,613.223 186.111,612.755 185.689,612.408 C 185.192,611.995 184.508,611.789 183.636,611.789 C 182.773,611.789 182.094,611.995 181.597,612.408 C 181.166,612.764 180.913,613.233 180.838,613.814 L 182.328,614.166 C 182.328,613.959 182.403,613.786 182.553,613.645 C 182.778,613.439 183.139,613.336 183.636,613.336 C 184.011,613.336 184.311,613.397 184.536,613.519 C 184.807,613.669 184.944,613.884 184.944,614.166 L 186.434,613.814 z M 187.854,603.521 L 184.62,603.521 L 184.62,606.966 L 184.55,606.966 L 182.933,603.521 L 179.432,603.521 L 179.432,610.889 L 182.666,610.889 L 182.666,607.444 L 182.736,607.444 L 184.381,610.889 L 187.854,610.889 L 187.854,603.521"
         id="path18801"
         style="fill:#231f20;fill-opacity:1;fill-rule:evenodd;stroke:none" /><path
         d="M 197.317,610.552 L 193.028,610.552 L 193.028,603.522 L 189.26,603.522 L 189.26,613.364 L 197.317,613.364 L 197.317,610.552"
         id="path18803"
         style="fill:#00adef;fill-opacity:1;fill-rule:evenodd;stroke:none" /><path
         d="M 205.827,603.521 L 202.593,603.521 L 202.593,604.421 L 202.537,604.421 C 202.218,603.999 201.805,603.704 201.299,603.535 C 200.934,603.413 200.493,603.352 199.977,603.352 C 199.143,603.352 198.496,603.568 198.037,603.999 C 197.615,604.393 197.404,604.913 197.404,605.56 C 197.404,606.338 197.671,606.933 198.206,607.346 C 198.646,607.692 199.261,607.922 200.048,608.035 C 200.507,608.1 201.192,608.133 202.101,608.133 L 202.593,608.133 L 202.593,608.358 C 202.593,608.696 202.396,608.939 202.002,609.089 C 201.702,609.202 201.327,609.258 200.877,609.258 C 200.634,609.258 200.362,609.235 200.062,609.188 C 199.471,609.094 198.886,608.925 198.304,608.681 L 198.304,610.608 C 198.848,610.748 199.422,610.859 200.027,610.938 C 200.631,611.018 201.215,611.058 201.777,611.058 C 202.921,611.058 203.84,610.861 204.533,610.467 C 205.396,609.98 205.827,609.23 205.827,608.217 L 205.827,603.521 z M 202.593,606.319 L 202.593,606.727 L 202.41,606.727 C 201.801,606.727 201.377,606.659 201.138,606.523 C 200.898,606.387 200.779,606.16 200.779,605.841 C 200.779,605.635 200.854,605.466 201.004,605.335 C 201.154,605.204 201.356,605.138 201.609,605.138 C 201.881,605.138 202.112,605.237 202.305,605.433 C 202.497,605.63 202.593,605.925 202.593,606.319"
         id="path18805"
         style="fill:#00adef;fill-opacity:1;fill-rule:evenodd;stroke:none" /><path
         d="M 213.985,605.701 C 213.985,605.092 213.723,604.585 213.198,604.182 C 212.476,603.629 211.332,603.353 209.766,603.353 C 209.054,603.353 208.457,603.39 207.974,603.465 C 207.491,603.54 206.992,603.653 206.476,603.803 L 206.476,605.743 C 206.861,605.584 207.278,605.448 207.728,605.335 C 208.178,605.223 208.595,605.167 208.979,605.167 C 209.429,605.167 209.753,605.244 209.949,605.399 C 210.146,605.553 210.245,605.729 210.245,605.926 C 210.245,606.188 210.118,606.371 209.865,606.474 C 209.696,606.54 209.476,606.573 209.204,606.573 L 208.009,606.573 L 208.009,607.979 L 209.387,607.979 C 209.753,607.979 210.01,608.054 210.16,608.204 C 210.263,608.307 210.315,608.434 210.315,608.584 C 210.315,608.78 210.231,608.935 210.062,609.048 C 209.855,609.188 209.537,609.258 209.106,609.258 C 208.721,609.258 208.332,609.223 207.939,609.153 C 207.545,609.083 207.114,608.93 206.645,608.696 L 206.645,610.608 C 207.235,610.777 207.817,610.894 208.389,610.96 C 208.96,611.025 209.528,611.058 210.09,611.058 C 211.43,611.058 212.401,610.81 213.001,610.313 C 213.432,609.957 213.647,609.516 213.647,608.991 C 213.647,608.626 213.554,608.302 213.366,608.021 C 213.151,607.702 212.832,607.491 212.41,607.388 C 212.879,607.313 213.258,607.121 213.549,606.812 C 213.84,606.502 213.985,606.132 213.985,605.701"
         id="path18807"
         style="fill:#00adef;fill-opacity:1;fill-rule:evenodd;stroke:none" /><path
         d="M 160.143,610.889 L 157.397,603.526 L 157.398,602.979 L 159.196,602.979 L 159.196,601.028 L 157.399,601.028 L 157.4,599.238 L 153.619,599.236 L 153.624,601.022 L 151.822,601.028 L 151.822,602.979 L 153.601,602.979 L 153.605,603.488 L 150.859,610.889 L 154.309,610.889 L 155.506,606.234 L 156.67,610.889 L 160.143,610.889"
         id="path18809"
         style="fill:#231f20;fill-opacity:1;fill-rule:evenodd;stroke:none" /><path
         d="M 118.49,601.972 L 115.413,601.972 L 115.531,603.522 L 114.074,603.522 L 111.656,607.698 L 111.6,607.698 L 111.6,603.522 L 107.831,603.522 L 107.831,613.364 L 111.6,613.364 L 111.6,609.498 L 111.656,609.498 L 113.976,613.364 L 118.265,613.364 L 114.946,608.752 L 117.466,605.119 L 118.487,605.115 L 118.49,601.972"
         id="path18811"
         style="fill:#00adef;fill-opacity:1;fill-rule:evenodd;stroke:none" /><path
         d="M 162.06,601.313 L 161.309,600.169 L 161.309,600.164 L 161.725,600.169 L 161.738,599.834 L 161.315,599.831 L 161.315,599.36 L 160.936,599.36 L 160.932,599.831 L 160.528,599.831 L 160.528,600.169 L 160.932,600.164 L 160.179,601.31 L 160.607,601.313 L 161.12,600.499 L 161.64,601.313 L 162.06,601.313 z M 162.771,599.353 L 162.771,599.733 L 162.859,599.728 C 162.956,599.728 163.032,599.753 163.086,599.803 C 163.14,599.854 163.177,599.925 163.198,600.017 C 163.207,600.063 163.215,600.116 163.221,600.177 L 163.228,600.272 L 163.228,600.378 L 163.24,601.313 L 164.692,601.313 L 164.692,599.353 L 164.229,599.353 L 164.229,600.933 L 163.676,600.933 L 163.664,600.249 C 163.664,600.195 163.661,600.141 163.656,600.086 C 163.656,600.075 163.656,600.064 163.656,600.053 C 163.653,600.037 163.652,600.024 163.651,600.016 L 163.636,599.927 C 163.62,599.83 163.588,599.736 163.541,599.645 C 163.494,599.554 163.422,599.481 163.326,599.424 C 163.23,599.368 163.105,599.34 162.95,599.34 C 162.894,599.34 162.834,599.344 162.771,599.353 z M 166.392,600.933 L 165.8,600.933 L 165.8,601.313 L 167.446,601.313 L 167.446,600.933 L 166.854,600.933 L 166.854,599.353 L 166.392,599.353 L 166.392,600.933 z M 169.238,600.933 L 168.645,600.933 L 168.645,601.313 L 170.292,601.313 L 170.292,600.933 L 169.699,600.933 L 169.699,599.353 L 169.238,599.353 L 169.238,600.933 z M 171.86,601.313 L 171.86,600.602 L 172.348,600.602 C 172.424,600.602 172.489,600.598 172.543,600.589 C 172.598,600.58 172.649,600.564 172.699,600.542 C 172.793,600.503 172.866,600.452 172.917,600.386 C 172.969,600.322 173.004,600.252 173.023,600.177 C 173.042,600.102 173.051,600.03 173.051,599.96 C 173.051,599.555 172.816,599.353 172.346,599.353 L 171.398,599.353 L 171.398,601.313 L 171.86,601.313 z M 171.86,600.222 L 171.86,599.733 L 172.255,599.733 C 172.457,599.733 172.557,599.814 172.557,599.977 C 172.557,600.14 172.452,600.222 172.24,600.222 L 171.86,600.222 z M 173.2,601.313 L 173.66204,601.313 L 173.66204,599.3526 L 173.2,599.3526 L 173.2,601.313 z M 176.976,599.006 L 176.669,599.006 L 176.666,599.346 L 176.474,599.34 L 175.642,600.209 L 175.643,599.346 L 175.267,599.347 L 175.267,601.306 L 175.638,601.306 L 175.638,600.56 L 176.432,601.313 L 176.928,601.313 L 175.937,600.393 L 176.703,599.612 L 176.976,599.615 L 176.976,599.006 z M 181.101,600.489 L 181.771,601.313 L 182.315,601.313 L 181.527,600.418 L 182.359,599.353 L 181.792,599.353 L 181.101,600.312 L 181.092,600.312 L 181.092,599.353 L 180.629,599.353 L 180.629,601.313 L 181.092,601.313 L 181.092,600.489 L 181.101,600.489 z M 184.648,599.297 C 184.472,599.297 184.322,599.325 184.199,599.38 C 184.075,599.435 183.973,599.511 183.892,599.608 C 183.812,599.705 183.752,599.816 183.713,599.941 C 183.697,599.997 183.683,600.06 183.672,600.132 C 183.667,600.161 183.664,600.193 183.661,600.228 C 183.659,600.263 183.657,600.297 183.657,600.333 C 183.657,600.637 183.724,600.866 183.857,601.019 C 183.991,601.172 184.13,601.269 184.275,601.309 C 184.346,601.328 184.413,601.342 184.476,601.353 C 184.54,601.363 184.597,601.369 184.648,601.369 C 184.824,601.369 184.975,601.341 185.1,601.287 C 185.225,601.233 185.327,601.159 185.406,601.064 C 185.485,600.968 185.544,600.857 185.583,600.729 C 185.599,600.673 185.613,600.61 185.623,600.54 C 185.633,600.471 185.639,600.402 185.639,600.333 L 185.639,600.316 C 185.639,600.293 185.639,600.27 185.639,600.246 C 185.636,600.227 185.634,600.212 185.633,600.204 C 185.633,600.187 185.632,600.168 185.629,600.147 C 185.626,600.127 185.622,600.105 185.617,600.081 C 185.604,600.003 185.581,599.923 185.547,599.84 C 185.485,599.685 185.381,599.556 185.233,599.453 C 185.086,599.349 184.891,599.297 184.648,599.297 z M 184.648,599.677 C 184.857,599.677 184.991,599.749 185.05,599.893 C 185.11,600.037 185.139,600.183 185.139,600.333 L 185.139,600.421 C 185.139,600.441 185.137,600.458 185.133,600.472 C 185.133,600.491 185.131,600.51 185.128,600.529 C 185.125,600.549 185.118,600.577 185.11,600.614 C 185.092,600.706 185.046,600.791 184.971,600.87 C 184.897,600.949 184.789,600.988 184.648,600.988 C 184.524,600.988 184.412,600.945 184.31,600.859 C 184.208,600.773 184.157,600.598 184.157,600.333 C 184.157,600.188 184.175,600.071 184.212,599.981 C 184.249,599.89 184.294,599.823 184.348,599.778 C 184.4,599.738 184.453,599.71 184.506,599.696 C 184.56,599.684 184.607,599.677 184.648,599.677 z M 188.135,599.353 L 187.644,600.753 L 187.635,600.753 L 187.635,599.353 L 187.173,599.353 L 187.173,601.313 L 187.823,601.313 L 188.29,599.965 L 188.758,601.313 L 189.408,601.313 L 189.408,599.353 L 188.945,599.353 L 188.945,600.753 L 188.937,600.753 L 188.446,599.353 L 188.135,599.353 z M 191.492,600.933 L 191.492,599.353 L 191.03,599.353 L 191.03,601.313 L 192.693,601.313 L 192.693,599.353 L 192.232,599.353 L 192.232,600.933 L 191.492,600.933 z M 194.817,601.313 L 195.285,601.313 L 196.022,599.353 L 195.533,599.353 L 195.406,599.72 L 194.696,599.72 L 194.572,599.353 L 194.082,599.353 L 194.817,601.313 z M 194.797,600.053 L 195.306,600.053 L 195.052,600.801 L 194.797,600.053 z M 197.872,600.196 L 197.872,599.353 L 197.409,599.353 L 197.409,601.313 L 197.872,601.313 L 197.872,600.575 L 198.585,600.575 L 198.585,601.313 L 199.048,601.313 L 199.048,599.353 L 198.585,599.353 L 198.585,600.196 L 197.872,600.196 z M 201.133,600.048 L 201.915,601.313 L 202.377,601.313 L 202.377,599.353 L 201.915,599.353 L 201.915,600.631 L 201.133,599.353 L 200.671,599.353 L 200.671,601.313 L 201.133,601.313 L 201.133,600.048 z M 205.109,600.03 L 204.864,600.03 L 204.482,599.353 L 203.932,599.353 L 204.394,600.066 C 204.318,600.076 204.242,600.102 204.166,600.143 C 204.09,600.185 204.025,600.251 203.971,600.341 C 203.917,600.432 203.889,600.545 203.889,600.682 C 203.889,600.788 203.906,600.881 203.939,600.961 C 203.972,601.041 204.018,601.106 204.077,601.157 C 204.136,601.207 204.209,601.247 204.297,601.276 C 204.306,601.278 204.324,601.283 204.352,601.289 C 204.38,601.295 204.406,601.301 204.43,601.305 L 204.5,601.313 L 205.573,601.313 L 205.573,599.353 L 205.109,599.353 L 205.109,600.03 z M 205.109,600.933 L 204.679,600.933 C 204.606,600.933 204.537,600.916 204.474,600.882 C 204.41,600.848 204.378,600.779 204.378,600.676 C 204.378,600.498 204.484,600.409 204.696,600.409 L 205.109,600.409 L 205.109,600.933 z M 208.495,600.045 L 208.954,600.045 C 208.954,599.955 208.934,599.865 208.895,599.776 C 208.859,599.696 208.807,599.614 208.736,599.527 C 208.606,599.368 208.382,599.289 208.064,599.289 C 207.938,599.289 207.819,599.305 207.708,599.335 C 207.597,599.365 207.497,599.418 207.406,599.492 C 207.316,599.566 207.243,599.67 207.188,599.804 C 207.132,599.938 207.105,600.102 207.105,600.295 C 207.105,600.523 207.141,600.717 207.214,600.876 C 207.286,601.036 207.394,601.157 207.538,601.241 C 207.681,601.324 207.852,601.366 208.048,601.366 C 208.209,601.366 208.346,601.344 208.461,601.299 C 208.575,601.256 208.666,601.198 208.733,601.128 C 208.8,601.058 208.848,600.981 208.879,600.898 C 208.894,600.859 208.907,600.816 208.919,600.769 L 208.929,600.711 L 208.933,600.647 L 208.478,600.647 C 208.47,600.727 208.437,600.803 208.378,600.876 C 208.319,600.949 208.216,600.986 208.069,600.986 C 207.964,600.986 207.86,600.943 207.758,600.857 C 207.655,600.772 207.604,600.591 207.604,600.315 C 207.604,600.198 207.621,600.091 207.654,599.994 C 207.688,599.897 207.741,599.82 207.813,599.761 C 207.886,599.702 207.976,599.672 208.085,599.672 C 208.227,599.672 208.327,599.711 208.387,599.789 C 208.446,599.867 208.482,599.952 208.495,600.045 z M 210.904,601.313 L 210.904,600.602 L 211.392,600.602 C 211.468,600.602 211.533,600.598 211.587,600.589 C 211.642,600.58 211.694,600.564 211.743,600.542 C 211.837,600.503 211.91,600.452 211.961,600.386 C 212.013,600.322 212.049,600.252 212.067,600.177 C 212.086,600.102 212.096,600.03 212.096,599.96 C 212.096,599.555 211.86,599.353 211.39,599.353 L 210.442,599.353 L 210.442,601.313 L 210.904,601.313 z M 210.904,600.222 L 210.904,599.733 L 211.299,599.733 C 211.501,599.733 211.602,599.814 211.602,599.977 C 211.602,600.14 211.496,600.222 211.284,600.222 L 210.904,600.222 z M 212.244,601.313 L 212.70608,601.313 L 212.70608,599.3526 L 212.244,599.3526 L 212.244,601.313 z"
         id="path18813"
         style="fill:#231f20;fill-opacity:1;fill-rule:evenodd;stroke:none" /><path
         d="M 108.252,600.587 L 108.243,600.587 L 108.243,599.373 L 107.779,599.373 L 107.779,601.313 L 108.251,601.313 L 109.026,600.108 L 109.034,600.108 L 109.034,601.313 L 109.498,601.313 L 109.498,599.373 L 109.026,599.373 L 108.252,600.587 z M 111.164,601.313 L 111.634,601.313 L 112.374,599.373 L 111.883,599.373 L 111.756,599.737 L 111.042,599.737 L 110.918,599.373 L 110.426,599.373 L 111.164,601.313 z M 111.143,600.066 L 111.655,600.066 L 111.4,600.807 L 111.143,600.066 z M 113.724,600.937 L 113.13,600.937 L 113.13,601.313 L 114.782,601.313 L 114.782,600.937 L 114.188,600.937 L 114.188,599.373 L 113.724,599.373 L 113.724,600.937 z M 115.773,601.313 L 116.23676,601.313 L 116.23676,599.3728 L 115.773,599.3728 L 115.773,601.313 z M 118.305,599.318 C 118.128,599.318 117.977,599.345 117.854,599.4 C 117.73,599.455 117.627,599.529 117.546,599.626 C 117.465,599.722 117.405,599.832 117.366,599.955 C 117.35,600.011 117.336,600.073 117.324,600.144 C 117.32,600.173 117.317,600.205 117.314,600.239 C 117.312,600.274 117.31,600.308 117.31,600.343 C 117.31,600.645 117.377,600.87 117.511,601.022 C 117.645,601.174 117.784,601.269 117.93,601.309 C 118.001,601.328 118.069,601.342 118.132,601.353 C 118.197,601.363 118.254,601.368 118.305,601.368 C 118.482,601.368 118.633,601.341 118.759,601.288 C 118.884,601.234 118.987,601.16 119.065,601.066 C 119.145,600.972 119.204,600.862 119.244,600.735 C 119.26,600.68 119.273,600.617 119.284,600.549 C 119.294,600.48 119.299,600.411 119.299,600.343 L 119.299,600.327 C 119.299,600.304 119.299,600.281 119.299,600.258 C 119.297,600.238 119.295,600.224 119.294,600.216 C 119.294,600.198 119.293,600.18 119.29,600.16 C 119.286,600.139 119.282,600.117 119.277,600.094 C 119.265,600.017 119.241,599.937 119.207,599.855 C 119.145,599.703 119.04,599.574 118.892,599.472 C 118.744,599.37 118.548,599.318 118.305,599.318 z M 118.305,599.695 C 118.515,599.695 118.649,599.766 118.709,599.908 C 118.769,600.05 118.798,600.195 118.798,600.343 L 118.798,600.43 C 118.798,600.45 118.796,600.467 118.792,600.481 C 118.792,600.5 118.79,600.519 118.786,600.538 C 118.783,600.557 118.777,600.585 118.769,600.621 C 118.75,600.712 118.704,600.797 118.629,600.875 C 118.555,600.953 118.446,600.992 118.305,600.992 C 118.18,600.992 118.067,600.949 117.965,600.864 C 117.863,600.779 117.811,600.605 117.811,600.343 C 117.811,600.2 117.83,600.084 117.867,599.995 C 117.904,599.905 117.949,599.838 118.003,599.794 C 118.056,599.754 118.109,599.727 118.162,599.712 C 118.216,599.701 118.263,599.695 118.305,599.695 z M 120.847,600.587 L 120.838,600.587 L 120.838,599.373 L 120.374,599.373 L 120.374,601.313 L 120.847,601.313 L 121.622,600.108 L 121.63,600.108 L 121.63,601.313 L 122.093,601.313 L 122.093,599.373 L 121.622,599.373 L 120.847,600.587 z M 123.759,601.313 L 124.229,601.313 L 124.969,599.373 L 124.478,599.373 L 124.351,599.737 L 123.638,599.737 L 123.513,599.373 L 123.021,599.373 L 123.759,601.313 z M 123.739,600.066 L 124.25,600.066 L 123.995,600.807 L 123.739,600.066 z M 127.279,599.749 L 127.279,599.373 L 125.897,599.373 L 125.897,601.313 L 126.361,601.313 L 126.361,599.749 L 127.279,599.749 z M 132.928,600.058 L 133.39,600.058 C 133.39,599.969 133.37,599.88 133.33,599.792 C 133.295,599.713 133.241,599.631 133.171,599.545 C 133.04,599.389 132.815,599.31 132.496,599.31 C 132.369,599.31 132.25,599.326 132.138,599.356 C 132.027,599.386 131.926,599.438 131.835,599.511 C 131.745,599.584 131.672,599.687 131.616,599.82 C 131.56,599.953 131.532,600.115 131.532,600.306 C 131.532,600.531 131.569,600.723 131.642,600.881 C 131.715,601.039 131.823,601.159 131.967,601.242 C 132.111,601.324 132.283,601.366 132.48,601.366 C 132.641,601.366 132.779,601.344 132.894,601.3 C 133.01,601.256 133.1,601.2 133.167,601.13 C 133.235,601.061 133.283,600.985 133.315,600.902 C 133.329,600.864 133.342,600.821 133.355,600.775 L 133.365,600.717 L 133.369,600.654 L 132.912,600.654 C 132.904,600.733 132.871,600.808 132.811,600.881 C 132.752,600.953 132.649,600.989 132.501,600.989 C 132.395,600.989 132.291,600.947 132.188,600.862 C 132.085,600.777 132.034,600.598 132.034,600.325 C 132.034,600.21 132.051,600.104 132.084,600.008 C 132.118,599.912 132.171,599.836 132.244,599.777 C 132.317,599.718 132.408,599.689 132.517,599.689 C 132.659,599.689 132.76,599.728 132.82,599.805 C 132.879,599.882 132.916,599.967 132.928,600.058 z M 135.322,599.318 C 135.145,599.318 134.995,599.345 134.871,599.4 C 134.747,599.455 134.645,599.529 134.563,599.626 C 134.482,599.722 134.422,599.832 134.383,599.955 C 134.367,600.011 134.353,600.073 134.342,600.144 C 134.337,600.173 134.334,600.205 134.332,600.239 C 134.329,600.274 134.328,600.308 134.328,600.343 C 134.328,600.645 134.395,600.87 134.528,601.022 C 134.662,601.174 134.802,601.269 134.948,601.309 C 135.019,601.328 135.086,601.342 135.15,601.353 C 135.214,601.363 135.272,601.368 135.322,601.368 C 135.499,601.368 135.651,601.341 135.776,601.288 C 135.902,601.234 136.004,601.16 136.083,601.066 C 136.162,600.972 136.221,600.862 136.261,600.735 C 136.278,600.68 136.291,600.617 136.301,600.549 C 136.312,600.48 136.317,600.411 136.317,600.343 L 136.317,600.327 C 136.317,600.304 136.317,600.281 136.317,600.258 C 136.314,600.238 136.313,600.224 136.312,600.216 C 136.312,600.198 136.31,600.18 136.307,600.16 C 136.304,600.139 136.3,600.117 136.295,600.094 C 136.282,600.017 136.259,599.937 136.225,599.855 C 136.163,599.703 136.058,599.574 135.91,599.472 C 135.762,599.37 135.566,599.318 135.322,599.318 z M 135.322,599.695 C 135.532,599.695 135.667,599.766 135.727,599.908 C 135.786,600.05 135.816,600.195 135.816,600.343 L 135.816,600.43 C 135.816,600.45 135.814,600.467 135.809,600.481 C 135.809,600.5 135.808,600.519 135.804,600.538 C 135.8,600.557 135.794,600.585 135.786,600.621 C 135.768,600.712 135.721,600.797 135.647,600.875 C 135.572,600.953 135.464,600.992 135.322,600.992 C 135.198,600.992 135.085,600.949 134.982,600.864 C 134.88,600.779 134.829,600.605 134.829,600.343 C 134.829,600.2 134.847,600.084 134.885,599.995 C 134.922,599.905 134.967,599.838 135.021,599.794 C 135.073,599.754 135.126,599.727 135.18,599.712 C 135.233,599.701 135.281,599.695 135.322,599.695 z M 138.358,599.373 L 137.865,600.76 L 137.856,600.76 L 137.856,599.373 L 137.392,599.373 L 137.392,601.313 L 138.045,601.313 L 138.514,599.98 L 138.984,601.313 L 139.636,601.313 L 139.636,599.373 L 139.171,599.373 L 139.171,600.76 L 139.163,600.76 L 138.67,599.373 L 138.358,599.373 z M 140.799,601.313 L 141.718,601.313 C 141.906,601.313 142.054,601.282 142.161,601.221 C 142.269,601.159 142.342,601.081 142.382,600.986 C 142.422,600.891 142.442,600.791 142.442,600.685 C 142.442,600.506 142.403,600.37 142.325,600.275 C 142.246,600.18 142.153,600.117 142.043,600.086 C 141.933,600.055 141.821,600.039 141.706,600.039 L 141.263,600.039 L 141.263,599.373 L 140.799,599.373 L 140.799,601.313 z M 141.263,600.934 L 141.263,600.416 L 141.627,600.416 C 141.704,600.416 141.765,600.424 141.812,600.44 C 141.858,600.456 141.894,600.485 141.92,600.525 C 141.946,600.565 141.958,600.618 141.958,600.683 C 141.958,600.775 141.932,600.84 141.878,600.878 C 141.825,600.916 141.741,600.934 141.627,600.934 L 141.263,600.934 z M 143.972,601.313 L 144.442,601.313 L 145.182,599.373 L 144.691,599.373 L 144.564,599.737 L 143.85,599.737 L 143.726,599.373 L 143.234,599.373 L 143.972,601.313 z M 143.952,600.066 L 144.463,600.066 L 144.208,600.807 L 143.952,600.066 z M 146.582,600.587 L 146.573,600.587 L 146.573,599.373 L 146.109,599.373 L 146.109,601.313 L 146.582,601.313 L 147.356,600.108 L 147.364,600.108 L 147.364,601.313 L 147.828,601.313 L 147.828,599.373 L 147.357,599.373 L 146.582,600.587 z M 149.706,600.473 L 150.123,601.313 L 150.635,601.313 L 149.929,600.106 L 149.929,599.373 L 149.465,599.373 L 149.465,600.106 L 148.756,601.313 L 149.287,601.313 L 149.706,600.473"
         id="path18815"
         style="fill:#231f20;fill-opacity:1;fill-rule:evenodd;stroke:none" /><path
         d="M 86.595,597.367 C 87.202,597.367 87.694,596.875 87.694,596.268 C 87.694,595.661 87.202,595.169 86.595,595.169 C 85.988,595.169 85.496,595.661 85.496,596.268 C 85.496,596.875 85.988,597.367 86.595,597.367"
         id="path18817"
         style="fill:#00adef;fill-opacity:1;fill-rule:evenodd;stroke:none" /><path
         d="M 86.595,601.775 C 87.202,601.775 87.694,601.283 87.694,600.676 C 87.694,600.069 87.202,599.577 86.595,599.577 C 85.988,599.577 85.496,600.069 85.496,600.676 C 85.496,601.283 85.988,601.775 86.595,601.775"
         id="path18819"
         style="fill:#00adef;fill-opacity:1;fill-rule:evenodd;stroke:none" /><path
         d="M 86.595,599.562 C 87.202,599.562 87.694,599.07 87.694,598.463 C 87.694,597.856 87.202,597.364 86.595,597.364 C 85.988,597.364 85.496,597.856 85.496,598.463 C 85.496,599.07 85.988,599.562 86.595,599.562"
         id="path18821"
         style="fill:#00adef;fill-opacity:1;fill-rule:evenodd;stroke:none" /><path
         d="M 84.342,597.367 C 84.949,597.367 85.441,596.875 85.441,596.268 C 85.441,595.661 84.949,595.169 84.342,595.169 C 83.735,595.169 83.243,595.661 83.243,596.268 C 83.243,596.875 83.735,597.367 84.342,597.367"
         id="path18823"
         style="fill:#00adef;fill-opacity:1;fill-rule:evenodd;stroke:none" /><path
         d="M 84.342,601.775 C 84.949,601.775 85.441,601.283 85.441,600.676 C 85.441,600.069 84.949,599.577 84.342,599.577 C 83.735,599.577 83.243,600.069 83.243,600.676 C 83.243,601.283 83.735,601.775 84.342,601.775"
         id="path18825"
         style="fill:#00adef;fill-opacity:1;fill-rule:evenodd;stroke:none" /><path
         d="M 84.342,599.562 C 84.949,599.562 85.441,599.07 85.441,598.463 C 85.441,597.856 84.949,597.364 84.342,597.364 C 83.735,597.364 83.243,597.856 83.243,598.463 C 83.243,599.07 83.735,599.562 84.342,599.562"
         id="path18827"
         style="fill:#00adef;fill-opacity:1;fill-rule:evenodd;stroke:none" /><path
         d="M 82.14,597.367 C 82.747,597.367 83.239,596.875 83.239,596.268 C 83.239,595.661 82.747,595.169 82.14,595.169 C 81.533,595.169 81.041,595.661 81.041,596.268 C 81.041,596.875 81.533,597.367 82.14,597.367"
         id="path18829"
         style="fill:#00adef;fill-opacity:1;fill-rule:evenodd;stroke:none" /><path
         d="M 82.14,601.775 C 82.747,601.775 83.239,601.283 83.239,600.676 C 83.239,600.069 82.747,599.577 82.14,599.577 C 81.533,599.577 81.041,600.069 81.041,600.676 C 81.041,601.283 81.533,601.775 82.14,601.775"
         id="path18831"
         style="fill:#00adef;fill-opacity:1;fill-rule:evenodd;stroke:none" /><path
         d="M 82.14,599.562 C 82.747,599.562 83.239,599.07 83.239,598.463 C 83.239,597.856 82.747,597.364 82.14,597.364 C 81.533,597.364 81.041,597.856 81.041,598.463 C 81.041,599.07 81.533,599.562 82.14,599.562"
         id="path18833"
         style="fill:#00adef;fill-opacity:1;fill-rule:evenodd;stroke:none" /></g><g
       id="g18877"><g
         clip-path="url(#clipPath18881)"
         id="g18879"><g
           clip-path="url(#clipPath18887)"
           id="g18885"><g
             clip-path="url(#clipPath18893)"
             id="g18891"><g
               clip-path="url(#clipPath18899)"
               id="g18897"><g
                 clip-path="url(#clipPath18905)"
                 id="g18903"><g
                   id="g18909"><g
                     clip-path="url(#clipPath18913)"
                     id="g18911"><path
                       d="M 0,858.84 L 603.78,858.84 L 603.78,0 L 0,0 L 0,858.84 z"
                       id="path18923"
                       style="fill:url(#linearGradient18917);stroke:none" /></g></g></g></g></g></g></g></g><g
       id="g18985"><g
         clip-path="url(#clipPath18989)"
         id="g18987"><g
           clip-path="url(#clipPath18995)"
           id="g18993"><g
             clip-path="url(#clipPath19001)"
             id="g18999"><g
               clip-path="url(#clipPath19007)"
               id="g19005"><g
                 clip-path="url(#clipPath19013)"
                 id="g19011"><g
                   id="g19017"><g
                     clip-path="url(#clipPath19021)"
                     id="g19019"><path
                       d="M 0,858.84 L 603.78,858.84 L 603.78,0 L 0,0 L 0,858.84 z"
                       id="path19031"
                       style="fill:url(#linearGradient19025);stroke:none" /></g></g></g></g></g></g></g></g><g
       id="g19063"><g
         clip-path="url(#clipPath19067)"
         id="g19065"><g
           clip-path="url(#clipPath19073)"
           id="g19071"><g
             clip-path="url(#clipPath19079)"
             id="g19077"><g
               clip-path="url(#clipPath19085)"
               id="g19083"><g
                 clip-path="url(#clipPath19091)"
                 id="g19089"><g
                   id="g19095"><g
                     clip-path="url(#clipPath19099)"
                     id="g19097"><path
                       d="M 0,858.84 L 603.78,858.84 L 603.78,0 L 0,0 L 0,858.84 z"
                       id="path19109"
                       style="fill:url(#linearGradient19103);stroke:none" /></g></g></g></g></g></g></g></g><g
       id="g19121"><g
         clip-path="url(#clipPath19125)"
         id="g19123"><g
           clip-path="url(#clipPath19131)"
           id="g19129"><g
             clip-path="url(#clipPath19137)"
             id="g19135"><g
               clip-path="url(#clipPath19143)"
               id="g19141"><g
                 clip-path="url(#clipPath19149)"
                 id="g19147"><g
                   id="g19153"><g
                     clip-path="url(#clipPath19157)"
                     id="g19155"><path
                       d="M 0,858.84 L 603.78,858.84 L 603.78,0 L 0,0 L 0,858.84 z"
                       id="path19167"
                       style="fill:url(#linearGradient19161);stroke:none" /></g></g></g></g></g></g></g></g><g
       id="g19495"><g
         clip-path="url(#clipPath19499)"
         id="g19497"><g
           clip-path="url(#clipPath19505)"
           id="g19503"><g
             clip-path="url(#clipPath19511)"
             id="g19509"><g
               clip-path="url(#clipPath19517)"
               id="g19515"><g
                 clip-path="url(#clipPath19523)"
                 id="g19521"><g
                   id="g19527"><g
                     clip-path="url(#clipPath19531)"
                     id="g19529"><path
                       d="M 0,858.84 L 603.78,858.84 L 603.78,0 L 0,0 L 0,858.84 z"
                       id="path19541"
                       style="fill:url(#linearGradient19535);stroke:none" /></g></g></g></g></g></g></g></g><g
       id="g19621"><g
         clip-path="url(#clipPath19625)"
         id="g19623"><g
           clip-path="url(#clipPath19631)"
           id="g19629"><g
             clip-path="url(#clipPath19637)"
             id="g19635"><g
               clip-path="url(#clipPath19643)"
               id="g19641"><g
                 clip-path="url(#clipPath19649)"
                 id="g19647"><g
                   id="g19653"><g
                     clip-path="url(#clipPath19657)"
                     id="g19655"><path
                       d="M 0,858.84 L 603.78,858.84 L 603.78,0 L 0,0 L 0,858.84 z"
                       id="path19667"
                       style="fill:url(#linearGradient19661);stroke:none" /></g></g></g></g></g></g></g></g><g
       id="g20737"><g
         clip-path="url(#clipPath20741)"
         id="g20739"><g
           clip-path="url(#clipPath20747)"
           id="g20745"><g
             id="g20751"><g
               clip-path="url(#clipPath20755)"
               id="g20753"><path
                 d="M 329.831,186.708 L 330.26,186.353 L 330.618,186.785 L 330.189,187.14"
                 id="path20765"
                 style="fill:url(#linearGradient20759);stroke:none" /></g></g></g></g></g><g
       id="g20789"><g
         clip-path="url(#clipPath20793)"
         id="g20791"><g
           clip-path="url(#clipPath20799)"
           id="g20797"><g
             id="g20803"><g
               clip-path="url(#clipPath20807)"
               id="g20805"><path
                 d="M 333.045,187.466 L 330.778,189.732 L 328.511,187.465 L 330.779,185.199"
                 id="path20817"
                 style="fill:url(#linearGradient20811);stroke:none" /></g></g></g></g></g><g
       id="g20843"><g
         clip-path="url(#clipPath20847)"
         id="g20845"><g
           clip-path="url(#clipPath20853)"
           id="g20851"><g
             id="g20857"><g
               clip-path="url(#clipPath20861)"
               id="g20859"><path
                 d="M 333.739,188.565 L 331.306,190.61 L 329.26,188.173 L 331.693,186.129"
                 id="path20871"
                 style="fill:url(#linearGradient20865);stroke:none" /></g></g></g></g></g><g
       id="g20895"><g
         clip-path="url(#clipPath20899)"
         id="g20897"><g
           clip-path="url(#clipPath20905)"
           id="g20903"><g
             id="g20909"><g
               clip-path="url(#clipPath20913)"
               id="g20911"><path
                 d="M 333.372,190.008 L 331.327,190.29 L 331.085,188.531 L 333.13,188.249"
                 id="path20923"
                 style="fill:url(#linearGradient20917);stroke:none" /></g></g></g></g></g><g
       id="g20929"><g
         clip-path="url(#clipPath20933)"
         id="g20931"><g
           clip-path="url(#clipPath20939)"
           id="g20937"><g
             id="g20943"><g
               clip-path="url(#clipPath20947)"
               id="g20945"><path
                 d="M 302.103,187.377 L 301.665,187.044 L 302.004,186.598 L 302.442,186.931"
                 id="path20957"
                 style="fill:url(#linearGradient20951);stroke:none" /></g></g></g></g></g><g
       id="g20981"><g
         clip-path="url(#clipPath20985)"
         id="g20983"><g
           clip-path="url(#clipPath20991)"
           id="g20989"><g
             id="g20995"><g
               clip-path="url(#clipPath20999)"
               id="g20997"><path
                 d="M 301.411,185.468 L 303.799,187.623 L 301.662,189.992 L 299.273,187.837"
                 id="path21009"
                 style="fill:url(#linearGradient21003);stroke:none" /></g></g></g></g></g><g
       id="g21035"><g
         clip-path="url(#clipPath21039)"
         id="g21037"><g
           clip-path="url(#clipPath21045)"
           id="g21043"><g
             id="g21049"><g
               clip-path="url(#clipPath21053)"
               id="g21051"><path
                 d="M 300.567,186.468 L 303.069,188.354 L 301.171,190.872 L 298.669,188.987"
                 id="path21063"
                 style="fill:url(#linearGradient21057);stroke:none" /></g></g></g></g></g><g
       id="g21087"><g
         clip-path="url(#clipPath21091)"
         id="g21089"><g
           clip-path="url(#clipPath21097)"
           id="g21095"><g
             id="g21101"><g
               clip-path="url(#clipPath21105)"
               id="g21103"><path
                 d="M 299.247,188.713 L 301.258,188.885 L 301.119,190.51 L 299.108,190.338"
                 id="path21115"
                 style="fill:url(#linearGradient21109);stroke:none" /></g></g></g></g></g><g
       id="g24093"><g
         clip-path="url(#clipPath24097)"
         id="g24095"><g
           id="g24101"><g
             clip-path="url(#clipPath24105)"
             id="g24103"><path
               d="M 543.856,158.994 L 578.511,158.994 L 578.511,150.6633 L 543.856,150.6633 L 543.856,158.994 z"
               id="path24115"
               style="fill:url(#linearGradient24109);stroke:none" /></g></g></g></g><g
       id="g24121"><g
         clip-path="url(#clipPath24125)"
         id="g24123"><g
           id="g24129"><g
             clip-path="url(#clipPath24133)"
             id="g24131"><path
               d="M 555.274,157.982 L 557.14,157.982 C 557.14,156.507 557.14,155.343 557.14,153.868 C 557.253,153.615 557.324,153.406 557.821,153.401 L 574.522,153.401 L 574.522,151.435 C 568.858,151.435 563.193,151.435 557.528,151.435 C 556.374,151.368 555.398,151.629 555.274,153.479 L 555.274,157.982"
               id="path24143"
               style="fill:url(#linearGradient24137);fill-rule:evenodd;stroke:none" /></g></g></g></g><g
       id="g24151"><g
         clip-path="url(#clipPath24155)"
         id="g24153"><g
           clip-path="url(#clipPath24161)"
           id="g24159"><g
             clip-path="url(#clipPath24167)"
             id="g24165"><g
               clip-path="url(#clipPath24173)"
               id="g24171"><g
                 clip-path="url(#clipPath24179)"
                 id="g24177"><g
                   id="g24183"><g
                     clip-path="url(#clipPath24187)"
                     id="g24185"><path
                       d="M 0,858.84 L 603.78,858.84 L 603.78,0 L 0,0 L 0,858.84 z"
                       id="path24197"
                       style="fill:url(#linearGradient24191);stroke:none" /></g></g></g></g></g></g></g></g><g
       id="g24613"><g
         clip-path="url(#clipPath24617)"
         id="g24615"><g
           clip-path="url(#clipPath24623)"
           id="g24621"><g
             clip-path="url(#clipPath24629)"
             id="g24627"><g
               id="g24633"><g
                 clip-path="url(#clipPath24637)"
                 id="g24635"><path
                   d="M 0,858.84 L 603.78,858.84 L 603.78,0 L 0,0 L 0,858.84 z"
                   id="path24647"
                   style="fill:url(#linearGradient24641);stroke:none" /></g></g></g></g></g></g><g
       id="g24837"><g
         clip-path="url(#clipPath24841)"
         id="g24839"><g
           clip-path="url(#clipPath24847)"
           id="g24845"><g
             clip-path="url(#clipPath24853)"
             id="g24851"><g
               id="g24857"><g
                 clip-path="url(#clipPath24861)"
                 id="g24859"><path
                   d="M 0,858.84 L 603.78,858.84 L 603.78,0 L 0,0 L 0,858.84 z"
                   id="path24871"
                   style="fill:url(#linearGradient24865);stroke:none" /></g></g></g></g></g></g><g
       id="g24873"><g
         clip-path="url(#clipPath24877)"
         id="g24875"><g
           clip-path="url(#clipPath24883)"
           id="g24881"><g
             clip-path="url(#clipPath24889)"
             id="g24887"><g
               id="g24893"><g
                 clip-path="url(#clipPath24897)"
                 id="g24895"><path
                   d="M 0,858.84 L 603.78,858.84 L 603.78,0 L 0,0 L 0,858.84 z"
                   id="path24907"
                   style="fill:url(#linearGradient24901);stroke:none" /></g></g></g></g></g></g><g
       id="g24909"><g
         clip-path="url(#clipPath24913)"
         id="g24911"><g
           clip-path="url(#clipPath24919)"
           id="g24917"><g
             clip-path="url(#clipPath24925)"
             id="g24923"><g
               id="g24929"><g
                 clip-path="url(#clipPath24933)"
                 id="g24931"><path
                   d="M 0,858.84 L 603.78,858.84 L 603.78,0 L 0,0 L 0,858.84 z"
                   id="path24943"
                   style="fill:url(#linearGradient24937);stroke:none" /></g></g></g></g></g></g></g></svg>