<?xml version="1.0" encoding="utf-8"?>
<!-- Generator: Adobe Illustrator 23.1.0, SVG Export Plug-In . SVG Version: 6.00 Build 0)  -->
<svg version="1.1" id="Lag_1" xmlns="http://www.w3.org/2000/svg" xmlns:xlink="http://www.w3.org/1999/xlink" x="0px" y="0px"
	 viewBox="0 0 756.6 253.5" enable-background="new 0 0 756.6 253.5" xml:space="preserve">
<path fill="#101820" d="M323.9,84.9c-0.6-0.7-0.6-2.5,0-3.2l55.3-72.4c2.4-2.9,1.7-5.3,1.2-6.2C380,2.2,378.6,0,374.9,0h-41.5
	c-3.6,0-8.1,2.2-10.3,5.1c0,0-33,43-42.9,56v-53c0-4.5-3.7-8.2-8.1-8.2h-32.7c-4.5,0-8.2,3.7-8.2,8.2v153.3c0,4.5,3.7,8.2,8.2,8.2
	h32.7c4.5,0,8.1-3.7,8.1-8.2v-56.3c10.3,13.3,45.3,59.6,45.3,59.6c2.2,2.9,7.1,4.9,10.8,4.9h40.9c3.7,0,5.1-2.1,5.6-3.1
	c0.4-0.9,1.2-3.4-1.2-6.2L323.9,84.9z"/>
<rect fill="#43B02A" width="168.7" height="169.7"/>
<path fill="#101820" d="M670.8,0h-52.3c-4.5,0-8.2,3.7-8.2,8.2v26.4c0,4.5,3.7,8.2,8.2,8.2H663c26.4,0,42.8,16.1,42.8,42.1
	c0,26.4-16.1,42.1-43.2,42.1h-63.4c-0.9,0-1.9-0.9-2-1.8L577.6,7.6C577,3.3,573.1,0,568.8,0l-32,0.1c-4,0-8.2,2.7-9.7,6.4
	c0,0-24,59.4-30.2,74.9C491,65.8,466.8,6.7,466.8,6.7c-1.4-3.8-5.5-6.7-9.6-6.6l-29.6,0.1c-4.3-0.2-8.5,3.2-9.4,7.6l-25.9,153.5
	c-0.1,2,0.4,4.2,1.8,5.9c1.4,1.7,3.5,2.6,5.7,2.6h32.5c4.3,0,8.3-4.2,8.9-8.4c0,0,8.1-55.9,11-76.3c7.9,20,31.5,78.1,31.5,78.1
	c1.5,3.8,5.6,6.6,9.7,6.6h7.3c4,0,8.2-2.8,9.7-6.5c0,0,23.6-58.2,31.9-78.2c2.6,20.5,9.7,77,9.7,77c0.5,4.3,4.4,7.7,8.7,7.7h110.2
	c47.3,0,85.7-38.1,85.7-84.9C756.5,38.1,718.1,0,670.8,0"/>
<g>
	<path fill="#101820" d="M422,243.8h-2.9c-0.4,0-0.7-0.3-0.8-0.7l-3.2-11.2h-12.7l-3.1,11.2c-0.1,0.4-0.5,0.7-0.9,0.7h-2.9
		c-0.5,0-0.8-0.3-0.8-0.8c0-0.1,0-0.2,0-0.3l9-31.8c0.8-3,3.1-3.7,5-3.7c1.8,0,4.1,0.7,4.9,3.7l9,31.9c0,0.1,0,0.2,0,0.3
		C422.8,243.5,422.5,243.8,422,243.8z M409.7,211.9c-0.1-0.5-0.4-0.9-0.9-0.9s-0.8,0.3-1,0.9l-4.5,16.1h10.8L409.7,211.9z"/>
	<path fill="#101820" d="M447.2,243.8h-2.3c-0.5,0-1-0.4-1-1v-16.1c0-4.9-1.7-6.5-5.4-6.5c-2.1,0-4.4,0.8-6.6,1.9v20.8
		c0,0.5-0.4,1-1,1h-2.4c-0.5,0-0.9-0.4-0.9-1v-25c0-0.5,0.4-1,0.9-1h2.4c0.5,0,0.9,0.4,0.9,1v0.9c2.7-1.5,4.9-2.2,7.8-2.2
		c5.9,0,8.5,3.7,8.5,10.2v16.1C448.2,243.4,447.7,243.8,447.2,243.8z"/>
	<path fill="#101820" d="M491.6,243.8h-3c-0.8,0-1.3-0.3-1.6-0.8l-15.1-28.7c0-0.1-0.1-0.1-0.1-0.1s0,0,0,0.1v28.6
		c0,0.5-0.4,0.9-0.9,0.9h-2.6c-0.5,0-0.9-0.1-0.9-0.6v-34.3c0-0.8,0.6-1.4,1.4-1.4h2.7c1.4,0,1.6,0.2,2,1l15,28.6l0.1,0.1v-0.1
		v-28.6c0-0.5,0.4-0.9,0.9-0.9h2.6c0.5,0,0.9,0.4,0.9,0.9v34C493,243.2,492.4,243.8,491.6,243.8z"/>
	<path fill="#101820" d="M520.6,243.9c-1.9,0.2-6.7,0.2-9.5,0.2c-6.8,0-10.4-2.6-10.4-9.1v-18.8c0-6.5,3.6-9.1,10.4-9.1
		c2.9,0,7.5,0.1,9.5,0.3c0.3,0.1,0.5,0.4,0.5,0.7v2.4c0,0.3-0.2,0.6-0.5,0.6h-9.4c-5.2,0-6,1.4-6,5.1v6.8h15c0.5,0,1,0.4,1,1v1.9
		c0,0.5-0.4,1-1,1h-15v8.2c0,3.7,0.8,5.1,6,5.1h9.4c0.3,0,0.5,0.2,0.5,0.6v2.5C521.1,243.5,520.9,243.9,520.6,243.9z"/>
	<path fill="#101820" d="M547.7,243.5c-2.1,0.4-4,0.6-8.1,0.6c-6,0-12.9-3.2-12.9-15.1v-6.8c0-12,6.9-15.1,12.9-15.1
		c3.1,0,6.1,0.4,8.2,0.8c0.4,0,0.8,0.2,0.8,0.6v2.5c0,0.3-0.1,0.5-0.6,0.5c-0.1,0-0.1,0-0.1,0c-1.8-0.1-5.4-0.4-8.2-0.4
		c-4.8,0-8.5,2.8-8.5,11.1v6.8c0,8.2,3.7,11.1,8.5,11.1c2.8,0,6.3-0.2,8.1-0.4c0,0,0.1,0,0.2,0c0.5,0,0.8,0.2,0.8,0.8v2
		C548.7,243.2,548.3,243.4,547.7,243.5z"/>
	<path fill="#101820" d="M586.5,243.5c-2.1,0.4-4,0.6-8.1,0.6c-6,0-12.9-3.2-12.9-15.1v-6.8c0-12,6.9-15.1,12.9-15.1
		c3.1,0,6.1,0.4,8.2,0.8c0.4,0,0.8,0.2,0.8,0.6v2.5c0,0.3-0.1,0.5-0.6,0.5c-0.1,0-0.1,0-0.1,0c-1.8-0.1-5.4-0.4-8.2-0.4
		c-4.8,0-8.5,2.8-8.5,11.1v6.8c0,8.2,3.7,11.1,8.5,11.1c2.8,0,6.3-0.2,8.1-0.4c0,0,0.1,0,0.2,0c0.5,0,0.8,0.2,0.8,0.8v2
		C587.4,243.2,587,243.4,586.5,243.5z"/>
	<path fill="#101820" d="M602,244.2c-7.2,0-10.9-4.7-10.9-11.9v-3.7c0-7.2,3.7-11.9,10.9-11.9s10.9,4.7,10.9,11.9v3.7
		C612.9,239.4,609.1,244.2,602,244.2z M608.6,228.5c0-5-2-8.2-6.6-8.2c-4.5,0-6.6,3.1-6.6,8.2v3.7c0,5,2,8.2,6.6,8.2
		c4.5,0,6.6-3.1,6.6-8.2V228.5z"/>
	<path fill="#101820" d="M650,243.8h-2.3c-0.5,0-1-0.4-1-1v-17.3c0-4.1-1.9-5.2-4.5-5.2c-1.8,0-3.8,0.6-5.7,1.3
		c0.3,1.1,0.4,2.3,0.4,3.8v17.5c0,0.5-0.3,1-0.9,1h-2.6c-0.5,0-0.8-0.4-0.8-1v-17.4c0-4.3-1.2-5.1-3.8-5.1c-1.8,0-3.9,0.9-6,1.9
		v20.6c0,0.5-0.3,1-0.9,1h-2.6c-0.5,0-0.8-0.4-0.8-1v-25c0-0.5,0.4-1,0.9-1h2.4c0.5,0,0.9,0.4,0.9,1v0.9c2-1.2,4.5-2.3,7.1-2.3
		c2.1,0,3.7,0.6,4.9,2c2.7-1.3,5.6-2,8.1-2c4.4,0,7.9,2.2,7.9,9v17.4C651,243.4,650.6,243.8,650,243.8z"/>
	<path fill="#101820" d="M667.7,244.2c-1.5,0-3.8-0.2-5.7-0.5v8.9c0,0.5-0.4,0.9-0.9,0.9h-2.5c-0.5,0-0.9-0.4-0.9-0.9v-33.7
		c0-0.6,0.1-0.9,1-1.1c2.6-0.6,6-1.1,9-1.1c7.3,0,10.7,4.7,10.7,12.1v3.5C678.3,239.9,674.8,244.2,667.7,244.2z M674,228.7
		c0-5.1-1.5-8.5-6.4-8.5c-2.1,0-4.4,0.2-5.7,0.5v19.4c1.6,0.3,4.2,0.5,5.7,0.5c4.8,0,6.4-3.1,6.4-8.4V228.7z"/>
	<path fill="#101820" d="M701.9,243.8h-2.2c-0.5,0-1-0.4-1-1v-1.1c-2.3,1.4-4.8,2.4-7.5,2.4c-4.2,0-8-1.8-8-7.9v-0.6
		c0-5.3,3.1-7.9,11.8-7.9h3.6v-2c0-4.1-1.4-5.5-5.2-5.5c-3.2,0-5.5,0.2-7.5,0.4c-0.1,0-0.1,0-0.2,0c-0.4,0-0.9-0.1-0.9-0.8v-1.7
		c0-0.5,0.3-0.8,1-0.9c2-0.3,4.3-0.6,7.6-0.6c6.8,0,9.5,3.4,9.5,9.2v17.1C702.8,243.4,702.4,243.8,701.9,243.8z M698.5,230.8h-3.6
		c-5.9,0-7.5,1.3-7.5,4.8v0.6c0,3.5,1.7,4.5,4.5,4.5c2.2,0,4.3-0.7,6.6-2V230.8z"/>
	<path fill="#101820" d="M729.1,243.8h-2.3c-0.5,0-1-0.4-1-1v-16.1c0-4.9-1.7-6.5-5.4-6.5c-2.1,0-4.4,0.8-6.6,1.9v20.8
		c0,0.5-0.4,1-1,1h-2.4c-0.5,0-0.9-0.4-0.9-1v-25c0-0.5,0.4-1,0.9-1h2.4c0.5,0,0.9,0.4,0.9,1v0.9c2.7-1.5,4.9-2.2,7.8-2.2
		c5.9,0,8.5,3.7,8.5,10.2v16.1C730.1,243.4,729.6,243.8,729.1,243.8z"/>
	<path fill="#101820" d="M756.5,218.1l-8.1,28.2c-1.5,5.3-3.3,7.2-8.9,7.2c-1.4,0-3.1-0.2-4.1-0.4c-0.6-0.1-1-0.3-1-0.8v-1.8
		c0-0.5,0.4-0.8,0.9-0.8h0.1c1.1,0.1,3.3,0.3,4.4,0.3c2.8,0,4-0.7,4.8-4.2l0.5-2h-0.7c-1.5,0-2.7-0.3-3.6-3.4l-6.5-22.4
		c-0.1-0.1-0.1-0.2-0.1-0.3c0-0.5,0.3-0.8,0.9-0.8h2.7c0.4,0,0.7,0.4,0.8,0.8l5.8,21.2c0.2,1,0.6,1.1,0.9,1.1h0.8l6-22.4
		c0.1-0.4,0.5-0.7,0.9-0.7h2.7c0.5,0,0.8,0.3,0.8,0.8C756.5,217.9,756.5,218,756.5,218.1z"/>
</g>
</svg>
