<?xml version="1.0" encoding="utf-8"?>
<!-- Generator: Adobe Illustrator 17.0.0, SVG Export Plug-In . SVG Version: 6.00 Build 0)  -->
<!DOCTYPE svg PUBLIC "-//W3C//DTD SVG 1.1//EN" "http://www.w3.org/Graphics/SVG/1.1/DTD/svg11.dtd">
<svg version="1.1" id="Layer_1" xmlns="http://www.w3.org/2000/svg" xmlns:xlink="http://www.w3.org/1999/xlink" x="0px" y="0px"
	 width="182.118px" height="46.067px" viewBox="0 0 182.118 46.067" enable-background="new 0 0 182.118 46.067"
	 xml:space="preserve">
<g>
	<g>
		<polygon fill="#EE9A32" points="86.539,6.441 86.539,0.69 67.501,0.69 61.44,0.69 61.44,6.441 61.44,13.861 61.44,19.612 
			61.44,27.577 61.44,33.327 67.501,33.327 86.539,33.327 86.539,27.577 67.501,27.577 67.501,19.612 80.737,19.612 80.737,13.861 
			67.501,13.861 67.501,6.441 		"/>
		<polygon fill="#EE9A32" points="50.898,20.662 29.839,0.146 29.839,7.528 29.839,33.327 35.9,33.327 35.9,13.416 56.959,33.871 
			56.959,26.566 56.959,0.69 50.898,0.69 		"/>
		<polygon fill="#EE9A32" points="26.861,0.69 19.297,0.69 8.315,13.797 6.061,13.797 6.061,0.69 0,0.69 0,33.327 6.061,33.327 
			6.061,19.547 10.128,19.547 19.556,33.327 27.171,33.327 14.065,15.092 		"/>
	</g>
	<polygon fill="#EE9A32" points="88.767,0.69 96.641,0.69 102.961,7.01 99.076,10.947 	"/>
	<polygon fill="#968B80" points="96.537,16.335 112.337,0.69 120.16,0.69 100.474,20.22 	"/>
	<polygon fill="#968B80" points="121.507,33.392 113.633,33.392 107.312,27.072 111.198,23.134 	"/>
	<polygon fill="#EE9A32" points="113.788,18.045 98.35,33.392 90.528,33.392 109.851,14.159 	"/>
	<path fill="#968B80" d="M145.614,0.69v19.059c0,4.702-3.812,8.514-8.514,8.514c-4.702,0-8.514-3.812-8.514-8.514V0.69h-5.991
		v18.921c0,8.011,6.494,14.505,14.505,14.505c8.011,0,14.505-6.494,14.505-14.505V0.69H145.614z"/>
	<path fill="#968B80" d="M176.782,8.979c0,0-3.056-3.834-8.703-3.834c-5.647,0-6.994,3.056-6.994,4.352s0.673,3.574,7.512,4.144
		s13.521,2.073,13.521,9.429s-6.683,11.047-14.764,10.982c-8.081-0.065-13.469-6.061-13.469-6.061l4.507-4.216
		c0,0,3.315,4.488,10.257,4.488s7.253-4.209,7.253-4.831s0.052-3.73-7.9-4.144c-7.952-0.414-13.236-3.315-13.236-9.066
		S160.049,0.12,168.597,0.12s12.64,4.921,12.64,4.921L176.782,8.979z"/>
	<g>
		<path fill="#968B80" d="M4.637,35.654c2.233,0,3.349,0.904,3.349,2.713c0,0.593-0.106,1.074-0.318,1.441
			c-0.212,0.367-0.577,0.702-1.095,1.003c0.396,0.151,0.697,0.349,0.904,0.593c0.179,0.207,0.283,0.645,0.311,1.314l0.085,1.851
			c0.009,0.302,0.037,0.499,0.085,0.593c0.066,0.151,0.207,0.287,0.424,0.41v0.226H6.713c-0.103-0.367-0.164-0.763-0.182-1.187
			L6.46,43.255c-0.028-0.584-0.141-1.022-0.339-1.314c-0.236-0.33-0.725-0.494-1.469-0.494h-3.32v4.352h-1.371V35.654H4.637z
			 M1.331,40.274H4.51c1.375,0,2.063-0.589,2.063-1.766c0-1.121-0.598-1.682-1.794-1.682H1.331V40.274z"/>
		<path fill="#968B80" d="M17.156,35.654v1.215h-6.019v3.109h5.553v1.215h-5.553v3.391h6.118v1.215H9.766V35.654H17.156z"/>
		<path fill="#968B80" d="M24.803,38.621c0-0.688-0.254-1.215-0.761-1.582c-0.442-0.32-1.024-0.481-1.748-0.481
			c-1.541,0-2.312,0.593-2.312,1.78c0,0.678,0.396,1.107,1.187,1.286l2.897,0.664c1.535,0.348,2.303,1.253,2.303,2.713
			c0,1.046-0.415,1.842-1.243,2.388c-0.706,0.452-1.615,0.678-2.727,0.678c-0.688,0-1.248-0.061-1.681-0.184
			c-0.537-0.151-1.017-0.428-1.441-0.834c-0.65-0.603-0.975-1.446-0.975-2.529h1.283c0,0.801,0.273,1.408,0.818,1.822
			c0.489,0.368,1.147,0.551,1.974,0.551c0.705,0,1.283-0.108,1.734-0.325c0.611-0.292,0.916-0.753,0.916-1.384
			c0-0.574-0.225-1.002-0.674-1.285c-0.262-0.169-0.754-0.339-1.474-0.508L20.8,40.917c-1.44-0.33-2.16-1.127-2.16-2.391
			c0-1.009,0.334-1.792,1.003-2.348c0.631-0.528,1.46-0.792,2.487-0.792c2.637,0,3.956,1.079,3.956,3.236H24.803z"/>
		<path fill="#968B80" d="M35.27,35.654v1.215h-6.019v3.109h5.553v1.215h-5.553v3.391h6.118v1.215H27.88V35.654H35.27z"/>
		<path fill="#968B80" d="M41.289,35.654l3.673,10.145h-1.487l-1.01-2.953h-4.077l-1.05,2.953H35.92l3.815-10.145H41.289z
			 M38.816,41.631h3.15l-1.492-4.451L38.816,41.631z"/>
		<path fill="#968B80" d="M50.699,35.654c2.233,0,3.349,0.904,3.349,2.713c0,0.593-0.106,1.074-0.318,1.441
			c-0.212,0.367-0.577,0.702-1.095,1.003c0.396,0.151,0.697,0.349,0.904,0.593c0.179,0.207,0.283,0.645,0.311,1.314l0.085,1.851
			c0.009,0.302,0.037,0.499,0.085,0.593c0.066,0.151,0.207,0.287,0.424,0.41v0.226h-1.669c-0.103-0.367-0.164-0.763-0.182-1.187
			l-0.071-1.357c-0.028-0.584-0.141-1.022-0.339-1.314c-0.236-0.33-0.725-0.494-1.469-0.494h-3.32v4.352h-1.371V35.654H50.699z
			 M47.393,40.274h3.179c1.375,0,2.063-0.589,2.063-1.766c0-1.121-0.598-1.682-1.794-1.682h-3.448V40.274z"/>
		<path fill="#968B80" d="M64.136,38.706h-1.328c-0.141-0.697-0.471-1.229-0.989-1.597c-0.49-0.339-1.102-0.508-1.837-0.508
			c-1.093,0-1.941,0.405-2.543,1.215c-0.528,0.725-0.791,1.658-0.791,2.797c0,1.272,0.25,2.296,0.749,3.073
			c0.499,0.777,1.361,1.166,2.586,1.166c0.8,0,1.46-0.268,1.978-0.805c0.471-0.49,0.786-1.149,0.946-1.978h1.328
			c-0.17,1.234-0.641,2.204-1.413,2.911c-0.801,0.725-1.818,1.088-3.052,1.088c-1.592,0-2.849-0.697-3.772-2.091
			c-0.509-0.763-0.763-1.86-0.763-3.292c0-1.545,0.396-2.797,1.187-3.758c0.857-1.027,2.039-1.54,3.547-1.54
			c1.102,0,2.025,0.278,2.77,0.834C63.528,36.812,63.995,37.641,64.136,38.706z"/>
		<path fill="#968B80" d="M67.471,35.654v4.196h5.298v-4.196h1.371v10.145l-1.371,0.014v-4.748h-5.298v4.748H66.1V35.654H67.471z"/>
		<path fill="#968B80" d="M89.06,38.706h-1.328c-0.141-0.697-0.471-1.229-0.989-1.597c-0.49-0.339-1.102-0.508-1.837-0.508
			c-1.093,0-1.941,0.405-2.543,1.215c-0.528,0.725-0.791,1.658-0.791,2.797c0,1.272,0.25,2.296,0.749,3.073
			c0.499,0.777,1.361,1.166,2.586,1.166c0.8,0,1.46-0.268,1.978-0.805c0.471-0.49,0.786-1.149,0.946-1.978h1.328
			c-0.17,1.234-0.641,2.204-1.413,2.911c-0.801,0.725-1.818,1.088-3.052,1.088c-1.592,0-2.849-0.697-3.772-2.091
			c-0.509-0.763-0.763-1.86-0.763-3.292c0-1.545,0.396-2.797,1.187-3.758c0.857-1.027,2.039-1.54,3.547-1.54
			c1.102,0,2.025,0.278,2.77,0.834C88.452,36.812,88.919,37.641,89.06,38.706z"/>
		<path fill="#968B80" d="M100.095,40.684c0,1.573-0.424,2.85-1.272,3.829c-0.895,1.036-2.119,1.554-3.673,1.554
			c-1.536,0-2.755-0.518-3.66-1.554c-0.857-0.98-1.286-2.247-1.286-3.801c0-1.564,0.429-2.831,1.286-3.801
			c0.895-1.017,2.115-1.526,3.66-1.526c1.516,0,2.727,0.509,3.631,1.526C99.657,37.891,100.095,39.149,100.095,40.684z
			 M91.617,40.726c0,1.168,0.292,2.129,0.876,2.882c0.64,0.829,1.531,1.243,2.671,1.243s2.025-0.414,2.656-1.243
			c0.575-0.753,0.862-1.719,0.862-2.897c0-1.168-0.292-2.129-0.876-2.882c-0.631-0.82-1.517-1.229-2.656-1.229
			c-1.13,0-2.016,0.414-2.657,1.243C91.909,38.598,91.617,39.558,91.617,40.726z"/>
		<path fill="#968B80" d="M106.482,35.654c2.233,0,3.349,0.904,3.349,2.713c0,0.593-0.106,1.074-0.318,1.441
			c-0.212,0.367-0.577,0.702-1.095,1.003c0.396,0.151,0.697,0.349,0.904,0.593c0.179,0.207,0.283,0.645,0.311,1.314l0.085,1.851
			c0.009,0.302,0.037,0.499,0.085,0.593c0.066,0.151,0.207,0.287,0.424,0.41v0.226h-1.669c-0.103-0.367-0.164-0.763-0.182-1.187
			l-0.071-1.357c-0.028-0.584-0.141-1.022-0.339-1.314c-0.236-0.33-0.725-0.494-1.469-0.494h-3.32v4.352h-1.371V35.654H106.482z
			 M103.175,40.274h3.179c1.375,0,2.063-0.589,2.063-1.766c0-1.121-0.598-1.682-1.794-1.682h-3.448V40.274z"/>
		<path fill="#968B80" d="M116.16,35.654c0.885,0,1.611,0.254,2.176,0.763c0.565,0.509,0.848,1.201,0.848,2.077
			c0,0.942-0.273,1.681-0.82,2.218c-0.546,0.537-1.291,0.806-2.233,0.806h-3.151v4.281h-1.37V35.654H116.16z M112.981,40.345h2.699
			c1.394,0,2.091-0.612,2.091-1.837c0-1.121-0.669-1.682-2.006-1.682h-2.784V40.345z"/>
		<path fill="#968B80" d="M130.177,40.684c0,1.573-0.424,2.85-1.272,3.829c-0.895,1.036-2.119,1.554-3.673,1.554
			c-1.536,0-2.755-0.518-3.66-1.554c-0.857-0.98-1.286-2.247-1.286-3.801c0-1.564,0.429-2.831,1.286-3.801
			c0.895-1.017,2.115-1.526,3.66-1.526c1.516,0,2.727,0.509,3.631,1.526C129.739,37.891,130.177,39.149,130.177,40.684z
			 M121.699,40.726c0,1.168,0.292,2.129,0.876,2.882c0.64,0.829,1.531,1.243,2.671,1.243c1.14,0,2.025-0.414,2.656-1.243
			c0.575-0.753,0.862-1.719,0.862-2.897c0-1.168-0.292-2.129-0.876-2.882c-0.631-0.82-1.517-1.229-2.656-1.229
			c-1.13,0-2.016,0.414-2.657,1.243C121.991,38.598,121.699,39.558,121.699,40.726z"/>
		<path fill="#968B80" d="M136.563,35.654c2.233,0,3.349,0.904,3.349,2.713c0,0.593-0.106,1.074-0.318,1.441
			c-0.212,0.367-0.577,0.702-1.095,1.003c0.396,0.151,0.697,0.349,0.904,0.593c0.179,0.207,0.283,0.645,0.311,1.314l0.085,1.851
			c0.009,0.302,0.037,0.499,0.085,0.593c0.066,0.151,0.207,0.287,0.424,0.41v0.226h-1.669c-0.103-0.367-0.164-0.763-0.182-1.187
			l-0.071-1.357c-0.028-0.584-0.141-1.022-0.339-1.314c-0.236-0.33-0.725-0.494-1.469-0.494h-3.32v4.352h-1.371V35.654H136.563z
			 M133.257,40.274h3.179c1.375,0,2.063-0.589,2.063-1.766c0-1.121-0.598-1.682-1.794-1.682h-3.448V40.274z"/>
		<path fill="#968B80" d="M146.044,35.654l3.673,10.145h-1.487l-1.01-2.953h-4.077l-1.05,2.953h-1.419l3.815-10.145H146.044z
			 M143.57,41.631h3.15l-1.492-4.451L143.57,41.631z"/>
		<path fill="#968B80" d="M157.969,35.654v1.215h-3.434v8.93h-1.37v-8.93h-3.433v-1.215H157.969z"/>
		<path fill="#968B80" d="M160.455,35.654v10.145h-1.37V35.654H160.455z"/>
		<path fill="#968B80" d="M172.367,40.684c0,1.573-0.424,2.85-1.272,3.829c-0.895,1.036-2.119,1.554-3.673,1.554
			c-1.536,0-2.755-0.518-3.66-1.554c-0.857-0.98-1.286-2.247-1.286-3.801c0-1.564,0.429-2.831,1.286-3.801
			c0.895-1.017,2.115-1.526,3.66-1.526c1.516,0,2.727,0.509,3.631,1.526C171.929,37.891,172.367,39.149,172.367,40.684z
			 M163.889,40.726c0,1.168,0.292,2.129,0.876,2.882c0.64,0.829,1.531,1.243,2.671,1.243c1.14,0,2.025-0.414,2.656-1.243
			c0.575-0.753,0.862-1.719,0.862-2.897c0-1.168-0.292-2.129-0.876-2.882c-0.631-0.82-1.517-1.229-2.656-1.229
			c-1.13,0-2.016,0.414-2.657,1.243C164.181,38.598,163.889,39.558,163.889,40.726z"/>
		<path fill="#968B80" d="M175.535,35.654l5.083,8.195v-8.195h1.342v10.145h-1.537l-5.175-8.181v8.181h-1.342V35.654H175.535z"/>
	</g>
</g>
</svg>
