<?xml version="1.0" encoding="utf-8"?>
<!-- Generator: Adobe Illustrator 19.1.0, SVG Export Plug-In . SVG Version: 6.00 Build 0)  -->
<svg version="1.0" id="Layer_1" xmlns="http://www.w3.org/2000/svg" xmlns:xlink="http://www.w3.org/1999/xlink" x="0px" y="0px"
	 width="98px" height="98px" viewBox="0 0 98 98" enable-background="new 0 0 98 98" xml:space="preserve">
<metadata><?xpacket begin="﻿" id="W5M0MpCehiHzreSzNTczkc9d"?>
<x:xmpmeta xmlns:x="adobe:ns:meta/" x:xmptk="Adobe XMP Core 5.6-c067 79.157747, 2015/03/30-23:40:42        ">
   <rdf:RDF xmlns:rdf="http://www.w3.org/1999/02/22-rdf-syntax-ns#">
      <rdf:Description rdf:about=""/>
   </rdf:RDF>
</x:xmpmeta>
                                                                                                    
                                                                                                    
                                                                                                    
                                                                                                    
                                                                                                    
                                                                                                    
                                                                                                    
                                                                                                    
                                                                                                    
                                                                                                    
                                                                                                    
                                                                                                    
                                                                                                    
                                                                                                    
                                                                                                    
                                                                                                    
                                                                                                    
                                                                                                    
                                                                                                    
                                                                                                    
                           
<?xpacket end="w"?></metadata>
<g id="XMLID_57_">
	<path id="XMLID_84_" fill="#EF7622" d="M49,20.9c15.5,0,28.1,12.6,28.1,28.1c0,0,0,0,0,0H98c0,0,0,0,0,0c0-27-21.9-49-49-49V20.9z"
		/>
	<path id="XMLID_83_" fill="#73A950" d="M49,77.1c-15.5,0-28.1-12.6-28.1-28.1c0,0,0,0,0,0H0c0,0,0,0,0,0c0,27,21.9,49,49,49V77.1z"
		/>
	<g id="XMLID_79_">
		<path id="XMLID_82_" fill="#1C5A7D" d="M26.5,43.9c-1.8-0.8-3.3-2-4.4-3.5h-9.1V9.8H8.5v34.8h19.7C27.6,44.4,27,44.2,26.5,43.9z"
			/>
		<path id="XMLID_80_" fill="#1C5A7D" d="M20.2,32.9l4.1-0.4c0.2,1.7,0.6,3.1,1.4,4.2c0.7,1.1,1.8,2,3.3,2.7c1.5,0.7,3.2,1,5,1
			c1.7,0,3.1-0.3,4.4-0.8c1.3-0.5,2.2-1.2,2.8-2.1c0.6-0.9,0.9-1.9,0.9-2.9c0-1.1-0.3-2-0.9-2.8c-0.6-0.8-1.6-1.5-3-2
			c-0.9-0.4-2.8-0.9-5.9-1.7c-3-0.8-5.1-1.5-6.3-2.1c-1.6-0.9-2.7-1.9-3.5-3.2c-0.8-1.3-1.2-2.7-1.2-4.3c0-1.7,0.5-3.3,1.4-4.9
			c0.9-1.5,2.3-2.6,4.1-3.4c1.8-0.8,3.8-1.2,6-1.2c2.4,0,4.6,0.4,6.4,1.2c1.9,0.8,3.3,2,4.3,3.6c1,1.6,1.5,3.4,1.6,5.4l-4.2,0.3
			c-0.2-2.2-1-3.8-2.3-4.9c-1.3-1.1-3.2-1.7-5.7-1.7c-2.6,0-4.5,0.5-5.7,1.5c-1.2,1-1.8,2.2-1.8,3.6c0,1.2,0.4,2.2,1.3,3
			c0.8,0.8,3,1.6,6.6,2.4c3.5,0.8,6,1.6,7.3,2.2c1.9,0.9,3.3,2.1,4.2,3.5c0.9,1.4,1.4,3,1.4,4.9c0,1.8-0.5,3.5-1.5,5.2
			c-1,1.6-2.4,2.9-4.3,3.8c-1.9,0.9-4,1.3-6.3,1.3c-3,0-5.5-0.5-7.5-1.4c-2-0.9-3.6-2.3-4.7-4.1C20.9,37.3,20.3,35.2,20.2,32.9z"/>
	</g>
	<g id="XMLID_76_">
		<path id="XMLID_78_" fill="#73A950" d="M28.2,44.6h-7c0.2-1.4,0.5-2.7,0.9-4c1.1,1.4,2.6,2.5,4.3,3.3C27,44.2,27.6,44.4,28.2,44.6
			z"/>
		<path id="XMLID_77_" fill="#73A950" d="M46.4,34.3c0,1.8-0.5,3.5-1.5,5.2c-1,1.6-2.4,2.9-4.3,3.8c-1.9,0.9-4,1.3-6.3,1.3
			c-3,0-5.5-0.5-7.5-1.4c-1.8-0.8-3.2-2-4.3-3.5c0.6-1.7,1.4-3.4,2.3-5c0.2,0.8,0.5,1.5,0.9,2.1c0.7,1.1,1.8,2,3.3,2.7
			c1.5,0.7,3.2,1,5,1c1.7,0,3.1-0.3,4.4-0.8c1.3-0.5,2.2-1.2,2.8-2.1c0.6-0.9,0.9-1.9,0.9-2.9c0-1.1-0.3-2-0.9-2.8
			c-0.6-0.8-1.6-1.5-3-2c-0.9-0.4-2.8-0.9-5.8-1.7c-0.6-0.2-1.2-0.3-1.8-0.5c1.5-1.3,3.2-2.5,5-3.4c2.4,0.6,4.1,1.2,5.1,1.7
			c1.9,0.9,3.3,2.1,4.2,3.5C45.9,30.8,46.4,32.4,46.4,34.3z"/>
	</g>
	<g id="XMLID_62_">
		<path id="XMLID_73_" fill="#1C5A7D" d="M62.2,58.6v1.3h-1.3v5.5c0,0.7,0,1.3-0.1,1.7c-0.1,0.4-0.3,0.7-0.5,1.1
			c-0.3,0.4-0.7,0.7-1.3,0.9c-0.6,0.3-1.2,0.4-1.9,0.4c-1,0-2-0.3-2.8-1l0.9-1.1c0.6,0.5,1.3,0.8,2,0.8c0.4,0,0.8-0.1,1.1-0.2
			c0.3-0.2,0.6-0.4,0.8-0.6c0.2-0.2,0.3-0.4,0.3-0.7c0-0.2,0.1-0.6,0.1-1V65c-0.2,0.3-0.6,0.6-1,0.8s-1,0.4-1.5,0.4
			c-1,0-1.8-0.4-2.5-1.1c-0.6-0.7-1-1.6-1-2.7c0-1.2,0.4-2.1,1.1-2.8c0.7-0.7,1.5-1.1,2.5-1.1c0.9,0,1.8,0.4,2.5,1.2v-1.1H62.2z
			 M54.9,62.4c0,0.8,0.2,1.4,0.6,1.8c0.4,0.5,1,0.7,1.6,0.7c0.6,0,1.2-0.2,1.6-0.7c0.5-0.5,0.7-1.1,0.7-1.8c0-0.8-0.2-1.4-0.7-1.8
			c-0.5-0.5-1-0.7-1.6-0.7c-0.6,0-1.1,0.2-1.6,0.7C55.2,61,54.9,61.6,54.9,62.4z"/>
		<path id="XMLID_71_" fill="#1C5A7D" d="M64.1,64.7v-4.8h-1.4v-1.3h2.5v1.7c0.2-0.4,0.4-0.8,0.7-1.1c0.3-0.3,0.6-0.5,0.9-0.6
			c0.3-0.1,0.7-0.1,1.3-0.1h0.4v1.5h-0.3c-0.7,0-1.2,0.1-1.6,0.2c-0.3,0.1-0.6,0.4-0.8,0.8c-0.2,0.4-0.3,1.1-0.3,2.1v1.6H67V66h-4.4
			v-1.3H64.1z"/>
		<path id="XMLID_68_" fill="#1C5A7D" d="M68.6,62.3c0-1.1,0.4-2.1,1.1-2.8c0.7-0.7,1.6-1.1,2.6-1.1c1,0,1.9,0.4,2.6,1.1
			c0.7,0.7,1.1,1.7,1.1,2.8c0,1.2-0.4,2.1-1.1,2.8c-0.7,0.7-1.6,1.1-2.6,1.1c-1.1,0-1.9-0.4-2.7-1.1C68.9,64.4,68.6,63.4,68.6,62.3z
			 M70,62.3c0,0.7,0.2,1.3,0.7,1.8c0.4,0.5,1,0.7,1.6,0.7c0.6,0,1.2-0.2,1.6-0.7c0.4-0.5,0.6-1.1,0.6-1.8c0-0.7-0.2-1.3-0.7-1.8
			c-0.4-0.5-1-0.7-1.6-0.7c-0.7,0-1.2,0.2-1.6,0.7C70.2,61,70,61.6,70,62.3z"/>
		<path id="XMLID_66_" fill="#1C5A7D" d="M84.9,64.7V66h-2.6v-0.8c-0.8,0.6-1.6,1-2.3,1c-0.5,0-0.9-0.1-1.2-0.3
			c-0.3-0.2-0.5-0.5-0.6-0.8c-0.1-0.3-0.2-0.9-0.2-1.7v-3.4h-1v-1.3h2.4v4.5c0,0.5,0,0.9,0,1.1s0.1,0.3,0.3,0.5
			c0.1,0.1,0.3,0.2,0.5,0.2c0.6,0,1.3-0.3,2.1-1v-4H81v-1.3h2.6v6.1H84.9z"/>
		<path id="XMLID_63_" fill="#1C5A7D" d="M86.5,68v-8.1h-1.2v-1.3h2.6v1.2c0.7-0.9,1.5-1.3,2.5-1.3c1,0,1.8,0.4,2.5,1.1
			c0.7,0.7,1,1.6,1,2.8c0,1.2-0.4,2.1-1.1,2.8c-0.7,0.7-1.5,1-2.4,1c-0.9,0-1.8-0.4-2.5-1.1V68h1.4v1.3h-4.1V68H86.5z M87.8,62.4
			c0,0.4,0.1,0.8,0.2,1.2c0.2,0.4,0.4,0.7,0.8,0.9c0.4,0.3,0.8,0.4,1.2,0.4c0.7,0,1.2-0.2,1.6-0.7c0.4-0.5,0.6-1.1,0.6-1.9
			c0-0.8-0.2-1.4-0.7-1.9c-0.5-0.4-1-0.7-1.5-0.7c-0.6,0-1.2,0.2-1.6,0.7C88.1,61,87.8,61.6,87.8,62.4z"/>
	</g>
	<g id="XMLID_59_">
		<path id="XMLID_60_" fill="#1C5A7D" d="M57.7,39.9l-0.1,4.7h-8c0-0.9,0.2-1.8,0.5-2.6c0.3-0.8,0.7-1.5,1.3-2.2
			c0.6-0.6,1.4-1.4,2.6-2.2c0.7-0.6,1.2-1,1.5-1.4c0.3-0.4,0.4-0.8,0.4-1.3c0-0.6-0.2-1.1-0.6-1.5c-0.4-0.4-0.9-0.6-1.5-0.6
			c-0.8,0-1.3,0.2-1.7,0.7c-0.4,0.4-0.5,1.2-0.5,2.2c0,0.3,0,0.5,0,0.7h-1.7c0-0.2,0-0.4,0-0.6c0-1.4,0.3-2.5,1-3.3
			c0.6-0.8,1.6-1.2,2.8-1.2c1.3,0,2.2,0.3,2.9,1c0.7,0.7,1,1.5,1,2.5c0,0.8-0.2,1.6-0.7,2.1c-0.4,0.6-1.3,1.3-2.5,2.3
			c-1.2,0.9-2,1.6-2.4,2.2c-0.4,0.6-0.6,1.1-0.7,1.5h4.7l0.1-3H57.7z"/>
	</g>
	<path id="XMLID_58_" fill="#1C5A7D" d="M49,49H20.9c0,0,0,0,0,0c0,15.5,12.6,28.1,28.1,28.1V49z"/>
</g>
</svg>
