<?xml version="1.0" encoding="utf-8"?>
<!-- Generator: Adobe Illustrator 19.2.0, SVG Export Plug-In . SVG Version: 6.00 Build 0)  -->
<svg version="1.0" id="Layer_1" xmlns="http://www.w3.org/2000/svg" xmlns:xlink="http://www.w3.org/1999/xlink" x="0px" y="0px"
	 viewBox="0 0 566.9 425.2" enable-background="new 0 0 566.9 425.2" xml:space="preserve">
<g>
	<g>
		
			<polyline fill="none" stroke="#3F3E40" stroke-width="3" stroke-linecap="round" stroke-linejoin="round" stroke-miterlimit="10" points="
			210.1,69.7 68.8,69.7 68.8,157 		"/>
		
			<polyline fill="none" stroke="#3F3E40" stroke-width="3" stroke-linecap="round" stroke-linejoin="round" stroke-miterlimit="10" points="
			498.1,157 498.1,69.7 356.8,69.7 		"/>
		
			<polyline fill="none" stroke="#3F3E40" stroke-width="3" stroke-linecap="round" stroke-linejoin="round" stroke-miterlimit="10" points="
			68.7,370.7 68.7,412 498.1,412 498.1,370.7 		"/>
	</g>
	<g>
		<g>
			<g>
				<polygon fill="#1D464B" points="281.8,7.3 90.4,251.7 473.2,251.7 				"/>
			</g>
			<g>
				<polygon fill="#BBE0E4" points="242.7,112.1 270.7,92.9 283.8,112.1 291.2,100.7 316.2,128 318.5,110.3 364.4,128.4 282.2,22.5 
					217,106.5 217,116.6 237.1,99.3 				"/>
				<path fill="#0A2215" d="M367.9,131.1l-48.5-19.2l-2.4,18.8l-25.7-28.1l-7.6,11.6l-13.4-19.6l-28.2,19.3l-5.5-12.6l-20.9,18
					v-13.1l66.4-85.5L367.9,131.1z M317.5,108.6l43.3,17.1L282.2,24.4l-64,82.5v7.2l19.4-16.7l5.7,12.9l27.8-19l12.7,18.7l7.3-11.2
					l24.3,26.6L317.5,108.6z"/>
			</g>
			<g>
				<polygon fill="#1D464B" points="137.1,129.5 21.2,251.7 252.9,251.7 				"/>
			</g>
			<g>
				<polygon fill="#BBE0E4" points="109.5,192.1 129.1,181.1 138.2,192.1 143.4,185.6 160.9,201.2 162.4,191 194.5,201.4 
					137.1,140.9 91.5,188.9 91.5,194.7 105.6,184.8 				"/>
				<path fill="#0A2215" d="M198.5,203.9l-35.1-11.4l-1.7,10.9l-18.2-16.3l-5.3,6.7l-9.4-11.3L109,193.7l-3.9-7.2l-14.8,10.4v-8.5
					l46.7-49.3L198.5,203.9z M143.3,183.8l16.8,15l1.4-9.4l29,9.4l-53.4-56.3l-44.4,46.8v3.1L106,183l4,7.4l19.4-10.8l8.8,10.6
					L143.3,183.8z"/>
			</g>
			<g>
				<polygon fill="#1D464B" points="433.8,129.5 316.6,251.7 551.1,251.7 				"/>
			</g>
			<g>
				<polygon fill="#BBE0E4" points="405.9,192.1 425.7,181.1 435,192.1 440.3,185.6 457.9,201.2 459.5,191 492,201.4 433.8,140.9 
					387.7,188.9 387.7,194.7 402,184.8 				"/>
				<path fill="#0A2215" d="M496,203.9l-35.6-11.4l-1.7,10.9l-18.4-16.3l-5.4,6.7l-9.5-11.3l-20,11.1l-3.9-7.2l-15,10.4v-8.5
					l47.3-49.3L496,203.9z M440.1,183.8l17,15l1.5-9.4l29.3,9.4l-54.1-56.3l-44.9,46.8v3.1l13.5-9.4l4,7.4l19.6-10.8l8.9,10.6
					L440.1,183.8z"/>
			</g>
			<g>
				<polygon fill="#0A2215" points="401.5,161.6 283.3,9.3 165.7,160.9 163.8,159.4 283.3,5.4 403.4,160.1 				"/>
			</g>
			<polygon fill="#0A2215" points="252.9,251.7 253.8,250.9 137.1,127.8 20.3,250.9 21.2,251.7 22.8,251.7 137.1,131.2 251.3,251.7 
							"/>
			<polygon fill="#0A2215" points="551.1,251.7 552,250.9 433.8,127.8 313.1,250.8 313.9,251.7 315.6,251.7 433.8,131.2 
				549.5,251.7 			"/>
			<path fill="#004546" d="M4.3,277.3H19v51.6h31.9v12H4.3V277.3z"/>
			<path fill="#004546" d="M102,313v27.9H88.7v-6.1c-2.6,4.5-7.7,6.8-14.9,6.8c-11.4,0-18.3-6.4-18.3-14.8c0-8.6,6.1-14.6,21-14.6
				h11.3c0-6.1-3.6-9.6-11.3-9.6c-5.2,0-10.5,1.7-14.1,4.5l-5.1-9.9c5.4-3.8,13.3-5.9,21.1-5.9C93.3,291.3,102,298.2,102,313z
				 M87.8,325.5v-5h-9.7c-6.6,0-8.7,2.5-8.7,5.7c0,3.5,3,5.9,8,5.9C82.1,332.1,86.1,329.9,87.8,325.5z"/>
			<path fill="#004546" d="M110,336.4l4.7-10.2c4.4,2.8,11,4.7,17,4.7c6.5,0,9-1.7,9-4.5c0-8-29.5,0.2-29.5-19.4
				c0-9.3,8.4-15.8,22.6-15.8c6.7,0,14.2,1.5,18.8,4.3l-4.7,10.1c-4.8-2.7-9.6-3.6-14.1-3.6c-6.4,0-9.1,2-9.1,4.5
				c0,8.4,29.5,0.3,29.5,19.5c0,9.1-8.5,15.5-23.1,15.5C122.9,341.7,114.6,339.4,110,336.4z"/>
			<path fill="#004546" d="M158.3,336.4l4.7-10.2c4.4,2.8,11,4.7,17,4.7c6.5,0,9-1.7,9-4.5c0-8-29.5,0.2-29.5-19.4
				c0-9.3,8.4-15.8,22.6-15.8c6.7,0,14.2,1.5,18.8,4.3l-4.7,10.1c-4.8-2.7-9.6-3.6-14.1-3.6c-6.4,0-9.1,2-9.1,4.5
				c0,8.4,29.5,0.3,29.5,19.5c0,9.1-8.5,15.5-23.1,15.5C171.2,341.7,162.8,339.4,158.3,336.4z"/>
			<path fill="#004546" d="M258.9,320.5h-37c1.4,6.1,6.5,9.8,14,9.8c5.2,0,8.9-1.5,12.3-4.7l7.5,8.2c-4.5,5.2-11.4,7.9-20.2,7.9
				c-16.9,0-27.9-10.6-27.9-25.2s11.2-25.2,26.1-25.2c14.4,0,25.4,9.6,25.4,25.4C259.2,317.8,259,319.3,258.9,320.5z M221.7,312.2
				h24.1c-1-6.2-5.6-10.2-12-10.2C227.4,302,222.7,305.9,221.7,312.2z"/>
			<path fill="#004546" d="M318.6,312.9v28h-14.2v-25.8c0-7.9-3.6-11.5-9.9-11.5c-6.8,0-11.7,4.2-11.7,13.2V341h-14.2v-49h13.5v5.7
				c3.8-4.2,9.5-6.5,16.2-6.5C309.9,291.3,318.6,298,318.6,312.9z"/>
			<path fill="#00A89D" d="M406.2,298.8c0,13.4-9.6,21.4-25.6,21.4h-18.2V341h-4.6v-63.6h22.8C396.6,277.3,406.2,285.3,406.2,298.8z
				 M401.5,298.8c0-11-7.3-17.3-20.9-17.3h-18.2v34.4h18.2C394.2,315.9,401.5,309.7,401.5,298.8z"/>
			<path fill="#00A89D" d="M460.2,318.3h-40.8c0.5,11.3,8.7,18.9,20.1,18.9c6,0,11.5-2.2,15.2-6.6l2.6,3c-4.2,5.1-10.7,7.7-17.9,7.7
				c-14.4,0-24.4-10-24.4-24.1s9.7-24.1,22.7-24.1s22.6,9.8,22.6,23.9C460.3,317.4,460.2,317.8,460.2,318.3z M419.5,314.8h36.3
				c-0.6-10.3-8.1-17.6-18.2-17.6S420.2,304.4,419.5,314.8z"/>
			<path fill="#00A89D" d="M507.3,310.8v30.1h-4.4v-8.5c-3,5.5-8.8,8.8-17.1,8.8c-10.6,0-17.1-5.5-17.1-13.5
				c0-7.2,4.5-13.3,17.7-13.3h16.3v-3.8c0-8.8-4.8-13.5-14.1-13.5c-6.5,0-12.4,2.5-16.4,6l-2.3-3.3c4.7-4.2,11.6-6.7,19-6.7
				C500.7,293.1,507.3,299.1,507.3,310.8z M502.7,326.9V318h-16.2c-9.8,0-13.3,4.1-13.3,9.5c0,6.2,4.8,10,13.2,10
				C494.5,337.6,500,333.7,502.7,326.9z"/>
			<path fill="#00A89D" d="M538.6,315.6l-12.4,11.3V341h-4.5v-67.4h4.5v47.7l30.4-27.7h5.8L542,312.8l22.4,28.3h-5.6L538.6,315.6z"
				/>
		</g>
	</g>
</g>
</svg>
