<?xml version="1.0" encoding="UTF-8" standalone="no"?>
<!-- Created with Inkscape (http://www.inkscape.org/) -->

<svg
   xmlns:dc="http://purl.org/dc/elements/1.1/"
   xmlns:cc="http://creativecommons.org/ns#"
   xmlns:rdf="http://www.w3.org/1999/02/22-rdf-syntax-ns#"
   xmlns:svg="http://www.w3.org/2000/svg"
   xmlns="http://www.w3.org/2000/svg"
   xmlns:sodipodi="http://sodipodi.sourceforge.net/DTD/sodipodi-0.dtd"
   xmlns:inkscape="http://www.inkscape.org/namespaces/inkscape"
   id="svg3109"
   version="1.1"
   inkscape:version="0.48.2 r9819"
   width="204"
   height="166.2516"
   xml:space="preserve"
   sodipodi:docname="Liberal Party of Australia Logo.svg"><metadata
     id="metadata3115"><rdf:RDF><cc:Work
         rdf:about=""><dc:format>image/svg+xml</dc:format><dc:type
           rdf:resource="http://purl.org/dc/dcmitype/StillImage" /><dc:title></dc:title></cc:Work></rdf:RDF></metadata><defs
     id="defs3113"><linearGradient
       x1="0"
       y1="0"
       x2="1"
       y2="0"
       gradientUnits="userSpaceOnUse"
       gradientTransform="matrix(199.49805,0,0,-199.49805,241.84961,349.72754)"
       spreadMethod="pad"
       id="linearGradient3179"><stop
         style="stop-opacity:1;stop-color:#254aa5"
         offset="0"
         id="stop3181" /><stop
         style="stop-opacity:1;stop-color:#00adef"
         offset="0.873626"
         id="stop3183" /><stop
         style="stop-opacity:1;stop-color:#00adef"
         offset="0.873626"
         id="stop3185" /><stop
         style="stop-opacity:1;stop-color:#00adef"
         offset="1"
         id="stop3187" /></linearGradient><linearGradient
       x1="0"
       y1="0"
       x2="1"
       y2="0"
       gradientUnits="userSpaceOnUse"
       gradientTransform="matrix(199.49805,-1.74e-5,-1.74e-5,-199.49805,322.34229,411.90039)"
       spreadMethod="pad"
       id="linearGradient3203"><stop
         style="stop-opacity:1;stop-color:#c4161d"
         offset="0"
         id="stop3205" /><stop
         style="stop-opacity:1;stop-color:#ec086d"
         offset="0.703297"
         id="stop3207" /><stop
         style="stop-opacity:1;stop-color:#ec086d"
         offset="0.703297"
         id="stop3209" /><stop
         style="stop-opacity:1;stop-color:#ec086d"
         offset="1"
         id="stop3211" /></linearGradient><clipPath
       clipPathUnits="userSpaceOnUse"
       id="clipPath378"><path
         inkscape:connector-curvature="0"
         d="m 235.354,617.592 152.915,0 0,141.363 -152.915,0 0,-141.363 z"
         id="path380" /></clipPath><clipPath
       clipPathUnits="userSpaceOnUse"
       id="clipPath322"><path
         inkscape:connector-curvature="0"
         d="m 312.043,713.008 c -0.858,-0.235 -1.738,-0.369 -2.628,-0.369 l 0,0 -56.639,0 -7.845,-41.885 56.152,0 c 5.114,0 10.039,4.147 10.997,9.265 l 0,0 7.399,37.194 c -1.964,-2.149 -4.59,-3.681 -7.436,-4.205"
         id="path324" /></clipPath><clipPath
       clipPathUnits="userSpaceOnUse"
       id="clipPath254"><path
         inkscape:connector-curvature="0"
         d="m 235.354,617.592 152.915,0 0,141.363 -152.915,0 0,-141.363 z"
         id="path256" /></clipPath></defs><sodipodi:namedview
     pagecolor="#ffffff"
     bordercolor="#666666"
     borderopacity="1"
     objecttolerance="10"
     gridtolerance="10"
     guidetolerance="10"
     inkscape:pageopacity="0"
     inkscape:pageshadow="2"
     inkscape:window-width="1221"
     inkscape:window-height="859"
     id="namedview3111"
     showgrid="false"
     fit-margin-top="2"
     fit-margin-left="2"
     fit-margin-right="2"
     fit-margin-bottom="2"
     inkscape:zoom="1"
     inkscape:cx="260.05607"
     inkscape:cy="-50.302585"
     inkscape:window-x="1920"
     inkscape:window-y="0"
     inkscape:window-maximized="0"
     inkscape:current-layer="g3117" /><g
     id="g3117"
     inkscape:groupmode="layer"
     inkscape:label="LFP Logo"
     transform="matrix(1.25,0,0,-1.25,-266.12519,588.60103)"><g
       transform="matrix(1.086066,0,0,1.086066,-44.621088,-352.4303)"
       id="g250"><g
         id="g252"
         clip-path="url(#clipPath254)"><g
           id="g258"
           transform="translate(312.04359,713.0087)"><path
             inkscape:connector-curvature="0"
             d="m 0,0 c -0.859,-0.234 -1.738,-0.368 -2.628,-0.368 l -56.64,0 -7.845,-41.885 56.153,0 c 5.113,0 10.038,4.147 10.996,9.265 l 7.4,37.193 C 5.472,2.057 2.847,0.524 0,0"
             style="fill:#1c4f9c;fill-opacity:1;fill-rule:nonzero;stroke:none"
             id="path260" /></g><g
           id="g262"
           transform="translate(326.9814,756.5941)"><path
             inkscape:connector-curvature="0"
             d="m 0,0 -56.152,0 c -5.115,0 -10.04,-4.147 -10.998,-9.262 l -6.112,-32.623 56.154,0 c 5.117,0 10.04,4.147 11.001,9.26 L 0,0 z"
             style="fill:#1c4f9c;fill-opacity:1;fill-rule:nonzero;stroke:none"
             id="path264" /></g><g
           id="g266"
           transform="translate(326.9814,756.5941)" /><g
           id="g270"
           transform="translate(259.08099,675.4272)"><path
             inkscape:connector-curvature="0"
             d="M 0,0 1.047,3.387 -1.928,3.845 0.584,5.641 -0.228,8.356 2.683,7.448 4.432,10.194 5.279,7.525 8.384,8.308 6.744,5.542 9.114,3.95 5.712,3.311 5.279,0.055 2.993,2.041 0,0 z"
             style="fill:#ffffff;fill-opacity:1;fill-rule:nonzero;stroke:none"
             id="path272" /></g><g
           id="g274"
           transform="translate(259.08099,675.4272)"><path
             inkscape:connector-curvature="0"
             d="M 0,0 1.047,3.387 -1.928,3.845 0.584,5.641 -0.228,8.356 2.683,7.448 4.432,10.194 5.279,7.525 8.384,8.308 6.744,5.542 9.114,3.95 5.712,3.311 5.279,0.055 2.993,2.041 0,0 z"
             style="fill:none;stroke:#ffffff;stroke-width:0.011;stroke-linecap:butt;stroke-linejoin:miter;stroke-miterlimit:4;stroke-opacity:1;stroke-dasharray:none"
             id="path276" /></g><g
           id="g278"
           transform="translate(298.8533,703.9843)"><path
             inkscape:connector-curvature="0"
             d="M 0,0 0.466,1.651 -0.757,1.887 0.334,2.735 0.008,4.053 1.259,3.636 2.005,4.964 2.364,3.661 3.708,4.016 2.971,2.688 3.976,1.922 2.485,1.61 2.288,0.022 1.314,1.015 0,0 z"
             style="fill:#ffffff;fill-opacity:1;fill-rule:nonzero;stroke:none"
             id="path280" /></g><g
           id="g282"
           transform="translate(298.8533,703.9843)"><path
             inkscape:connector-curvature="0"
             d="M 0,0 0.466,1.651 -0.757,1.887 0.334,2.735 0.008,4.053 1.259,3.636 2.005,4.964 2.364,3.661 3.708,4.016 2.971,2.688 3.976,1.922 2.485,1.61 2.288,0.022 1.314,1.015 0,0 z"
             style="fill:none;stroke:#ffffff;stroke-width:0.013;stroke-linecap:butt;stroke-linejoin:miter;stroke-miterlimit:4;stroke-opacity:1;stroke-dasharray:none"
             id="path284" /></g><g
           id="g286"
           transform="translate(299.4557,690.963)"><path
             inkscape:connector-curvature="0"
             d="M 0,0 1.221,0 1.83,1.015 2.033,0 3.292,0 2.131,-0.71 2.343,-1.884 1.432,-1.128 0.094,-1.884 0.799,-0.71 0,0 z"
             style="fill:#ffffff;fill-opacity:1;fill-rule:nonzero;stroke:none"
             id="path288" /></g><g
           id="g290"
           transform="translate(299.4557,690.963)"><path
             inkscape:connector-curvature="0"
             d="M 0,0 1.221,0 1.83,1.015 2.033,0 3.292,0 2.131,-0.71 2.343,-1.884 1.432,-1.128 0.094,-1.884 0.799,-0.71 0,0 z"
             style="fill:none;stroke:#ffffff;stroke-width:0.013;stroke-linecap:butt;stroke-linejoin:miter;stroke-miterlimit:4;stroke-opacity:1;stroke-dasharray:none"
             id="path292" /></g><g
           id="g294"
           transform="translate(288.2774,692.99181)"><path
             inkscape:connector-curvature="0"
             d="M 0,0 0.471,1.742 -0.809,2.007 0.356,2.915 0.019,4.303 1.313,3.861 2.103,5.276 2.474,3.886 3.854,4.279 3.086,2.868 4.141,2.054 2.583,1.709 2.377,0.042 1.374,1.083 0,0 z"
             style="fill:#ffffff;fill-opacity:1;fill-rule:nonzero;stroke:none"
             id="path296" /></g><g
           id="g298"
           transform="translate(288.2774,692.99181)"><path
             inkscape:connector-curvature="0"
             d="M 0,0 0.471,1.742 -0.809,2.007 0.356,2.915 0.019,4.303 1.313,3.861 2.103,5.276 2.474,3.886 3.854,4.279 3.086,2.868 4.141,2.054 2.583,1.709 2.377,0.042 1.374,1.083 0,0 z"
             style="fill:none;stroke:#ffffff;stroke-width:0.013;stroke-linecap:butt;stroke-linejoin:miter;stroke-miterlimit:4;stroke-opacity:1;stroke-dasharray:none"
             id="path300" /></g><g
           id="g302"
           transform="translate(304.7291,694.6918)"><path
             inkscape:connector-curvature="0"
             d="M 0,0 0.491,1.78 -0.845,2.057 0.343,2.979 -0.014,4.393 1.314,3.947 2.156,5.386 2.49,3.971 3.927,4.364 3.143,2.918 4.213,2.115 2.627,1.745 2.414,0.046 1.407,1.125 0,0 z"
             style="fill:#ffffff;fill-opacity:1;fill-rule:nonzero;stroke:none"
             id="path304" /></g><g
           id="g306"
           transform="translate(304.7291,694.6918)"><path
             inkscape:connector-curvature="0"
             d="M 0,0 0.491,1.78 -0.845,2.057 0.343,2.979 -0.014,4.393 1.314,3.947 2.156,5.386 2.49,3.971 3.927,4.364 3.143,2.918 4.213,2.115 2.627,1.745 2.414,0.046 1.407,1.125 0,0 z"
             style="fill:none;stroke:#ffffff;stroke-width:0.013;stroke-linecap:butt;stroke-linejoin:miter;stroke-miterlimit:4;stroke-opacity:1;stroke-dasharray:none"
             id="path308" /></g><g
           id="g310"
           transform="translate(294.2348,674.6035)"><path
             inkscape:connector-curvature="0"
             d="M 0,0 0.45,1.771 -0.845,2.06 0.342,2.982 -0.016,4.393 1.298,3.941 2.122,5.386 2.49,3.971 3.913,4.356 3.132,2.919 4.208,2.109 2.624,1.749 2.414,0.052 1.38,1.113 0,0 z"
             style="fill:#ffffff;fill-opacity:1;fill-rule:nonzero;stroke:none"
             id="path312" /></g><g
           id="g314"
           transform="translate(294.2348,674.6035)"><path
             inkscape:connector-curvature="0"
             d="M 0,0 0.45,1.771 -0.845,2.06 0.342,2.982 -0.016,4.393 1.298,3.941 2.122,5.386 2.49,3.971 3.913,4.356 3.132,2.919 4.208,2.109 2.624,1.749 2.414,0.052 1.38,1.113 0,0 z"
             style="fill:none;stroke:#ffffff;stroke-width:0.013;stroke-linecap:butt;stroke-linejoin:miter;stroke-miterlimit:4;stroke-opacity:1;stroke-dasharray:none"
             id="path316" /></g></g></g><g
       transform="matrix(1.086066,0,0,1.086066,-44.621088,-352.4303)"
       id="g318"><g
         id="g320"
         clip-path="url(#clipPath322)"><g
           id="g326"
           transform="translate(251.77901,710.5218)"><path
             inkscape:connector-curvature="0"
             d="m 0,0 6.577,-5.184 -7.436,0 -1.154,-6.991 8.5,0 -9.44,-5.68 -0.355,-2.158 2.809,0 12.072,7.838 -1.296,-7.838 5.407,0 1.296,7.838 9.11,-7.838 3.783,0 0.326,1.98 -7.531,5.858 8.504,0 1.152,6.991 -8.74,0 9.651,5.507 0.361,2.17 -2.479,0 -12.956,-7.518 1.242,7.518 -5.404,0 -1.244,-7.518 -9.396,7.518 -2.945,0 L 0,0 z"
             style="fill:#ffffff;fill-opacity:1;fill-rule:nonzero;stroke:none"
             id="path328" /></g><g
           id="g330"
           transform="translate(251.77901,710.5218)"><path
             inkscape:connector-curvature="0"
             d="m 0,0 6.577,-5.184 -7.436,0 -1.154,-6.991 8.5,0 -9.44,-5.68 -0.355,-2.158 2.809,0 12.072,7.838 -1.296,-7.838 5.407,0 1.296,7.838 9.11,-7.838 3.783,0 0.326,1.98 -7.531,5.858 8.504,0 1.152,6.991 -8.74,0 9.651,5.507 0.361,2.17 -2.479,0 -12.956,-7.518 1.242,7.518 -5.404,0 -1.244,-7.518 -9.396,7.518 -2.945,0 L 0,0 z"
             style="fill:none;stroke:#ffffff;stroke-width:0.011;stroke-linecap:butt;stroke-linejoin:miter;stroke-miterlimit:4;stroke-opacity:1;stroke-dasharray:none"
             id="path332" /></g><g
           id="g334"
           transform="translate(250.6953,703.9781)"><path
             inkscape:connector-curvature="0"
             d="m 0,0 14.662,0 1.494,9.037 3.417,0 L 18.077,0 l 15.108,0 -0.741,-4.482 -15.108,0 -1.487,-8.989 -3.416,0 1.488,8.989 -14.662,0 L 0,0 z"
             style="fill:#e51636;fill-opacity:1;fill-rule:nonzero;stroke:none"
             id="path336" /></g><g
           id="g338"
           transform="translate(250.6953,703.9781)"><path
             inkscape:connector-curvature="0"
             d="m 0,0 14.662,0 1.494,9.037 3.417,0 L 18.077,0 l 15.108,0 -0.741,-4.482 -15.108,0 -1.487,-8.989 -3.416,0 1.488,8.989 -14.662,0 L 0,0 z"
             style="fill:none;stroke:#ffffff;stroke-width:0.011;stroke-linecap:butt;stroke-linejoin:miter;stroke-miterlimit:4;stroke-opacity:1;stroke-dasharray:none"
             id="path340" /></g><g
           id="g342"
           transform="translate(250.4725,690.5081)"><path
             inkscape:connector-curvature="0"
             d="m 0,0 11.763,7.654 -1.608,0 L -1.752,0 0,0 z"
             style="fill:#e51636;fill-opacity:1;fill-rule:nonzero;stroke:none"
             id="path344" /></g><g
           id="g346"
           transform="translate(250.4725,690.5081)"><path
             inkscape:connector-curvature="0"
             d="m 0,0 11.763,7.654 -1.608,0 L -1.752,0 0,0 z"
             style="fill:none;stroke:#ffffff;stroke-width:0.011;stroke-linecap:butt;stroke-linejoin:miter;stroke-miterlimit:4;stroke-opacity:1;stroke-dasharray:none"
             id="path348" /></g><g
           id="g350"
           transform="translate(273.4671,698.16209)"><path
             inkscape:connector-curvature="0"
             d="M 0,0 8.378,-6.48 8.186,-7.654 -1.541,0 0,0 z"
             style="fill:#e51636;fill-opacity:1;fill-rule:nonzero;stroke:none"
             id="path352" /></g><g
           id="g354"
           transform="translate(273.4671,698.16209)"><path
             inkscape:connector-curvature="0"
             d="M 0,0 8.378,-6.48 8.186,-7.654 -1.541,0 0,0 z"
             style="fill:none;stroke:#ffffff;stroke-width:0.011;stroke-linecap:butt;stroke-linejoin:miter;stroke-miterlimit:4;stroke-opacity:1;stroke-dasharray:none"
             id="path356" /></g><g
           id="g358"
           transform="translate(285.3741,713.0148)"><path
             inkscape:connector-curvature="0"
             d="m 0,0 -12.723,-7.677 -1.766,0 L -1.53,0 0,0 z"
             style="fill:#e51636;fill-opacity:1;fill-rule:nonzero;stroke:none"
             id="path360" /></g><g
           id="g362"
           transform="translate(285.3741,713.0148)"><path
             inkscape:connector-curvature="0"
             d="m 0,0 -12.723,-7.677 -1.766,0 L -1.53,0 0,0 z"
             style="fill:none;stroke:#ffffff;stroke-width:0.011;stroke-linecap:butt;stroke-linejoin:miter;stroke-miterlimit:4;stroke-opacity:1;stroke-dasharray:none"
             id="path364" /></g><g
           id="g366"
           transform="translate(251.9157,711.3333)"><path
             inkscape:connector-curvature="0"
             d="m 0,0 7.414,-5.836 1.888,0 L 0.223,1.355 0,0 z"
             style="fill:#e51636;fill-opacity:1;fill-rule:nonzero;stroke:none"
             id="path368" /></g><g
           id="g370"
           transform="translate(251.9157,711.3333)"><path
             inkscape:connector-curvature="0"
             d="m 0,0 7.414,-5.836 1.888,0 L 0.223,1.355 0,0 z"
             style="fill:none;stroke:#ffffff;stroke-width:0.011;stroke-linecap:butt;stroke-linejoin:miter;stroke-miterlimit:4;stroke-opacity:1;stroke-dasharray:none"
             id="path372" /></g></g></g><g
       transform="matrix(1.086066,0,0,1.086066,-44.621088,-352.4303)"
       id="g374"><g
         id="g376"
         clip-path="url(#clipPath378)"><g
           id="g386"
           transform="translate(329.75571,712.6398)"><path
             inkscape:connector-curvature="0"
             d="m 0,0 c -5.115,0 -10.04,-4.147 -10.997,-9.261 l -4.428,-23.359 c -0.279,-1.497 -0.905,-2.905 -1.771,-4.16 -1.158,-2.093 -2.874,-3.867 -4.904,-5.105 l 61.146,0 c 5.115,0 10.038,4.147 10.995,9.265 L 56.152,0 0,0 z"
             style="fill:#1c4f9c;fill-opacity:1;fill-rule:nonzero;stroke:none"
             id="path388" /></g><g
           id="g394"
           transform="translate(238.58701,637.0798)"><path
             inkscape:connector-curvature="0"
             d="m 0,0 6.283,30.396 8.941,0 -4.802,-23.221 7.939,0 L 16.883,0 0,0 z"
             style="fill:#1c4f9c;fill-opacity:1;fill-rule:nonzero;stroke:none"
             id="path396" /></g><g
           id="g398"
           transform="translate(257.35201,637.0798)"><path
             inkscape:connector-curvature="0"
             d="m 0,0 6.283,30.396 8.938,0 L 8.941,0 0,0 z"
             style="fill:#1c4f9c;fill-opacity:1;fill-rule:nonzero;stroke:none"
             id="path400" /></g><g
           id="g402"
           transform="translate(281.13049,655.6633)"><path
             inkscape:connector-curvature="0"
             d="m 0,0 1.084,5.239 0.874,0 C 3.801,5.239 5.002,4.476 4.626,2.661 4.218,0.686 2.367,0 0.527,0 L 0,0 z m -12.783,-18.584 12.012,0 c 7.975,0 11.443,4.92 12.221,8.67 0.84,4.07 -0.965,6.57 -5.282,6.889 l 0.017,0.083 c 3.771,0 6.729,2.662 7.435,6.087 1.362,6.57 -4.341,8.667 -9.599,8.667 l -10.519,0 -6.285,-30.396 z m 10.301,6.571 1.207,5.847 0.701,0 c 2.061,0 3.596,-0.847 3.171,-2.904 -0.424,-2.057 -2.364,-2.943 -4.335,-2.943 l -0.744,0 z"
             style="fill:#1c4f9c;fill-opacity:1;fill-rule:nonzero;stroke:none"
             id="path404" /></g><g
           id="g406"
           transform="translate(298.741,667.47501)"><path
             inkscape:connector-curvature="0"
             d="m 0,0 16.607,0 -1.484,-7.175 -7.671,0 -0.872,-4.234 6.877,0 -1.482,-7.175 -6.879,0 -0.961,-4.637 7.671,0 -1.483,-7.175 -16.609,0 L 0,0 z"
             style="fill:#1c4f9c;fill-opacity:1;fill-rule:nonzero;stroke:none"
             id="path408" /></g><g
           id="g410"
           transform="translate(334.6602,637.0798)"><path
             inkscape:connector-curvature="0"
             d="m 0,0 -4.043,12.655 c 3.813,1.291 6.006,4.275 6.7,7.623 1.658,8.02 -3.516,10.118 -11.272,10.118 l -8.638,0 L -23.536,0 l 8.943,0 1.675,8.102 c 0.308,1.492 0.532,2.984 0.796,4.476 l 0.101,0.077 L -9.686,0 0,0 z m -11.212,16.365 1.552,7.501 c 2.478,0.121 3.996,-1.009 3.45,-3.669 -0.41,-1.976 -2.073,-3.868 -4.44,-3.868 l -0.562,0.036 z"
             style="fill:#1c4f9c;fill-opacity:1;fill-rule:nonzero;stroke:none"
             id="path412" /></g><g
           id="g414"
           transform="translate(358.9028,637.0798)"><path
             inkscape:connector-curvature="0"
             d="m 0,0 -0.729,30.396 -10.911,0 L -25.859,0 l 9.208,0 1.55,3.908 6.006,0 L -9.248,0 0,0 z m -12.581,10.361 2.683,7.055 c 0.746,1.894 1.363,3.829 2.016,5.724 l 0.085,0 c -0.17,-1.895 -0.395,-3.83 -0.522,-5.724 l -0.495,-7.055 -3.767,0 z"
             style="fill:#1c4f9c;fill-opacity:1;fill-rule:nonzero;stroke:none"
             id="path416" /></g><g
           id="g418"
           transform="translate(358.6416,637.0798)"><path
             inkscape:connector-curvature="0"
             d="m 0,0 6.28,30.396 8.939,0 -4.795,-23.221 7.94,0 L 16.876,0 0,0 z"
             style="fill:#1c4f9c;fill-opacity:1;fill-rule:nonzero;stroke:none"
             id="path420" /></g></g></g></g></svg>