<?xml version="1.0" encoding="UTF-8"?>
<svg width="152px" height="31px" viewBox="0 0 152 31" version="1.1" xmlns="http://www.w3.org/2000/svg" xmlns:xlink="http://www.w3.org/1999/xlink">
    <title>Group 51 Copy 2</title>
    <g id="Homepage" stroke="none" stroke-width="1" fill="none" fill-rule="evenodd">
        <g id="About-us-page" transform="translate(-164.000000, -4020.000000)" fill="#333333">
            <g id="Group-51-Copy-2" transform="translate(164.000000, 4020.000000)">
                <g id="Group-41" transform="translate(58.000000, 0.119150)">
                    <path d="M2.32005,13.7416 L2.32005,13.8091 C2.32005,13.9666 2.36505,13.9891 2.52205,13.9891 L2.61205,13.9891 L8.59455,13.9891 L8.72955,13.9891 C9.42655,13.9891 9.76405,14.2366 9.76405,14.7761 C9.76405,15.3166 9.35905,15.6536 8.75205,15.6536 L8.66205,15.6536 L2.04955,15.6536 L1.93705,15.6536 C0.85755,15.6536 0.63255,15.3166 0.63255,13.6741 L0.63255,13.5616 L0.65505,1.7986 L0.65505,1.7306 C0.65505,0.9656 0.90255,0.5836 1.44255,0.5836 C1.95955,0.5836 2.29705,0.9436 2.29705,1.4831 L2.29705,1.6631 L2.32005,13.7416 Z" id="Fill-1"></path>
                    <path d="M14.7124,14.5961 L14.7124,14.7536 C14.7124,15.2481 14.3529,15.6081 13.8579,15.6081 C13.3184,15.6081 13.0484,15.2931 13.0484,14.6406 L13.0484,14.4836 L13.0484,1.7306 L13.0484,1.6186 C13.0484,0.9661 13.3629,0.5616 13.9034,0.5616 C14.4879,0.5616 14.7579,0.8991 14.7579,1.6186 L14.7579,1.6861 L14.7124,14.5961 Z" id="Fill-3"></path>
                    <path d="M24.22655,14.8434 C24.04755,15.3829 23.82155,15.5854 23.48505,15.5854 C23.17005,15.5854 22.94455,15.4054 22.81005,14.9784 L22.78755,14.8884 L18.31155,1.8654 L18.28905,1.7529 C18.19905,1.5954 18.17605,1.4604 18.17605,1.3254 C18.17605,0.8529 18.53605,0.4934 19.03005,0.4934 C19.43555,0.4934 19.70555,0.7184 19.84005,1.1679 C19.86255,1.2579 19.88555,1.2579 19.88555,1.2579 L23.34855,11.3569 L23.37055,11.4019 C23.41605,11.5144 23.43855,11.5144 23.48355,11.5144 C23.52855,11.4694 23.57305,11.4694 23.61855,11.3569 L27.05955,1.3254 C27.05955,1.2804 27.05955,1.3029 27.08205,1.2129 C27.21655,0.7629 27.50905,0.4934 27.89205,0.4934 C28.36355,0.4934 28.76905,0.8759 28.76905,1.2804 C28.76905,1.3929 28.72405,1.6179 28.67905,1.7754 L28.63405,1.8879 L24.22655,14.8434 Z" id="Fill-5"></path>
                    <path d="M40.8291,0.4259 L40.9191,0.4259 C41.5266,0.4259 41.8861,0.7409 41.8861,1.2579 C41.8861,1.7979 41.5486,2.0679 40.9411,2.0679 L40.8286,2.0679 L34.4151,2.0679 L34.2796,2.0679 C34.0326,2.0679 33.9431,2.1354 33.9431,2.3154 L33.9431,2.3829 L33.9431,6.8364 L33.9431,6.9039 C33.9431,7.1064 34.0106,7.1514 34.2351,7.1514 L34.3251,7.1514 L39.2316,7.1739 L39.3441,7.1739 C39.9516,7.1739 40.3341,7.4664 40.3341,7.9389 C40.3341,8.4559 39.9741,8.8159 39.4571,8.8159 L39.3671,8.8159 L34.2126,8.7934 L34.1226,8.7934 C33.9876,8.7934 33.8976,8.8609 33.8976,8.9509 L33.8976,9.0409 L33.8976,9.0859 L33.8756,13.6069 L33.8756,13.7194 C33.8756,13.8094 33.9646,13.8769 34.1006,13.8769 L34.2131,13.8769 L40.6041,13.8769 L40.7616,13.8769 C41.4586,13.8769 41.8411,14.1694 41.8411,14.7089 C41.8411,15.2034 41.4586,15.5634 40.9866,15.5634 L40.8291,15.5634 L33.4026,15.5634 L33.2686,15.5634 C32.4591,15.5634 32.2116,15.3384 32.2116,14.5289 L32.2116,14.5059 L32.2791,1.6854 L32.2791,1.5734 C32.2791,0.5839 32.5266,0.3814 33.7416,0.3814 L33.8766,0.3814 L40.8291,0.4259 Z" id="Fill-7"></path>
                    <path d="M49.7783,14.8434 C49.5983,15.3829 49.3733,15.5854 49.0368,15.5854 C48.7218,15.5854 48.4968,15.4054 48.3613,14.9784 L48.3383,14.8884 L43.8628,1.8654 L43.8398,1.7529 C43.7498,1.5954 43.7273,1.4604 43.7273,1.3254 C43.7273,0.8529 44.0873,0.4934 44.5818,0.4934 C44.9868,0.4934 45.2568,0.7184 45.3923,1.1679 C45.4143,1.2579 45.4363,1.2579 45.4363,1.2579 L48.8998,11.3569 L48.9228,11.4019 C48.9673,11.5144 48.9908,11.5144 49.0358,11.5144 C49.0803,11.4694 49.1253,11.4694 49.1698,11.3569 L52.6113,1.3254 C52.6113,1.2804 52.6113,1.3029 52.6343,1.2129 C52.7688,0.7629 53.0618,0.4934 53.4433,0.4934 C53.9163,0.4934 54.3208,0.8759 54.3208,1.2804 C54.3208,1.3929 54.2758,1.6179 54.2308,1.7754 L54.1858,1.8879 L49.7783,14.8434 Z" id="Fill-9"></path>
                    <path d="M59.42625,14.5961 L59.42625,14.7536 C59.42625,15.2481 59.06675,15.6081 58.57175,15.6081 C58.03225,15.6081 57.76325,15.2931 57.76325,14.6406 L57.76325,14.4836 L57.76325,1.7306 L57.76325,1.6186 C57.76325,0.9661 58.07775,0.5616 58.61775,0.5616 C59.20225,0.5616 59.47225,0.8991 59.47225,1.6186 L59.47225,1.6861 L59.42625,14.5961 Z" id="Fill-11"></path>
                    <path d="M72.791,0.4259 L72.8805,0.4259 C73.4875,0.4259 73.848,0.7409 73.848,1.2579 C73.848,1.7979 73.5095,2.0679 72.903,2.0679 L72.7905,2.0679 L66.376,2.0679 L66.2415,2.0679 C65.9945,2.0679 65.9045,2.1354 65.9045,2.3154 L65.9045,2.3829 L65.9045,6.8364 L65.9045,6.9039 C65.9045,7.1064 65.972,7.1514 66.1965,7.1514 L66.2865,7.1514 L71.194,7.1739 L71.3065,7.1739 C71.9135,7.1739 72.296,7.4664 72.296,7.9389 C72.296,8.4559 71.9365,8.8159 71.419,8.8159 L71.329,8.8159 L66.1745,8.7934 L66.0845,8.7934 C65.949,8.7934 65.8595,8.8609 65.8595,8.9509 L65.8595,9.0409 L65.8595,9.0859 L65.8365,13.6069 L65.8365,13.7194 C65.8365,13.8094 65.9265,13.8769 66.0615,13.8769 L66.1745,13.8769 L72.5665,13.8769 L72.7235,13.8769 C73.4215,13.8769 73.803,14.1694 73.803,14.7089 C73.803,15.2034 73.4215,15.5634 72.948,15.5634 L72.7915,15.5634 L65.365,15.5634 L65.23,15.5634 C64.4205,15.5634 64.1735,15.3384 64.1735,14.5289 L64.1735,14.5059 L64.24,1.6854 L64.24,1.5734 C64.24,0.5839 64.4875,0.3814 65.7025,0.3814 L65.837,0.3814 L72.791,0.4259 Z" id="Fill-13"></path>
                    <path d="M89.8618,14.7985 C89.7043,15.361 89.4568,15.5855 89.0518,15.5855 C88.6243,15.5855 88.3998,15.3385 88.1973,14.6635 L85.2738,4.2275 L85.2738,4.16 C85.2283,4.07 85.2058,4.07 85.1843,4.07 C85.1618,4.0925 85.1393,4.0925 85.1163,4.1825 L85.0933,4.205 L82.1018,14.551 C81.8768,15.3385 81.6293,15.608 81.1798,15.608 C80.8198,15.608 80.5273,15.338 80.3928,14.798 L80.3703,14.708 L76.8833,1.9325 C76.8158,1.685 76.7708,1.4375 76.7708,1.325 C76.7708,0.8975 77.1758,0.5375 77.6253,0.5375 C78.0533,0.5375 78.3458,0.785 78.4798,1.28 L78.5023,1.3925 L81.1118,10.9065 L81.1338,10.9515 C81.1788,11.0865 81.1788,11.0865 81.2243,11.0865 C81.2908,11.064 81.3133,11.064 81.3583,10.9065 L81.3583,10.8615 L84.0128,1.707 C84.2373,0.92 84.6198,0.5375 85.1823,0.5375 C85.7443,0.5375 86.1268,0.965 86.3513,1.8195 C86.3738,1.9095 86.3958,1.9095 86.3958,1.932 L88.9598,10.9285 L88.9598,10.9735 C88.9828,11.0635 89.0053,11.0635 89.0498,11.0635 C89.0718,11.041 89.0953,11.041 89.1183,10.9735 L89.1628,10.8385 L89.1853,10.771 L91.7263,1.5945 C91.9293,0.8295 92.2223,0.4925 92.6933,0.4925 C93.1883,0.4925 93.5478,0.8295 93.5478,1.302 C93.5478,1.482 93.5033,1.617 93.4138,1.932 L93.4138,1.977 L89.9043,14.64 L89.8618,14.7985 Z" id="Fill-15"></path>
                    <path d="M5.1804,21.9562 L5.2644,21.9562 C5.6239,21.9562 5.8154,22.1117 5.8154,22.3997 C5.8154,22.6982 5.6474,22.8307 5.2524,22.8307 L5.2044,22.8307 L3.6239,22.8307 L3.5764,22.8307 C3.5044,22.8307 3.4684,22.8902 3.4684,22.9862 L3.4684,23.0097 L3.4684,29.3202 L3.4684,29.4037 C3.4684,29.7752 3.3009,29.9667 3.0134,29.9667 C2.7264,29.9667 2.5704,29.7867 2.5704,29.4037 L2.5704,29.3202 L2.5704,22.9867 L2.5704,22.9627 C2.5704,22.8422 2.5584,22.8312 2.4269,22.8312 L2.3909,22.8312 L0.7869,22.8312 L0.7509,22.8312 C0.3199,22.8312 0.1524,22.7222 0.1524,22.4117 C0.1524,22.0887 0.3079,21.9567 0.6909,21.9567 L0.7509,21.9567 L5.1804,21.9567 L5.1804,21.9562 Z" id="Fill-17"></path>
                    <path d="M13.55055,21.8605 L13.59855,21.8605 C13.92205,21.8605 14.11355,22.028 14.11355,22.3035 C14.11355,22.5905 13.93355,22.7345 13.61005,22.7345 L13.55005,22.7345 L9.55105,22.7345 L9.47955,22.7345 C9.34805,22.7345 9.30005,22.7705 9.30005,22.866 L9.30005,22.902 L9.30005,25.2725 L9.30005,25.3085 C9.30005,25.4165 9.33605,25.44 9.45555,25.44 L9.50305,25.44 L12.70005,25.452 L12.76005,25.452 C13.08305,25.452 13.28755,25.6075 13.28755,25.8595 C13.28755,26.135 13.09555,26.3265 12.82055,26.3265 L12.77255,26.3265 L9.44405,26.314 L9.39605,26.314 C9.32455,26.314 9.27655,26.35 9.27655,26.3975 L9.27655,26.446 L9.27655,26.4695 L9.26455,28.876 L9.26455,28.936 C9.26455,28.984 9.31205,29.02 9.38405,29.02 L9.44405,29.02 L13.43105,29.02 L13.51455,29.02 C13.88605,29.02 14.08955,29.1755 14.08955,29.4625 C14.08955,29.7265 13.88605,29.918 13.63405,29.918 L13.55055,29.918 L9.01255,29.918 L8.94105,29.918 C8.51005,29.918 8.37805,29.7985 8.37805,29.367 L8.37805,29.356 L8.41405,22.531 L8.41405,22.471 C8.41405,21.9445 8.54555,21.836 9.19205,21.836 L9.26405,21.836 L13.55055,21.8605 Z" id="Fill-19"></path>
                    <path d="M17.5984,26.985 C17.5984,28.206 18.4244,29.0805 19.5499,29.0805 C20.2329,29.0805 20.7839,28.793 21.1904,28.23 L21.2624,28.122 C21.4179,27.919 21.5139,27.859 21.6819,27.859 C21.9214,27.859 22.1244,28.0385 22.1244,28.266 C22.1244,28.41 22.0644,28.5655 21.8969,28.7805 C21.3579,29.535 20.4724,29.978 19.5499,29.978 C17.8859,29.978 16.6884,28.709 16.6884,26.937 L16.6884,26.913 L16.7004,24.686 L16.7004,24.6385 C16.7004,22.9975 17.9574,21.7405 19.5984,21.7405 C20.5324,21.7405 21.4064,22.184 21.8849,22.9025 C22.0169,23.106 22.1479,23.3455 22.2564,23.6325 C22.3279,23.8 22.3524,23.884 22.3524,23.9795 C22.3524,24.2195 22.1374,24.4105 21.8729,24.4105 C21.6579,24.4105 21.5864,24.339 21.4544,24.0035 C21.1194,23.1295 20.4244,22.615 19.5629,22.615 C18.4614,22.615 17.5994,23.5245 17.5994,24.674 L17.5994,24.71 L17.5994,26.925 L17.5994,26.985 L17.5984,26.985 Z" id="Fill-21"></path>
                    <path d="M30.6079,29.3678 L30.6079,29.3798 C30.6079,29.7628 30.4639,29.9303 30.1769,29.9303 C29.8774,29.9303 29.7099,29.7513 29.7099,29.4398 L29.7099,29.4163 L29.7099,26.5428 L29.7099,26.5188 C29.7099,26.3988 29.6984,26.3988 29.5179,26.3988 L29.4709,26.3988 L25.9259,26.3988 L25.8664,26.3988 C25.7699,26.3988 25.7344,26.4348 25.7344,26.5433 L25.7464,26.5433 L25.7464,26.6033 L25.7224,29.4038 L25.7224,29.4878 C25.7224,29.7518 25.5309,29.9433 25.2674,29.9433 C24.9799,29.9433 24.8364,29.7753 24.8364,29.4283 L24.8364,29.3443 L24.8364,22.5553 L24.8364,22.4953 C24.8364,22.1483 25.0039,21.9323 25.2914,21.9323 C25.6029,21.9323 25.7469,22.1118 25.7469,22.4953 L25.7469,22.5308 L25.7469,25.3208 L25.7469,25.3568 C25.7469,25.4648 25.7704,25.4883 25.8909,25.4883 L25.9384,25.4883 L29.4944,25.4883 L29.5664,25.4883 C29.6859,25.4883 29.7099,25.4648 29.7099,25.3333 L29.7099,25.2733 L29.7099,22.5793 L29.7099,22.5553 C29.7099,22.1363 29.8659,21.9203 30.1534,21.9203 C30.4294,21.9203 30.6084,22.1598 30.6084,22.5068 L30.6084,22.5433 L30.6084,29.3678 L30.6079,29.3678 Z" id="Fill-23"></path>
                    <path d="M39.5884,29.39225 C39.5884,29.73825 39.4694,29.91875 39.2174,29.91875 C39.0494,29.91875 38.8819,29.81075 38.7624,29.61875 L38.7379,29.58375 L34.9189,24.02775 C34.9189,24.01525 34.9189,24.01525 34.9069,24.00425 C34.8949,23.96825 34.8829,23.96825 34.8589,23.96825 C34.8349,23.99175 34.8109,23.99175 34.8109,24.05175 L34.8109,24.08825 L34.7989,29.40325 L34.7989,29.43975 C34.7989,29.76275 34.6309,29.94325 34.3439,29.94325 C34.0444,29.94325 33.9004,29.77525 33.9004,29.39225 L33.9004,29.35625 L33.9129,22.62725 L33.9129,22.59075 L33.9129,22.51975 C33.9129,22.07575 34.0199,21.92125 34.3434,21.92125 C34.5234,21.92125 34.6429,21.99225 34.7864,22.22025 C34.8104,22.26825 34.8344,22.26825 34.8344,22.28025 L38.5819,27.75225 L38.5949,27.76425 C38.6184,27.80025 38.6424,27.80025 38.6544,27.80025 C38.6789,27.77675 38.6904,27.77675 38.6904,27.72875 L38.6904,27.66875 L38.6904,22.50675 L38.6904,22.44675 C38.6904,22.06475 38.8464,21.88425 39.1574,21.88425 C39.4439,21.88425 39.5999,22.07575 39.5999,22.41125 L39.5999,22.42325 L39.5879,29.30775 L39.5879,29.39225 L39.5884,29.39225 Z" id="Fill-25"></path>
                    <path d="M43.38475,26.7814 L43.38475,26.8414 C43.38475,28.2184 44.18725,29.1164 45.40875,29.1164 C46.64175,29.1164 47.44375,28.2064 47.44375,26.8174 L47.44375,26.7454 L47.44375,25.0694 L47.44375,24.9854 C47.44375,23.8839 47.15725,23.2969 46.42575,22.9019 C46.12625,22.7344 45.79075,22.6504 45.44375,22.6504 C44.28275,22.6504 43.38475,23.5969 43.38475,24.8299 L43.38475,24.8894 L43.38475,26.7814 Z M48.33025,26.7934 L48.33025,26.8414 C48.33025,28.6729 47.09725,29.9899 45.39625,29.9899 C44.37875,29.9899 43.33725,29.3924 42.88175,28.5419 C42.63075,28.0859 42.49925,27.5114 42.49925,26.8889 L42.49925,26.8294 L42.49925,24.8179 L42.49925,24.7579 C42.49925,23.1059 43.80425,21.7894 45.44425,21.7894 C46.51075,21.7894 47.56375,22.4114 47.98275,23.2854 C48.21025,23.7524 48.33025,24.3514 48.33025,25.0099 L48.33025,25.1054 L48.33025,26.7934 Z" id="Fill-27"></path>
                    <path d="M52.11425,28.9484 L52.11425,28.9844 C52.11425,29.0679 52.13825,29.0809 52.22175,29.0809 L52.27025,29.0809 L55.45525,29.0809 L55.52625,29.0809 C55.89675,29.0809 56.07725,29.2119 56.07725,29.4994 C56.07725,29.7864 55.86125,29.9659 55.53825,29.9659 L55.49025,29.9659 L51.97025,29.9659 L51.91025,29.9659 C51.33475,29.9659 51.21525,29.7864 51.21525,28.9119 L51.21525,28.8524 L51.22825,22.5899 L51.22825,22.5544 C51.22825,22.1469 51.35925,21.9439 51.64625,21.9439 C51.92175,21.9439 52.10175,22.1354 52.10175,22.4224 L52.10175,22.5189 L52.11425,28.9484 Z" id="Fill-29"></path>
                    <path d="M59.0952,26.7814 L59.0952,26.8414 C59.0952,28.2184 59.8972,29.1164 61.1187,29.1164 C62.3517,29.1164 63.1537,28.2064 63.1537,26.8174 L63.1537,26.7454 L63.1537,25.0694 L63.1537,24.9854 C63.1537,23.8839 62.8672,23.2969 62.1362,22.9019 C61.8367,22.7344 61.5012,22.6504 61.1542,22.6504 C59.9927,22.6504 59.0952,23.5969 59.0952,24.8299 L59.0952,24.8894 L59.0952,26.7814 Z M64.0402,26.7934 L64.0402,26.8414 C64.0402,28.6729 62.8072,29.9899 61.1067,29.9899 C60.0887,29.9899 59.0472,29.3924 58.5922,28.5419 C58.3407,28.0859 58.2097,27.5114 58.2097,26.8889 L58.2097,26.8294 L58.2097,24.8179 L58.2097,24.7579 C58.2097,23.1059 59.5147,21.7894 61.1547,21.7894 C62.2207,21.7894 63.2737,22.4114 63.6927,23.2854 C63.9202,23.7524 64.0402,24.3514 64.0402,25.0099 L64.0402,25.1054 L64.0402,26.7934 Z" id="Fill-31"></path>
                    <path d="M72.14745,27.0568 L72.14745,27.0928 C72.14745,28.7093 70.92595,29.9423 69.34545,29.9423 C67.74095,29.9423 66.54395,28.6963 66.54395,27.0088 L66.54395,26.9728 L66.53245,24.7343 L66.53245,24.7108 C66.53245,24.0518 66.61595,23.6213 66.80745,23.1903 C67.20245,22.3398 68.24395,21.7298 69.28595,21.7298 C70.36395,21.7298 71.38145,22.3633 71.81295,23.2858 C71.84845,23.3693 71.86045,23.4293 71.86045,23.4888 C71.86045,23.7293 71.64495,23.9443 71.39395,23.9443 C71.23795,23.9443 71.15395,23.8843 71.03445,23.6928 L70.99845,23.6218 L70.90295,23.4893 C70.60345,22.9753 69.93295,22.6038 69.27445,22.6038 C68.54395,22.6038 67.80145,23.0703 67.55045,23.6808 C67.46645,23.8733 67.43095,24.1243 67.43095,24.4233 L67.43095,24.4838 L67.43095,26.9623 L67.43095,27.0458 C67.43095,28.2188 68.23295,29.0568 69.33445,29.0568 C70.44845,29.0568 71.26245,28.2188 71.26245,27.0578 L71.26245,27.0343 L71.26245,26.4473 L71.26245,26.3993 C71.26245,26.3158 71.21395,26.2918 71.09495,26.2918 L71.04695,26.2918 L70.20845,26.2918 L70.16045,26.2918 C69.86145,26.2918 69.65795,26.0993 69.65795,25.8368 C69.65795,25.5488 69.86095,25.3933 70.20795,25.3933 L70.29145,25.3933 L71.57295,25.3933 L71.59695,25.3933 C72.05195,25.3933 72.14795,25.5018 72.14795,25.9678 L72.14795,26.0278 L72.14795,27.0568 L72.14745,27.0568 Z" id="Fill-33"></path>
                    <path d="M75.85935,29.40345 L75.85935,29.48745 C75.85935,29.75095 75.66785,29.94295 75.40385,29.94295 C75.11785,29.94295 74.97335,29.77495 74.97335,29.42795 L74.97335,29.34395 L74.97335,22.55545 L74.97335,22.49545 C74.97335,22.14795 75.14085,21.93245 75.42885,21.93245 C75.73935,21.93245 75.88385,22.11195 75.88385,22.49545 L75.88385,22.53095 L75.85935,29.40345 Z" id="Fill-35"></path>
                    <path d="M84.3369,21.8605 L84.3859,21.8605 C84.7084,21.8605 84.8999,22.028 84.8999,22.3035 C84.8999,22.5905 84.7209,22.7345 84.3969,22.7345 L84.3364,22.7345 L80.3379,22.7345 L80.2659,22.7345 C80.1344,22.7345 80.0864,22.7705 80.0864,22.866 L80.0864,22.902 L80.0864,25.2725 L80.0864,25.3085 C80.0864,25.4165 80.1224,25.44 80.2424,25.44 L80.2894,25.44 L83.4864,25.452 L83.5464,25.452 C83.8699,25.452 84.0734,25.6075 84.0734,25.8595 C84.0734,26.135 83.8814,26.3265 83.6064,26.3265 L83.5589,26.3265 L80.2299,26.314 L80.1824,26.314 C80.1104,26.314 80.0629,26.35 80.0629,26.3975 L80.0629,26.446 L80.0629,26.4695 L80.0504,28.876 L80.0504,28.936 C80.0504,28.984 80.0984,29.02 80.1699,29.02 L80.2299,29.02 L84.2169,29.02 L84.3009,29.02 C84.6724,29.02 84.8759,29.1755 84.8759,29.4625 C84.8759,29.7265 84.6724,29.918 84.4204,29.918 L84.3364,29.918 L79.7989,29.918 L79.7274,29.918 C79.2964,29.918 79.1644,29.7985 79.1644,29.367 L79.1644,29.356 L79.2009,22.531 L79.2009,22.471 C79.2009,21.9445 79.3319,21.836 79.9784,21.836 L80.0499,21.836 L84.3369,21.8605 Z" id="Fill-37"></path>
                    <path d="M89.8086,25.4767 C89.9041,25.5117 90.0001,25.5362 90.1201,25.5717 C91.3531,25.9437 91.7966,26.2312 92.0831,26.8292 C92.2031,27.0692 92.2631,27.3437 92.2631,27.6317 C92.2631,28.9612 91.1131,29.9302 89.5451,29.9302 C88.6471,29.9302 87.8206,29.6677 86.9466,29.0807 C86.7676,28.9612 86.6836,28.8172 86.6836,28.6612 C86.6836,28.4102 86.8751,28.2062 87.1266,28.2062 C87.2581,28.2062 87.3061,28.2302 87.5691,28.4097 C88.2156,28.8527 88.8151,29.0557 89.4856,29.0557 C90.5631,29.0557 91.3896,28.4452 91.3896,27.6312 C91.3896,27.3077 91.1866,26.9607 90.8866,26.8047 C90.5996,26.6612 90.1206,26.4817 89.4501,26.2907 C88.6601,26.0507 88.0976,25.7997 87.6906,25.5117 C87.1991,25.1532 86.9001,24.5297 86.9001,23.9072 C86.9001,22.6382 88.0256,21.6802 89.5096,21.6802 C90.2051,21.6802 90.9831,21.9207 91.6891,22.3627 C91.8206,22.4592 91.8926,22.5782 91.8926,22.7347 C91.8926,22.8782 91.8086,23.0217 91.6771,23.1172 C91.6171,23.1532 91.5576,23.1772 91.4976,23.1772 C91.3781,23.1772 91.2701,23.1417 91.0306,22.9977 C90.5161,22.6982 90.0366,22.5667 89.5581,22.5667 C88.5641,22.5667 87.7976,23.1657 87.7976,23.9317 C87.7976,24.5667 88.2646,24.9732 89.4386,25.3567 L89.8086,25.4767 Z" id="Fill-39"></path>
                </g>
                <g id="Group-44" transform="translate(0.000000, 0.119150)">
                    <path d="M0.6495,0.391 C0.291,0.391 0,0.6815 0,1.0405 L0,1.0405 L0,29.3505 C0,29.7095 0.291,30 0.6495,30 L0.6495,30 L20.8875,30 L17.8415,23.0315 L7.656,23.0315 L7.656,1.0405 C7.656,0.6815 7.365,0.391 7.0065,0.391 L7.0065,0.391 L0.6495,0.391 Z" id="Fill-42"></path>
                </g>
                <g id="Group-47" transform="translate(11.500000, 0.119150)">
                    <path d="M0.9645,0.381 C0.543,0.389 0.2625,0.8285 0.44,1.217 L0.44,1.217 L13.0815,30 L21.891,30 L9.194,0.9545 C9.0445,0.6125 8.7105,0.389 8.338,0.381 L8.338,0.381 L0.9645,0.381 Z" id="Fill-45"></path>
                </g>
                <g id="Group-50" transform="translate(30.000000, 0.119150)">
                    <path d="M6.529,0.381 C6.272,0.381 6.0425,0.5405 5.9525,0.7805 L5.9525,0.7805 L0.285,15.829 L4.8475,26.267 L11.89,7.515 L20.6785,7.515 C21.072,7.515 21.4255,7.274 21.569,6.908 L21.569,6.908 L23.9395,0.8485 C24.0275,0.624 23.8615,0.381 23.62,0.381 L23.62,0.381 L6.529,0.381 Z" id="Fill-48"></path>
                </g>
            </g>
        </g>
    </g>
</svg>