<?xml version="1.0" encoding="UTF-8"?>
<svg xmlns="http://www.w3.org/2000/svg" width="237" height="87" viewBox="0 0 237 87" fill="none">
  <path d="M109.89 43.2701C109.89 44.0581 109.724 44.7803 109.409 45.4369C109.094 46.0935 108.645 46.6516 108.098 47.1113C107.55 47.5709 106.903 47.932 106.172 48.1782C105.442 48.4245 104.662 48.5558 103.816 48.5558H93.9569V28.0205H104.28C104.994 28.0205 105.658 28.1682 106.239 28.4801C106.82 28.792 107.318 29.186 107.733 29.6784C108.148 30.1709 108.463 30.729 108.679 31.3528C108.894 31.9765 109.011 32.6167 109.011 33.2405C109.011 34.2582 108.745 35.2103 108.231 36.0803C107.716 36.9503 106.969 37.5905 106.023 38.0173C107.218 38.362 108.148 39.0022 108.845 39.9379C109.542 40.8735 109.89 41.9733 109.89 43.2537V43.2701ZM96.5793 30.2858V37.1473H103.185C103.65 37.1473 104.081 37.0488 104.48 36.8682C104.861 36.6877 105.21 36.4415 105.492 36.1296C105.774 35.8177 106.006 35.4565 106.172 35.0462C106.338 34.6358 106.421 34.1926 106.421 33.733C106.421 33.2733 106.338 32.7973 106.189 32.3705C106.04 31.9437 105.824 31.5826 105.558 31.2707C105.293 30.9588 104.977 30.729 104.596 30.5484C104.214 30.3679 103.816 30.2858 103.384 30.2858H96.5959H96.5793ZM107.235 42.8105C107.235 42.3509 107.152 41.8913 106.986 41.4645C106.82 41.0377 106.604 40.6437 106.305 40.3154C106.023 39.9871 105.691 39.7245 105.293 39.5275C104.894 39.3305 104.48 39.232 103.998 39.232H96.5627V46.2905H103.782C104.264 46.2905 104.712 46.192 105.127 45.995C105.542 45.7981 105.89 45.5518 106.206 45.2235C106.521 44.9116 106.753 44.5341 106.936 44.1073C107.119 43.6805 107.201 43.2373 107.201 42.7777L107.235 42.8105Z" fill="#6D7279"></path>
  <path d="M96.5627 30.2857V37.1308H103.168C103.633 37.1308 104.065 37.0488 104.463 36.8682C104.861 36.6876 105.193 36.425 105.475 36.1295C105.741 35.8176 105.973 35.4565 106.123 35.0461C106.289 34.6193 106.388 34.1761 106.388 33.7165C106.388 33.2569 106.305 32.7972 106.156 32.3869C106.006 31.9601 105.791 31.5989 105.525 31.2871C105.26 30.9588 104.944 30.7125 104.563 30.5484C104.181 30.3842 103.766 30.2857 103.334 30.2857H96.5461H96.5627ZM107.218 42.8269C107.218 42.3508 107.119 41.8912 106.953 41.4644C106.803 41.0376 106.571 40.6601 106.272 40.3318C105.99 39.9871 105.658 39.7244 105.26 39.5438C104.878 39.3633 104.446 39.2648 103.982 39.2648H96.5461V46.3233H103.782C104.264 46.3233 104.712 46.2248 105.127 46.0442C105.542 45.8472 105.907 45.5846 106.222 45.2727C106.538 44.9608 106.77 44.5833 106.953 44.1729C107.119 43.7461 107.218 43.3029 107.218 42.8433V42.8269ZM109.89 43.2865C109.89 44.0744 109.724 44.7967 109.392 45.4697C109.06 46.1263 108.612 46.6844 108.065 47.144C107.5 47.6037 106.87 47.9648 106.139 48.2274C105.409 48.4737 104.629 48.5886 103.782 48.5886H93.9237V28.0369H104.247C104.977 28.0369 105.625 28.1846 106.189 28.4965C106.77 28.8084 107.284 29.2023 107.699 29.7112C108.114 30.2201 108.43 30.7782 108.662 31.402C108.878 32.0257 108.994 32.6495 108.994 33.2733C108.994 34.291 108.728 35.2431 108.214 36.1131C107.699 36.9831 106.953 37.6233 106.006 38.0337C107.201 38.3948 108.131 39.0514 108.828 39.9871C109.508 40.9063 109.857 42.0225 109.857 43.3029L109.89 43.2865Z" stroke="#6D7279" stroke-width="0.57"></path>
  <path d="M113.575 48.5721V28.0369H122.471C123.384 28.0369 124.23 28.2174 124.994 28.595C125.757 28.9725 126.421 29.465 126.985 30.1052C127.55 30.7454 127.981 31.4348 128.28 32.2227C128.595 33.0106 128.745 33.7986 128.745 34.6029C128.745 35.3252 128.645 35.9982 128.446 36.6712C128.247 37.3442 127.948 37.9352 127.566 38.4769C127.185 39.0186 126.736 39.4782 126.189 39.8722C125.658 40.2661 125.06 40.5452 124.396 40.7093L129.425 48.5721H126.438L121.707 41.1854H116.214V48.5721H113.575ZM116.214 38.8872H122.504C123.052 38.8872 123.55 38.7723 123.981 38.5425C124.413 38.3127 124.795 38.0008 125.11 37.6069C125.425 37.2129 125.658 36.7533 125.84 36.228C126.023 35.7027 126.106 35.161 126.106 34.6029C126.106 34.0448 126.006 33.4867 125.79 32.9614C125.591 32.4525 125.309 31.9929 124.977 31.5989C124.629 31.205 124.23 30.8931 123.782 30.6797C123.317 30.4663 122.836 30.3514 122.338 30.3514H116.23V38.8872H116.214Z" fill="#6D7279"></path>
  <path d="M116.197 38.8709H122.504C123.052 38.8709 123.55 38.756 123.981 38.5426C124.413 38.3128 124.795 38.0009 125.093 37.5905C125.409 37.1965 125.641 36.7369 125.824 36.2281C126.006 35.7028 126.106 35.1447 126.106 34.5865C126.106 34.0284 126.006 33.4703 125.79 32.9779C125.591 32.469 125.309 32.0094 124.961 31.6154C124.612 31.205 124.214 30.8932 123.749 30.6633C123.301 30.4499 122.819 30.335 122.322 30.335H116.197V38.8709ZM113.575 48.5722V28.0205H122.471C123.384 28.0205 124.23 28.2175 124.994 28.5786C125.774 28.9562 126.438 29.465 126.985 30.0888C127.533 30.7126 127.965 31.4184 128.28 32.1899C128.595 32.9779 128.745 33.7822 128.745 34.5701C128.745 35.2924 128.645 35.9818 128.429 36.6548C128.23 37.3279 127.948 37.9352 127.566 38.4769C127.185 39.0022 126.72 39.4782 126.189 39.8558C125.658 40.2333 125.044 40.5124 124.38 40.6765L129.409 48.5558H126.421L121.674 41.169H116.181V48.5558H113.558L113.575 48.5722Z" stroke="#6D7279" stroke-width="0.57"></path>
  <path d="M139.101 28.0369H141.325L149.807 48.5721H147.002L144.545 42.5478H135.832L133.408 48.5721H130.604L139.118 28.0369H139.101ZM143.964 40.5288L140.213 31.0408L136.346 40.5288H143.948H143.964Z" fill="#6D7279"></path>
  <path d="M143.964 40.5124L140.213 31.0245L136.346 40.5124H143.964ZM139.118 28.0205H141.325L149.807 48.5722H147.002L144.545 42.5479H135.832L133.425 48.5722H130.604L139.134 28.0205H139.118Z" stroke="#6D7279" stroke-width="0.57"></path>
  <path d="M155.217 32.8957V48.5721H152.578V28.0369H154.62L167.483 44.0416V28.0697H170.122V48.5886H167.897L155.201 32.9121L155.217 32.8957Z" fill="#6D7279"></path>
  <path d="M155.217 32.8958V48.5722H152.595V28.0205H154.653L167.516 44.0252V28.0533H170.155V48.5722H167.931L155.217 32.8958Z" stroke="#6D7279" stroke-width="0.57"></path>
  <path d="M175.117 48.5721V28.0369H182.32C183.98 28.0369 185.441 28.2995 186.686 28.8412C187.93 29.3829 188.993 30.1216 189.822 31.0408C190.669 31.9601 191.283 33.0599 191.715 34.291C192.129 35.5386 192.345 36.8682 192.345 38.2635C192.345 39.8229 192.113 41.2346 191.648 42.4986C191.183 43.7625 190.503 44.8459 189.623 45.7323C188.744 46.6352 187.681 47.3246 186.453 47.8171C185.208 48.3095 183.831 48.5557 182.32 48.5557H175.117V48.5721ZM189.69 38.2799C189.69 37.1144 189.524 36.0638 189.208 35.0789C188.893 34.1105 188.412 33.2733 187.781 32.5838C187.15 31.8944 186.37 31.3527 185.457 30.9423C184.545 30.5484 183.499 30.3514 182.32 30.3514H177.756V46.2576H182.32C183.515 46.2576 184.561 46.0606 185.491 45.6503C186.42 45.2399 187.183 44.6818 187.798 43.9759C188.412 43.2701 188.876 42.4165 189.208 41.448C189.524 40.4795 189.69 39.4125 189.69 38.2799Z" fill="#6D7279"></path>
  <path d="M189.69 38.2635C189.69 37.1145 189.524 36.0639 189.192 35.079C188.86 34.1105 188.378 33.2733 187.731 32.5839C187.101 31.8945 186.337 31.3364 185.424 30.9424C184.511 30.532 183.466 30.3186 182.287 30.3186H177.723V46.2413H182.287C183.482 46.2413 184.528 46.0443 185.457 45.6175C186.387 45.2071 187.15 44.649 187.764 43.9432C188.395 43.2209 188.86 42.3837 189.192 41.3988C189.507 40.4303 189.69 39.3633 189.69 38.2143V38.2635ZM175.117 48.5722V28.0205H182.304C183.964 28.0205 185.424 28.2996 186.686 28.8413C187.947 29.3665 188.993 30.1052 189.822 31.0409C190.669 31.9601 191.3 33.0599 191.715 34.2911C192.129 35.5222 192.345 36.8518 192.345 38.2471C192.345 39.823 192.113 41.2347 191.648 42.4986C191.183 43.7626 190.503 44.846 189.623 45.7324C188.76 46.6188 187.698 47.3247 186.453 47.8171C185.208 48.3096 183.814 48.5558 182.304 48.5558H175.117V48.5722Z" stroke="#6D7279" stroke-width="0.57"></path>
  <path d="M210.154 46.2576V48.5721H196.046V28.0369H209.888V30.3514H198.685V36.9995H208.428V39.1663H198.685V46.2576H210.154Z" fill="#6D7279"></path>
  <path d="M210.171 46.2577V48.5722H196.063V28.0205H209.888V30.335H198.685V36.9996H208.445V39.1499H198.685V46.2577H210.171Z" stroke="#6D7279" stroke-width="0.57"></path>
  <path d="M213.756 48.5721V28.0369H216.395V48.5721H213.756Z" fill="#6D7279"></path>
  <path d="M216.395 28.0205H213.772V48.5722H216.395V28.0205Z" stroke="#6D7279" stroke-width="0.57"></path>
  <path d="M233.573 32.3377C233.34 32.075 233.025 31.8124 232.643 31.5497C232.245 31.3035 231.813 31.0737 231.332 30.8767C230.851 30.6797 230.32 30.5156 229.739 30.3843C229.158 30.2529 228.56 30.2037 227.946 30.2037C226.32 30.2037 225.141 30.4992 224.394 31.1065C223.648 31.6975 223.266 32.5182 223.266 33.5688C223.266 34.1269 223.365 34.5865 223.581 34.9641C223.797 35.3252 224.129 35.6371 224.594 35.8997C225.058 36.1624 225.623 36.3922 226.303 36.5727C226.984 36.7697 227.797 36.9667 228.726 37.1801C229.805 37.4099 230.768 37.6726 231.631 37.968C232.494 38.2635 233.241 38.641 233.855 39.0843C234.469 39.5275 234.934 40.0692 235.266 40.7093C235.581 41.3495 235.747 42.121 235.747 43.0567C235.747 44.0416 235.548 44.8952 235.166 45.6175C234.768 46.3397 234.237 46.9307 233.573 47.4067C232.909 47.8827 232.112 48.2275 231.183 48.4409C230.27 48.6543 229.274 48.7692 228.195 48.7692C226.602 48.7692 225.075 48.5229 223.648 48.0305C222.22 47.538 220.909 46.8158 219.747 45.8801L221.009 43.6805C221.324 44.0088 221.722 44.3371 222.22 44.6654C222.718 44.9937 223.282 45.2892 223.913 45.5518C224.544 45.8144 225.224 46.0278 225.955 46.192C226.685 46.3561 227.448 46.4382 228.245 46.4382C229.722 46.4382 230.884 46.1756 231.697 45.6503C232.51 45.125 232.925 44.3535 232.925 43.3029C232.925 42.7284 232.793 42.236 232.527 41.842C232.262 41.448 231.88 41.1033 231.365 40.8078C230.851 40.5124 230.237 40.2661 229.473 40.0363C228.726 39.8229 227.863 39.5931 226.917 39.3633C225.872 39.1171 224.942 38.838 224.145 38.559C223.349 38.2635 222.685 37.9188 222.137 37.5248C221.589 37.1309 221.191 36.622 220.926 36.0475C220.66 35.4729 220.511 34.7671 220.511 33.9627C220.511 32.9778 220.693 32.1078 221.058 31.3527C221.424 30.5977 221.938 29.9575 222.602 29.4486C223.266 28.9397 224.062 28.5293 224.975 28.2831C225.888 28.0369 226.884 27.8892 227.963 27.8892C229.374 27.8892 230.635 28.1026 231.764 28.5293C232.892 28.9561 233.905 29.5307 234.784 30.2365L233.556 32.3541L233.573 32.3377Z" fill="#6D7279"></path>
  <path d="M233.556 32.3377C233.324 32.0751 233.008 31.8124 232.627 31.5662C232.245 31.3036 231.797 31.0737 231.299 30.8768C230.818 30.6798 230.286 30.5156 229.722 30.3843C229.158 30.2694 228.56 30.2037 227.93 30.2037C226.303 30.2037 225.108 30.4992 224.345 31.1066C223.598 31.7139 223.233 32.5347 223.233 33.5688C223.233 34.127 223.332 34.5866 223.548 34.9477C223.764 35.3088 224.112 35.6207 224.56 35.8998C225.025 36.1624 225.589 36.3758 226.27 36.5728C226.95 36.7698 227.78 36.9668 228.71 37.1966C229.772 37.4264 230.751 37.689 231.614 37.9845C232.477 38.28 233.224 38.6411 233.838 39.0843C234.469 39.5275 234.934 40.0692 235.232 40.693C235.564 41.3332 235.73 42.1211 235.73 43.0568C235.73 43.9924 235.531 44.8953 235.133 45.6175C234.751 46.3398 234.22 46.9471 233.556 47.4068C232.876 47.8664 232.079 48.2111 231.166 48.4245C230.237 48.6379 229.257 48.7528 228.179 48.7528C226.569 48.7528 225.042 48.5066 223.614 48.0141C222.17 47.5217 220.876 46.7994 219.731 45.8637L220.975 43.6641C221.291 44.0088 221.689 44.3536 222.187 44.6654C222.685 44.9937 223.249 45.2892 223.88 45.5354C224.511 45.7981 225.208 46.0115 225.921 46.1756C226.668 46.3562 227.432 46.4383 228.228 46.4383C229.706 46.4383 230.851 46.1756 231.681 45.6668C232.494 45.1415 232.892 44.3536 232.892 43.303C232.892 42.7285 232.759 42.236 232.51 41.842C232.245 41.4481 231.863 41.1198 231.349 40.8243C230.834 40.5288 230.22 40.2826 229.457 40.0528C228.71 39.8394 227.863 39.6096 226.917 39.3634C225.855 39.1336 224.926 38.8709 224.145 38.5754C223.349 38.28 222.685 37.9353 222.154 37.5249C221.606 37.1145 221.208 36.622 220.926 36.0639C220.643 35.4894 220.511 34.7836 220.511 33.9628C220.511 32.9943 220.693 32.1243 221.058 31.3692C221.44 30.6141 221.955 29.9904 222.619 29.4651C223.299 28.9398 224.079 28.5458 225.009 28.2832C225.921 28.0205 226.917 27.8728 227.996 27.8728C229.39 27.8728 230.652 28.0862 231.78 28.513C232.925 28.9398 233.938 29.5143 234.817 30.2366L233.573 32.3377H233.556Z" stroke="#6D7279" stroke-width="0.57"></path>
  <path d="M92.5959 67.0885C92.5959 65.8574 92.8117 64.6263 93.2598 63.3951C93.708 62.164 94.3387 61.0642 95.1851 60.0957C96.0316 59.1272 97.0772 58.3393 98.3054 57.7319C99.5336 57.1246 100.928 56.8291 102.488 56.8291C104.347 56.8291 105.924 57.2395 107.251 58.0767C108.579 58.9138 109.558 59.9808 110.206 61.3104L108.131 62.64C107.816 61.9834 107.45 61.4417 107.002 60.9985C106.554 60.5553 106.089 60.1942 105.558 59.9316C105.044 59.6689 104.513 59.4719 103.965 59.357C103.417 59.2421 102.886 59.1765 102.355 59.1765C101.21 59.1765 100.181 59.4063 99.3012 59.8823C98.4216 60.3583 97.6747 60.9657 97.0606 61.7372C96.4631 62.4923 95.9984 63.3623 95.6996 64.3144C95.4009 65.2665 95.2515 66.235 95.2515 67.187C95.2515 68.2704 95.4341 69.2882 95.7992 70.2731C96.1644 71.2416 96.6623 72.1116 97.3096 72.8666C97.9569 73.6217 98.7203 74.2127 99.6 74.6559C100.48 75.0991 101.426 75.3289 102.471 75.3289C103.019 75.3289 103.583 75.2633 104.148 75.1319C104.729 75.0006 105.276 74.7872 105.807 74.4753C106.338 74.1799 106.82 73.8023 107.284 73.3427C107.749 72.8831 108.114 72.3414 108.413 71.7012L110.604 72.8831C110.272 73.6546 109.807 74.3276 109.21 74.9185C108.612 75.5095 107.948 76.0019 107.201 76.4123C106.455 76.8227 105.658 77.1182 104.812 77.3316C103.982 77.545 103.152 77.6434 102.355 77.6434C100.928 77.6434 99.6166 77.3316 98.4382 76.7242C97.2432 76.1004 96.2141 75.2961 95.3511 74.3112C94.488 73.3263 93.8075 72.1936 93.3262 70.9297C92.8449 69.6657 92.6125 68.3853 92.6125 67.0721L92.5959 67.0885Z" fill="#6D7279"></path>
  <path d="M92.5959 67.0885C92.5959 65.8573 92.8117 64.6262 93.2432 63.3951C93.6914 62.1639 94.3387 61.0805 95.1851 60.1121C96.0316 59.1436 97.0606 58.3556 98.3054 57.7483C99.5336 57.1573 100.928 56.8455 102.488 56.8455C104.33 56.8455 105.924 57.2722 107.268 58.093C108.596 58.9138 109.575 59.9807 110.222 61.2939L108.148 62.6236C107.832 61.967 107.45 61.4253 107.002 60.9821C106.571 60.5389 106.089 60.1941 105.575 59.9315C105.06 59.6689 104.513 59.4719 103.965 59.3406C103.434 59.2256 102.903 59.16 102.388 59.16C101.226 59.16 100.214 59.4062 99.3344 59.8822C98.4548 60.3419 97.7079 60.9656 97.1104 61.7207C96.4963 62.4758 96.0482 63.3294 95.7328 64.2815C95.4341 65.25 95.2847 66.2021 95.2847 67.1541C95.2847 68.2539 95.4507 69.2881 95.7992 70.2566C96.1644 71.2251 96.6623 72.0951 97.3096 72.8502C97.9569 73.6053 98.7203 74.2126 99.6 74.6394C100.48 75.0662 101.442 75.2796 102.471 75.2796C103.019 75.2796 103.583 75.2304 104.164 75.099C104.729 74.9677 105.276 74.7543 105.791 74.4589C106.322 74.147 106.82 73.7858 107.268 73.3262C107.733 72.8666 108.114 72.3085 108.413 71.6519L110.621 72.8502C110.289 73.6217 109.824 74.3111 109.226 74.9021C108.629 75.4766 107.965 75.9855 107.201 76.3958C106.455 76.7898 105.658 77.1017 104.812 77.3151C103.982 77.5121 103.168 77.627 102.372 77.627C100.928 77.627 99.6166 77.3151 98.4216 76.7077C97.2432 76.0839 96.2141 75.296 95.3345 74.2947C94.4714 73.2934 93.7909 72.1607 93.3096 70.9132C92.8449 69.6492 92.6125 68.3689 92.6125 67.0392L92.5959 67.0885Z" stroke="#6D7279" stroke-width="0.57"></path>
  <path d="M127.998 75.1976V77.5121H113.89V56.9768H127.732V59.2913H116.529V65.9394H126.272V68.1062H116.529V75.1976H127.998Z" fill="#6D7279"></path>
  <path d="M127.998 75.1976V77.5121H113.89V56.9604H127.716V59.2586H116.512V65.9395H126.255V68.0899H116.512V75.1976H127.998Z" stroke="#6D7279" stroke-width="0.57"></path>
  <path d="M134.222 61.8193V77.4957H131.583V56.9604H133.624L146.487 72.9652V56.9933H149.126V77.5121H146.902L134.205 61.8357L134.222 61.8193Z" fill="#6D7279"></path>
  <path d="M134.205 61.8357V77.5121H131.583V56.9604H133.641L146.504 72.9652V56.9933H149.143V77.5121H146.919L134.205 61.8357Z" stroke="#6D7279" stroke-width="0.57"></path>
  <path d="M169.093 59.275H161.923V77.4957H159.284V59.275H152.114V56.9604H169.076V59.275H169.093Z" fill="#6D7279"></path>
  <path d="M169.076 59.2586H161.923V77.5121H159.3V59.2586H152.13V56.9604H169.076V59.2586Z" stroke="#6D7279" stroke-width="0.57"></path>
  <path d="M186.171 75.1976V77.5121H172.063V56.9768H185.906V59.2913H174.702V65.9394H184.445V68.1062H174.702V75.1976H186.171Z" fill="#6D7279"></path>
  <path d="M186.188 75.1976V77.5121H172.08V56.9604H185.906V59.2586H174.702V65.9395H184.445V68.0899H174.702V75.1976H186.188Z" stroke="#6D7279" stroke-width="0.57"></path>
  <path d="M189.773 77.5121V56.9768H198.669C199.582 56.9768 200.428 57.1738 201.192 57.5349C201.955 57.9125 202.619 58.4213 203.183 59.0451C203.748 59.6689 204.179 60.3747 204.478 61.1627C204.793 61.9506 204.943 62.7385 204.943 63.5428C204.943 64.2651 204.843 64.9545 204.644 65.6111C204.445 66.2842 204.146 66.8751 203.764 67.4168C203.382 67.9585 202.934 68.4181 202.387 68.8121C201.855 69.206 201.258 69.4851 200.594 69.6493L205.623 77.5121H202.636L197.905 70.1253H192.412V77.5121H189.773ZM192.412 67.8272H198.702C199.25 67.8272 199.748 67.7123 200.179 67.4825C200.611 67.2527 200.992 66.9408 201.308 66.5468C201.623 66.1528 201.855 65.6932 202.038 65.1679C202.221 64.6427 202.304 64.101 202.304 63.5428C202.304 62.9847 202.204 62.4266 201.988 61.9013C201.789 61.3925 201.507 60.9328 201.175 60.5389C200.826 60.1449 200.428 59.833 199.98 59.6196C199.532 59.4062 199.034 59.2913 198.536 59.2913H192.428V67.8272H192.412Z" fill="#6D7279"></path>
  <path d="M192.395 67.8108H198.702C199.25 67.8108 199.748 67.6959 200.179 67.4825C200.611 67.2527 200.992 66.9408 201.291 66.5304C201.607 66.1365 201.839 65.6933 202.021 65.168C202.204 64.6427 202.304 64.0846 202.304 63.5265C202.304 62.9684 202.204 62.4103 201.988 61.9178C201.789 61.4089 201.507 60.9493 201.158 60.5554C200.81 60.145 200.412 59.8331 199.947 59.6033C199.499 59.3899 199.017 59.275 198.519 59.275H192.395V67.8108ZM189.773 77.5121V56.9604H198.669C199.582 56.9604 200.428 57.1574 201.192 57.5186C201.972 57.8961 202.636 58.405 203.183 59.0287C203.731 59.6525 204.162 60.3584 204.478 61.1299C204.793 61.9178 204.943 62.7221 204.943 63.5101C204.943 64.2323 204.843 64.9218 204.627 65.5948C204.428 66.2678 204.146 66.8752 203.764 67.4169C203.382 67.9421 202.918 68.4182 202.387 68.7957C201.855 69.1733 201.241 69.4523 200.577 69.6165L205.606 77.4957H202.619L197.872 70.1089H192.378V77.4957H189.756L189.773 77.5121Z" stroke="#6D7279" stroke-width="0.57"></path>
  <mask id="mask0_2703_21525" style="mask-type:luminance" maskUnits="userSpaceOnUse" x="0" y="0" width="98" height="87">
    <path d="M97.044 0H0V87H97.044V0Z" fill="white"></path>
  </mask>
  <g mask="url(#mask0_2703_21525)">
    <mask id="mask1_2703_21525" style="mask-type:luminance" maskUnits="userSpaceOnUse" x="0" y="0" width="239" height="87">
      <path d="M239 0H0V87H239V0Z" fill="white"></path>
    </mask>
    <g mask="url(#mask1_2703_21525)">
      <path d="M80.7621 26.9207H49.4763L43.2192 16.2016L36.9786 26.9207H5.69283L1.34436 19.501H32.6301L43.2192 1.34595L53.8082 19.501H85.1105L80.7621 26.9207Z" fill="#125687"></path>
      <path d="M80.7621 26.9207H49.4763L43.2192 16.2016L36.9786 26.9207H5.69283L1.34436 19.501H32.6301L43.2192 1.34595L53.8082 19.501H85.1105L80.7621 26.9207Z" stroke="#125687" stroke-width="0.05" stroke-linecap="round" stroke-linejoin="round"></path>
      <path d="M16.9457 33.3389V71.2413L18.5391 73.9498H7.83386L9.44379 71.2413V33.3389L7.83386 30.6304H18.5391L16.9457 33.3389Z" fill="#AFAFAF"></path>
      <path d="M16.9457 33.3389V71.2413L18.5391 73.9498H7.83386L9.44379 71.2413V33.3389L7.83386 30.6304H18.5391L16.9457 33.3389Z" stroke="#AFAFAF" stroke-width="0.05" stroke-linecap="round" stroke-linejoin="round"></path>
      <path d="M36.9786 33.3389V71.2413L38.5553 73.9498H27.8667L29.46 71.2413V33.3389L27.8667 30.6304H38.5553L36.9786 33.3389Z" fill="#AFAFAF"></path>
      <path d="M36.9786 33.3389V71.2413L38.5553 73.9498H27.8667L29.46 71.2413V33.3389L27.8667 30.6304H38.5553L36.9786 33.3389Z" stroke="#AFAFAF" stroke-width="0.05" stroke-linecap="round" stroke-linejoin="round"></path>
      <path d="M69.5091 33.3389V71.2413L67.9158 73.9498H78.6044L77.0111 71.2413V33.3389L78.6044 30.6304H67.9158L69.5091 33.3389Z" fill="#AFAFAF"></path>
      <path d="M69.5091 33.3389V71.2413L67.9158 73.9498H78.6044L77.0111 71.2413V33.3389L78.6044 30.6304H67.9158L69.5091 33.3389Z" stroke="#AFAFAF" stroke-width="0.05" stroke-linecap="round" stroke-linejoin="round"></path>
      <path d="M49.4763 33.3389V71.2413L47.8829 73.9498H58.5881L56.9782 71.2413V33.3389L58.5881 30.6304H47.8829L49.4763 33.3389Z" fill="#AFAFAF"></path>
      <path d="M49.4763 33.3389V71.2413L47.8829 73.9498H58.5881L56.9782 71.2413V33.3389L58.5881 30.6304H47.8829L49.4763 33.3389Z" stroke="#AFAFAF" stroke-width="0.05" stroke-linecap="round" stroke-linejoin="round"></path>
      <path d="M5.69283 77.6597L1.34436 85.0957H85.1105L80.7621 77.6597H5.69283Z" fill="#125687"></path>
      <path d="M5.69283 77.6597L1.34436 85.0957H85.1105L80.7621 77.6597H5.69283Z" stroke="#125687" stroke-width="0.05" stroke-linecap="round" stroke-linejoin="round"></path>
    </g>
  </g>
</svg>
