<?xml version="1.0" encoding="utf-8"?>
<!-- Generator: Adobe Illustrator 23.0.6, SVG Export Plug-In . SVG Version: 6.00 Build 0)  -->
<svg version="1.1" id="Layer_1" xmlns="http://www.w3.org/2000/svg" xmlns:xlink="http://www.w3.org/1999/xlink" x="0px" y="0px"
	 viewBox="0 0 779.7 173" style="enable-background:new 0 0 779.7 173;" xml:space="preserve">
<style type="text/css">
	.st0{display:none;}
	.st1{display:inline;}
	.st2{display:inline;fill:#ED1C24;}
	.st3{display:inline;fill:#FCAF17;}
	.st4{display:inline;fill:#F68B1F;}
	.st5{fill:#C61D23;}
	.st6{fill:#750809;}
	.st7{fill:#9E1A1D;}
	.st8{fill:#F68521;}
	.st9{fill:#FFE582;}
	.st10{fill:#EC5C24;}
	.st11{fill:#FAA71B;}
	.st12{fill:#FFC410;}
	.st13{fill:#13588F;}
</style>
<g class="st0">
	<g class="st1">
		<g>
			<polygon points="279.6,92.2 273.1,109.8 264.7,92.2 254.4,92.2 253.7,92.3 253.7,93 255.5,97 253.9,119.8 251.6,126.8 258,126.8 
				256.3,119.9 257.5,101.3 268.8,124.7 269.9,124.7 279.2,99.9 281.8,126.8 292.3,126.8 289,92.2 			"/>
			<polygon points="357.5,107.7 347.5,107.7 347.5,92.2 336.8,92.2 336.8,126.8 347.5,126.8 347.5,110 357.5,110 357.5,126.8 
				368.2,126.8 368.2,92.2 357.5,92.2 			"/>
			<path d="M389.9,91.1l-17,35.8h7.5l-1.8-5l2.6-5.6h9.4l4.7,10.6H407l-16-35.8H389.9z M382.2,114l3.7-8.2l3.7,8.2H382.2z"/>
			<path d="M553.6,92.2h-13.7v34.7h11.9c13.9,0,22.2-6.6,22.2-17.6C574,98.7,566.2,92.2,553.6,92.2z M550.5,94.3h2.8
				c5.8,0,9.2,5.6,9.2,15c0,7-1.5,15.3-8.9,15.3c-1.8,0-2.5-0.1-3-0.2V94.3z"/>
			<rect x="657" y="92.2" width="10.6" height="34.7"/>
			<polygon points="639.3,124.1 639.3,92.1 628.7,92.1 628.7,126.8 649.1,126.8 650.5,118.5 649.4,118.5 			"/>
			<polygon points="438.1,92.2 431.6,109.8 423.2,92.2 412.9,92.2 412.2,92.3 412.2,93 414,97 412.4,119.8 410.1,126.8 416.5,126.8 
				414.8,119.9 416,101.3 427.3,124.7 428.4,124.7 437.7,99.9 440.3,126.8 450.8,126.8 447.5,92.2 			"/>
			<polygon points="484.4,92.2 477.9,109.8 469.5,92.2 459.2,92.2 458.5,92.3 458.5,93 460.3,97 458.7,119.8 456.4,126.8 
				462.8,126.8 461.1,119.9 462.3,101.3 473.6,124.7 474.7,124.7 484,99.9 486.6,126.8 497.1,126.8 493.8,92.2 			"/>
			<path d="M517.5,91.1l-17,35.8h7.5l-1.8-5l2.6-5.6h9.4l4.8,10.6h11.6l-16-35.8H517.5z M509.8,114l3.7-8.2l3.7,8.2H509.8z"/>
			<path d="M606.4,91.1l-17,35.8h7.5l-1.8-5l2.6-5.6h9.4l4.8,10.6h11.6l-16-35.8H606.4z M598.7,114l3.7-8.2l3.7,8.2H598.7z"/>
			<polygon points="270.2,72.2 270.2,13.2 251.9,13.2 251.9,75.6 288.2,75.6 290.7,61.6 289.5,61.6 			"/>
			<path d="M328.8,76.6c20.9,0,34.4-12.9,34.4-32.9c0-19.2-13-31.6-33.2-31.6c-20.9,0-34.4,12.9-34.4,32.9
				C295.6,64.2,308.6,76.6,328.8,76.6z M329.7,73.9c-11.8,0-14.3-16.2-14.3-29.8c0-20.1,4.3-29.1,13.8-29.1
				c6.4,0,14.1,5.2,14.1,29.8C343.3,64.9,339.1,73.9,329.7,73.9z"/>
			<path d="M424.7,25.5l3.6-12.3H416l3.6,12.3v27c0,12.6-5.2,19.5-14.5,19.5c-8.5,0-12.1-6-12.1-19.9V13.2h-18.4v38.6
				c0,16.3,8.9,24.9,25.9,24.9c16.3,0,24.3-8,24.3-24.5V25.5z"/>
			<rect x="439.9" y="13.2" width="18.4" height="62.4"/>
			<path d="M493.1,73.9c-7.7,0-16.1-4.7-19.5-10.9l-0.9-1.6l-2.9,10.9l0.5,0.3c1.8,1.1,12.8,4.1,21.5,4.1
				c16.2,0,23.5-10.1,23.5-20.2c0-12.9-11.8-17.7-16.8-19.7l-4.1-1.7c-6.4-2.6-12.1-5.4-12.1-11.2c0-4.4,3.1-8.9,9.9-8.9
				c5.8,0,11.4,3.4,16.6,10.1l0.9,1.1l2.5-9.8l-0.5-0.3c-0.1,0-8.5-4-18.2-4c-13.5,0-23,8.1-23,19.7c0,13,11.6,17.7,15.9,19.4
				l4.5,1.8c5.6,2.3,12.6,5.2,12.6,11.7C503.5,69,500.8,73.9,493.1,73.9z"/>
			<polygon points="549.1,77.6 579.7,13.2 567.4,13.2 571.1,19.4 556.5,51.6 539,13.2 518.9,13.2 547.8,77.6 			"/>
			<rect x="586.9" y="13.2" width="18.4" height="62.4"/>
			<polygon points="658.7,61.6 657.5,61.6 638.3,72.2 638.3,13.2 619.9,13.2 619.9,75.6 656.3,75.6 			"/>
			<polygon points="738.6,72.7 736.3,72.7 736.3,44.6 753.2,49.3 754.3,49.3 754.1,37.5 736.4,41.7 736.3,16.1 738,16.1 759.9,24.4 
				760.4,13.2 718,13.2 718,75.6 761.4,75.6 761.4,63.5 			"/>
			<polygon points="707.8,61.6 706.7,61.6 687.4,72.2 687.4,13.2 669.1,13.2 669.1,75.6 705.4,75.6 			"/>
			<path d="M323.8,99.2v14.6c0,6.7-2.6,10.3-7.6,10.3c-3.1,0-6.2-1.2-6.2-10.5V92.1h-10.6v21.3c0,9,5,13.8,14.4,13.8
				c9.1,0,13.5-4.5,13.5-13.6V99.2l2.1-7.1h-7.5L323.8,99.2z"/>
		</g>
	</g>
	<path class="st2" d="M221.7,43.7l-10.1,49.6l-36.1,0.1c5.1-10.2,4.8-23.6,4.8-23.6l1.4-1.2l2-4.2l3.9-2.2c0.2-0.2,1.1-1.4,2.1-3.7
		L221.7,43.7z M62.4,66.3l0.2-0.4l-0.6,1.4c0,0,1.5,7.6,2.6,10c1,2.3,6.9,8.7,8.5,16.1l0.2,0c0.4,0,1.8-0.1,3.7,0l32.1,0.1
		c-0.4-0.2-0.8-0.7-1.3-2.1c-0.7-2-1.2-4.3-1-4.8L62.4,66.3z M127.7,86.8c0.2,0.5-0.3,2.6-1,4.7c-0.5,1.3-0.9,1.9-1.3,2.1l32.1-0.1
		c1.9-0.1,3.2,0,3.7,0l0.2,0c1.6-7.4,7.5-13.8,8.5-16.1c1-2.3,2.6-10,2.6-10l-0.4-0.9L127.7,86.8z M54.3,69.7l-1.4-1.2l-2-4.2
		L47,62.1c-0.2-0.2-1.1-1.5-2.1-3.8L13,43.7l10.1,49.6L59,93.4C53.9,83.2,54.3,69.7,54.3,69.7z"/>
	<path class="st3" d="M125.7,74.2l52.2-64.6l34.7,12.8l-30.8,20.9c-4.1-0.8-7,3.5-7,3.5s-3.2-2.4-5,0.4c-0.7,1.1-1,2.9-0.9,4.9
		L127.5,80c0-0.1,0-0.2,0-0.3l0.1-3.8l-1.7-1.6C125.8,74.3,125.7,74.3,125.7,74.2z M59.7,46.7c0,0,3.2-2.4,5,0.4
		c0.7,1.1,1,2.8,0.9,4.8L107,79.9c0,0,0-0.1,0-0.1l-0.1-3.8l1.7-1.6c0.1-0.1,0.3-0.2,0.4-0.3L56.8,9.6L22.1,22.3l30.7,20.8
		C56.8,42.5,59.7,46.7,59.7,46.7z"/>
	<path class="st4" d="M52.8,43.2c-0.6,0.1-1.1,0.3-1.7,0.6c-4.9,2.5-9,6.2-7.6,10.9c0.4,1.4,0.9,2.6,1.3,3.7L11.4,43l13.1-19
		L52.8,43.2z M181,43.1C181,43.1,181,43.1,181,43.1C181,43.1,181,43.1,181,43.1z M127.5,79.7L127.5,79.7L127.5,79.7L127.5,79.7z
		 M180.3,43.1C180.3,43.1,180.3,43.1,180.3,43.1C180.3,43.1,180.3,43.1,180.3,43.1z M189.6,58.4L223.2,43l-13.1-19l-28.4,19.3l0,0
		c0.5,0.1,1,0.3,1.6,0.5c4.9,2.5,9,6.2,7.6,10.9C190.5,56.1,190,57.4,189.6,58.4z M168.9,51.5c0,0.2,0,0.3,0,0.5l-41.3,28
		c0.5,4.1-0.7,7-0.8,7.2l45.4-20.8l-0.2-0.5l0.9-4.4C170.1,58.5,168.9,54.6,168.9,51.5z M107,79.7c0,0,0,0.1,0,0.1L65.6,51.8
		c0-0.2,0-0.4,0-0.6c0,3.2-1.1,7.2-4,10.3l0.9,4.4l-0.2,0.4l45.3,20.8l0.1,0C107.7,87.1,106.3,84.1,107,79.7z"/>
	<g class="st1">
		<path class="st5" d="M152.6,112.8l15.4,7.6l40.2-27.1l-32.7,0.1l-1.2,2.1c-0.4,0.6-1.3,1.7-1.4,2.4l-1.2,2.2l-1.9,1
			c0,0-12.5,8.5-14.5,9.9L152.6,112.8z"/>
		<path class="st5" d="M82,112.9c0.1,0,0.1,0.1,0.2,0.1c-1.2-0.7-2.1-1.3-2.9-1.9c-2-1.5-14.5-9.9-14.5-9.9l-1.9-1l-1.2-2.2
			c-0.1-0.8-1.1-1.8-1.4-2.4L59,93.4l-32.5-0.1l40.2,27.1L82,112.9z"/>
		<path class="st5" d="M157.7,93.4C157.6,93.4,157.6,93.4,157.7,93.4l-32.1,0.1c0.1,0,0.1-0.1,0.2-0.1c-0.6,0.5-1,0-1,0l-0.7,2.7
			l0.3,1.8l0,0l0,0l0,0l2.4,1.2l2.9-0.9l14.4,1.4C147.8,94.9,153.8,93.7,157.7,93.4z"/>
		<path class="st5" d="M108.8,93.4c0.1,0.1,0.1,0.1,0.2,0.1l-32.1-0.1c3.9,0.3,9.8,1.5,13.8,6.2l14.4-1.4l3,0.9l2.3-1.2l0.3-1.8
			l-0.7-2.7C109.8,93.4,109.4,93.9,108.8,93.4z"/>
	</g>
	<g class="st1">
		<polygon class="st6" points="97.1,126 95.4,122.4 61.9,158.2 59.8,160.6 99.6,154.2 100.8,136.4 97.8,131.8 		"/>
		<polygon class="st6" points="139.2,122.3 139.3,122 139.3,122 137.4,126 136.6,131.8 133.7,136.7 134.9,154.2 174.9,160.6 
			172.8,158.2 		"/>
	</g>
	<g class="st1">
		<path class="st7" d="M93.3,118l-1.1-1.6c-0.3-0.3-0.3-0.3-1.2-0.5c-4.5-0.9-7.1-2-8.9-3.1l-30.2,14.8l10.1,30.6l33.5-35.9
			L93.3,118z"/>
		<path class="st7" d="M143.5,115.9l-2.4,2.1l-2,4.2l33.6,36l10.1-30.6l-30.3-14.9C150.8,113.9,148.2,115,143.5,115.9z"/>
	</g>
	<g class="st1">
		<g>
			<path class="st5" d="M254.8,160.2h-2.5v-18.8h2.5V160.2z"/>
			<path class="st5" d="M264,141.5c0.1,0.1,0.2,0.2,0.4,0.3l10.9,14.2c0-0.2,0-0.4-0.1-0.7c0-0.2,0-0.4,0-0.6v-13.3h2.2v18.8h-1.3
				c-0.2,0-0.4,0-0.5-0.1c-0.1-0.1-0.3-0.2-0.4-0.4l-10.9-14.2c0,0.2,0,0.4,0,0.6c0,0.2,0,0.4,0,0.6v13.4h-2.2v-18.8h1.3
				C263.7,141.4,263.9,141.4,264,141.5z"/>
			<path class="st5" d="M297.2,141.4v2.1h-6.1v16.7h-2.5v-16.7h-6.1v-2.1H297.2z"/>
			<path class="st5" d="M313.8,141.4v2.1h-9v6.2h7.3v2h-7.3v6.4h9v2.1h-11.6v-18.8H313.8z"/>
			<path class="st5" d="M322.6,152.3v7.8h-2.5v-18.8h5.3c1.2,0,2.2,0.1,3.1,0.4c0.9,0.2,1.6,0.6,2.1,1c0.6,0.5,1,1,1.3,1.6
				c0.3,0.6,0.4,1.4,0.4,2.2c0,0.7-0.1,1.3-0.3,1.9c-0.2,0.6-0.5,1.1-0.9,1.6c-0.4,0.5-0.9,0.9-1.5,1.2c-0.6,0.3-1.2,0.6-1.9,0.7
				c0.3,0.2,0.6,0.5,0.8,0.8l5.5,7.5h-2.3c-0.5,0-0.8-0.2-1-0.5l-4.9-6.7c-0.1-0.2-0.3-0.4-0.5-0.5c-0.2-0.1-0.4-0.1-0.8-0.1H322.6z
				 M322.6,150.5h2.7c0.7,0,1.4-0.1,2-0.3c0.6-0.2,1-0.4,1.4-0.8s0.7-0.7,0.9-1.2c0.2-0.5,0.3-1,0.3-1.5c0-1.1-0.4-2-1.1-2.5
				c-0.7-0.6-1.8-0.9-3.3-0.9h-2.8V150.5z"/>
			<path class="st5" d="M340.9,141.5c0.1,0.1,0.2,0.2,0.4,0.3l10.9,14.2c0-0.2,0-0.4-0.1-0.7c0-0.2,0-0.4,0-0.6v-13.3h2.2v18.8h-1.3
				c-0.2,0-0.4,0-0.5-0.1c-0.1-0.1-0.3-0.2-0.4-0.4l-10.9-14.2c0,0.2,0,0.4,0,0.6c0,0.2,0,0.4,0,0.6v13.4h-2.2v-18.8h1.3
				C340.7,141.4,340.8,141.4,340.9,141.5z"/>
			<path class="st5" d="M376.8,160.2h-2c-0.2,0-0.4-0.1-0.6-0.2c-0.1-0.1-0.2-0.3-0.3-0.4l-1.8-4.5h-8.4l-1.8,4.5
				c-0.1,0.2-0.2,0.3-0.3,0.4c-0.1,0.1-0.3,0.2-0.6,0.2h-2l7.5-18.8h2.6L376.8,160.2z M364.5,153.2h7l-3-7.6
				c-0.2-0.5-0.4-1.1-0.6-1.8c-0.1,0.4-0.2,0.7-0.3,1c-0.1,0.3-0.2,0.6-0.3,0.8L364.5,153.2z"/>
			<path class="st5" d="M392.6,141.4v2.1h-6.1v16.7H384v-16.7h-6.1v-2.1H392.6z"/>
			<path class="st5" d="M400.6,160.2h-2.5v-18.8h2.5V160.2z"/>
			<path class="st5" d="M425.5,150.8c0,1.4-0.2,2.7-0.7,3.9c-0.4,1.2-1.1,2.2-1.9,3c-0.8,0.8-1.8,1.5-2.9,2
				c-1.1,0.5-2.4,0.7-3.8,0.7s-2.6-0.2-3.8-0.7c-1.1-0.5-2.1-1.1-2.9-2c-0.8-0.8-1.4-1.9-1.9-3c-0.4-1.2-0.7-2.5-0.7-3.9
				c0-1.4,0.2-2.7,0.7-3.9c0.4-1.2,1.1-2.2,1.9-3c0.8-0.9,1.8-1.5,2.9-2c1.1-0.5,2.4-0.7,3.8-0.7s2.6,0.2,3.8,0.7
				c1.1,0.5,2.1,1.1,2.9,2c0.8,0.9,1.4,1.9,1.9,3C425.3,148.1,425.5,149.4,425.5,150.8z M422.9,150.8c0-1.2-0.2-2.2-0.5-3.1
				c-0.3-0.9-0.8-1.7-1.3-2.3c-0.6-0.6-1.3-1.1-2.1-1.5c-0.8-0.3-1.7-0.5-2.8-0.5c-1,0-1.9,0.2-2.7,0.5c-0.8,0.3-1.5,0.8-2.1,1.5
				c-0.6,0.6-1,1.4-1.3,2.3c-0.3,0.9-0.5,2-0.5,3.1c0,1.2,0.2,2.2,0.5,3.1c0.3,0.9,0.8,1.7,1.3,2.3c0.6,0.6,1.3,1.1,2.1,1.5
				c0.8,0.3,1.7,0.5,2.7,0.5c1,0,1.9-0.2,2.8-0.5c0.8-0.3,1.5-0.8,2.1-1.5c0.6-0.6,1-1.4,1.3-2.3C422.7,153,422.9,152,422.9,150.8z"
				/>
			<path class="st5" d="M433.2,141.5c0.1,0.1,0.2,0.2,0.4,0.3l10.9,14.2c0-0.2,0-0.4-0.1-0.7c0-0.2,0-0.4,0-0.6v-13.3h2.2v18.8h-1.3
				c-0.2,0-0.4,0-0.5-0.1c-0.1-0.1-0.3-0.2-0.4-0.4l-10.9-14.2c0,0.2,0,0.4,0,0.6c0,0.2,0,0.4,0,0.6v13.4h-2.2v-18.8h1.3
				C432.9,141.4,433,141.4,433.2,141.5z"/>
			<path class="st5" d="M469,160.2h-2c-0.2,0-0.4-0.1-0.6-0.2c-0.1-0.1-0.2-0.3-0.3-0.4l-1.8-4.5H456l-1.8,4.5
				c-0.1,0.2-0.2,0.3-0.3,0.4c-0.1,0.1-0.3,0.2-0.6,0.2h-2l7.5-18.8h2.6L469,160.2z M456.7,153.2h7l-3-7.6c-0.2-0.5-0.4-1.1-0.6-1.8
				c-0.1,0.4-0.2,0.7-0.3,1c-0.1,0.3-0.2,0.6-0.3,0.8L456.7,153.2z"/>
			<path class="st5" d="M476.3,158h8.1v2.1h-10.7v-18.8h2.5V158z"/>
			<path class="st5" d="M512.5,160.2h-2c-0.2,0-0.4-0.1-0.6-0.2c-0.1-0.1-0.2-0.3-0.3-0.4l-1.8-4.5h-8.4l-1.8,4.5
				c-0.1,0.2-0.2,0.3-0.3,0.4c-0.1,0.1-0.3,0.2-0.6,0.2h-2l7.5-18.8h2.6L512.5,160.2z M500.2,153.2h7l-3-7.6
				c-0.2-0.5-0.4-1.1-0.6-1.8c-0.1,0.4-0.2,0.7-0.3,1c-0.1,0.3-0.2,0.6-0.3,0.8L500.2,153.2z"/>
			<path class="st5" d="M520.2,160.2h-2.5v-18.8h2.5V160.2z"/>
			<path class="st5" d="M530.4,152.3v7.8h-2.5v-18.8h5.3c1.2,0,2.2,0.1,3.1,0.4c0.9,0.2,1.6,0.6,2.1,1c0.6,0.5,1,1,1.3,1.6
				s0.4,1.4,0.4,2.2c0,0.7-0.1,1.3-0.3,1.9c-0.2,0.6-0.5,1.1-0.9,1.6c-0.4,0.5-0.9,0.9-1.5,1.2c-0.6,0.3-1.2,0.6-1.9,0.7
				c0.3,0.2,0.6,0.5,0.8,0.8l5.5,7.5h-2.3c-0.5,0-0.8-0.2-1-0.5l-4.9-6.7c-0.1-0.2-0.3-0.4-0.5-0.5s-0.4-0.1-0.8-0.1H530.4z
				 M530.4,150.5h2.7c0.7,0,1.4-0.1,2-0.3c0.6-0.2,1-0.4,1.4-0.8c0.4-0.3,0.7-0.7,0.9-1.2c0.2-0.5,0.3-1,0.3-1.5
				c0-1.1-0.4-2-1.1-2.5c-0.7-0.6-1.8-0.9-3.3-0.9h-2.8V150.5z"/>
			<path class="st5" d="M549.7,153.2v7h-2.5v-18.8h5.5c1.2,0,2.2,0.1,3.1,0.4c0.9,0.3,1.6,0.7,2.2,1.2c0.6,0.5,1,1.1,1.3,1.8
				c0.3,0.7,0.4,1.5,0.4,2.4c0,0.9-0.2,1.7-0.5,2.4c-0.3,0.7-0.8,1.3-1.3,1.9c-0.6,0.5-1.3,0.9-2.2,1.2c-0.9,0.3-1.9,0.4-3,0.4
				H549.7z M549.7,151.1h3c0.7,0,1.4-0.1,1.9-0.3c0.6-0.2,1-0.5,1.4-0.8c0.4-0.3,0.7-0.8,0.9-1.2c0.2-0.5,0.3-1,0.3-1.6
				c0-1.2-0.4-2.1-1.1-2.8c-0.7-0.7-1.9-1-3.4-1h-3V151.1z"/>
			<path class="st5" d="M582.7,150.8c0,1.4-0.2,2.7-0.7,3.9c-0.4,1.2-1.1,2.2-1.9,3c-0.8,0.8-1.8,1.5-2.9,2
				c-1.1,0.5-2.4,0.7-3.8,0.7s-2.6-0.2-3.8-0.7c-1.1-0.5-2.1-1.1-2.9-2c-0.8-0.8-1.4-1.9-1.9-3c-0.4-1.2-0.7-2.5-0.7-3.9
				c0-1.4,0.2-2.7,0.7-3.9c0.4-1.2,1.1-2.2,1.9-3c0.8-0.9,1.8-1.5,2.9-2c1.1-0.5,2.4-0.7,3.8-0.7s2.6,0.2,3.8,0.7
				c1.1,0.5,2.1,1.1,2.9,2c0.8,0.9,1.4,1.9,1.9,3C582.5,148.1,582.7,149.4,582.7,150.8z M580.1,150.8c0-1.2-0.2-2.2-0.5-3.1
				c-0.3-0.9-0.8-1.7-1.3-2.3c-0.6-0.6-1.3-1.1-2.1-1.5c-0.8-0.3-1.7-0.5-2.8-0.5c-1,0-1.9,0.2-2.7,0.5c-0.8,0.3-1.5,0.8-2.1,1.5
				c-0.6,0.6-1,1.4-1.3,2.3c-0.3,0.9-0.5,2-0.5,3.1c0,1.2,0.2,2.2,0.5,3.1c0.3,0.9,0.8,1.7,1.3,2.3c0.6,0.6,1.3,1.1,2.1,1.5
				c0.8,0.3,1.7,0.5,2.7,0.5c1,0,1.9-0.2,2.8-0.5c0.8-0.3,1.5-0.8,2.1-1.5c0.6-0.6,1-1.4,1.3-2.3C580,153,580.1,152,580.1,150.8z"/>
			<path class="st5" d="M591.4,152.3v7.8h-2.5v-18.8h5.3c1.2,0,2.2,0.1,3.1,0.4c0.9,0.2,1.6,0.6,2.1,1c0.6,0.5,1,1,1.3,1.6
				c0.3,0.6,0.4,1.4,0.4,2.2c0,0.7-0.1,1.3-0.3,1.9c-0.2,0.6-0.5,1.1-0.9,1.6c-0.4,0.5-0.9,0.9-1.5,1.2c-0.6,0.3-1.2,0.6-1.9,0.7
				c0.3,0.2,0.6,0.5,0.8,0.8l5.5,7.5h-2.3c-0.5,0-0.8-0.2-1-0.5l-4.9-6.7c-0.1-0.2-0.3-0.4-0.5-0.5s-0.4-0.1-0.8-0.1H591.4z
				 M591.4,150.5h2.7c0.7,0,1.4-0.1,2-0.3c0.6-0.2,1-0.4,1.4-0.8s0.7-0.7,0.9-1.2c0.2-0.5,0.3-1,0.3-1.5c0-1.1-0.4-2-1.1-2.5
				c-0.7-0.6-1.8-0.9-3.3-0.9h-2.8V150.5z"/>
			<path class="st5" d="M620,141.4v2.1h-6.1v16.7h-2.5v-16.7h-6.1v-2.1H620z"/>
		</g>
	</g>
</g>
<g>
	<path class="st8" d="M125.4,93.2l0,0.2c0,0.1,0,0.1,0,0.2h0c0.3,2.6-0.2,4.7-0.5,5.5l16.3,8.1c2.9-1.9,6.2-2.6,8.6-2.7
		c1.5-0.1,2.6,0,3,0l0.1,0c1-4.6,4-8.7,5.7-11.2H125.4z"/>
	<path class="st8" d="M109.4,93.6L109.4,93.6c0-0.1,0-0.1,0-0.2l0-0.2H76.2c1.7,2.5,4.7,6.6,5.7,11.2l0.1,0c0.4,0,1.5-0.1,3,0
		c2.4,0.2,5.7,0.8,8.6,2.7l16.3-8.1C109.6,98.2,109.1,96.2,109.4,93.6z"/>
	<path class="st8" d="M75.3,110.6l-1.6-0.8l-1-1.8c-0.1-0.6-0.9-1.5-1.2-2l-0.9-1.7c-1.8-3.6-2.8-7.7-3.3-11.2H26.7L67,120.4
		l13.1-6.6C77.6,112.1,75.3,110.6,75.3,110.6z"/>
	<path class="st8" d="M167.5,93.2c-0.5,3.5-1.5,7.6-3.3,11.2l-0.9,1.7c-0.3,0.5-1.1,1.3-1.2,2l-1,1.8l-1.6,0.8c0,0-2.3,1.5-4.8,3.3
		l13.1,6.6l40.3-27.3H167.5z"/>
</g>
<polygon class="st9" points="177.7,9 117.4,84.2 57.1,9 22.2,21.9 117.4,86.8 212.6,21.9 "/>
<path class="st5" d="M112,108L112,108l0.3-1.4l-0.5-1.6l-3.3,3.6l1.6,0.5L112,108z M174.8,160.8l-35.6-38.4
	c-0.3,0.1-0.5,0.1-0.8,0.2l-1.9,1.7l-1.6,3.4l0.1-0.2l-1.5,3.2l-0.6,4.7l-2.3,4l1,14.8 M122.8,108l2,1l1.6-0.5l-3.3-3.6l-0.5,1.6
	L122.8,108L122.8,108z M103.4,154.1l1-14.8l-2.3-4l-0.6-4.7l-1.5-3.2l0.1,0.2l-1.6-3.4l-1.9-1.7c-0.3-0.1-0.6-0.1-0.8-0.2L60,160.8"
	/>
<path class="st10" d="M141.2,107.1L124.9,99c-0.1,0.2-0.1,0.4-0.1,0.4l0.1,0.7c1.5-1.7,0.5,1,0,2.7c-0.3,1-0.7,1.4-1,1.6
	c-0.4,0.3-0.7-0.1-0.7-0.1l-0.1,0.5l3.3,3.6l0.8-0.2l11.6,1.2C139.4,108.5,140.3,107.7,141.2,107.1z M111,104.4
	c-0.3-0.2-0.6-0.6-1-1.6c-0.6-1.7-1.6-4.4,0-2.7l0.1-0.7c0,0-0.1-0.2-0.1-0.4l-16.3,8.1c0.9,0.6,1.8,1.4,2.6,2.3l11.6-1.2l0.8,0.2
	l3.3-3.6l-0.1-0.5C111.7,104.4,111.4,104.7,111,104.4z M154.8,113.8c-2.9,1.9-6.1,4.2-7,4.8l-2.1,1.4c-1.3,0.8-3.3,1.6-6.5,2.3
	l33.4,36.1l10.2-30.7L154.8,113.8z M87,118.6c-0.9-0.6-4.1-2.8-7-4.8l-28,13.9l10.2,30.7l33.4-36.1c-3.2-0.7-5.1-1.5-6.5-2.3
	L87,118.6z"/>
<g>
	<path class="st11" d="M110.7,89c0.1-0.1,0.2-0.1,0.2-0.2l0.2-0.1L75.8,72.4c-0.4,2.1-1.3,4.4-3,6.2l0.7,3.6l-0.2,0.4L73,83.3
		c0,0,1.2,6.2,2.1,8.1c0.2,0.4,0.6,1.1,1.1,1.8h33.2l-0.1-2.9L110.7,89z"/>
	<path class="st11" d="M123.9,88.8c0.1,0.1,0.2,0.1,0.2,0.2l1.4,1.3l-0.1,2.9h33.2c0.5-0.8,0.9-1.4,1.1-1.8c0.8-1.9,2.1-8.1,2.1-8.1
		l-0.3-0.7l-0.2-0.4l0.7-3.6c-1.7-1.8-2.6-4.1-3-6.2l-35.4,16.4L123.9,88.8z"/>
	<path class="st11" d="M66.8,85.2l-1.1-1l-1.6-3.4l-3.2-1.7c-0.1-0.1-0.9-1.2-1.7-3l0,0c-0.4-0.9-0.8-1.9-1.1-3.1
		c-0.9-2.9,0.9-5.3,3.5-7.2L13,43.3l10.2,49.9h44.2C66.7,88.7,66.8,85.2,66.8,85.2z"/>
	<path class="st11" d="M173.2,65.8c2.6,1.9,4.3,4.3,3.5,7.2c-0.4,1.2-0.7,2.2-1.1,3.1l0,0c-0.8,1.8-1.5,2.9-1.7,3l-3.2,1.7l-1.6,3.4
		l-1.1,1c0,0,0.1,3.5-0.6,7.9h44.2l10.2-49.9L173.2,65.8z"/>
</g>
<g>
	<path class="st12" d="M119.9,86.7l3.8,2l35.4-16.4c-0.1-0.7-0.2-1.3-0.2-1.9c0,0.1,0,0.3,0,0.4c-0.1-1.6,0.2-3.1,0.7-4
		c1.4-2.3,4-0.3,4-0.3s2.1-3,5.1-2.9c0,0,0,0,0.1,0c0.2,0,0.4,0,0.6,0.1c0.4,0.1,0.8,0.2,1.3,0.4c0.9,0.5,1.8,1,2.6,1.6l50.2-23.2
		l-13.5-19l-92.4,63.1H119.9z"/>
	<path class="st12" d="M64.2,64.2c0.4-0.2,0.9-0.4,1.3-0.4c0.2,0,0.4-0.1,0.6-0.1c0,0,0,0,0.1,0c3-0.1,5.1,2.9,5.1,2.9s2.6-2,4,0.3
		c0.6,0.9,0.8,2.3,0.7,4c0-0.1,0-0.3,0-0.4c0,0.6-0.1,1.2-0.2,1.9l35.4,16.4l3.8-2h2.4L24.9,23.7l-13.5,19l50.2,23.2
		C62.4,65.2,63.3,64.7,64.2,64.2z"/>
</g>
<g>
	<g>
		<polygon points="279.4,91.6 272.9,109.2 264.5,91.6 254.2,91.6 253.5,91.8 253.5,92.5 255.4,96.5 253.8,119.2 251.4,126.2 
			257.9,126.2 256.1,119.2 257.4,100.7 268.6,124.1 269.7,124.1 279,99.3 281.5,126.2 292,126.2 288.7,91.6 		"/>
		<polygon points="357,107.1 346.9,107.1 346.9,91.6 336.3,91.6 336.3,126.2 346.9,126.2 346.9,109.3 357,109.3 357,126.2 
			367.6,126.2 367.6,91.6 357,91.6 		"/>
		<path d="M389.2,90.6l-16.9,35.6h7.5l-1.8-5l2.6-5.6h9.3l4.7,10.6h11.6l-16-35.6H389.2z M381.6,113.4l3.7-8.1l3.7,8.1H381.6z"/>
		<path d="M552.2,91.6h-13.6v34.5h11.9c13.8,0,22.1-6.5,22.1-17.5C572.5,98.2,564.8,91.6,552.2,91.6z M549.2,93.8h2.7
			c5.7,0,9.2,5.6,9.2,15c0,7-1.5,15.3-8.9,15.3c-1.8,0-2.5-0.1-3-0.2V93.8z"/>
		<rect x="655.2" y="91.6" width="10.6" height="34.5"/>
		<polygon points="637.6,123.4 637.6,91.6 627,91.6 627,126.2 647.4,126.2 648.8,117.9 647.7,117.9 		"/>
		<polygon points="437.3,91.6 430.7,109.2 422.4,91.6 412.1,91.6 411.4,91.8 411.4,92.5 413.2,96.5 411.6,119.2 409.3,126.2 
			415.7,126.2 414,119.2 415.3,100.7 426.4,124.1 427.6,124.1 436.8,99.3 439.4,126.2 449.9,126.2 446.6,91.6 		"/>
		<polygon points="483.4,91.6 476.8,109.2 468.5,91.6 458.2,91.6 457.5,91.8 457.5,92.5 459.4,96.5 457.8,119.2 455.4,126.2 
			461.9,126.2 460.1,119.2 461.4,100.7 472.6,124.1 473.7,124.1 483,99.3 485.5,126.2 496,126.2 492.7,91.6 		"/>
		<path d="M516.3,90.6l-16.9,35.6h7.5l-1.8-5l2.6-5.6h9.3l4.7,10.6h11.6l-16-35.6H516.3z M508.6,113.4l3.6-8.1l3.7,8.1H508.6z"/>
		<path d="M604.8,90.6l-16.9,35.6h7.5l-1.8-5l2.6-5.6h9.3l4.7,10.6h11.6l-16-35.6H604.8z M597.2,113.4l3.7-8.1l3.7,8.1H597.2z"/>
		<path d="M323.4,98.6v14.6c0,6.7-2.6,10.2-7.5,10.2c-3.1,0-6.2-1.2-6.2-10.4V91.6h-10.6v21.2c0,9,4.9,13.8,14.3,13.8
			c9,0,13.4-4.4,13.4-13.6V98.6l2-7h-7.5L323.4,98.6z"/>
	</g>
</g>
<g>
	<path d="M252.2,14.3h6.9v55h34.5v6.4h-41.5V14.3z"/>
	<path d="M335,76.7c-4.7,0-8.9-0.8-12.8-2.5c-3.8-1.7-7.1-4-9.9-6.9c-2.7-2.9-4.9-6.3-6.4-10.1c-1.5-3.8-2.2-7.8-2.2-12.1v-0.2
		c0-4.2,0.8-8.2,2.3-12.1c1.5-3.9,3.7-7.2,6.4-10.1c2.7-2.9,6-5.2,9.9-6.9s8.1-2.6,12.8-2.6c4.7,0,8.9,0.8,12.8,2.5
		c3.8,1.7,7.1,4,9.9,6.9c2.7,2.9,4.9,6.3,6.4,10.1c1.5,3.8,2.2,7.8,2.2,12.1c0.1,0.1,0.1,0.1,0,0.2c0,4.2-0.8,8.2-2.3,12.1
		c-1.5,3.9-3.7,7.2-6.4,10.1c-2.7,2.9-6,5.2-9.9,6.9C343.9,75.8,339.6,76.7,335,76.7z M335.1,70.3c3.5,0,6.7-0.7,9.7-2
		c2.9-1.3,5.5-3.1,7.6-5.4c2.1-2.3,3.8-4.9,5-8c1.2-3,1.8-6.3,1.8-9.8v-0.2c0-3.5-0.6-6.8-1.8-9.9c-1.2-3.1-2.9-5.7-5-8
		c-2.2-2.3-4.7-4.1-7.7-5.4c-3-1.3-6.2-2-9.7-2s-6.7,0.7-9.7,2c-3,1.3-5.5,3.1-7.6,5.4c-2.1,2.3-3.8,4.9-5,8c-1.2,3-1.8,6.3-1.8,9.8
		v0.2c0,3.5,0.6,6.8,1.8,9.9c1.2,3.1,2.9,5.7,5,8c2.2,2.3,4.7,4.1,7.7,5.4C328.4,69.6,331.6,70.3,335.1,70.3z"/>
	<path d="M405.5,76.6c-3.8,0-7.3-0.6-10.4-1.7c-3.1-1.1-5.8-2.8-8.1-5.1c-2.2-2.2-4-5-5.2-8.4c-1.2-3.3-1.8-7.2-1.8-11.5V14.3h6.9
		v35.2c0,6.7,1.7,11.8,5,15.3c3.3,3.6,7.9,5.3,13.8,5.3c5.7,0,10.2-1.7,13.5-5.1c3.3-3.4,5-8.4,5-15.2V14.3h6.9v35.1
		c0,4.5-0.6,8.4-1.8,11.8c-1.2,3.4-3,6.2-5.2,8.5c-2.2,2.3-4.9,4-8.1,5.1C412.9,76,409.4,76.6,405.5,76.6z"/>
	<path d="M448.1,14.3h6.9v61.4h-6.9V14.3z"/>
	<path d="M494.1,76.5c-4.9,0-9.4-0.8-13.5-2.4c-4.1-1.6-7.9-4.1-11.6-7.4l4.3-5.1c3.2,2.9,6.5,5.1,9.7,6.5c3.3,1.4,7,2.1,11.3,2.1
		c4.1,0,7.5-1,9.9-2.9c2.5-2,3.7-4.5,3.7-7.5v-0.2c0-1.4-0.2-2.7-0.7-3.8c-0.5-1.1-1.3-2.2-2.5-3.1c-1.2-0.9-2.8-1.8-4.9-2.5
		c-2.1-0.8-4.7-1.5-8-2.2c-3.5-0.8-6.6-1.6-9.2-2.6c-2.6-1-4.8-2.2-6.5-3.6s-3-3-3.8-4.9c-0.8-1.9-1.2-4.1-1.2-6.6v-0.2
		c0-2.4,0.5-4.6,1.5-6.7c1-2,2.4-3.8,4.2-5.3c1.8-1.5,3.9-2.7,6.4-3.5c2.5-0.8,5.1-1.3,8.1-1.3c4.5,0,8.4,0.6,11.8,1.9
		c3.4,1.3,6.6,3.1,9.8,5.7l-4,5.3c-2.9-2.3-5.7-4-8.6-5.1s-5.9-1.6-9.1-1.6c-4,0-7.2,1-9.6,2.8c-2.3,1.9-3.5,4.2-3.5,7.1v0.2
		c0,1.5,0.2,2.8,0.7,3.9c0.5,1.1,1.3,2.2,2.5,3.2c1.2,1,2.9,1.8,5.1,2.6c2.2,0.8,4.9,1.5,8.3,2.2c6.8,1.5,11.9,3.6,15.1,6.3
		c3.2,2.7,4.9,6.4,4.9,11v0.2c0,2.6-0.5,5-1.6,7.1s-2.5,4-4.3,5.5c-1.8,1.5-4,2.7-6.6,3.5C500,76.1,497.2,76.5,494.1,76.5z"/>
	<path d="M523.8,14.3h7.7l21.8,52.9l21.9-52.9h7.4L556.4,76h-6.1L523.8,14.3z"/>
	<path d="M595.4,14.3h6.9v61.4h-6.9V14.3z"/>
	<path d="M620.3,14.3h6.9v55h34.5v6.4h-41.5V14.3z"/>
	<path d="M674.6,14.3h6.9v55H716v6.4h-41.5V14.3z"/>
	<path d="M728.8,14.3h44.3v6.2h-37.4v21.1h33.5v6.2h-33.5v21.6h37.9v6.2h-44.8V14.3z"/>
</g>
<g>
	<path class="st13" d="M252.1,141.3h3.4v19.3h-3.4V141.3z"/>
	<path class="st13" d="M260.6,141.3h3.1l10.3,13.3v-13.3h3.4v19.3h-2.8L264,146.9v13.7h-3.4V141.3z"/>
	<path class="st13" d="M287.1,144.5H281v-3.1h15.7v3.1h-6.1v16.2h-3.4V144.5z"/>
	<path class="st13" d="M300.3,141.3h14.3v3.1h-10.9v5h9.7v3.1h-9.7v5.2h11.1v3.1h-14.4V141.3z"/>
	<path class="st13" d="M318.7,141.3h8.6c1.2,0,2.3,0.2,3.2,0.5s1.7,0.8,2.3,1.4c0.5,0.5,0.9,1.1,1.2,1.8c0.3,0.7,0.4,1.5,0.4,2.3
		v0.1c0,0.8-0.1,1.5-0.3,2.1c-0.2,0.6-0.5,1.2-1,1.7c-0.4,0.5-0.9,0.9-1.4,1.2c-0.6,0.3-1.2,0.6-1.9,0.8l5.2,7.3h-4l-4.8-6.7h-0.1
		h-4.2v6.7h-3.4V141.3z M327.1,150.9c1.2,0,2.2-0.3,2.9-0.9c0.7-0.6,1.1-1.4,1.1-2.4v-0.1c0-1.1-0.4-1.9-1.1-2.4
		c-0.7-0.5-1.7-0.8-3-0.8h-5v6.5H327.1z"/>
	<path class="st13" d="M338.7,141.3h3.1l10.3,13.3v-13.3h3.4v19.3h-2.8L342,146.9v13.7h-3.4V141.3z"/>
	<path class="st13" d="M367.3,141.2h3.1l8.5,19.4h-3.6l-2-4.7h-9.1l-2,4.7h-3.5L367.3,141.2z M372.1,153l-3.3-7.7l-3.3,7.7H372.1z"
		/>
	<path class="st13" d="M387,144.5h-6.1v-3.1h15.7v3.1h-6.1v16.2H387V144.5z"/>
	<path class="st13" d="M400.3,141.3h3.4v19.3h-3.4V141.3z"/>
	<path class="st13" d="M418,161c-1.5,0-2.8-0.3-4.1-0.8c-1.2-0.5-2.3-1.2-3.2-2.1c-0.9-0.9-1.6-2-2.1-3.2s-0.7-2.5-0.7-3.8V151
		c0-1.4,0.2-2.6,0.7-3.8c0.5-1.2,1.2-2.3,2.1-3.2c0.9-0.9,2-1.6,3.2-2.2c1.2-0.5,2.6-0.8,4.1-0.8c1.5,0,2.8,0.3,4.1,0.8
		c1.2,0.5,2.3,1.2,3.2,2.1c0.9,0.9,1.6,2,2.1,3.2c0.5,1.2,0.7,2.5,0.7,3.8v0.1c0,1.4-0.2,2.6-0.7,3.8c-0.5,1.2-1.2,2.3-2.1,3.2
		c-0.9,0.9-2,1.6-3.2,2.2S419.5,161,418,161z M418.1,157.9c1,0,1.8-0.2,2.6-0.5c0.8-0.4,1.5-0.8,2-1.5s1-1.3,1.3-2.2
		c0.3-0.8,0.5-1.7,0.5-2.6V151c0-0.9-0.2-1.8-0.5-2.7c-0.3-0.8-0.8-1.6-1.3-2.2c-0.6-0.6-1.3-1.1-2.1-1.5c-0.8-0.4-1.7-0.6-2.6-0.6
		c-1,0-1.8,0.2-2.6,0.5s-1.5,0.8-2,1.5s-1,1.3-1.3,2.2s-0.5,1.7-0.5,2.6v0.1c0,0.9,0.2,1.8,0.5,2.7c0.3,0.8,0.8,1.6,1.3,2.2
		c0.6,0.6,1.3,1.1,2.1,1.5C416.3,157.7,417.1,157.9,418.1,157.9z"/>
	<path class="st13" d="M432.3,141.3h3.1l10.3,13.3v-13.3h3.4v19.3h-2.8l-10.6-13.7v13.7h-3.4V141.3z"/>
	<path class="st13" d="M460.9,141.2h3.1l8.5,19.4h-3.6l-2-4.7h-9.1l-2,4.7h-3.5L460.9,141.2z M465.7,153l-3.3-7.7l-3.3,7.7H465.7z"
		/>
	<path class="st13" d="M475.8,141.3h3.4v16.2h10.1v3.1h-13.5V141.3z"/>
	<path class="st13" d="M508,141.2h3.1l8.5,19.4h-3.6l-2-4.7H505l-2,4.7h-3.5L508,141.2z M512.9,153l-3.3-7.7l-3.3,7.7H512.9z"/>
	<path class="st13" d="M523.1,141.3h3.4v19.3h-3.4V141.3z"/>
	<path class="st13" d="M531.7,141.3h8.6c1.2,0,2.3,0.2,3.2,0.5c0.9,0.3,1.7,0.8,2.3,1.4c0.5,0.5,0.9,1.1,1.2,1.8
		c0.3,0.7,0.4,1.5,0.4,2.3v0.1c0,0.8-0.1,1.5-0.3,2.1c-0.2,0.6-0.5,1.2-1,1.7c-0.4,0.5-0.9,0.9-1.4,1.2c-0.6,0.3-1.2,0.6-1.9,0.8
		l5.2,7.3h-4l-4.8-6.7h-0.1h-4.2v6.7h-3.4V141.3z M540,150.9c1.2,0,2.2-0.3,2.9-0.9c0.7-0.6,1.1-1.4,1.1-2.4v-0.1
		c0-1.1-0.4-1.9-1.1-2.4c-0.7-0.5-1.7-0.8-3-0.8h-5v6.5H540z"/>
	<path class="st13" d="M551.6,141.3h7.6c1.1,0,2.1,0.2,3,0.5c0.9,0.3,1.7,0.7,2.3,1.3c0.6,0.6,1.1,1.2,1.5,2
		c0.3,0.8,0.5,1.7,0.5,2.6v0.1c0,1.1-0.2,2-0.6,2.9c-0.4,0.8-1,1.5-1.7,2.1c-0.7,0.6-1.5,1-2.5,1.3c-0.9,0.3-1.9,0.4-3,0.4H555v6.2
		h-3.4V141.3z M558.9,151.4c1.3,0,2.3-0.3,3.1-1c0.7-0.6,1.1-1.5,1.1-2.5v-0.1c0-1.1-0.4-2-1.1-2.6c-0.8-0.6-1.8-0.9-3-0.9h-4v7
		H558.9z"/>
	<path class="st13" d="M579.2,161c-1.5,0-2.8-0.3-4.1-0.8c-1.2-0.5-2.3-1.2-3.2-2.1c-0.9-0.9-1.6-2-2.1-3.2s-0.7-2.5-0.7-3.8V151
		c0-1.4,0.2-2.6,0.7-3.8c0.5-1.2,1.2-2.3,2.1-3.2c0.9-0.9,2-1.6,3.2-2.2c1.2-0.5,2.6-0.8,4.1-0.8c1.5,0,2.8,0.3,4.1,0.8
		c1.2,0.5,2.3,1.2,3.2,2.1c0.9,0.9,1.6,2,2.1,3.2c0.5,1.2,0.7,2.5,0.7,3.8v0.1c0,1.4-0.2,2.6-0.7,3.8c-0.5,1.2-1.2,2.3-2.1,3.2
		c-0.9,0.9-2,1.6-3.2,2.2S580.7,161,579.2,161z M579.3,157.9c1,0,1.8-0.2,2.6-0.5c0.8-0.4,1.5-0.8,2-1.5s1-1.3,1.3-2.2
		c0.3-0.8,0.5-1.7,0.5-2.6V151c0-0.9-0.2-1.8-0.5-2.7c-0.3-0.8-0.8-1.6-1.3-2.2c-0.6-0.6-1.3-1.1-2.1-1.5c-0.8-0.4-1.7-0.6-2.6-0.6
		c-1,0-1.8,0.2-2.6,0.5s-1.5,0.8-2,1.5s-1,1.3-1.3,2.2s-0.5,1.7-0.5,2.6v0.1c0,0.9,0.2,1.8,0.5,2.7c0.3,0.8,0.8,1.6,1.3,2.2
		c0.6,0.6,1.3,1.1,2.1,1.5C577.5,157.7,578.4,157.9,579.3,157.9z"/>
	<path class="st13" d="M593.5,141.3h8.6c1.2,0,2.3,0.2,3.2,0.5c0.9,0.3,1.7,0.8,2.3,1.4c0.5,0.5,0.9,1.1,1.2,1.8
		c0.3,0.7,0.4,1.5,0.4,2.3v0.1c0,0.8-0.1,1.5-0.3,2.1c-0.2,0.6-0.5,1.2-1,1.7c-0.4,0.5-0.9,0.9-1.4,1.2c-0.6,0.3-1.2,0.6-1.9,0.8
		l5.2,7.3h-4l-4.8-6.7H601h-4.2v6.7h-3.4V141.3z M601.8,150.9c1.2,0,2.2-0.3,2.9-0.9c0.7-0.6,1.1-1.4,1.1-2.4v-0.1
		c0-1.1-0.4-1.9-1.1-2.4c-0.7-0.5-1.7-0.8-3-0.8h-5v6.5H601.8z"/>
	<path class="st13" d="M618.1,144.5H612v-3.1h15.7v3.1h-6.1v16.2h-3.4V144.5z"/>
</g>
</svg>
