<?xml version="1.0" encoding="UTF-8"?>
<svg width="443px" height="226px" viewBox="0 0 443 226" version="1.1" xmlns="http://www.w3.org/2000/svg" xmlns:xlink="http://www.w3.org/1999/xlink">
    <title>v4.0_mai_en</title>
    <g id="Page-1" stroke="none" stroke-width="1" fill="none" fill-rule="evenodd">
        <g id="v4.0_mai_en" transform="translate(-618.000000, -232.000000)" fill-rule="nonzero">
            <g transform="translate(618.000000, 232.000000)" id="mai">
                <g transform="translate(0.800000, 0.200000)">
                    <path d="M39.9,220.8 L9.9475983e-14,220.8 L9.9475983e-14,73.2 L38.1,73.2 L38.1,91.2 C46.2,76.8 65.1,69 81.3,69 C101.4,69 117.6,77.7 125.1,93.6 C136.8,75.6 152.4,69 171.9,69 C199.2,69 225.3,85.5 225.3,125.1 L225.3,220.8 L186.6,220.8 L186.6,133.2 C186.6,117.3 178.8,105.3 160.5,105.3 C143.4,105.3 133.2,118.5 133.2,134.4 L133.2,220.8 L93.6,220.8 L93.6,133.2 C93.6,117.3 85.5,105.3 67.5,105.3 C50.1,105.3 39.9,118.2 39.9,134.4 L39.9,220.8 Z" id="m" fill="#111A2A"></path>
                    <path d="M241.8,180.6 C241.8,154.2 261.3,139.5 285.9,135.9 L322.2,130.5 C330.6,129.3 333.3,125.1 333.3,120 C333.3,109.5 325.2,100.8 308.4,100.8 C291,100.8 281.4,111.9 280.2,124.8 L244.8,117.3 C247.2,94.2 268.5,68.7 308.1,68.7 C354.9,68.7 372.3,95.1 372.3,124.8 L372.3,197.4 C372.3,205.2 373.2,215.7 374.1,220.8 L337.5,220.8 C336.6,216.9 336,208.8 336,203.1 C328.5,214.8 314.4,225 292.5,225 C261,225 241.8,203.7 241.8,180.6 Z M300.9,195.3 C317.7,195.3 333.3,187.2 333.3,161.1 L333.3,154.5 L300,159.6 C289.8,161.1 281.7,166.8 281.7,178.2 C281.7,186.9 288,195.3 300.9,195.3 Z M437.4,220.8 L397.5,220.8 L397.5,73.2 L437.4,73.2 L437.4,220.8 Z M392.7,24.9 C392.7,11.1 403.8,2.84217094e-14 417.3,2.84217094e-14 C431.1,2.84217094e-14 441.9,11.1 441.9,24.9 C441.9,38.1 431.1,49.2 417.3,49.2 C403.8,49.2 392.7,38.1 392.7,24.9 Z" id="ai" fill="#FBC14C"></path>
                </g>
            </g>
        </g>
    </g>
</svg>