<?xml version="1.0" encoding="utf-8"?>
<!-- Generator: Adobe Illustrator 22.1.0, SVG Export Plug-In . SVG Version: 6.00 Build 0)  -->
<svg version="1.1" id="Layer_1" xmlns="http://www.w3.org/2000/svg" xmlns:xlink="http://www.w3.org/1999/xlink" x="0px" y="0px"
	 width="300px" height="40.86px" viewBox="0 0 300 40.86" enable-background="new 0 0 300 40.86" xml:space="preserve">
<rect x="48.82" y="32.95" fill="#F7901E" width="21.26" height="7.08"/>
<path fill="#0068AC" d="M299.75,0.81v39.23h-11.07c0,0-13.42-23.38-14.93-25.98v25.98h-8.88V0.81h11.51c0,0,13.03,22.74,14.5,25.32
	V0.81H299.75z M28.33,0.81c0,0-7.07,21.71-7.8,23.99c-0.75-2.29-7.77-23.99-7.77-23.99H0.25v39.23h8.68V13.25
	c1.41,4.63,8.12,26.79,8.12,26.79h6.58c0,0,7.06-22.42,8.46-26.89v26.89h8.72V0.81H28.33 M143.71,32.44h-19.54v-9.11h17.92v-7.6
	h-17.92V8.43h19.54V0.81h-28.99v39.23h28.99V32.44z M98.4,0.81c0,0-10.49,13.13-12,14.86V0.81h-8.92v39.23h8.92V22.72
	c1.57,1.93,12.26,17.32,12.26,17.32h12.44c0,0-16.45-20.34-17.05-21.06c0.61-0.68,16.14-18.18,16.14-18.18H98.4z M221.64,20.31
	c0-12.07,6.51-20.28,18.55-20.28c11.88,0,18.54,8.37,18.54,20.28c0,11.93-6.54,20.51-18.54,20.51
	C228.04,40.83,221.64,32.42,221.64,20.31 M231.11,20.34c0,6.1,2.46,12.24,9.08,12.24c6.65,0,9.1-6.14,9.1-12.24
	c0-5.94-2.64-12.04-9.1-12.04C233.75,8.31,231.11,14.4,231.11,20.34 M168.62,16.19c-4.28-1.14-8.33-1.83-8.41-4.6
	c-0.02-0.79,0.25-1.44,0.84-2.01c1.51-1.43,4.95-1.84,7.67-1.64c4.12,0.34,6.54,1.05,9.81,2.87l1.93-7.98
	c-5-1.72-8.83-2.86-14.27-2.81c-9.84,0.1-15.92,4.94-15.92,12.63c0,7.85,7.46,9.86,13.74,11.67c4.08,1.14,8.15,1.75,8.15,4.79
	c0,3.03-4.92,4.1-8.23,4.1c-3.86,0-7.36-1.05-11.53-3.48l-2.54,7.9c5.65,2.22,9.08,3.17,14.54,3.17c5.97,0,10.9-1.66,13.88-4.65
	c2.17-2.14,3.3-4.99,3.3-8.23C181.58,19.96,174.58,17.74,168.62,16.19 M204.22,16.19c-4.28-1.14-8.36-1.83-8.42-4.6
	c-0.01-0.79,0.27-1.44,0.84-2.01c1.53-1.43,4.96-1.84,7.66-1.64c4.12,0.34,6.54,1.05,9.84,2.87l1.91-7.98
	c-5-1.72-8.82-2.86-14.27-2.81c-9.83,0.1-15.91,4.94-15.91,12.63c0,7.85,7.47,9.86,13.74,11.67c4.08,1.14,8.16,1.75,8.16,4.79
	c0,3.03-4.92,4.1-8.24,4.1c-3.87,0-7.36-1.05-11.53-3.48l-2.55,7.9c5.64,2.22,9.09,3.17,14.56,3.17c5.96,0,10.89-1.66,13.9-4.65
	c2.14-2.14,3.29-4.99,3.29-8.23C217.16,19.96,210.15,17.74,204.22,16.19 M62.05,28.84c3.31,0,6.48-0.56,9.08-1.8l-2.7-6.34
	c-1.34,0.82-2.95,1.3-4.68,1.3c-4.6,0-8.41-2.29-8.41-7.53c0-5.25,3.8-7.53,8.41-7.53c1.73,0,3.34,0.47,4.68,1.27l2.7-6.33
	c-2.6-1.22-5.77-1.8-9.08-1.8c-9.38,0-15.35,5.38-15.35,14.39C46.7,23.46,52.67,28.84,62.05,28.84"/>
</svg>
