<?xml version="1.0" encoding="UTF-8"?>
<svg xmlns="http://www.w3.org/2000/svg" width="572" height="204" viewBox="0 0 143 51">
  <style>.a{fill:#BCD531;}</style>
  <title>Media Fusion</title>
  <g fill="#000">
    <path d="M118.7 25.4C118.7 35.6 110.3 44 100.1 44L100.1 50.7C114.1 50.7 125.4 39.3 125.4 25.4L118.7 25.4Z" class="a"></path>
    <path d="M74.7 25.4L81.4 25.4C81.4 15.1 89.8 6.8 100 6.8L100 0C86.1 0 74.7 11.4 74.7 25.4Z" class="a"></path>
    <path d="M101.1 10L101.1 16.7C105.3 16.7 108.7 20.2 108.7 24.4L115.4 24.4C115.4 16.4 109 10 101.1 10Z" class="a"></path>
    <path d="M84.7 26.4C84.7 34.3 91.1 40.7 99 40.7L99 34C94.8 34 91.4 30.6 91.4 26.3L84.7 26.3 84.7 26.4Z" class="a"></path>
    <path d="M104.4 25.2C104.4 27.6 102.4 29.6 100 29.6 97.6 29.6 95.7 27.6 95.7 25.2 95.7 22.8 97.6 20.8 100 20.8 102.4 20.8 104.4 22.8 104.4 25.2Z" fill="#4B116F"></path>
    <rect x="74.2" y="14.5" width="7.3" height="24.9"></rect>
    <path d="M133.7 14C130.7 14 128.1 15.6 126.3 17.2L126.3 14.5 118.6 14.5 118.6 39.4 126.3 39.4 126.3 23.6C126.9 22.2 128.2 20.4 130.8 20.4 135.1 20.4 135.1 25 135.1 25L135.1 39.4 142.7 39.4C142.7 39.4 142.7 27.8 142.7 25 142.8 22.1 143.3 14 133.7 14Z"></path>
    <circle cx="77.8" cy="6.7" r="4.6"></circle>
    <path d="M18.5 7L19.1 1.1C5.1-2.4 5.2 7.8 5.2 11.5L5.2 14.5 0 14.5 0 20.4 5.2 20.4C5.2 28.7 5.2 39.4 5.2 39.4L12.8 39.4 12.8 20.4 18 20.4 18 14.5 12.8 14.5 12.8 11.5C12.8 4.9 18.5 7 18.5 7Z"></path>
    <path d="M21.6 30.5L21.6 14.5 29.1 14.5 29.1 29C29.1 31.5 31.2 33.6 33.7 33.6 36.2 33.6 38.3 31.6 38.3 29L38.3 14.5 45.6 14.5 45.6 34.6C45.6 34.6 41 33.8 38.3 36.3 35.5 38.8 34 40 30.5 40 28.3 40 21.6 39.2 21.6 30.5Z"></path>
    <path d="M49.7 36.6L53.9 32.1C53.9 32.1 56 33.9 59.3 33.9 60.3 33.9 61.1 33.7 61.7 33.4 62.2 33 62.5 32.6 62.5 31.9 62.5 30.9 61.4 30.1 59.2 29.6 58.5 29.4 57.9 29.2 57.5 29.1 54.9 28.4 53.1 27.5 52 26.4 50.8 25.2 50.3 23.8 50.3 22 50.3 19.7 51.1 17.9 52.9 16.5 54.6 15.1 56.9 14.4 59.9 14.4 65.2 14.4 67.5 16.1 69.2 16.8L65.3 21C65.3 21 63.4 19.6 60.9 19.6 57.8 19.6 57.8 20.9 57.8 21.5 57.8 22.4 59 23.3 61.2 23.9 61.7 24 62.1 24.2 62.3 24.2 65.3 25 67.3 26 68.4 27.1 69.6 28.3 70.1 29.8 70.1 31.7 70.1 34.1 69.2 36.1 67.3 37.6 65.4 39.1 63 39.9 59.9 39.9 55 39.9 51.3 37.5 49.7 36.6Z"></path>
    <g fill="#777">
      <path d="M23.2 11.3L21.6 11.3 21.6 4.5 23.1 4.5 23.1 5.6C23.4 5.2 23.7 4.8 24.1 4.6 24.5 4.4 25 4.3 25.5 4.3 26.1 4.3 26.5 4.4 26.8 4.6 27.2 4.9 27.4 5.2 27.6 5.6 28 5.2 28.3 4.9 28.8 4.6 29.2 4.4 29.6 4.3 30.1 4.3 30.6 4.3 30.9 4.4 31.3 4.6 31.6 4.7 31.9 5 32.1 5.3 32.2 5.5 32.2 5.6 32.2 5.8 32.3 6 32.3 6.3 32.3 6.7L32.3 7.3 32.3 11.4 30.8 11.4 30.8 7.8C30.8 6.9 30.7 6.3 30.5 6 30.3 5.7 29.9 5.6 29.5 5.6 28.9 5.6 28.4 5.8 28.2 6.2 27.9 6.5 27.8 7.2 27.8 8.2L27.8 11.3 26.2 11.3 26.2 7.8C26.2 7 26.1 6.4 25.9 6.1 25.7 5.7 25.4 5.6 24.9 5.6 24.5 5.6 24.3 5.6 24 5.8 23.8 5.9 23.6 6.1 23.4 6.4 23.3 6.5 23.3 6.7 23.2 6.9 23.2 7.2 23.2 7.6 23.2 8.2L23.2 11.3Z"></path>
      <path d="M42.3 8.1L36.9 8.1C36.9 8.8 37.1 9.2 37.4 9.6 37.8 10 38.2 10.1 38.8 10.1 39.3 10.1 39.7 10.1 40 9.8 40.3 9.6 40.6 9.3 40.9 8.8L42.2 9.5C41.8 10.2 41.3 10.7 40.8 11.1 40.2 11.4 39.6 11.6 38.8 11.6 37.7 11.6 36.9 11.3 36.2 10.6 35.6 9.9 35.3 9 35.3 8 35.3 6.9 35.6 6 36.2 5.4 36.9 4.7 37.8 4.3 38.8 4.3 39.9 4.3 40.7 4.7 41.3 5.3 41.9 5.9 42.3 6.8 42.3 7.9L42.3 8.1ZM40.7 7.1C40.6 6.6 40.4 6.2 40.1 6 39.8 5.7 39.4 5.6 38.8 5.6 38.3 5.6 37.9 5.7 37.6 6 37.3 6.2 37.1 6.6 37 7.1L40.7 7.1Z"></path>
      <path d="M50.7 0.3L52.2 0.3 52.2 11.3 50.7 11.3 50.7 10.4C50.4 10.8 50.1 11.1 49.7 11.3 49.3 11.4 48.9 11.5 48.4 11.5 47.5 11.5 46.7 11.2 46.2 10.6 45.7 9.9 45.4 9 45.4 7.9 45.4 6.8 45.7 5.9 46.2 5.3 46.8 4.6 47.5 4.3 48.4 4.3 49 4.3 49.4 4.4 49.8 4.6 50.2 4.9 50.5 5.2 50.7 5.6L50.7 0.3 50.7 0.3ZM50.7 7.9C50.7 7.2 50.5 6.7 50.2 6.3 49.9 5.9 49.4 5.7 48.9 5.7 48.3 5.7 47.8 5.9 47.5 6.3 47.1 6.7 47 7.3 47 8 47 8.7 47.1 9.3 47.5 9.6 47.8 10 48.3 10.2 48.8 10.2 49.4 10.2 49.8 10 50.2 9.6 50.5 9.1 50.7 8.6 50.7 7.9Z"></path>
      <path d="M56.2 1.6C56.2 1.4 56.3 1.1 56.5 1 56.7 0.8 56.9 0.7 57.2 0.7 57.5 0.7 57.7 0.8 57.9 1 58.1 1.1 58.2 1.4 58.2 1.6 58.2 1.9 58.1 2.2 57.9 2.3 57.7 2.5 57.5 2.6 57.2 2.6 56.9 2.6 56.7 2.5 56.5 2.3 56.3 2.1 56.2 1.9 56.2 1.6ZM56.4 11.3L56.4 4.5 57.9 4.5 57.9 11.3 56.4 11.3Z"></path>
      <path d="M68.5 11.3L66.9 11.3 66.9 10.4C66.6 10.8 66.3 11.1 66 11.3 65.6 11.4 65.2 11.5 64.7 11.5 63.7 11.5 63 11.2 62.4 10.6 61.9 9.9 61.6 9 61.6 7.9 61.6 6.8 61.9 5.9 62.5 5.3 63 4.6 63.8 4.3 64.7 4.3 65.2 4.3 65.7 4.4 66.1 4.6 66.5 4.9 66.7 5.2 66.9 5.6L66.9 4.5 68.5 4.5 68.5 11.3 68.5 11.3ZM66.9 7.9C66.9 7.2 66.8 6.7 66.5 6.3 66.1 5.9 65.7 5.7 65.1 5.7 64.5 5.7 64 5.9 63.7 6.3 63.4 6.7 63.2 7.3 63.2 8 63.2 8.7 63.4 9.3 63.7 9.6 64 10 64.5 10.2 65.1 10.2 65.6 10.2 66.1 10 66.4 9.6 66.8 9.1 66.9 8.6 66.9 7.9Z"></path>
    </g>
  </g>
</svg>
