<?xml version="1.0" encoding="UTF-8" standalone="no"?>
<!-- Created with Inkscape (http://www.inkscape.org/) -->

<svg
   xmlns:dc="http://purl.org/dc/elements/1.1/"
   xmlns:cc="http://creativecommons.org/ns#"
   xmlns:rdf="http://www.w3.org/1999/02/22-rdf-syntax-ns#"
   xmlns:svg="http://www.w3.org/2000/svg"
   xmlns="http://www.w3.org/2000/svg"
   xmlns:sodipodi="http://sodipodi.sourceforge.net/DTD/sodipodi-0.dtd"
   xmlns:inkscape="http://www.inkscape.org/namespaces/inkscape"
   width="93.03492"
   height="23.33296"
   viewBox="0 0 24.615489 6.1735121"
   version="1.1"
   id="svg883"
   inkscape:version="0.92.0 r15299"
   sodipodi:docname="micro focus.svg">
  <defs
     id="defs877">
    <clipPath
       id="clipPath373"
       clipPathUnits="userSpaceOnUse">
      <path
         style="clip-rule:evenodd"
         inkscape:connector-curvature="0"
         id="path371"
         d="M 52.328117,189.26067 H 121.83703 V 207.333 H 52.328117 Z" />
    </clipPath>
  </defs>
  <sodipodi:namedview
     id="base"
     pagecolor="#ffffff"
     bordercolor="#666666"
     borderopacity="1.0"
     inkscape:pageopacity="0.0"
     inkscape:pageshadow="2"
     inkscape:zoom="9.7462986"
     inkscape:cx="46.017471"
     inkscape:cy="11.166497"
     inkscape:document-units="mm"
     inkscape:current-layer="layer1"
     showgrid="false"
     fit-margin-top="0"
     fit-margin-left="0"
     fit-margin-right="0"
     fit-margin-bottom="0"
     units="px"
     inkscape:window-width="1280"
     inkscape:window-height="744"
     inkscape:window-x="-4"
     inkscape:window-y="-4"
     inkscape:window-maximized="1" />
  <metadata
     id="metadata880">
    <rdf:RDF>
      <cc:Work
         rdf:about="">
        <dc:format>image/svg+xml</dc:format>
        <dc:type
           rdf:resource="http://purl.org/dc/dcmitype/StillImage" />
        <dc:title></dc:title>
      </cc:Work>
    </rdf:RDF>
  </metadata>
  <g
     inkscape:label="Layer 1"
     inkscape:groupmode="layer"
     id="layer1"
     transform="translate(-92.145973,-157.70953)">
    <g
       id="g980"
       transform="translate(0.13229109,-0.13228875)">
      <path
         d="m 102.14177,160.5284 v -2.53726 h -0.4768 l -0.88549,1.26011 -0.868462,-1.26011 h -0.493829 v 2.53726 h 0.493829 v -1.6688 l 0.715202,1.05577 h 0.30651 l 0.71521,-1.05577 v 1.6688 z"
         style="fill:#0075f3;fill-opacity:1;fill-rule:nonzero;stroke:none;stroke-width:0.17028609"
         id="path377"
         inkscape:connector-curvature="0" />
      <path
         d="m 103.41891,160.5284 h 0.49383 v -2.53726 h -0.49383 z"
         style="fill:#0075f3;fill-opacity:1;fill-rule:nonzero;stroke:none;stroke-width:0.17028609"
         id="path379"
         inkscape:connector-curvature="0" />
      <path
         d="m 107.67606,160.27297 v -0.56194 h -0.49383 v 0.32354 h -1.49851 v -1.5496 h 1.49851 v 0.32354 h 0.49383 v -0.56194 c 0,-0.15326 -0.10217,-0.25543 -0.25543,-0.25543 h -1.97531 c -0.13623,0 -0.2384,0.10217 -0.2384,0.25543 v 2.0264 c 0,0.13623 0.10217,0.25543 0.2384,0.25543 h 1.99234 c 0.13623,0 0.2384,-0.10217 0.2384,-0.25543 z"
         style="fill:#0075f3;fill-opacity:1;fill-rule:nonzero;stroke:none;stroke-width:0.17028609"
         id="path381"
         inkscape:connector-curvature="0" />
      <path
         d="m 111.43939,160.5284 -0.74926,-1.02172 h 0.49383 c 0.13623,0 0.25543,-0.10217 0.25543,-0.25543 v -1.02171 c 0,-0.15326 -0.10217,-0.25543 -0.25543,-0.25543 h -2.23075 v 2.53726 h 0.49383 v -1.02172 h 0.61303 l 0.74926,1.02172 h 0.63006 z m -1.99235,-2.04343 h 1.49852 v 0.52788 h -1.49852 z"
         style="fill:#0075f3;fill-opacity:1;fill-rule:nonzero;stroke:none;stroke-width:0.17028609"
         id="path383"
         inkscape:connector-curvature="0" />
      <path
         d="m 115.20271,160.27297 v -2.0264 c 0,-0.15326 -0.10217,-0.25543 -0.25543,-0.25543 h -1.99235 c -0.13623,0 -0.2384,0.10217 -0.2384,0.25543 v 2.0264 c 0,0.13623 0.10217,0.25543 0.2384,0.25543 h 2.00938 c 0.13623,0 0.2384,-0.10217 0.2384,-0.25543 z m -1.99235,-1.788 h 1.49852 v 1.5496 h -1.49852 z"
         style="fill:#0075f3;fill-opacity:1;fill-rule:nonzero;stroke:none;stroke-width:0.17028609"
         id="path385"
         inkscape:connector-curvature="0" />
      <path
         d="m 101.90337,161.82257 v -0.51085 h -2.486181 v 2.53726 h 0.493829 v -1.00469 h 1.481492 v -0.51086 h -1.481492 v -0.51086 z"
         style="fill:#0075f3;fill-opacity:1;fill-rule:nonzero;stroke:none;stroke-width:0.17028609"
         id="path387"
         inkscape:connector-curvature="0" />
      <path
         d="m 105.07069,163.61058 v -2.04343 c 0,-0.15326 -0.10217,-0.25543 -0.25543,-0.25543 h -1.97532 c -0.13623,0 -0.2384,0.10217 -0.2384,0.25543 v 2.0264 c 0,0.13623 0.10217,0.25543 0.2384,0.25543 h 1.99235 c 0.13623,0 0.2384,-0.10217 0.2384,-0.2384 z m -1.97532,-1.78801 h 1.48149 v 1.54961 h -1.49852 v -1.54961 z"
         style="fill:#0075f3;fill-opacity:1;fill-rule:nonzero;stroke:none;stroke-width:0.17028609"
         id="path389"
         inkscape:connector-curvature="0" />
      <path
         d="m 108.45938,163.61058 v -0.56195 h -0.49383 v 0.32355 h -1.49852 v -1.54961 h 1.49852 v 0.32355 h 0.49383 v -0.56195 c 0,-0.15325 -0.10217,-0.25543 -0.25543,-0.25543 h -1.99235 c -0.13623,0 -0.2384,0.10218 -0.2384,0.25543 v 2.02641 c 0,0.13623 0.10217,0.25543 0.2384,0.25543 h 1.99235 c 0.13623,-0.017 0.25543,-0.1192 0.25543,-0.25543 z"
         style="fill:#0075f3;fill-opacity:1;fill-rule:nonzero;stroke:none;stroke-width:0.17028609"
         id="path391"
         inkscape:connector-curvature="0" />
      <path
         d="m 111.83105,163.61058 v -2.29886 h -0.49383 v 2.04343 h -1.49852 v -2.04343 h -0.49383 v 2.28183 c 0,0.13623 0.10217,0.25543 0.2384,0.25543 h 1.99235 c 0.15325,0 0.25543,-0.10217 0.25543,-0.2384 z"
         style="fill:#0075f3;fill-opacity:1;fill-rule:nonzero;stroke:none;stroke-width:0.17028609"
         id="path393"
         inkscape:connector-curvature="0" />
      <path
         d="m 115.20271,163.61058 v -1.00469 c 0,-0.13623 -0.10217,-0.25543 -0.25543,-0.25543 h -1.73692 v -0.52789 h 1.49852 v 0.27246 h 0.49383 v -0.51086 c 0,-0.15325 -0.10217,-0.25543 -0.25543,-0.25543 h -1.99235 c -0.13623,0 -0.2384,0.10218 -0.2384,0.25543 v 1.00469 c 0,0.13623 0.10217,0.25543 0.2384,0.25543 h 1.73692 v 0.52789 h -1.49852 v -0.25543 h -0.49383 v 0.51086 c 0,0.13623 0.10217,0.25543 0.2384,0.25543 h 1.99235 c 0.17029,-0.0341 0.27246,-0.13623 0.27246,-0.27246 z"
         style="fill:#0075f3;fill-opacity:1;fill-rule:nonzero;stroke:none;stroke-width:0.17028609"
         id="path395"
         inkscape:connector-curvature="0" />
      <path
         d="m 116.03711,158.94474 c -0.25543,0 -0.45977,-0.20434 -0.45977,-0.45977 0,-0.25543 0.20434,-0.45978 0.45977,-0.45978 0.25543,0 0.45977,0.20435 0.45977,0.45978 0,0.25543 -0.20434,0.45977 -0.45977,0.45977 z m 0,-0.88549 c -0.2384,0 -0.42571,0.18732 -0.42571,0.42572 0,0.2384 0.18731,0.40868 0.42571,0.40868 0.2384,0 0.40869,-0.18731 0.40869,-0.40868 0,-0.2384 -0.17029,-0.42572 -0.40869,-0.42572 z m 0.1192,0.7152 -0.1192,-0.25543 h -0.10217 v 0.25543 h -0.0681 v -0.57897 h 0.17028 c 0.13623,0 0.18732,0.0511 0.18732,0.17029 0,0.0851 -0.0341,0.13623 -0.1192,0.15325 l 0.1192,0.25543 z m -0.22137,-0.32354 h 0.10217 c 0.0851,0 0.1192,-0.0341 0.1192,-0.10217 0,-0.0681 -0.0341,-0.10217 -0.1192,-0.10217 h -0.0851 v 0.20434 z"
         style="fill:#0075f3;fill-opacity:1;fill-rule:nonzero;stroke:none;stroke-width:0.17028609"
         id="path397"
         inkscape:connector-curvature="0" />
      <path
         d="m 98.020843,157.99114 v 4.73395 h -1.140917 v -3.59304 H 93.28689 v -1.14091 z"
         style="fill:#0075f3;fill-opacity:1;fill-rule:nonzero;stroke:none;stroke-width:0.17028609"
         id="path399"
         inkscape:connector-curvature="0" />
      <path
         d="m 96.879926,162.72509 v 1.14092 h -4.733953 v -4.73396 h 1.140917 v 3.59304 z"
         style="fill:#0075f3;fill-opacity:1;fill-rule:nonzero;stroke:none;stroke-width:0.17028609"
         id="path401"
         inkscape:connector-curvature="0" />
    </g>
  </g>
</svg>
