<?xml version="1.0" encoding="UTF-8" standalone="no"?>
<!-- Created with Inkscape (http://www.inkscape.org/) -->

<svg
   xmlns:dc="http://purl.org/dc/elements/1.1/"
   xmlns:cc="http://creativecommons.org/ns#"
   xmlns:rdf="http://www.w3.org/1999/02/22-rdf-syntax-ns#"
   xmlns:svg="http://www.w3.org/2000/svg"
   xmlns="http://www.w3.org/2000/svg"
   xmlns:sodipodi="http://sodipodi.sourceforge.net/DTD/sodipodi-0.dtd"
   xmlns:inkscape="http://www.inkscape.org/namespaces/inkscape"
   width="310"
   height="167.86041"
   viewBox="0 0 82.020831 44.413069"
   version="1.1"
   id="svg274"
   inkscape:version="0.92.1 r15371"
   sodipodi:docname="Mitsui E&amp;S company logo.svg">
  <defs
     id="defs268" />
  <sodipodi:namedview
     id="base"
     pagecolor="#ffffff"
     bordercolor="#666666"
     borderopacity="1.0"
     inkscape:pageopacity="0.0"
     inkscape:pageshadow="2"
     inkscape:zoom="1"
     inkscape:cx="294.09115"
     inkscape:cy="-126.02406"
     inkscape:document-units="mm"
     inkscape:current-layer="layer1"
     showgrid="false"
     units="px"
     fit-margin-top="5"
     fit-margin-bottom="5"
     fit-margin-right="5"
     fit-margin-left="5"
     inkscape:window-width="1280"
     inkscape:window-height="972"
     inkscape:window-x="-8"
     inkscape:window-y="-8"
     inkscape:window-maximized="1" />
  <metadata
     id="metadata271">
    <rdf:RDF>
      <cc:Work
         rdf:about="">
        <dc:format>image/svg+xml</dc:format>
        <dc:type
           rdf:resource="http://purl.org/dc/dcmitype/StillImage" />
        <dc:title></dc:title>
      </cc:Work>
    </rdf:RDF>
  </metadata>
  <g
     inkscape:label="Layer 1"
     inkscape:groupmode="layer"
     id="layer1"
     transform="translate(-28.021715,-71.076393)">
    <path
       inkscape:connector-curvature="0"
       style="fill:#211714;fill-opacity:1;fill-rule:nonzero;stroke:none;stroke-width:0.3129476"
       d="m 69.031522,91.849735 8.606058,-9.339529 v 5.221089 h 7.809023 V 72.39931 h -8.041284 l -8.373797,9.437325 -8.372571,-9.437325 h -8.042508 v 15.331985 h 7.810244 v -5.221089 z m 0,0"
       id="path94" />
    <path
       inkscape:connector-curvature="0"
       style="fill:#0099dc;fill-opacity:1;fill-rule:nonzero;stroke:none;stroke-width:0.3129476"
       d="m 52.616443,98.854383 h 32.83016 v -7.004648 h -32.83016 z m 0,0"
       id="path96" />
    <path
       inkscape:connector-curvature="0"
       style="fill:#211714;fill-opacity:1;fill-rule:nonzero;stroke:none;stroke-width:0.3129476"
       d="m 39.917614,105.46906 h -2.240751 l -3.025569,6.10738 -3.064687,-6.10738 h -2.241975 v 8.55962 h 2.218748 v -3.83361 l 1.951034,3.83361 h 2.234641 l 1.951034,-3.83361 v 3.83361 h 2.217525 z m 30.209225,6.59758 h -2.702838 v -6.59758 h -2.333662 v 6.60369 c 0,1.13199 0.759144,1.99261 1.856904,2.05005 1.030528,0.0538 2.627049,0.0404 3.658797,0 1.069645,-0.0404 1.853239,-0.91806 1.853239,-2.05005 v -6.60369 h -2.33244 z m 36.668661,-6.69047 c -1.18456,-0.0636 -2.06716,-0.0586 -3.17105,0 -1.22855,0.066 -1.92291,0.93273 -1.92291,2.08426 v 1.13812 c 0,1.15155 0.8276,2.02071 1.92291,2.02071 h 2.95101 v 1.46327 h -3.06468 v -1.11732 l -2.21632,0.83127 v 0.27627 c 0,1.11977 0.97186,2.00604 2.17597,2.0525 1.22857,0.0501 2.0855,0.0598 3.32507,0 1.23345,-0.0598 1.92413,-0.95718 1.92413,-2.0525 v -1.39481 c 0,-1.15033 -0.78236,-2.01705 -1.81901,-2.01705 h -2.99133 v -1.3887 h 2.65639 v 1.12832 l 2.15395,-0.84838 v -0.12224 c 0,-1.15279 -0.72735,-1.99016 -1.92413,-2.05372 m -45.872499,0 c -1.184557,-0.0636 -2.067166,-0.0586 -3.169817,0 -1.228563,0.066 -1.922917,0.93273 -1.922917,2.08426 v 1.13812 c 0,1.15155 0.826378,2.02071 1.922917,2.02071 h 2.950999 v 1.46327 h -3.190599 v -1.11732 l -2.216302,0.83127 v 0.27627 c 0,1.11977 0.970624,2.00604 2.175961,2.0525 1.227343,0.0501 2.210193,0.0598 3.449758,0 1.234677,-0.0598 1.925362,-0.95718 1.925362,-2.0525 v -1.39481 c 0,-1.15033 -0.78237,-2.01705 -1.819009,-2.01705 h -2.992562 v -1.3887 h 2.656388 v 1.12832 l 2.155183,-0.84838 v -0.12224 c 0,-1.15279 -0.727361,-1.99016 -1.925362,-2.05372 m 33.761672,5.13674 -0.630787,0.70413 -0.0027,0.83615 h 1.618535 l 0.157694,-0.22126 z m 3.55366,1.14054 2.136847,2.37523 h -2.633154 l -0.671126,-0.7677 c 0,0 -0.268944,0.37161 -0.557445,0.77137 -0.535428,0.0307 -1.733437,0.0318 -2.870312,0 -1.051315,-0.0306 -1.806785,-0.67358 -1.806785,-2.05984 v -1.21633 l 1.553733,-1.72733 -0.581883,-0.66623 v -1.27135 c 0,-0.81049 0.643003,-1.65643 1.73955,-1.7151 0.872825,-0.0452 1.422927,-0.0501 2.332433,0 1.107547,0.0636 1.697988,0.90461 1.697988,1.7151 v 0.7958 l -1.944916,0.78972 v -1.46817 h -1.721218 v 0.73591 l 2.065946,2.3031 0.7787,-1.06231 h 2.282319 z m -13.124236,-1.06597 h 3.337291 v -1.8728 h -3.337291 v -1.32881 h 4.849464 v -1.91681 h -7.122002 v 8.55962 h 7.164787 v -2.10017 h -4.892249 z m -38.284741,-3.09281 h 2.419233 v 6.53401 h 2.360554 v -6.53401 h 2.367891 v -2.02682 h -7.147678 z m 28.074825,6.53401 h 2.332437 v -8.55962 h -2.332437 z m -32.432864,-8.55962 h 2.332439 v 8.55962 h -2.332439 z m 0,0"
       id="path98" />
  </g>
</svg>
