<?xml version="1.0" encoding="utf-8"?>
<!-- Generator: Adobe Illustrator 22.1.0, SVG Export Plug-In . SVG Version: 6.00 Build 0)  -->
<svg version="1.1" id="Layer_1" xmlns="http://www.w3.org/2000/svg" xmlns:xlink="http://www.w3.org/1999/xlink" x="0px" y="0px"
	 width="300.2px" height="69.45px" viewBox="0 0 300.2 69.45" enable-background="new 0 0 300.2 69.45" xml:space="preserve">
<path fill="#041E42" d="M42.09,31.21c0.1,0.21,0.21,0.74,0,1.01c-0.1,0.12-0.25,0.17-0.41,0.13c-1.59-0.19-4.49-0.28-6.49-0.28
	c-2.81,0-4.66,0-6.81,0.28c-0.13,0.03-0.28-0.01-0.38-0.12c-0.2-0.22-0.14-0.63-0.08-0.83c0.08-0.24,0.21-0.39,0.38-0.42
	c3.76-0.37,3.98-0.39,3.84-7.15L31.87,8.29L20.84,32.12c-0.01,0.03-0.02,0.07-0.03,0.09c-0.03,0.08-0.08,0.24-0.26,0.25
	c-0.01,0-0.02,0-0.03,0c-0.17,0-0.24-0.13-0.37-0.38L8.85,9.46L7.97,23.85c-0.1,6.14-0.11,6.78,4.26,7.13c0,0,0,0,0,0
	c0.05,0,0.18,0.03,0.27,0.21c0.1,0.22,0.18,0.76-0.03,1.02c-0.1,0.13-0.26,0.18-0.42,0.14c-1.39-0.17-2.71-0.28-4.92-0.28
	c-2.84,0-4.02,0-6.12,0.28c-0.13,0.03-0.28-0.01-0.38-0.12c-0.2-0.22-0.14-0.63-0.08-0.83c0.08-0.24,0.21-0.39,0.38-0.42
	c4.21-0.45,4.38-0.72,4.53-7.16L5.81,7.4c0.05-3.03-1.52-4.48-5.25-4.85c-0.19-0.03-0.32-0.18-0.4-0.41
	c-0.09-0.26-0.1-0.6,0.07-0.79c0.1-0.11,0.25-0.15,0.41-0.12C3.06,1.55,5.18,1.55,9.4,1.55h0.15l0.07,0.14l11.83,24.1l7.17-15.58
	c1.45-3.14,2.81-6.15,3.48-8.57l0.05-0.19l0.2,0.02c2.98,0.21,6.09,0.13,8.76-0.23c0.21-0.02,0.37,0.05,0.47,0.2
	c0.17,0.26,0.09,0.68-0.03,0.9c-0.1,0.19-0.22,0.23-0.31,0.23c-4.83,0.4-4.83,0.4-4.68,7.03l0,0.16l0.31,14.65
	c0.13,6.19,0.13,6.19,4.93,6.59c0,0,0,0,0,0C41.88,30.98,42,31.02,42.09,31.21z M77.98,16.3c0,7.91-7.3,16.72-17.77,16.72
	c-10.51,0-16.8-8-16.8-15.74c0-7.88,7.26-16.67,17.68-16.67C71.66,0.61,77.98,8.59,77.98,16.3z M60.02,2.51
	c-7.15,0-11.95,5.32-11.95,13.23c0,10.07,6.66,15.34,13.25,15.34c7.17,0,11.99-5.3,11.99-13.19C73.32,7.79,66.63,2.51,60.02,2.51z
	 M113.87,1.27c-1.51,0.2-2.82,0.28-4.7,0.28c-2.78,0-3.86-0.05-5.75-0.27c-0.16-0.04-0.31,0-0.41,0.12
	c-0.21,0.25-0.09,0.74-0.01,0.92c0.09,0.19,0.21,0.23,0.28,0.23c0,0,0,0,0,0c3.99,0.45,4.19,0.78,4.19,7.25v14.83L85.61,1.67
	L85.54,1.6h-0.1c-2.73,0-4.56-0.09-6.53-0.33c-0.25-0.03-0.39,0.11-0.44,0.19c-0.17,0.25-0.07,0.65,0.04,0.85
	c0.09,0.16,0.19,0.21,0.29,0.24c2.03,0.26,5.03,2.86,5.03,4.86v16.43c0,6.41-0.2,6.75-4.16,7.15c-0.12,0-0.23,0.08-0.31,0.23
	c-0.1,0.19-0.24,0.67-0.05,0.96c0.09,0.14,0.25,0.21,0.44,0.19c1.92-0.23,3-0.28,5.83-0.28c2.06,0,3.31,0.11,4.66,0.28
	c0.19,0.01,0.35-0.06,0.44-0.2c0.19-0.29,0.08-0.77-0.03-0.96c-0.09-0.17-0.21-0.21-0.28-0.21c0,0,0,0,0,0
	c-4.13-0.31-4.13-0.96-4.13-7.15V8.91l22.72,23.71c0.16,0.16,0.39,0.23,0.6,0.23c0.13,0,0.25-0.02,0.36-0.07
	c0.19-0.08,0.3-0.22,0.3-0.41c-0.24-1.99-0.33-6.29-0.33-8.54V9.8c0-6.24,0-6.89,4.1-7.25c0.34-0.05,0.54-0.45,0.5-0.79
	C114.45,1.44,114.21,1.23,113.87,1.27z M157.83,30.98C157.83,30.98,157.83,30.98,157.83,30.98c-4.75-0.39-4.75-0.39-4.88-6.59
	l-0.3-14.65l0-0.15c-0.14-6.64-0.14-6.64,4.63-7.04c0.09,0,0.21-0.04,0.31-0.22c0.12-0.22,0.2-0.64,0.03-0.9
	c-0.1-0.15-0.27-0.22-0.47-0.2c-2.65,0.36-5.73,0.44-8.67,0.23l-0.2-0.02l-0.05,0.19c-0.67,2.41-1.96,5.31-3.45,8.58l-7.1,15.57
	l-11.71-24.1l-0.07-0.14h-0.15c-4.17,0-6.27,0-8.66-0.32c-0.15-0.03-0.3,0.01-0.41,0.12c-0.17,0.19-0.16,0.53-0.07,0.79
	c0.08,0.23,0.21,0.38,0.4,0.41c3.68,0.37,5.24,1.83,5.19,4.85l-0.34,16.43c-0.14,6.44-0.31,6.71-4.48,7.16
	c-0.17,0.03-0.3,0.18-0.37,0.42c-0.07,0.21-0.13,0.61,0.08,0.83c0.1,0.11,0.25,0.15,0.38,0.12c2.08-0.28,3.24-0.28,6.06-0.28
	c2.19,0,3.5,0.11,4.87,0.28c0.16,0.04,0.32-0.01,0.42-0.14c0.21-0.26,0.13-0.8,0.03-1.02c-0.09-0.18-0.22-0.21-0.27-0.21
	c0,0,0,0,0,0c-4.32-0.36-4.31-1-4.21-7.15l0.27-14.3l11.16,22.55c0.13,0.24,0.37,0.38,0.67,0.38c0.01,0,0.02,0,0.04,0
	c0.29-0.01,0.53-0.15,0.61-0.35L147.98,8.3l0.27,15.54c0.14,6.76-0.08,6.78-3.8,7.15c-0.17,0.03-0.3,0.18-0.38,0.42
	c-0.07,0.2-0.13,0.61,0.08,0.83c0.1,0.11,0.24,0.15,0.38,0.12c2.13-0.28,3.96-0.28,6.74-0.28c1.98,0,4.84,0.09,6.43,0.28
	c0.16,0.04,0.31-0.01,0.41-0.13c0.21-0.26,0.1-0.8,0-1.01C158.02,31.02,157.9,30.98,157.83,30.98z M192.71,16.3
	c0,7.91-7.3,16.72-17.77,16.72c-10.51,0-16.79-8-16.79-15.74c0-7.88,7.26-16.67,17.68-16.67C186.39,0.61,192.71,8.59,192.71,16.3z
	 M174.76,2.51c-7.15,0-11.95,5.32-11.95,13.23c0,10.07,6.66,15.34,13.25,15.34c7.18,0,12-5.3,12-13.19
	C188.05,7.79,181.36,2.51,174.76,2.51z M228.06,1.27c-1.54,0.2-2.92,0.28-4.75,0.28c-2.8,0-3.96-0.06-5.92-0.28
	c-0.29-0.04-0.51,0.14-0.55,0.44c-0.04,0.29,0.11,0.78,0.46,0.84c4,0.45,4.37,1.02,4.37,6.82V20.6c0,6.3-3.27,9.63-9.45,9.63
	c-4.89,0-9.82-3.22-9.82-10.43V9.8c0-6.76,0-6.89,4.11-7.24c0.13,0,0.24-0.08,0.32-0.24c0.11-0.2,0.21-0.59,0.04-0.84
	c-0.06-0.09-0.19-0.23-0.48-0.2c-1.28,0.17-3.54,0.28-5.78,0.28c-2.65,0-4.84-0.05-6.86-0.28c-0.2-0.02-0.37,0.06-0.47,0.21
	c-0.16,0.23-0.11,0.56,0,0.77c0.1,0.19,0.26,0.3,0.45,0.3c3.98,0.45,4.05,0.46,4.05,7.24v10.95c0,7.23,5.43,12.27,13.22,12.27
	c8.9,0,12.89-6,12.89-11.94V9.37c0-5.72,0.24-6.47,4.3-6.82c0.08,0,0.24-0.03,0.36-0.25c0.12-0.22,0.16-0.58,0-0.82
	C228.43,1.33,228.26,1.25,228.06,1.27z M260.45,0.09l-0.15,0.08l-0.03,0.12c-0.33,1.4-0.61,1.45-7.4,1.45h-14.19
	c-6.85,0-6.89-0.14-7.21-1.45l-0.03-0.14l-0.14-0.04c-0.01,0-0.86-0.17-1.09,0.12c-0.07,0.08-0.08,0.19-0.05,0.29
	c0.14,0.67,0.22,1.53,0.22,2.31c0,1.22-0.04,2.88-0.22,3.8l-0.04,0.18l0.1,0.11c0.22,0.24,0.96,0.14,1.03,0.12L231.39,7l0.04-0.14
	c0.53-2.04,1.42-3,7.25-3h4.91v19.97c0,6.73-0.07,6.74-3.97,7.14l-0.14,0.02c-0.11,0.02-0.27,0.11-0.37,0.42
	c-0.07,0.21-0.12,0.62,0.08,0.84c0.08,0.08,0.18,0.13,0.28,0.13c0.03,0,0.06,0,0.08-0.01c2.01-0.23,4.13-0.28,6.9-0.28
	c2.16,0,4.41,0.11,5.74,0.28c0.2,0.02,0.36-0.06,0.46-0.22c0.17-0.26,0.13-0.68,0-0.92c-0.11-0.21-0.26-0.24-0.33-0.24
	c-4.13-0.31-4.13-0.44-4.13-7.15V3.86h4.67c6.16,0,6.7,1.12,7.07,2.89l0.03,0.18L260.11,7c0.17,0.08,0.86,0.11,1.06-0.08l0.11-0.13
	l-0.02-0.13c-0.09-0.54-0.09-1.65-0.09-2.39c0-1.46,0.11-2.63,0.36-3.75c0.05-0.12,0.02-0.26-0.08-0.35
	C261.24-0.04,260.62,0.02,260.45,0.09z M300,31.24c-0.11-0.23-0.29-0.27-0.33-0.26c-4.51-0.35-4.51-0.35-4.5-6.58l0-0.57l0-14.6
	c0-6.29,0-6.29,4.48-6.68c0.07,0,0.25-0.03,0.36-0.26c0.1-0.22,0.15-0.65-0.04-0.88c-0.1-0.13-0.26-0.17-0.39-0.14
	c-1.47,0.18-4.23,0.28-6.2,0.28c-2.69,0-4.43-0.04-6.45-0.28c-0.15-0.04-0.3,0-0.4,0.11c-0.18,0.19-0.15,0.52-0.08,0.75
	c0.08,0.23,0.21,0.38,0.39,0.41c3.51,0.41,3.72,0.44,3.72,7.25v5.88H273.3V9.8c0-6.73,0.1-6.94,3.69-7.24
	c0.09,0,0.21-0.04,0.31-0.22c0.11-0.21,0.19-0.61,0.03-0.86c-0.1-0.14-0.26-0.22-0.46-0.2c-1.41,0.18-3.26,0.28-5.35,0.28
	c-2.26,0-5.13-0.03-7.25-0.28c-0.15-0.04-0.3,0-0.4,0.11c-0.18,0.19-0.15,0.52-0.08,0.75c0.08,0.23,0.21,0.38,0.39,0.41l0.36,0.04
	c4.2,0.49,4.2,0.49,4.2,7.2v14.04c0,6.66,0,6.66-4.2,7.11l-0.39,0.04c-0.16,0.03-0.29,0.18-0.36,0.42
	c-0.07,0.21-0.12,0.62,0.08,0.84c0.08,0.08,0.18,0.12,0.28,0.12c0.03,0,0.06,0,0.08-0.01c2.14-0.25,5.02-0.28,7.28-0.28
	c2.08,0,3.93,0.1,5.36,0.28c0.27,0.03,0.49-0.13,0.55-0.41c0.06-0.29-0.04-0.81-0.3-0.9l-0.06-0.01c-3.61-0.26-3.75-0.53-3.75-7.2
	v-6.35h17.26v6.35c0,6.76-0.21,6.79-3.74,7.15c-0.16,0.03-0.29,0.18-0.37,0.42c-0.07,0.21-0.12,0.62,0.08,0.84
	c0.1,0.11,0.24,0.15,0.36,0.11c2.04-0.24,3.78-0.28,6.48-0.28c1.96,0,4.72,0.1,6.17,0.28c0.16,0.04,0.31-0.01,0.42-0.14
	C300.17,31.97,300.11,31.48,300,31.24z M59.86,52.32c0-4.12,0.14-4.87,3.3-5.15c0.17,0,0.27-0.61-0.07-0.58
	c-1.06,0.14-2.04,0.21-3.47,0.21c-2.01,0-2.86-0.03-4.33-0.21c-0.34-0.03-0.2,0.55-0.03,0.58c3.03,0.34,3.34,0.82,3.34,5.15v8.18
	c0,4.7-2.42,7.19-7.05,7.19c-3.51,0-7.33-2.35-7.33-7.77v-7.29c0-4.91,0-5.18,3.17-5.45c0.1,0,0.31-0.61-0.07-0.58
	c-1.02,0.14-2.76,0.21-4.23,0.21c-1.98,0-3.54-0.03-5.01-0.21c-0.34-0.03-0.24,0.58,0,0.58c3,0.34,3.13,0.34,3.13,5.45v7.97
	c0,5.49,4.23,8.76,9.44,8.76c6.07,0,9.2-3.88,9.2-8.52V52.32 M89.09,52.62c0-4.53,0-5.18,3.13-5.45c0.24-0.03,0.34-0.61-0.03-0.58
	c-1.02,0.14-1.98,0.21-3.44,0.21c-1.98,0-2.8-0.03-4.23-0.21c-0.27-0.07-0.14,0.58-0.03,0.58c3.07,0.34,3.2,0.72,3.2,5.45v11.25
	L71.47,46.83c-2.01,0-3.34-0.07-4.77-0.24c-0.34-0.03-0.14,0.58-0.04,0.58c1.6,0.21,3.82,2.18,3.82,3.71v11.96
	c0,4.74-0.17,5.08-3.2,5.38c-0.1,0-0.31,0.68,0.03,0.65c1.43-0.17,2.25-0.2,4.26-0.2c1.43,0,2.35,0.07,3.41,0.2
	c0.34,0.04,0.17-0.65,0.07-0.65c-3.17-0.24-3.17-0.85-3.17-5.38V51.53l16.83,17.58c0.21,0.2,0.61,0.1,0.61-0.04
	c-0.17-1.43-0.24-4.53-0.24-6.24V52.62 M101.93,68.67c1.43,0,3.14,0.07,4.19,0.2c0.34,0.04,0.21-0.65,0.03-0.65
	c-3.1-0.24-3.1-0.48-3.1-5.38V52.62c0-4.91,0-5.18,3.1-5.45c0.17,0,0.31-0.61-0.03-0.58c-1.06,0.14-2.76,0.21-4.19,0.21
	c-2.01,0-3.58-0.04-5.04-0.21c-0.34-0.03-0.14,0.58-0.03,0.58c3.03,0.34,3.2,0.34,3.2,5.45v10.22c0,5.11-0.17,5.08-3.2,5.38
	c-0.1,0-0.31,0.68,0.03,0.65C98.36,68.71,99.92,68.67,101.93,68.67 M130.28,52.66c1.94-4.29,2.39-5.21,4.8-5.49
	c0.17-0.03,0.27-0.61-0.07-0.58c-1.43,0.17-1.4,0.21-3.41,0.21c-1.47,0-2.25-0.07-3.31-0.21c-0.34-0.03-0.14,0.58-0.03,0.58
	c1.57,0.14,2.25,0.34,2.25,1.13c0,0.78-0.34,1.77-1.47,4.29l-5.45,12.34l-5.11-12.34c-0.89-2.18-1.4-3.65-1.4-4.29
	c0-0.92,0.78-0.92,2.35-1.13c0.17-0.03,0.24-0.65-0.03-0.58c-1.47,0.17-3.24,0.21-5.25,0.21c-1.43,0-2.86-0.07-3.92-0.21
	c-0.27-0.07-0.14,0.58-0.03,0.58c3.03,0.27,3.37,1.47,5.08,5.49l6.95,16.42c0.14,0.27,0.51,0.24,0.61,0.03L130.28,52.66
	 M153.01,68.13c0.21-0.72,0.51-2.32,0.65-3.17c0.03-0.17-0.61-0.17-0.61-0.1c-0.51,2.25-0.82,2.69-6.03,2.69h-1.8
	c-1.57,0-2.11-0.41-2.11-4.84v-4.98h3.51c3.13,0,3.34,0.41,3.55,1.47c0.03,0.1,0.68,0.14,0.61-0.04c-0.03-0.27-0.03-0.95-0.03-1.33
	c0-0.78,0.07-1.6,0.21-2.11c-0.07-0.07-0.61-0.17-0.65-0.07c-0.21,0.89,0.07,1.16-3.68,1.16h-3.51v-4.36c0-2.15,0.03-3.71,0.17-4.57
	h3.27c4.46,0,5.18,0.44,5.45,1.94c0.04,0.1,0.65,0.17,0.61,0c-0.03-0.27-0.03-0.95-0.03-1.3c0-0.71,0.03-1.33,0.24-1.98
	c-2.01,0.17-4.33,0.24-6.85,0.24c-3.48,0-6.81-0.07-9.3-0.24c-0.34-0.04-0.14,0.61-0.03,0.61c3.44,0.41,3.51,0.27,3.51,5.45v10.22
	c0,5.15-0.07,5.01-3.51,5.38c-0.1,0-0.27,0.68,0.03,0.65c2.49-0.17,6-0.21,9.44-0.21c2.52,0,4.7,0.17,5.96,0.17
	C152.64,68.84,152.84,68.74,153.01,68.13 M182.18,69.42c0.31,0,0.14-0.65,0.04-0.65c-3.82,0-9.17-5.9-11.01-10.8
	c3.58-1.46,4.77-4.26,4.77-6.17c0-3.78-4.09-5.32-9.07-5.32c-3.75,0-7.16,0.14-8.55,0.58c-0.31,0.1-0.1,0.65,0.07,0.61
	c0.48-0.07,0.92-0.14,1.3-0.14c1.94,0,2.01,1.19,2.01,5.04v10.26c0,5.11-0.14,5.08-3.2,5.38c-0.1,0-0.24,0.72,0.03,0.65
	c1.43-0.17,3.03-0.2,5.01-0.2c1.5,0,3.17,0.07,4.22,0.2c0.34,0.03,0.17-0.65,0.07-0.65c-3.17-0.24-3.17-0.48-3.17-5.38v-4.02
	c0.48,0.07,0.65,0.07,1.33,0.07c0.71,0,1.81-0.07,2.69-0.2C170.22,64.07,174.2,69.42,182.18,69.42 M166.47,47.44
	c3.37,0,6.44,1.19,6.44,5.83c0,2.83-1.81,4.67-6.92,4.67c-0.58,0-0.82,0.03-1.3,0v-5.66c0-2.49,0.07-4.06,0.24-4.77
	C165.51,47.48,165.92,47.44,166.47,47.44 M188.96,69.35c4.09,0,6.99-3.17,6.99-6.92c0-6.51-10.05-6.41-10.05-11.83
	c0-2.11,1.94-3.47,4.09-3.47c2.49,0,4.16,1.29,4.57,3.82c0,0.1,0.68,0.14,0.68-0.03c0-2.28-0.24-3.58-0.51-3.72
	c-1.19-0.65-2.49-1.09-4.46-1.09c-3.95,0-6.71,3.17-6.71,6.3c0,6.2,10.26,6.24,10.26,11.89c0,2.73-2.21,3.99-4.53,3.99
	c-3.55,0-5.45-2.28-5.69-5.76c0-0.1-0.61-0.14-0.61,0.03c-0.14,2.39-0.37,4.36-0.21,4.5C184.56,68.57,186.54,69.35,188.96,69.35
	 M206.2,68.67c1.43,0,3.13,0.07,4.19,0.2c0.34,0.04,0.2-0.65,0.04-0.65c-3.1-0.24-3.1-0.48-3.1-5.38V52.62c0-4.91,0-5.18,3.1-5.45
	c0.17,0,0.31-0.61-0.04-0.58c-1.06,0.14-2.76,0.21-4.19,0.21c-2.01,0-3.58-0.04-5.04-0.21c-0.34-0.03-0.14,0.58-0.03,0.58
	c3.03,0.34,3.2,0.34,3.2,5.45v10.22c0,5.11-0.17,5.08-3.2,5.38c-0.1,0-0.31,0.68,0.03,0.65C202.62,68.71,204.19,68.67,206.2,68.67
	 M237.04,48.6c0-1.16,0.1-2.01,0.27-2.79c0.07-0.17-0.58-0.14-0.58-0.07c-0.27,1.16-0.58,1.19-5.56,1.19h-10.33
	c-4.94,0-5.14-0.07-5.42-1.19c-0.14-0.03-0.68-0.07-0.61,0.07c0.1,0.48,0.17,1.12,0.17,1.74c0,0.99-0.03,2.15-0.17,2.83
	c-0.03,0.1,0.44,0.1,0.58,0.07c0.41-1.57,1.13-2.32,5.45-2.32h3.75v14.72c0,5.11-0.14,5.08-3.13,5.38c-0.17,0.03-0.27,0.72,0,0.65
	c1.47-0.17,3.03-0.2,5.04-0.2c1.43,0,3.13,0.07,4.19,0.2c0.34,0.03,0.24-0.65,0.07-0.65c-3.17-0.24-3.17-0.48-3.17-5.38V48.12h3.58
	c4.46,0,5.01,0.78,5.32,2.28c0,0.07,0.65,0.07,0.61-0.03C237.04,49.96,237.04,49.15,237.04,48.6 M256.35,52.66
	c3.24-4.5,3.88-5.25,6.82-5.49c0.17,0,0.31-0.61-0.03-0.58c-1.09,0.14-1.67,0.21-3.1,0.21c-2.01,0-2.76-0.04-4.19-0.21
	c-0.27-0.07-0.17,0.55,0,0.58c2.79,0.34,2.49,0.61-0.82,5.35l-2.93,4.19l-2.28-3.41c-3.27-4.87-3.99-5.86-0.99-6.13
	c0.1,0,0.27-0.61-0.07-0.58c-1.05,0.14-2.73,0.21-4.19,0.21c-1.98,0-3.58-0.04-5.01-0.21c-0.27-0.07-0.17,0.55,0,0.58
	c2.89,0.31,3.71,1.16,7.05,6.27l3.07,4.7v4.7c0,5.11-0.13,5.04-3.2,5.38c-0.1,0-0.24,0.72,0.04,0.65c1.43-0.17,3.03-0.2,5.01-0.2
	c1.5,0,3.17,0.07,4.23,0.2c0.34,0.03,0.17-0.65,0.07-0.65c-3.17-0.24-3.17-0.51-3.17-5.38v-5.01L256.35,52.66"/>
</svg>
