<svg xmlns="http://www.w3.org/2000/svg" width="297.87" height="35.45" viewBox="0 0 297.87 35.45">
  <title>mba-2color-logo-footer</title>
  <g id="Layer_2" data-name="Layer 2">
    <g id="Layer_1-2" data-name="Layer 1">
      <g>
        <path d="M2.69,7.07S6.84-.37,17.43.85a15.19,15.19,0,0,1,8.77,4.87s-3,1.34-9.38-.61C16.82,5.12,8.91.85,2.69,7.07Z" fill="#357cab"/>
        <path d="M29.37,20.1c-.49,1.46-3.29,3.53-4.51,4a5.74,5.74,0,0,0-2.31,1.83c0-1.95,1.95-4.39,4.63-6.7A9.32,9.32,0,0,0,30,13.4C30.83,15.84,29.86,18.64,29.37,20.1Z" fill="#357cab"/>
        <path d="M25.23,25.83a9.62,9.62,0,0,0,.37-1.58,8.45,8.45,0,0,0,2.31-1.46A3.24,3.24,0,0,1,25.23,25.83Z" fill="#357cab"/>
        <path d="M16.7,28.63A15.43,15.43,0,0,0,12.56,28c2.56-2.07,6.46-1.83,9.38-1.46a6.08,6.08,0,0,0,4.26-.73C24,29.85,18.53,29.24,16.7,28.63Z" fill="#357cab"/>
        <path d="M14.63,30.09c.49,0,1.71-1.1,1.71-1.1a21.47,21.47,0,0,0,3.29.49C16.7,31.55,14.63,30.09,14.63,30.09Z" fill="#357cab"/>
        <path d="M6.35,25.1a12.82,12.82,0,0,0-2.44-2.8c5,.37,7.31,4.75,8.77,6.82a4.26,4.26,0,0,0,2.56,1.83C10.12,32,7.2,26.56,6.35,25.1Z" fill="#357cab"/>
        <path d="M8.18,28.51c-2.44-.12-3.41-2.8-3.41-2.8,0,.24,1.58.12,1.58.12C7.08,26.92,8.18,28.51,8.18,28.51Z" fill="#357cab"/>
        <path d="M.14,18.64a6.3,6.3,0,0,1,3.53,4.51c.85,3.53,1.46,4.14,1.58,4.26S1.23,25.1.14,18.64Z" fill="#357cab"/>
        <path d="M14.51,6a18.33,18.33,0,0,0-3,3.29,9.88,9.88,0,0,0-1.22,2.19l-.37,1.46a4,4,0,0,0-.12,1.58c-.12,1.1.12,1,.49,1.71A13.69,13.69,0,0,0,11.59,18c.49.85.73.73.73.73a8.48,8.48,0,0,1,2.07.49c.85.49,1.22.12,1.22.12.61-.24,1.83-.73,2.31-1a1.26,1.26,0,0,0,.73-.61,7.76,7.76,0,0,1,1.22-2.19A1.4,1.4,0,0,0,20,14.38c-.12-.61-.24-1.83-.24-1.83a1.42,1.42,0,0,0-.37-1.34c-.85-.61-1.34-1-1.34-1-.85-1-1.46-1-1.46-1C13.17,8.77,12.8,8,12.8,8l.61-.73a5.84,5.84,0,0,0,2.44,1C19.14,9,21,6.58,22.92,6.58S24.87,8,24.87,8H25c1.1-.61,3.41.49,4.14,2.92a6.46,6.46,0,0,1-.37,4.51c0-1.83-2.07-3.41-2.92-4.51A4.93,4.93,0,0,1,25,8.41h-.12c-.49.49-.49,1.34-2.8.61s-3.65.24-3.65.24c1.1,1.58,2.31,1.71,4.26,2.44a7.82,7.82,0,0,1,2.56,1.22c1.83,1.95.24,3.17.24,3.17l.12.24a3.88,3.88,0,0,1,1.83,2.19,24.09,24.09,0,0,1-2.31,2.07,6.49,6.49,0,0,1,.12-4l-.12-.24c-1.1-.12-1.34.24-1.95-1.83a3.32,3.32,0,0,0-2.44-2.31c-.24,1.58-.24,3,1.34,5.6s1.34,3,1.34,3a1.56,1.56,0,0,1-1.34,1.71v.12c.85,1.46-.12,3.53-.12,3.53a20.17,20.17,0,0,0-3.29-.24,6.28,6.28,0,0,1,3-3.29v-.12A1.57,1.57,0,0,1,21,20.34a3.64,3.64,0,0,0,.37-1.46c-.12-1.95-.85-2.19-.85-2.19-1.34,1.34-1.71,5-1.71,5-.12,2.56-1,2.92-1,2.92a1.68,1.68,0,0,1-1.95.24l-.12.12a6.18,6.18,0,0,1-3.41,2.8c-.12-.12-1.83-2.56-1.83-2.56,1.1-1,5.12-.49,5.12-.49l.12-.12a1.66,1.66,0,0,1,.61-2.07,2.78,2.78,0,0,0,1.83-2.31c.12-1,0-.49-1.1-.24s-3.17,3.17-5.36,3.29S9,21.93,9,21.93c-.12-.37-.37-.24-.37-.24a5.14,5.14,0,0,1-2.31.12A8.06,8.06,0,0,1,0,14.5c-.24-3.9,2.92-7.19,2.92-7.19C8.3,1.71,15.73,5,15.73,5ZM11,9l.73-1.22C10.61,7.55,11,9,11,9Zm-.85,1.34a3.61,3.61,0,0,0,0-2.44C9.15,8.89,10.12,10.35,10.12,10.35ZM8.42,9.5a1.08,1.08,0,0,1,0,1l.12.12c.61.12.73,1,.73,1-.24,1,.12,1.1.12,1.1.73-1-.12-2.68-.24-3A6.5,6.5,0,0,1,8.78,8C8.05,8.41,8.42,9.5,8.42,9.5ZM6.71,11.09c.24.85.12,1.1.12,1.1v.12a.93.93,0,0,1,1,.73A2.16,2.16,0,0,0,9.15,14.5c.24-.85-.37-1.58-1-2.31a1.15,1.15,0,0,1,0-1.46l-.12-.24C7,10.11,6.84,8.65,6.84,8.65,6.23,9.38,6.59,10.11,6.71,11.09ZM5.37,13a2.33,2.33,0,0,1,.73,1.34l.12.12a1.79,1.79,0,0,1,1.95,1.22,1.9,1.9,0,0,0,1.46.61C9.39,15.23,7.81,14.25,7.2,14s-.49-1.34-.49-1.34c.12-.24-.24-.24-.24-.24C5,12.06,4.89,10.23,4.89,10.23,3.79,11.21,4.76,12.55,5.37,13Zm-.73,2.8a4.79,4.79,0,0,1,1.71,1.58h.12c.24-.49,1.1-.49,1.1-.49.85.12,1.58,1.34,1.58,1.34,1.58.85,1.83.37,1.83.37-1-2.19-2.8-1.83-4.14-2.31a1.27,1.27,0,0,1-1-1.58l-.12-.12a3,3,0,0,1-2.56-1.95A2.75,2.75,0,0,0,4.64,15.84ZM6.1,19.13A3.83,3.83,0,0,1,8.66,21.2h.12a2.15,2.15,0,0,1,1.46-.85,3.11,3.11,0,0,1,1.58.73,1.8,1.8,0,0,0,2.44-.73,4.84,4.84,0,0,0-2.92-.85,9.32,9.32,0,0,1-3.78-.24,1.82,1.82,0,0,1-1.34-1.71L6,17.42a3.54,3.54,0,0,1-2.92-.73C3.42,18.15,4.4,18.88,6.1,19.13Z" fill="#357cab"/>
      </g>
      <line x1="33.88" x2="33.88" y2="31.8" fill="#333" stroke="#333" stroke-miterlimit="10" stroke-width="0.5"/>
      <g>
        <g>
          <path d="M40.46,2.19h5.12L48,16.45c.24,1.58.49,3.9.73,6.7a41.34,41.34,0,0,1,.73-6.58L52.15,2.31h5v26.8H53.86v-6.7c0-6.82.24-12.67.61-17.79L49.84,29.12H47.89L43.63,4.63Q44,15.41,44,29.12H40.46Z" fill="#333"/>
          <path d="M71.28,22.17c0,4.75-1.71,7.07-5.6,7.07s-5.6-2.31-5.6-7.07V15.72c0-4.75,1.71-7.07,5.6-7.07s5.6,2.31,5.6,7.07Zm-5.6-10.23c-1.34,0-1.95.85-1.95,2.68v8.77c0,1.83.61,2.8,1.95,2.8s1.95-.85,1.95-2.8V14.62C67.62,12.79,67,11.94,65.68,11.94Z" fill="#333"/>
          <path d="M74.08,9h3.53v2.44c1.46-1.71,2.8-2.8,4.14-2.8,2.68,0,3.41,2.07,3.41,6.09V28.87H81.51V14.74c0-1.71-.37-2.56-1.46-2.56A2.77,2.77,0,0,0,78,13.64V29H74.33V9Z" fill="#333"/>
          <path d="M88.33,12.18H86.14V9h2.19V3.65H92V9h2.68v3.17H92v11c0,1.95.12,2.8,1.46,2.8a4.57,4.57,0,0,0,1.22-.12v3a5.69,5.69,0,0,1-2.07.37c-3.53,0-4.39-1.71-4.39-6.33V12.18Z" fill="#333"/>
          <path d="M107.22,23.15c0,3.9-2.07,6.21-5.6,6.21S96.25,27,96.25,22.29V15.84c0-4.75,1.71-7.07,5.6-7.07s5.6,2.68,5.6,7.92v3H99.91v3.78c0,1.83.61,2.8,1.95,2.8s1.95-.85,1.95-2.8V22h3.53v1.1Zm-7.31-6.58h3.78V14.62c0-1.83-.61-2.68-1.95-2.68s-1.95.85-1.95,2.68v1.95Z" fill="#333"/>
          <path d="M109.78,9h3.41v2.68a4.71,4.71,0,0,1,4.26-2.92v4a7.19,7.19,0,0,0-1.71-.24c-1.95,0-2.31,1.1-2.31,3.53V28.87h-3.65Z" fill="#333"/>
          <path d="M129.51,23.15c0,3.9-2.07,6.21-5.6,6.21s-5.36-2.31-5.36-7.07V15.84c0-4.75,1.71-7.07,5.6-7.07s5.6,2.68,5.6,7.92v3h-7.67v3.78c0,1.83.61,2.8,1.95,2.8s1.95-.85,1.95-2.8V22h3.53v1.1Zm-7.43-6.58h3.78V14.62c0-1.83-.61-2.68-1.95-2.68s-1.95.85-1.95,2.68v1.95Z" fill="#333"/>
          <path d="M131,32a2.68,2.68,0,0,0,1,.12c1.58,0,2.44-1.1,2.44-3.29a32.66,32.66,0,0,0-.73-4.75L130.49,9h3.65l2.31,16.69L138.28,9h3.53l-3.9,20.34c-.85,4.26-2.19,6.09-5.85,6.09a4.57,4.57,0,0,1-1.22-.12V32Z" fill="#333"/>
        </g>
        <g>
          <path d="M147.66,2.19h5c5.6,0,7.55,1.58,7.55,6.94,0,3.17-.73,5-2.68,5.85,2.19.85,3,2.8,3,6.21,0,5.48-2.31,7.8-7.8,7.8h-5.12Zm5.12,11.09c2.56,0,3.41-1.1,3.41-4s-.85-3.78-3.29-3.78h-1.22v7.8ZM153,25.46c2.68,0,3.53-1.22,3.53-4.63,0-3-.85-4-3.53-4h-1.46v8.65Z" fill="#333"/>
          <path d="M169.71,26.92a4.81,4.81,0,0,1-3.78,2.19c-2.31,0-3.9-1.83-3.9-4.63,0-4,2.44-6.58,7.67-8.89V14.5c0-1.83-.49-2.68-1.83-2.68s-2.07,1-2.07,2.68h-3.53c.24-3.65,2.44-5.73,6-5.73,3.78,0,5.12,2.07,5.12,6.7v9.14a22.7,22.7,0,0,0,.37,4.39h-3.65Zm-4.14-3.41c0,1.46.61,2.31,1.71,2.31.85,0,1.58-.61,2.31-1.58V18.76Q165.57,20.59,165.57,23.51Z" fill="#333"/>
        </g>
        <g>
          <path d="M175.07,32a2.68,2.68,0,0,0,1,.12c1.58,0,2.44-1.1,2.44-3.29a32.66,32.66,0,0,0-.73-4.75L174.58,9h3.65l2.31,16.69L182.38,9h3.53l-3.78,20.34c-.85,4.26-2.19,6.09-5.85,6.09a4.57,4.57,0,0,1-1.22-.12V32Z" fill="#333"/>
          <path d="M194.08,2.19h5.12L203.34,29h-4l-.61-5.36h-4L194.08,29h-3.9ZM198.22,20,196.76,4.39h-.24L194.93,20Z" fill="#333"/>
        </g>
        <g>
          <path d="M212.23,35.21v-8a4.24,4.24,0,0,1-3.41,2.07c-2.56,0-3.78-1.95-3.78-6.09V15c0-4.26,1.1-6.21,3.53-6.21,1.34,0,2.56.73,3.78,2.31V9.14h3.53V35.33h-3.65Zm0-22a2.7,2.7,0,0,0-1.95-1c-1.22,0-1.46,1.22-1.46,3.9v6.46c0,2.19.37,3.29,1.58,3.29a2.73,2.73,0,0,0,1.83-1Z" fill="#333"/>
          <path d="M229.65,29h-3.41V26.56c-1.46,1.71-2.8,2.68-4.14,2.68-2.8,0-3.41-1.95-3.41-6V9h3.65V23.27c0,1.71.37,2.56,1.46,2.56a2.77,2.77,0,0,0,2.07-1.46V9h3.65V29Z" fill="#333"/>
          <path d="M239.52,26.92a4.81,4.81,0,0,1-3.78,2.19c-2.31,0-3.9-1.83-3.9-4.63,0-4,2.44-6.58,7.67-8.89V14.5c0-1.83-.49-2.68-1.83-2.68s-2.07,1-2.07,2.68h-3.53c.24-3.65,2.44-5.73,6-5.73,3.78,0,5.12,2.07,5.12,6.7v9.14a22.7,22.7,0,0,0,.37,4.39h-3.65Zm-4.14-3.41c0,1.46.61,2.31,1.71,2.31.85,0,1.58-.61,2.31-1.58V18.76Q235.37,20.59,235.37,23.51Z" fill="#333"/>
          <path d="M245.85,9h3.41v2.68a4.71,4.71,0,0,1,4.26-2.92v4a7.19,7.19,0,0,0-1.71-.24c-1.95,0-2.31,1.1-2.31,3.53V28.87h-3.65V9Z" fill="#333"/>
          <path d="M254.87,2.19h3.65V6h-3.65Zm0,6.82h3.65V28.87h-3.65Z" fill="#333"/>
          <path d="M272.41,29H269V26.56c-1.46,1.71-2.8,2.68-4.14,2.68-2.8,0-3.41-1.95-3.41-6V9h3.65V23.27c0,1.71.37,2.56,1.46,2.56a2.77,2.77,0,0,0,2.07-1.46V9h3.65V29Z" fill="#333"/>
          <path d="M275.33,9h3.53v2.44c1.34-1.71,2.68-2.8,3.9-2.8,1.58,0,2.44,1.1,2.92,2.8,1.34-1.71,2.68-2.8,3.9-2.8,2.56,0,3.17,2.07,3.17,6.09V28.87H289.1V14.74c0-1.71-.37-2.44-1.34-2.44-.49,0-1.1.49-1.71,1.34V29H282.4V14.74c0-1.71-.37-2.44-1.34-2.44-.49,0-1.1.49-1.71,1.34V29H275.7V9Z" fill="#333"/>
        </g>
      </g>
      <path d="M296,11.94a1.83,1.83,0,1,1,1.83-1.83A1.73,1.73,0,0,1,296,11.94Zm0-3.29a1.41,1.41,0,0,0-1.46,1.46,1.46,1.46,0,0,0,2.92,0A1.34,1.34,0,0,0,296,8.65Zm.49,1.71.37.85h-.37l-.37-.73h-.37v.73h-.37V9.14h.85a.58.58,0,0,1,.61.61A.67.67,0,0,1,296.53,10.35Zm-.24-.85h-.49v.61h.49c.12,0,.37-.12.37-.24C296.53,9.5,296.41,9.5,296.29,9.5Z" fill="#333"/>
    </g>
  </g>
</svg>
