<?xml version="1.0" encoding="utf-8"?>
<!-- Generator: Adobe Illustrator 15.0.0, SVG Export Plug-In . SVG Version: 6.00 Build 0)  -->
<!DOCTYPE svg PUBLIC "-//W3C//DTD SVG 1.1//EN" "http://www.w3.org/Graphics/SVG/1.1/DTD/svg11.dtd">
<svg version="1.1" id="Layer_1" xmlns="http://www.w3.org/2000/svg" xmlns:xlink="http://www.w3.org/1999/xlink" x="0px" y="0px"
	 width="91px" height="91px" viewBox="0 0 91 91" enable-background="new 0 0 91 91" xml:space="preserve">
<polygon fill="#009DDC" points="0,90.998 91,90.998 91,23.055 "/>
<polygon fill="#009DDC" points="0,0.002 0,86.843 90.917,0.002 "/>
<g>
	<path fill="#FFFFFF" d="M39.333,69.42h1.145l6.565,9.673l6.564-9.673h1.146v16.355h-1.215V71.568l-6.473,9.416h-0.094L40.5,71.568
		v14.207h-1.167V69.42z"/>
	<path fill="#FFFFFF" d="M64.45,86.01c-1.308,0-2.488-0.22-3.539-0.654c-1.052-0.437-2.068-1.09-3.05-1.963l0.795-0.91
		c0.451,0.42,0.898,0.781,1.343,1.086s0.899,0.554,1.368,0.748c0.467,0.194,0.957,0.343,1.472,0.443
		c0.515,0.102,1.074,0.151,1.683,0.151c0.606,0,1.168-0.081,1.683-0.245c0.515-0.163,0.95-0.391,1.31-0.678
		c0.358-0.287,0.639-0.631,0.842-1.027c0.201-0.398,0.304-0.83,0.304-1.298v-0.047c0-0.435-0.066-0.825-0.199-1.168
		s-0.374-0.653-0.724-0.935c-0.353-0.281-0.822-0.533-1.414-0.761c-0.592-0.226-1.355-0.433-2.29-0.619
		c-0.982-0.202-1.822-0.44-2.523-0.713c-0.7-0.271-1.272-0.591-1.717-0.958c-0.444-0.365-0.769-0.789-0.97-1.271
		c-0.203-0.483-0.305-1.037-0.305-1.66v-0.047c0-0.606,0.133-1.172,0.396-1.693c0.266-0.521,0.631-0.979,1.098-1.367
		c0.469-0.389,1.021-0.691,1.659-0.91c0.64-0.218,1.341-0.328,2.104-0.328c1.184,0,2.207,0.164,3.072,0.491
		c0.864,0.327,1.709,0.825,2.535,1.495l-0.771,0.958c-0.778-0.669-1.562-1.146-2.348-1.425c-0.787-0.281-1.633-0.42-2.537-0.42
		c-0.605,0-1.154,0.081-1.646,0.244c-0.49,0.162-0.911,0.386-1.263,0.666c-0.351,0.279-0.618,0.606-0.807,0.98
		c-0.187,0.373-0.279,0.771-0.279,1.192v0.046c0,0.438,0.065,0.829,0.199,1.18c0.133,0.352,0.373,0.672,0.726,0.958
		c0.349,0.288,0.836,0.55,1.459,0.783s1.418,0.451,2.384,0.654c1.898,0.39,3.271,0.938,4.111,1.646
		c0.842,0.71,1.262,1.663,1.262,2.862v0.047c0,0.653-0.137,1.258-0.408,1.811c-0.271,0.554-0.646,1.024-1.122,1.414
		c-0.475,0.39-1.044,0.693-1.704,0.91C65.973,85.9,65.246,86.01,64.45,86.01z"/>
	<path fill="#FFFFFF" d="M73.166,69.42h5.443c1.277,0,2.449,0.205,3.518,0.619c1.066,0.413,1.986,0.984,2.757,1.717
		c0.772,0.732,1.367,1.594,1.787,2.582c0.421,0.99,0.632,2.063,0.632,3.213v0.047c0,1.152-0.211,2.229-0.632,3.225
		c-0.42,0.998-1.015,1.861-1.787,2.596c-0.77,0.73-1.69,1.309-2.757,1.729s-2.238,0.631-3.518,0.631h-5.443V69.42z M78.609,84.678
		c1.138,0,2.166-0.184,3.084-0.551c0.92-0.367,1.699-0.867,2.338-1.5c0.64-0.633,1.133-1.376,1.482-2.229
		c0.352-0.853,0.526-1.77,0.526-2.754v-0.047c0-0.97-0.177-1.885-0.526-2.744c-0.351-0.857-0.844-1.607-1.482-2.25
		c-0.639-0.641-1.418-1.147-2.338-1.522c-0.918-0.375-1.946-0.563-3.084-0.563h-4.229v14.16H78.609L78.609,84.678z"/>
</g>
</svg>
