<?xml version="1.0" encoding="utf-8"?>
<!-- Generator: Adobe Illustrator 23.0.0, SVG Export Plug-In . SVG Version: 6.00 Build 0)  -->
<svg version="1.1" id="NKLogo" xmlns="http://www.w3.org/2000/svg" xmlns:xlink="http://www.w3.org/1999/xlink" x="0px" y="0px"
	 viewBox="0 0 502 1022" style="enable-background:new 0 0 502 1022;" xml:space="preserve">
<style type="text/css">
	.st0{fill:#020233;}
</style>
<path class="st0" d="M495.2,408.1v-48.4c0-112.2-0.1-224.4,0.1-336.5c0-9.5-5.7-14.7-14.6-14.7C326.8,8.7,173,8.6,19.1,8.6
	C8.9,8.6,4.6,13,4.6,23.3c0,256.6,0,513.2,0,769.8c0,10.4,4.4,14.8,14.8,14.8c13.6,0,27.2,0.1,40.8,0c2.4,0,4,0.7,5.6,2.5
	c46.5,52.1,93.1,104.1,139.6,156.1c12.1,13.5,24.1,27,36.2,40.4c5.5,6.1,13.4,6.2,19,0.2c0.8-0.9,1.6-1.8,2.4-2.7
	c57.9-64.7,115.8-129.3,173.6-194.1c1.6-1.8,3.3-2.5,5.7-2.4c13,0.1,26.1,0,39.1,0.1c4.6,0,9.1-0.8,11.5-5c1.6-2.8,2.5-6.3,2.5-9.6
	c0.1-128.4,0.1-256.8,0.1-385.2H495.2L495.2,408.1z M470.3,367.8c-0.5-0.9-1-1.8-1.4-2.8c-15.4-33.3-30.7-66.5-46.1-99.8
	c-0.8-1.7-1.2-3.2-0.2-5.2c15.7-30.9,31.3-61.9,46.8-92.9c0.1-0.1,0-0.1,0.1-0.1l0.3-0.6l1.1-1.9v203.1
	C470.6,367.7,470.5,367.8,470.3,367.8L470.3,367.8z M470.7,463.6v166.6c-0.9,0.1-1.6,0.2-2.4,0.2c-9.8,0-19.5,0-29.3,0
	c-1.8,0-2.7-0.5-3.4-2.2c-11.8-28.5-23.6-57-35.4-85.6c-0.4-1-0.3-2.9,0.4-3.7c23-25.1,46.2-50.1,69.3-75.1
	C470.2,463.8,470.3,463.8,470.7,463.6L470.7,463.6z M278.1,33.2h192.5c0.2,4.4,0.3,8.3-1.9,12.4c-38.4,70.1-76.7,140.3-115.1,210.3
	c-1.4,2.6-1,4.6,0,7c23.1,51.3,46.2,102.6,69.4,153.9c0.8,1.7,1.3,3-0.2,4.7c-16,18.6-32,37.3-47.9,55.9c-0.4,0.4-0.6,1-1.2,2
	c-3.3-8-6.2-15.2-9.1-22.4c-22.5-55.1-45.1-110.2-67.4-165.4c-2.1-5.3-2.2-11.5-2.6-17.4c-2.5-34.4-4.9-68.8-7.3-103.3
	c-2.3-33.2-4.5-66.4-6.8-99.7c-0.8-10.9-1.6-21.8-2.3-32.8C278,36.8,278.1,35,278.1,33.2L278.1,33.2z M177.9,689.9
	c13.1,0,26.3,0.1,39.5,0.2c7,0,14,0.3,21,0.2c2.6,0,4.6,0.6,6.5,2.4c1.9,1.8,4,3.4,6.2,5.3c2.5-2.1,4.8-4.2,7.4-6
	c1.1-0.8,2.7-1.5,4.1-1.5c10-0.2,20-0.2,29.9-0.3c19.6-0.1,39.3-0.2,58.9-0.2h4.6c-35.2,35.8-69.9,71-104.8,106.5
	c-34.7-35.3-69.4-70.5-104.8-106.5C157.6,689.9,167.7,689.8,177.9,689.9L177.9,689.9z M129,630.3c6-14.4,11.9-28.5,18.1-43.2
	c13.5,14.5,26.5,28.6,40.1,43.2H129z M315.2,630.2c13.5-14.5,26.5-28.6,40-43.1c6.1,14.5,12,28.7,18.1,43.1H315.2z M251.2,337.7
	c2.5,6.1,4.9,11.6,7.2,17.2c23.7,57,47.4,114,71.2,171c0.7,1.6,1.3,2.9-0.3,4.6c-25.7,28.5-51.3,57-77,85.5c-0.3,0.3-0.5,0.7-1,1.4
	c-9.3-10.3-18.2-20.2-27-30c-16.9-18.8-33.8-37.7-50.8-56.5c-1.3-1.4-1.9-2.5-1-4.6c26-62.2,51.9-124.5,77.8-186.7
	C250.4,339.2,250.7,338.7,251.2,337.7L251.2,337.7z M224.3,33.2c-0.1,3.1-0.2,6.1-0.4,9.1c-2.2,31.1-4.3,62.3-6.5,93.4
	c-2.3,33.1-4.7,66.2-7,99.3c-1.2,16.8-2.3,33.7-3.5,50.5c-0.1,1.4-0.4,2.8-0.9,4.1c-25.4,62.3-50.9,124.6-76.4,186.9
	c-0.2,0.6-0.6,1.1-1.1,2.1c-1.5-1.8-2.9-3.3-4.2-4.8c-14.8-17.3-29.6-34.7-44.5-51.9c-1.7-1.9-1.6-3.3-0.7-5.4
	c23.2-51.4,46.3-102.8,69.5-154.1c1-2.3,1.1-4-0.2-6.3C109.1,183.9,69.7,111.7,30.4,39.5c-1-1.8-1.3-4-2-6.3L224.3,33.2L224.3,33.2z
	 M30.8,370.7c-0.3,0.7-0.7,1.4-1.5,2.9V160.3c0.9,1.6,1.4,2.4,1.8,3.2c16.1,32.1,32.2,64.2,48.2,96.3c0.7,1.3,0.9,3.5,0.3,4.8
	C63.5,300,47.1,335.3,30.8,370.7L30.8,370.7z M29.1,461.5c0.4-0.4,0.8-0.8,1.2-1.2c0.4,1,0.6,2.2,1.3,2.9
	c23.1,25.1,46.2,50.1,69.3,75.1c1.5,1.6,1.8,2.7,0.9,4.8c-11.8,28-23.4,56.1-35,84.3c-0.9,2.3-2,3.1-4.5,3.1
	c-10-0.2-20-0.1-29.9-0.1h-3.4L29.1,461.5L29.1,461.5z M470.9,783.5H467c-10.9,0-21.7,0.1-32.6,0c-4.6,0-8.1,1.7-11.2,5.1
	c-51.6,57.7-103.2,115.3-154.8,173c-5.7,6.4-11.4,12.7-17.3,19.4c-8.1-9-15.8-17.6-23.5-26.3c-47.9-53.5-95.7-107-143.6-160.5
	c-10.4-11.7-8.5-10.7-24.1-10.7H29.2v-93.7c1,0,2-0.2,3-0.2c10.9,0,21.7-0.1,32.6,0.1c1.5,0,3.4,0.9,4.4,2
	c59.5,63.9,118.9,127.9,178.4,191.9c1.1,1.2,2.2,2.4,3.6,3.8c4.8-5.2,9.5-10.2,14.2-15.2c28.3-30.4,56.5-60.9,84.8-91.3
	c27.6-29.7,55.2-59.4,82.7-89.1c1.5-1.6,3-2.2,5.1-2.2c9.9,0.1,19.7,0,29.6,0c1.1,0,2.1,0.1,3.4,0.2L470.9,783.5L470.9,783.5z"/>
</svg>
