<?xml version="1.0" encoding="UTF-8" standalone="no"?>
<!-- Created with Inkscape (http://www.inkscape.org/) -->

<svg
   xmlns:dc="http://purl.org/dc/elements/1.1/"
   xmlns:cc="http://creativecommons.org/ns#"
   xmlns:rdf="http://www.w3.org/1999/02/22-rdf-syntax-ns#"
   xmlns:svg="http://www.w3.org/2000/svg"
   xmlns="http://www.w3.org/2000/svg"
   version="1.1"
   width="249.09"
   height="42.360001"
   id="svg17970">
  <defs
     id="defs17972" />
  <metadata
     id="metadata17975">
    <rdf:RDF>
      <cc:Work
         rdf:about="">
        <dc:format>image/svg+xml</dc:format>
        <dc:type
           rdf:resource="http://purl.org/dc/dcmitype/StillImage" />
        <dc:title></dc:title>
      </cc:Work>
    </rdf:RDF>
  </metadata>
  <g
     transform="translate(0,-1010.0021)"
     id="layer1">
    <path
       d="m 35.293929,1013.6982 -5.26953,24.0333 -8.95846,-24.0333 -9.4919,0 -8.3798697,37.9575 9.7967297,0 5.1143,-23.813 8.84273,23.813 9.46369,0 8.36858,-37.9575 -9.48627,0 z"
       id="path9076"
       style="fill:#006680;fill-opacity:1;fill-rule:nonzero;stroke:none" />
    <path
       d="m 112.59162,1013.7973 -11.76962,0 -9.398781,18.2557 10.440261,0.1617 10.72814,-18.4175 z"
       id="path9080"
       style="fill:#006680;fill-opacity:1;fill-rule:nonzero;stroke:none" />
    <path
       d="m 80.728949,1051.7276 9.79109,0 7.22548,-12.3885 -18.48424,0.6163 1.46767,11.7722 z"
       id="path9084"
       style="fill:#006680;fill-opacity:1;fill-rule:nonzero;stroke:none" />
    <path
       d="m 86.814719,1013.7973 -10.88056,0 2.29748,18.0044 9.72335,0.1652 -1.14027,-18.1696 z"
       id="path9088"
       style="fill:#006680;fill-opacity:1;fill-rule:nonzero;stroke:none" />
    <path
       d="m 124.8408,1013.7973 -10.51364,0 -4.11232,18.5759 10.51364,0.186 4.11232,-18.7619 z"
       id="path9092"
       style="fill:#006680;fill-opacity:1;fill-rule:nonzero;stroke:none" />
    <path
       d="m 105.993,1051.7276 10.49106,0 2.9043,-13.1288 -10.58983,0.3788 -2.80553,12.75 z"
       id="path9096"
       style="fill:#006680;fill-opacity:1;fill-rule:nonzero;stroke:none" />
    <path
       d="m 141.19662,1038.2965 c 0.81005,0.4614 1.1685,1.2464 1.12898,2.3551 -0.0594,1.2258 -0.50522,2.1624 -1.38863,2.8372 -0.82699,0.6749 -2.03218,1.0605 -3.55629,1.0915 -0.86933,0.038 -1.70759,-0.031 -2.56844,-0.2548 -0.85804,-0.162 -1.59186,-0.5819 -2.23256,-1.2223 -0.48547,-0.5578 -0.82698,-1.1741 -0.9427,-1.7939 -0.13811,-0.6336 -0.18628,-1.2258 -0.13811,-1.7044 l -9.44675,-0.093 c -0.0986,1.2981 0.12707,3.302 0.33586,4.7895 0.20323,1.5012 0.79876,2.9267 1.82895,4.3177 0.43184,0.5647 1.12616,1.1879 2.08016,1.8559 0.99633,0.6748 2.24385,1.2429 3.86394,1.7422 1.59186,0.4786 3.56193,0.7127 5.89892,0.7678 1.84588,0 3.57605,-0.1895 5.23565,-0.5337 1.60598,-0.3339 3.13293,-0.9709 4.60343,-1.8524 1.6483,-1.0846 2.96074,-2.3241 3.92038,-3.7048 0.89754,-1.3635 1.54953,-2.7064 1.91645,-4.0526 0.4149,-1.3188 0.59553,-2.4722 0.61811,-3.4329 0.0226,-0.6507 0,-1.2498 -0.048,-1.8731 l -11.74424,0.3822 0.63505,0.3788"
       id="path9100"
       style="fill:#006680;fill-opacity:1;fill-rule:nonzero;stroke:none" />
    <path
       d="m 149.10711,1031.4284 c -1.11488,-0.723 -2.39344,-1.3738 -3.84701,-1.9557 l -5.91022,-2.2553 c -0.80439,-0.2858 -1.54953,-0.6817 -2.26643,-1.2223 -0.7536,-0.5165 -1.12334,-1.2327 -1.12334,-2.1692 0.0369,-0.7334 0.40644,-1.4324 1.15156,-2.0246 0.73385,-0.5888 1.86847,-0.909 3.418,-0.9193 1.68782,0 2.94947,0.3305 3.81596,0.9744 0.84108,0.668 1.18825,1.5942 1.02454,2.7924 l 9.44676,-0.038 c 0.0565,-0.9159 -0.20887,-2.8578 -0.33588,-4.0009 -0.10995,-1.1466 -0.5165,-2.2966 -1.18543,-3.4329 -0.67174,-1.1603 -1.81201,-2.1623 -3.42363,-3.0644 -1.18262,-0.6473 -2.45272,-1.0674 -3.75387,-1.305 -1.3209,-0.2308 -2.63898,-0.3512 -3.9853,-0.3512 -2.49504,0.045 -4.55262,0.2617 -6.17271,0.6336 -1.64265,0.4235 -2.96639,0.9778 -4.05867,1.6424 -1.66526,1.0192 -3.00874,2.3895 -4.02201,4.1421 -1.00479,1.7457 -1.56646,3.8013 -1.68218,6.1288 -0.062,1.1604 0.0705,2.3862 0.42337,3.6773 0.36409,1.2809 0.90037,2.3173 1.61444,3.0748 0.30482,0.3512 0.65764,0.6749 0.98221,0.9641 l 21.5946,0.42 c -0.48547,-0.723 -1.04996,-1.2843 -1.70476,-1.7112"
       id="path9104"
       style="fill:#006680;fill-opacity:1;fill-rule:nonzero;stroke:none" />
    <path
       d="m 176.19052,1022.2338 8.34036,0 1.9362,-8.5356 -28.36283,0 -1.86847,8.5356 9.15039,0 -2.49221,11.1145 10.75071,0.1791 2.54585,-11.2936 z"
       id="path9108"
       style="fill:#006680;fill-opacity:1;fill-rule:nonzero;stroke:none" />
    <path
       d="m 158.74862,1051.6557 10.79306,0 3.34743,-14.7988 -10.86643,0.334 -3.27406,14.4648 z"
       id="path9112"
       style="fill:#006680;fill-opacity:1;fill-rule:nonzero;stroke:none" />
    <path
       d="m 236.15666,1027.2491 c -0.29636,0.6404 -0.70561,1.1466 -1.14027,1.5012 -0.34151,0.2927 -0.8552,0.5062 -1.53259,0.637 -0.68303,0.1309 -1.68782,0.1895 -2.98334,0.2237 -1.32371,0 -3.09905,0 -5.30338,-0.045 l 1.62573,-7.4648 7.07871,0 c 0.77336,-0.025 1.44511,0.1928 2.00676,0.6921 0.54193,0.4786 0.82699,1.3084 0.82135,2.5858 -0.0594,0.6163 -0.25403,1.2292 -0.57297,1.8696 m 6.963,-11.9374 c -1.16286,-0.6818 -2.3003,-1.1225 -3.49419,-1.305 -1.17979,-0.2135 -2.19023,-0.3305 -3.03978,-0.3615 l -17.948,0 -8.17664,37.9471 9.96326,0 2.83375,-13.2665 6.27713,0 3.20349,13.2665 10.18058,0 -3.99659,-14.9709 c 1.19108,-0.5233 2.38214,-1.2361 3.53371,-2.1072 1.13745,-0.8952 2.19587,-2.3276 3.08777,-4.2867 0.43183,-1.0054 0.74512,-1.9764 0.96527,-2.9302 0.22015,-0.9847 0.30765,-1.8627 0.36974,-2.6891 0.0761,-2.572 -0.25401,-4.5966 -0.98221,-6.0703 -0.72255,-1.4806 -1.63702,-2.5514 -2.77729,-3.2262"
       id="path9116"
       style="fill:#006680;fill-opacity:1;fill-rule:nonzero;stroke:none" />
    <path
       d="m 64.361809,1051.5916 10.86081,0 -1.4564,-11.4657 -10.09874,0.3408 0.69433,11.1249 z"
       id="path9120"
       style="fill:#006680;fill-opacity:1;fill-rule:nonzero;stroke:none" />
    <path
       d="m 194.58616,1013.6527 -11.32934,20.0461 10.14955,0.1962 3.29097,-6.5111 1.45075,24.2089 10.53339,0 -4.62882,-37.9402 -9.4665,0 z"
       id="path9124"
       style="fill:#006680;fill-opacity:1;fill-rule:nonzero;stroke:none" />
    <path
       d="m 173.15864,1051.5916 11.38861,0 7.70812,-15.3944 -10.61806,0.365 -8.47867,15.0294 z"
       id="path9128"
       style="fill:#006680;fill-opacity:1;fill-rule:nonzero;stroke:none" />
    <path
       d="m 70.409219,1013.6527 -9.7685,0 -22.06594,37.9403 11.78091,0 12.46396,-24.2089 0.2512,4.1249 9.61045,0.1617 -2.27208,-18.0181 z"
       id="path9132"
       style="fill:#006680;fill-opacity:1;fill-rule:nonzero;stroke:none" />
  </g>
</svg>
