<?xml version="1.0" encoding="utf-8"?>
<!-- Generator: Adobe Illustrator 23.0.1, SVG Export Plug-In . SVG Version: 6.00 Build 0)  -->
<svg version="1.1" id="Layer_1" xmlns="http://www.w3.org/2000/svg" xmlns:xlink="http://www.w3.org/1999/xlink" x="0px" y="0px"
	 viewBox="0 0 105 112" style="enable-background:new 0 0 105 112;" xml:space="preserve">
<style type="text/css">
	.st0{fill:#FFFFFF;}
	.st1{fill:#FFD530;}
</style>
<g id="ARNG_Logo">
	<path d="M51.54,91.8L22.5,79.13c-1.46-0.64-2.4-2.08-2.4-3.67V22.4c0-1.33,1.07-2.4,2.4-2.4h60c1.33,0,2.4,1.07,2.4,2.4v53.07
		c0,1.59-0.94,3.03-2.4,3.67L53.46,91.8C52.85,92.07,52.15,92.07,51.54,91.8z"/>
	<path class="st0" d="M72.33,67.89H69.2V57.4h3.28c3,0,5.22,1.41,5.22,5.25C77.7,66.33,75.03,67.89,72.33,67.89z M72.41,59.43H71.3
		v6.41h1.03c2.2,0,3.21-1.29,3.21-3.21C75.54,60.5,74.63,59.43,72.41,59.43z M64.7,67.89l-1.88-3.78h-2.11v3.78h-2.1V57.4h4.89
		c1.98,0,3.61,1.09,3.61,3.33c0,1.57-0.68,2.56-2.01,3.09l2.01,4.08H64.7z M63.45,59.43h-2.74v2.7h2.74c0.97,0,1.5-0.45,1.5-1.36
		C64.95,59.82,64.38,59.43,63.45,59.43z M54.83,67.89l-0.82-2.34h-3.84l-0.83,2.34H47.1l4.02-10.49h2.04l3.99,10.49H54.83z
		 M52.62,61.65c-0.21-0.62-0.42-1.24-0.52-1.63c-0.1,0.39-0.32,1.02-0.53,1.63l-0.68,1.9h2.4L52.62,61.65z M41.96,68.05
		c-2.53,0-4.24-1.71-4.24-4.77V57.4h2.1v5.86c0,1.68,0.81,2.74,2.14,2.74c1.33,0,2.16-1.03,2.16-2.71V57.4h2.1v5.86
		C46.22,66.3,44.63,68.05,41.96,68.05z M31.84,68.05c-2.74,0-4.58-2.1-4.58-5.41c0-3.19,1.92-5.41,4.66-5.41
		c2.14,0,3.28,1,3.97,2.62l-1.99,0.83c-0.39-0.78-0.87-1.36-2.01-1.36c-1.57,0-2.47,1.38-2.47,3.33c0,1.93,0.91,3.36,2.49,3.36
		c1.44,0,1.93-0.67,2.05-1.59h-1.66v-1.96h3.76v1.38C36.06,66.52,34.27,68.05,31.84,68.05z M72.44,48.35h1.4v5.34h3.51V55h-4.91
		V48.35z M67.36,48.35h1.36L71.38,55h-1.54l-0.55-1.48h-2.56L66.18,55h-1.5L67.36,48.35z M68.01,50.01l-0.8,2.24h1.6L68.01,50.01z
		 M57.88,48.35h1.34l2.48,3.52c0.17,0.25,0.4,0.58,0.49,0.75c0-0.25-0.02-1.08-0.02-1.45v-2.81h1.38V55h-1.25l-2.57-3.63
		c-0.17-0.25-0.4-0.58-0.49-0.75c0,0.25,0.02,1.08,0.02,1.45V55h-1.38V48.35z M53.59,48.24c1.91,0,3.04,1.41,3.04,3.43
		c0,2.02-1.13,3.43-3.04,3.43c-1.91,0-3.04-1.41-3.04-3.43C50.55,49.65,51.68,48.24,53.59,48.24z M53.59,49.56
		c-1.13,0-1.6,0.92-1.6,2.11c0,1.19,0.47,2.11,1.6,2.11s1.6-0.92,1.6-2.11C55.19,50.48,54.72,49.56,53.59,49.56z M47.71,48.35h1.4
		V55h-1.4V48.35z M40.93,48.35h5.42v1.31h-2.01V55h-1.4v-5.34h-2.01V48.35z M37.15,48.35h1.36L41.17,55h-1.54l-0.55-1.48h-2.56
		L35.97,55h-1.5L37.15,48.35z M37.8,50.01L37,52.25h1.6L37.8,50.01z M27.65,48.35h1.34l2.48,3.52c0.17,0.25,0.4,0.58,0.49,0.75
		c0-0.25-0.02-1.08-0.02-1.45v-2.81h1.38V55h-1.25l-2.57-3.63c-0.17-0.25-0.4-0.58-0.49-0.75c0,0.25,0.02,1.08,0.02,1.45V55h-1.38
		V48.35z"/>
	<path class="st1" d="M54.59,80.99l3.38-2.45h-4.18l-1.29-3.98l-1.29,3.98h-4.18l3.38,2.45l-1.29,3.97l3.38-2.46l3.38,2.46
		L54.59,80.99z M70.34,41.67v4.29h2.31v-4.34L77.01,35h-2.62l-2.88,4.75L68.62,35h-2.65L70.34,41.67z M53.25,45.97h2.26v-4.03
		c0-0.6-0.03-1.99-0.03-2.41c0.16,0.41,0.51,1.19,0.81,1.82l2.34,4.87l2.34-4.87c0.3-0.63,0.65-1.41,0.81-1.82
		c0,0.42-0.03,1.82-0.03,2.41v4.03h2.31V35h-2.27l-2.33,4.97c-0.3,0.63-0.63,1.43-0.78,1.83c-0.15-0.39-0.49-1.22-0.79-1.83
		L55.48,35h-2.23V45.97z M40.93,45.97h2.31v-3.95h2.33l2.06,3.95h2.65l-2.21-4.26c1.46-0.55,2.21-1.58,2.21-3.23
		c0-2.34-1.8-3.48-3.98-3.48h-5.38V45.97z M47.9,38.53c0,0.95-0.58,1.43-1.65,1.43h-3.02v-2.82h3.02
		C47.28,37.13,47.9,37.54,47.9,38.53z M27.65,45.97h2.48l0.9-2.44h4.22l0.9,2.44h2.54L34.31,35h-2.24L27.65,45.97z M34.46,41.44
		h-2.64l1.32-3.7L34.46,41.44z M77.7,32.6H27.3v-1h50.4V32.6z M77.7,70.49H27.3v1h50.4V70.49z"/>
	<path class="st0" d="M35.01,28.71l-1.68-2.5c-0.11-0.17-0.26-0.4-0.32-0.52c0,0.17,0.01,0.75,0.01,1v2.02h-0.9v-4.58h0.88
		l1.62,2.42c0.11,0.17,0.26,0.4,0.32,0.52c0-0.17-0.01-0.75-0.01-1v-1.94h0.9v4.58H35.01z M36.98,28.71v-4.58h3.18v0.9h-2.27v0.79
		h1.32v0.89h-1.32v1.11h2.36v0.9H36.98z M45.03,28.71h-0.9l-0.56-2.36c-0.07-0.27-0.13-0.62-0.16-0.79
		c-0.02,0.17-0.08,0.52-0.15,0.79l-0.58,2.36h-0.86l-0.96-4.58h0.96l0.4,2.23c0.04,0.22,0.09,0.56,0.11,0.75
		c0.03-0.19,0.1-0.53,0.16-0.75l0.54-2.23h0.8l0.54,2.23c0.05,0.22,0.12,0.56,0.16,0.75c0.02-0.19,0.07-0.54,0.11-0.75l0.4-2.23
		h0.94L45.03,28.71z M52.11,28.71v-1.68c0-0.25,0.01-0.83,0.01-1.01c-0.07,0.17-0.2,0.5-0.32,0.76l-0.93,2.04l-0.93-2.04
		c-0.12-0.26-0.26-0.59-0.32-0.76c0,0.18,0.01,0.76,0.01,1.01v1.68h-0.9v-4.58h0.88l0.96,2.07c0.12,0.26,0.26,0.6,0.31,0.77
		c0.06-0.17,0.19-0.5,0.31-0.77l0.92-2.07h0.9v4.58H52.11z M54.18,28.71v-4.58h3.18v0.9h-2.27v0.79h1.32v0.89h-1.32v1.11h2.36v0.9
		H54.18z M61.02,28.71l-0.41-0.69c-0.16-0.27-0.41-0.73-0.5-0.9c-0.08,0.17-0.33,0.61-0.5,0.9l-0.41,0.69h-1.09l1.45-2.34
		l-1.39-2.24h1.09l0.35,0.59c0.16,0.27,0.41,0.73,0.5,0.9c0.09-0.17,0.33-0.61,0.5-0.9l0.35-0.59h1.09l-1.39,2.24l1.46,2.34H61.02z
		 M63.03,28.71v-4.58h0.92v4.58H63.03z M67.75,25.46c-0.16-0.31-0.43-0.5-0.84-0.5c-0.69,0-1.08,0.6-1.08,1.45
		c0,0.82,0.4,1.45,1.09,1.45c0.41,0,0.66-0.18,0.9-0.58l0.77,0.46c-0.31,0.65-0.86,1.03-1.7,1.03c-1.2,0-2-0.92-2-2.36
		c0-1.39,0.84-2.36,2.04-2.36c0.86,0,1.39,0.42,1.68,1.01L67.75,25.46z M71.15,28.78c-1.2,0-2.02-0.88-2.02-2.36
		s0.83-2.37,2.03-2.37c1.19,0,2.01,0.88,2.01,2.36C73.17,27.89,72.34,28.78,71.15,28.78z M71.14,24.96c-0.64,0-1.07,0.52-1.07,1.45
		c0,0.93,0.45,1.46,1.09,1.46c0.64,0,1.07-0.52,1.07-1.45C72.23,25.49,71.78,24.96,71.14,24.96z"/>
</g>
</svg>
