<?xml version="1.0" encoding="UTF-8" standalone="no"?>
<!DOCTYPE svg PUBLIC "-//W3C//DTD SVG 1.1//EN" "http://www.w3.org/Graphics/SVG/1.1/DTD/svg11.dtd">
<svg width="100%" height="100%" viewBox="0 0 137 31" version="1.1" xmlns="http://www.w3.org/2000/svg" xmlns:xlink="http://www.w3.org/1999/xlink" xml:space="preserve" xmlns:serif="http://www.serif.com/" style="fill-rule:evenodd;clip-rule:evenodd;stroke-linejoin:round;stroke-miterlimit:1.41421;">
    <g transform="matrix(1,0,0,1,-35,-732)">
        <path d="M101.03,740.88L101.03,748.93L90.83,740.17L90.83,754.33L93.48,754.33L93.48,746.29L103.67,755.04L103.67,754.33L103.67,740.88" style="fill:rgb(50,50,50);fill-rule:nonzero;"/>
        <path d="M115.07,749.77C115.07,751.2 114.35,752.4 112.8,752.4C111.23,752.4 110.51,751.2 110.51,749.77L110.51,742.45L107.87,742.45L107.87,749.77C107.87,752.77 109.44,754.68 112.8,754.68C116.28,754.68 117.71,752.77 117.71,749.77L117.71,742.45L115.07,742.45" style="fill:rgb(50,50,50);fill-rule:nonzero;"/>
        <path d="M124.55,742.45L119.64,754.33L122.64,754.33L123.48,752.4L128.39,752.4L129.12,754.33L132.12,754.33L126.83,742.45L124.55,742.45ZM124.19,750.13L125.76,745.93L127.19,750.13L124.19,750.13Z" style="fill:rgb(50,50,50);fill-rule:nonzero;"/>
        <path d="M143.16,748.93L134.87,742.08L134.87,754.33L137.51,754.33L137.51,747.84L145.8,755.04L145.8,754.33L145.8,742.45L143.16,742.45" style="fill:rgb(50,50,50);fill-rule:nonzero;"/>
        <path d="M154.92,752.4C153,752.4 151.55,750.84 151.55,748.56C151.55,746.29 153,744.72 154.92,744.72C156.12,744.72 156.83,745.08 157.19,745.56L159.48,744C158.39,742.81 156.48,742.08 155.28,742.08C151.55,742.08 148.92,744.72 148.92,748.56C148.92,752.4 151.55,754.68 155.28,754.68C156.83,754.68 158.76,753.97 159.48,752.77L157.55,750.84C156.83,752.04 156.12,752.4 154.92,752.4Z" style="fill:rgb(50,50,50);fill-rule:nonzero;"/>
        <path d="M165.23,752.04L165.23,749.77L170.16,749.77L170.16,747L165.23,747L165.23,744.72L170.51,744.72L170.51,742.45L162.48,742.45L162.48,754.33L170.87,754.33L170.87,752.04" style="fill:rgb(50,50,50);fill-rule:nonzero;"/>
        <path d="M49.8,740.88C55.92,740.88 63.48,746.29 63.48,746.29L63.48,745.93C63.48,745.93 56.28,733.68 42.6,733.68L38.39,733.68C37.32,733.68 36.48,734.4 36.48,735.24L36.48,746.65C36.48,747.84 37.32,748.56 38.39,748.56L49.8,748.56" style="fill:rgb(50,50,50);fill-rule:nonzero;"/>
        <path d="M69.96,754.33C63.83,754.33 56.28,748.93 56.28,748.93L56.28,749.4C56.28,749.4 63.83,761.65 77.16,761.65L81.35,761.65C82.44,761.65 83.16,760.81 83.16,759.72L83.16,748.56C83.16,747.49 82.44,746.65 81.35,746.65L69.96,746.65" style="fill:rgb(50,50,50);fill-rule:nonzero;"/>
        <path d="M87.71,758.52C88.55,758.52 89.28,759.24 89.28,760.08C89.28,760.81 88.55,761.65 87.71,761.65C87,761.65 86.28,760.81 86.28,760.08C86.28,759.24 87,758.52 87.71,758.52ZM87.71,761.17C88.55,761.17 88.92,760.81 88.92,760.08C88.92,759.24 88.55,758.88 87.71,758.88C87,758.88 86.64,759.24 86.64,760.08C86.64,760.81 87,761.17 87.71,761.17ZM87.35,759.24L87.71,759.24C88.07,759.24 88.55,759.24 88.55,759.72C88.55,760.08 88.07,760.08 88.07,760.08L88.55,760.81L88.07,760.81L87.71,760.08L87.35,760.08L87.35,760.81L87.35,759.24ZM87.35,760.08L87.71,760.08C88.07,760.08 88.07,760.08 88.07,759.72C88.07,759.24 88.07,759.24 87.71,759.24L87.35,759.24" style="fill:rgb(50,50,50);fill-rule:nonzero;"/>
    </g>
</svg>
