<svg width="5270" height="997" viewBox="0 0 5270 997" fill="none" xmlns="http://www.w3.org/2000/svg">
<path d="M5053.42 471.09V375.934H5116.52C5116.52 375.934 5180.16 375.935 5180.16 423.247C5180.16 460.767 5141.54 468.933 5124.68 470.561L5053.42 471.09ZM5160.04 527.668C5197 517.346 5243.77 490.691 5243.77 423.247C5243.77 312.303 5116.52 312.303 5116.52 312.303H4989.79V692.994H5053.42V534.193H5089.88L5188.85 692.994H5263.37L5160.04 527.668Z" fill="#4859E9"/>
<path d="M453.126 744.102C456.448 747.439 460.147 750.382 464.025 752.878L444.166 772.75L375.148 841.767L355.277 861.639C352.692 857.747 349.729 854.057 346.407 850.72C343.085 847.396 339.482 844.534 335.693 842.039L355.553 822.18L444.442 733.305C446.932 737.184 449.803 740.778 453.126 744.102Z" fill="#4859E9"/>
<path d="M664.99 843.44C661.201 845.923 657.592 848.799 654.269 852.121C650.936 855.445 647.985 859.135 645.49 863.028L625.529 843.156L555.225 772.755L535.264 752.802C539.147 750.388 542.841 747.443 546.169 744.107C549.491 740.784 552.448 737.094 554.847 733.215L645.124 823.474L664.99 843.44Z" fill="#4859E9"/>
<path d="M443.238 221.174L463.194 241.127C459.039 243.624 455.25 246.676 451.742 250.175C448.595 253.322 445.823 256.74 443.424 260.443L423.558 240.572L353.338 170.36L333.473 150.489C337.076 148.088 340.495 145.32 343.636 142.174C347.149 138.674 350.196 134.875 352.786 130.725L372.742 150.679L443.238 221.174Z" fill="#4859E9"/>
<path d="M662.305 152.335L642.445 172.207L573.518 241.13L553.467 261.083C551.061 257.204 548.111 253.514 544.782 250.177C541.454 246.853 537.757 243.897 533.883 241.496L553.838 221.542L622.766 152.62L642.722 132.762C645.216 136.641 648.173 140.235 651.495 143.559C654.822 146.896 658.427 149.839 662.305 152.335Z" fill="#4859E9"/>
<path d="M163.537 229.232C200.046 265.748 200.046 324.944 163.537 361.46C127.018 397.962 67.8185 397.962 31.3096 361.46C-5.20999 324.944 -5.20999 265.748 31.3096 229.232C67.8185 192.73 127.018 192.73 163.537 229.232Z" fill="#4859E9"/>
<path d="M343.639 142.175C340.498 145.322 337.079 148.089 333.477 150.49C322.758 157.611 310.283 161.396 297.163 161.396C279.614 161.396 263.076 154.559 250.602 142.175C238.219 129.709 231.378 113.174 231.378 95.6073C231.378 78.0547 238.219 61.5195 250.602 49.1485C263.076 36.669 279.614 29.8325 297.163 29.8325C314.725 29.8325 331.261 36.669 343.639 49.1485C356.112 61.5195 362.949 78.0547 362.949 95.6073C362.949 108.263 359.441 120.282 352.791 130.726C350.199 134.877 347.152 138.675 343.639 142.175ZM363.23 29.5477C345.028 11.2625 321.098 2.10645 297.163 2.10645C273.234 2.10645 249.304 11.2625 231.008 29.5477C194.516 66.0501 194.516 125.178 231.008 161.762C249.304 179.965 273.234 189.108 297.163 189.108C316.939 189.108 336.799 182.828 353.341 170.362C356.764 167.772 360.087 164.909 363.23 161.762C366.737 158.262 369.879 154.559 372.745 150.68C399.447 114.001 396.304 62.5368 363.23 29.5477Z" fill="#4859E9"/>
<path d="M164.917 630.065C201.431 666.582 201.431 725.777 164.917 762.28C128.397 798.797 69.2046 798.797 32.6903 762.28C-3.82386 725.777 -3.82386 666.582 32.6903 630.065C69.2046 593.55 128.397 593.55 164.917 630.065Z" fill="#4859E9"/>
<path d="M364.641 430.337C401.155 466.854 401.155 526.049 364.641 562.566C328.132 599.081 268.934 599.081 232.419 562.566C195.899 526.049 195.899 466.854 232.419 430.337C268.934 393.821 328.132 393.821 364.641 430.337Z" fill="#4859E9"/>
<path d="M544.778 343.228C532.3 355.694 515.858 362.53 498.212 362.53C480.658 362.53 464.216 355.694 451.741 343.228C439.353 330.844 432.519 314.295 432.519 296.743C432.519 283.625 436.307 271.159 443.423 260.444C445.823 256.74 448.594 253.321 451.741 250.174C455.249 246.675 459.037 243.623 463.192 241.127C473.547 234.481 485.65 230.967 498.212 230.967C511.146 230.967 523.34 234.657 533.879 241.493C537.753 243.894 541.451 246.851 544.778 250.174C548.107 253.511 551.057 257.201 553.464 261.08C560.299 271.62 563.997 283.91 563.997 296.743C563.997 314.295 557.161 330.844 544.778 343.228ZM573.514 241.127C570.737 237.424 567.691 233.924 564.368 230.601C561.041 227.264 557.533 224.321 553.834 221.54C537.297 209.345 517.797 203.241 498.212 203.241C478.993 203.241 459.59 209.251 443.238 221.174C439.353 223.941 435.66 227.088 432.146 230.601C429.011 233.734 426.148 237.071 423.557 240.571C395.93 277.169 398.796 329.46 432.146 362.815C450.443 381.101 474.373 390.257 498.212 390.257C522.142 390.257 546.072 381.101 564.368 362.815C597.539 329.636 600.586 277.711 573.514 241.127Z" fill="#4859E9"/>
<path d="M744.54 143.557C732.063 155.941 715.524 162.777 697.976 162.777C685.13 162.777 672.838 159.088 662.303 152.333C658.425 149.837 654.821 146.894 651.494 143.557C648.171 140.233 645.215 136.639 642.72 132.76C635.884 122.22 632.19 109.835 632.19 96.9892C632.19 79.4366 639.026 62.9014 651.494 50.5304C663.871 38.0509 680.416 31.2144 697.976 31.2144C715.524 31.2144 732.063 38.0509 744.54 50.5304C756.911 62.9014 763.761 79.4366 763.761 96.9892C763.761 114.555 756.911 131.091 744.54 143.557ZM764.127 30.9431C745.829 12.6445 721.905 3.50195 697.976 3.50195C674.04 3.50195 650.111 12.6445 631.909 30.9431C598.643 64.1087 595.596 115.939 622.764 152.618C625.53 156.307 628.588 159.821 631.909 163.144C635.237 166.467 638.745 169.438 642.443 172.205C658.886 184.4 678.381 190.49 697.976 190.49C721.905 190.49 745.829 181.348 764.127 163.144C800.618 126.56 800.618 67.432 764.127 30.9431Z" fill="#4859E9"/>
<path d="M346.409 943.776C334.032 956.242 317.494 963.078 299.939 963.078C282.379 963.078 265.841 956.242 253.367 943.776C240.989 931.392 234.154 914.843 234.154 897.29C234.154 879.737 240.989 863.202 253.367 850.722C265.841 838.351 282.379 831.515 299.939 831.515C312.783 831.515 325.161 835.205 335.696 842.041C339.485 844.537 343.088 847.4 346.409 850.722C349.732 854.059 352.695 857.749 355.28 861.642C362.031 872.168 365.723 884.457 365.723 897.29C365.723 914.843 358.882 931.392 346.409 943.776ZM375.151 841.771C372.464 838.068 369.422 834.554 366 831.135C362.671 827.812 359.159 824.868 355.555 822.183C339.108 809.893 319.524 803.789 299.939 803.789C276.01 803.789 252.074 812.945 233.784 831.135C197.286 867.732 197.286 926.861 233.784 963.363C252.074 981.649 276.01 990.791 299.939 990.791C323.868 990.791 347.793 981.649 366 963.363C399.165 930.184 402.312 878.449 375.151 841.771Z" fill="#4859E9"/>
<path d="M546.172 744.105C542.844 747.442 539.151 750.385 535.266 752.799C524.738 759.622 512.534 763.326 499.69 763.326C486.756 763.326 474.564 759.623 464.029 752.881C460.151 750.385 456.451 747.442 453.13 744.105C449.808 740.781 446.936 737.187 444.445 733.307C437.605 722.767 433.905 710.383 433.905 697.537C433.905 679.985 440.751 663.45 453.13 651.079C465.603 638.599 482.044 631.762 499.69 631.762C517.251 631.762 533.699 638.599 546.172 651.079C558.55 663.45 565.385 679.985 565.385 697.537C565.385 710.383 561.686 722.672 554.851 733.212C552.451 737.091 549.493 740.781 546.172 744.105ZM565.755 631.491C547.465 613.193 523.529 604.05 499.69 604.05C475.761 604.05 451.831 613.193 433.544 631.491C400.374 664.656 397.317 716.663 424.49 753.261C427.261 756.855 430.211 760.368 433.544 763.692C436.963 767.016 440.471 770.081 444.17 772.753C460.707 784.947 480.201 791.038 499.69 791.038C519.19 791.038 538.684 784.947 555.228 772.753C558.92 769.986 562.428 767.016 565.755 763.692C569.079 760.368 572.135 756.855 574.812 753.165C601.974 716.582 598.926 664.656 565.755 631.491Z" fill="#4859E9"/>
<path d="M765.484 431.722C802.001 468.238 802.001 527.434 765.484 563.95C728.978 600.466 669.775 600.466 633.26 563.95C596.747 527.434 596.747 468.238 633.26 431.722C669.775 395.22 728.978 395.22 765.484 431.722Z" fill="#4859E9"/>
<path d="M965.218 232.014C1001.73 268.517 1001.73 327.726 965.218 364.229C928.702 400.744 869.504 400.744 832.987 364.229C796.484 327.726 796.484 268.517 832.987 232.014C869.504 195.498 928.702 195.498 965.218 232.014Z" fill="#4859E9"/>
<path d="M747.309 945.157C734.836 957.622 718.304 964.459 700.744 964.459C683.194 964.459 666.651 957.622 654.272 945.157C641.794 932.773 634.958 916.237 634.958 898.671C634.958 885.838 638.658 873.549 645.493 863.023C647.988 859.13 650.939 855.44 654.272 852.117C657.595 848.794 661.205 845.918 664.993 843.435C675.521 836.586 687.899 832.896 700.744 832.896C718.304 832.896 734.836 839.732 747.309 852.117C759.695 864.583 766.532 881.132 766.532 898.671C766.532 916.237 759.695 932.773 747.309 945.157ZM766.898 832.529C748.611 814.326 724.674 805.17 700.744 805.17C681.16 805.17 661.569 811.274 645.127 823.469C641.525 826.249 638.011 829.193 634.684 832.529C631.259 835.948 628.213 839.462 625.533 843.151C598.37 879.83 601.518 931.565 634.684 964.744C652.885 983.03 676.813 992.186 700.744 992.186C724.674 992.186 748.611 983.03 766.898 964.744C803.401 928.241 803.401 869.113 766.898 832.529Z" fill="#4859E9"/>
<path d="M966.6 632.832C1003.12 669.349 1003.12 728.544 966.6 765.061C930.083 801.576 870.885 801.576 834.382 765.061C797.865 728.544 797.865 669.349 834.382 632.832C870.885 596.316 930.083 596.316 966.6 632.832Z" fill="#4859E9"/>
<path d="M1765.35 692.368H1700.44L1509.07 418.511V692.368H1444.73V307.444H1509.63L1701.55 581.287V307.444H1765.35V692.368Z" fill="#4859E9"/>
<path d="M2329.09 307.444V537.297C2329.09 537.84 2328.53 564.236 2315.34 588.978C2299.93 619.228 2272.99 633.524 2232.85 633.524C2193.26 633.524 2166.31 619.228 2150.35 588.978C2137.17 564.236 2136.61 537.84 2136.61 537.84V307.444H2072.83V537.84C2072.83 541.692 2073.37 578.52 2092.08 615.931C2118.46 668.711 2168.5 697.861 2232.85 697.861C2297.19 697.861 2347.24 668.711 2373.62 615.931C2392.33 578.52 2392.87 541.692 2392.87 537.84V307.444H2329.09Z" fill="#4859E9"/>
<path d="M3116.63 692.368H3052.3V455.909L2941.76 692.368H2881.26L2763.58 450.957V692.368H2699.24V306.888H2764.69L2910.96 606.571L3051.2 306.888H3116.63V692.368Z" fill="#4859E9"/>
<path d="M3507.71 366.273V633.524H3552.8V692.368H3398.29V633.524H3443.38V366.273H3400.48V307.444H3550.61V366.273H3507.71Z" fill="#4859E9"/>
<path d="M4156.67 692.368H4091.79L3900.4 418.511V692.368H3836.06V307.444H3900.94L4092.87 581.287V307.444H4156.67V692.368Z" fill="#4859E9"/>
<path d="M4527.39 592.289H4620.86L4574.12 458.664L4527.39 592.289ZM4641.75 647.823H4506.48L4489.97 692.37H4420.7L4574.12 296.432L4728.1 692.37H4658.8L4641.75 647.823Z" fill="#4859E9"/>
</svg>
