<svg width="134" height="65" viewBox="0 0 134 65" fill="none" xmlns="http://www.w3.org/2000/svg">
<path fill-rule="evenodd" clip-rule="evenodd" d="M99.8538 34.2633C99.6044 34.2405 99.3323 34.2177 99.0602 34.2177C92.6209 34.2177 86.159 34.2177 79.7197 34.2177C78.0645 34.2177 76.5001 33.8082 75.2304 32.6479C73.5525 31.1236 73.3938 29.167 73.8473 27.1194C74.3007 25.1628 75.5478 23.957 77.5884 23.6612C77.5884 22.9104 77.5884 22.2051 77.5884 21.4771C77.6337 19.1792 78.1099 16.9951 79.6744 15.2433C81.7377 12.9454 84.3678 11.9216 87.4287 12.0809C88.4263 12.1264 89.424 12.3766 90.3989 12.6041C90.8978 12.7179 91.1245 12.6041 91.3286 12.1264C92.9157 8.53169 95.0243 5.30102 98.1533 2.82114C100.035 1.31957 102.121 0.341267 104.525 0.113756C104.593 0.113756 104.661 0.0227512 104.729 0C105.431 0 106.134 0 106.837 0C107.631 0.182009 108.447 0.341267 109.241 0.523277C116.904 2.27512 121.235 8.7592 121.416 15.8121C121.439 16.3126 121.371 16.8131 121.326 17.3819C122.822 17.4274 124.251 17.6777 125.362 18.7925C126.495 19.93 126.631 21.3861 126.563 22.8422C127.243 23.1379 127.901 23.3654 128.49 23.7067C130.304 24.776 131.211 26.9374 130.871 29.2352C130.463 32.0109 128.513 33.8082 125.52 34.1495C125.021 34.2178 124.523 34.2405 124.024 34.2405C118.378 34.2405 112.71 34.2405 107.064 34.2405C106.792 34.2405 106.497 34.2633 106.202 34.286V34.3088C106.202 30.4866 106.225 26.6644 106.225 22.8422C106.225 22.6147 106.225 22.3871 106.225 22.0004C107.994 23.775 109.649 25.4586 111.236 27.0511C112.778 25.4813 114.274 24.0025 115.657 22.5919C111.463 18.3829 107.2 14.1057 103.005 9.89676C98.8335 14.083 94.5936 18.3374 90.4216 22.5237C91.8727 23.9797 93.3692 25.5041 94.9563 27.0966C96.5661 25.4813 98.1986 23.8432 99.8538 22.1596C99.8538 26.1866 99.8538 30.2363 99.8538 34.2633Z" fill="#29B3D8"/>
<path fill-rule="evenodd" clip-rule="evenodd" d="M78.3588 52.8282C78.3815 53.2604 78.3815 53.5562 78.4042 53.8747C78.903 58.5387 83.4603 60.245 86.7934 58.3794C89.1741 57.0599 89.9223 54.8075 89.6956 52.2139C89.3781 48.4827 86.2038 46.2076 82.5761 47.0721C80.082 47.6636 78.3815 50.0525 78.3588 52.8282ZM83.9592 40.9976C90.6252 40.9976 96.0215 46.3213 96.0215 52.9419C96.0215 59.7445 90.7159 64.9773 83.8231 65C77.4519 65.0228 71.9875 59.4715 72.1236 52.8054C72.2596 46.2986 77.4745 40.9976 83.9592 40.9976Z" fill="#0C3660"/>
<path fill-rule="evenodd" clip-rule="evenodd" d="M121.984 59.0847C125.34 59.0847 127.72 56.5593 127.72 52.9874C127.72 49.4382 125.385 46.9356 122.097 46.9356C118.742 46.9356 116.293 49.5065 116.316 53.0102C116.361 56.5821 118.674 59.0847 121.984 59.0847ZM121.984 40.9976C128.65 40.9976 134.001 46.3441 134.001 52.9647C134.001 59.7673 128.695 64.9773 121.78 64.9773C115.454 64.9773 109.944 59.4715 110.103 52.6234C110.262 46.3213 115.567 40.9976 121.984 40.9976Z" fill="#0C3660"/>
<path fill-rule="evenodd" clip-rule="evenodd" d="M0 64.1808C0 56.4454 0 48.7328 0 40.9974C2.06329 40.9974 4.12658 40.9974 6.23522 40.9974C6.23522 41.5662 6.23522 42.1349 6.23522 42.863C6.62067 42.59 6.87008 42.3852 7.11948 42.2259C10.1577 40.1556 13.332 39.7006 16.6424 41.4752C19.3178 42.8857 20.4288 45.3201 20.4742 48.2095C20.5422 53.465 20.4969 58.7205 20.4969 63.9761C20.4969 64.0443 20.4742 64.0898 20.4515 64.1808C18.4109 64.1808 16.3703 64.1808 14.239 64.1808C14.239 63.9533 14.239 63.7258 14.239 63.4983C14.2163 59.4258 14.2163 55.3761 14.1709 51.3037C14.1709 50.5529 14.0803 49.8021 13.9442 49.074C13.4454 46.4804 10.8606 45.4111 8.63861 46.8899C6.96077 48.0047 6.32591 49.7338 6.30324 51.6677C6.25789 55.5581 6.25789 59.4486 6.25789 63.3163C6.25789 63.5665 6.25789 63.8395 6.25789 64.1808C4.12658 64.1808 2.06329 64.1808 0 64.1808Z" fill="#0C3660"/>
<path fill-rule="evenodd" clip-rule="evenodd" d="M38.7051 41.0205C40.8137 41.0205 42.877 41.0205 44.963 41.0205C44.9857 41.1115 45.0083 41.2025 45.0083 41.2935C45.0083 45.457 45.0083 49.5977 44.963 53.7612C44.9403 55.5358 44.8043 57.3331 44.1014 58.9939C42.673 62.4521 40.0202 64.3405 36.3244 64.7045C34.0344 64.932 31.7443 64.7955 29.6584 63.7034C26.6881 62.1563 25.169 59.54 24.8969 56.2865C24.6475 53.2379 24.6702 50.1437 24.6022 47.0723C24.5568 45.0702 24.6022 43.0681 24.6022 41.0205C26.7108 41.0205 28.7968 41.0205 30.9961 41.0205C30.9961 41.248 30.9961 41.521 30.9961 41.7713C31.0188 45.9575 31.0188 50.121 31.0641 54.3072C31.0868 55.4447 31.2455 56.5823 31.9937 57.5379C32.9007 58.6982 34.4652 59.1304 36.0523 58.6754C37.4127 58.2886 38.3877 57.1283 38.5464 55.604C38.6371 54.603 38.7051 53.5792 38.7051 52.5781C38.7278 48.9834 38.7051 45.366 38.7051 41.7713C38.7051 41.521 38.7051 41.2935 38.7051 41.0205Z" fill="#0C3660"/>
<path fill-rule="evenodd" clip-rule="evenodd" d="M48 41.0201C50.154 41.0201 52.2853 41.0201 54.462 41.0201C56.2532 45.2063 58.0444 49.4153 59.9036 53.738C60.8559 51.5084 61.7402 49.4153 62.6471 47.2994C63.486 45.3428 64.3023 43.3862 65.1639 41.4296C65.2319 41.2476 65.4586 40.9974 65.6173 40.9974C67.6579 40.9746 69.6759 40.9746 71.8072 40.9746C71.195 42.4079 70.6282 43.7502 70.0613 45.0926C67.4312 51.2809 64.8011 57.4692 62.1936 63.6803C62.0349 64.067 61.8535 64.2036 61.4227 64.2036C60.3797 64.1581 59.3141 64.1808 58.2711 64.2036C57.931 64.2036 57.7723 64.0898 57.6362 63.7713C54.462 56.3089 51.2877 48.8465 48.136 41.3841C48.068 41.2931 48.0453 41.1566 48 41.0201Z" fill="#0C3660"/>
<path fill-rule="evenodd" clip-rule="evenodd" d="M106.179 34.2632C106.179 34.5362 106.202 34.7865 106.202 35.0595C106.202 44.4785 106.202 53.9202 106.202 63.3392C106.202 63.6122 106.202 63.8624 106.202 64.181C104.116 64.181 102.03 64.181 99.8762 64.181C99.8762 63.9307 99.8762 63.6804 99.8762 63.4074C99.8762 53.9657 99.8762 44.5012 99.8762 35.0595C99.8762 34.7865 99.8762 34.5362 99.8535 34.2632V34.2859C101.962 34.2632 104.071 34.2632 106.179 34.2632Z" fill="#0C3660"/>
<path fill-rule="evenodd" clip-rule="evenodd" d="M106.18 34.2633C104.071 34.2633 101.963 34.2633 99.8541 34.2633C99.8541 30.2136 99.8541 26.1866 99.8541 22.1369C98.1989 23.7977 96.5437 25.4586 94.9566 27.0739C93.3694 25.4586 91.873 23.957 90.4219 22.5009C94.5938 18.3147 98.8338 14.0602 103.006 9.87402C107.2 14.083 111.463 18.3375 115.658 22.5692C114.252 23.9797 112.778 25.4586 111.236 27.0284C109.649 25.4131 107.994 23.7522 106.225 21.9776C106.225 22.3644 106.225 22.5919 106.225 22.8194C106.203 26.6189 106.18 30.4411 106.18 34.2633Z" fill="#FFFFFE"/>
</svg>
