<?xml version="1.0" encoding="utf-8"?>
<!-- Generator: Adobe Illustrator 17.0.0, SVG Export Plug-In . SVG Version: 6.00 Build 0)  -->
<!DOCTYPE svg PUBLIC "-//W3C//DTD SVG 1.1//EN" "http://www.w3.org/Graphics/SVG/1.1/DTD/svg11.dtd">
<svg version="1.1" id="Layer_1" xmlns="http://www.w3.org/2000/svg" xmlns:xlink="http://www.w3.org/1999/xlink" x="0px" y="0px"
	 width="420px" height="80px" viewBox="0 91 420 80" enable-background="new 0 91 420 80" xml:space="preserve">
<g id="Tier_1" display="none">
	<g display="inline" opacity="0.4" enable-background="new    ">
		<g>
			<defs>
				<rect id="SVGID_1_" y="664.295" width="5760" height="3366.03"/>
			</defs>
			<clipPath id="SVGID_2_">
				<use xlink:href="#SVGID_1_"  overflow="visible"/>
			</clipPath>
			<g clip-path="url(#SVGID_2_)">
				
					<image overflow="visible" enable-background="new    " width="5464" height="3643" xlink:href="F8616479.jpeg"  transform="matrix(1.4583 0 0 1.4589 -1037.6936 -1476.5507)">
				</image>
			</g>
		</g>
	</g>
</g>
<g id="Home_3">
	<g>
		<g>
			<defs>
				<rect id="SVGID_3_" y="601.145" width="5760" height="7177.86"/>
			</defs>
			<clipPath id="SVGID_4_">
				<use xlink:href="#SVGID_3_"  overflow="visible"/>
			</clipPath>
		</g>
	</g>
	<g>
		<g>
			<path d="M38.16,168.905c-21.03,0-38.16-17.1-38.16-38.16c0-21.03,17.13-38.16,38.16-38.16s38.16,17.13,38.16,38.16
				C76.32,151.805,59.22,168.905,38.16,168.905z M38.16,113.405c-9.57,0-17.34,7.77-17.34,17.34s7.77,17.34,17.34,17.34
				s17.34-7.77,17.34-17.34S47.73,113.405,38.16,113.405z"/>
		</g>
		<g>
			<path d="M298.32,168.905c-21.03,0-38.16-17.13-38.16-38.16s17.13-38.16,38.16-38.16s38.16,17.13,38.16,38.16
				C336.48,151.805,319.38,168.905,298.32,168.905z M298.32,113.405c-9.57,0-17.34,7.77-17.34,17.34s7.77,17.34,17.34,17.34
				s17.34-7.77,17.34-17.34S307.89,113.405,298.32,113.405z"/>
		</g>
		<g>
			<path d="M122.79,168.905c-21.03,0-38.16-17.13-38.16-38.16c-0.03-21.03,17.1-38.16,38.16-38.16v20.82
				c-9.57,0-17.34,7.77-17.34,17.34s7.77,17.34,17.34,17.34V168.905z"/>
		</g>
		<g>
			<path d="M251.28,168.905c-21.03,0-38.16-17.13-38.16-38.16c-0.03-21.03,17.1-38.16,38.16-38.16v20.82
				c-9.57,0-17.34,7.77-17.34,17.34s7.77,17.34,17.34,17.34V168.905z"/>
		</g>
		<g>
			<path d="M168.21,168.905c-21.03,0-38.16-17.13-38.16-38.16h20.82c0,9.57,7.77,17.34,17.34,17.34c9.57,0,17.34-7.77,17.34-17.34
				h20.82C206.37,151.805,189.24,168.905,168.21,168.905z"/>
		</g>
		<g>
			<path d="M420,130.745h-20.82c0-9.57-7.77-17.34-17.34-17.34s-17.34,7.77-17.34,17.34h-20.82c0-21.03,17.13-38.16,38.16-38.16
				S420,109.715,420,130.745z"/>
		</g>
	</g>
</g>
</svg>
