<svg width="600" height="100" viewBox="0 0 600 100" fill="none" xmlns="http://www.w3.org/2000/svg">
<path d="M116.54 100C104.726 100 95.34 96.7033 88.3803 90.1099C81.4206 83.4249 77.9407 73.8095 77.9407 61.2637V38.7363C77.9407 26.1905 81.4206 16.6209 88.3803 10.0275C95.34 3.34249 104.726 0 116.54 0C128.353 0 137.739 3.34249 144.699 10.0275C151.75 16.6209 155.276 26.1905 155.276 38.7363V61.2637C155.276 73.8095 151.75 83.4249 144.699 90.1099C137.739 96.7033 128.353 100 116.54 100ZM116.54 86.6758C124.14 86.6758 130.001 84.478 134.122 80.0824C138.243 75.5952 140.303 69.5055 140.303 61.8132V38.1868C140.303 30.4945 138.243 24.4505 134.122 20.0549C130.001 15.5678 124.14 13.3242 116.54 13.3242C109.122 13.3242 103.307 15.5678 99.0946 20.0549C94.8821 24.4505 92.7759 30.4945 92.7759 38.1868V61.8132C92.7759 69.5055 94.8821 75.5952 99.0946 80.0824C103.307 84.478 109.122 86.6758 116.54 86.6758Z" fill="#191919"/>
<path d="M167.756 98.0769V30.3571H181.629V40.522H183.827C185.109 37.7747 187.398 35.2106 190.695 32.8297C193.992 30.4487 198.891 29.2582 205.393 29.2582C210.521 29.2582 215.054 30.4029 218.992 32.6923C223.021 34.9817 226.18 38.2326 228.47 42.4451C230.759 46.5659 231.904 51.5568 231.904 57.4176V98.0769H217.755V58.5165C217.755 52.6557 216.29 48.3516 213.36 45.6044C210.429 42.7656 206.4 41.3461 201.272 41.3461C195.411 41.3461 190.695 43.2692 187.124 47.1154C183.644 50.9615 181.904 56.5476 181.904 63.8736V98.0769H167.756Z" fill="#191919"/>
<path d="M277.815 100C270.947 100 264.949 98.5806 259.821 95.7418C254.692 92.8113 250.663 88.7363 247.733 83.5165C244.894 78.2051 243.474 72.0696 243.474 65.1099V63.4615C243.474 56.4102 244.894 50.2747 247.733 45.0549C250.572 39.7436 254.509 35.6685 259.546 32.8297C264.674 29.8993 270.581 28.4341 277.266 28.4341C283.768 28.4341 289.445 29.8993 294.299 32.8297C299.244 35.6685 303.09 39.652 305.837 44.7802C308.584 49.9084 309.958 55.9066 309.958 62.7747V68.1319H257.898C258.081 74.0842 260.05 78.8461 263.804 82.4176C267.65 85.8974 272.412 87.6373 278.09 87.6373C283.401 87.6373 287.385 86.4469 290.04 84.0659C292.788 81.685 294.894 78.9377 296.359 75.8242L308.035 81.8681C306.753 84.4322 304.876 87.1337 302.403 89.9725C300.022 92.8113 296.863 95.1923 292.925 97.1154C288.987 99.0385 283.951 100 277.815 100ZM258.035 57.2802H295.535C295.169 52.152 293.337 48.1685 290.04 45.3297C286.744 42.3993 282.44 40.9341 277.128 40.9341C271.817 40.9341 267.467 42.3993 264.079 45.3297C260.782 48.1685 258.768 52.152 258.035 57.2802Z" fill="#191919"/>
<path d="M360.643 100C354.049 100 348.967 98.8095 345.395 96.4286C341.916 94.0476 339.306 91.3919 337.566 88.4615H335.368V98.0769H321.494V1.92308H335.643V39.5604H337.84C338.939 37.7289 340.405 35.989 342.236 34.3407C344.068 32.6007 346.494 31.1813 349.516 30.0824C352.538 28.9835 356.247 28.4341 360.643 28.4341C366.32 28.4341 371.54 29.8077 376.302 32.5549C381.064 35.3022 384.864 39.2857 387.703 44.5055C390.542 49.7253 391.961 55.9524 391.961 63.1868V65.2473C391.961 72.5733 390.496 78.8461 387.566 84.0659C384.727 89.1941 380.927 93.1319 376.165 95.8791C371.494 98.6264 366.32 100 360.643 100ZM356.522 87.6373C362.657 87.6373 367.694 85.6685 371.632 81.7308C375.661 77.793 377.676 72.1612 377.676 64.8352V63.5989C377.676 56.3645 375.707 50.7784 371.769 46.8407C367.831 42.9029 362.749 40.9341 356.522 40.9341C350.478 40.9341 345.441 42.9029 341.412 46.8407C337.474 50.7784 335.505 56.3645 335.505 63.5989V64.8352C335.505 72.1612 337.474 77.793 341.412 81.7308C345.441 85.6685 350.478 87.6373 356.522 87.6373Z" fill="#191919"/>
<path d="M403.998 98.0769V30.3571H417.871V38.3242H420.069C421.168 35.4853 422.908 33.4249 425.289 32.1429C427.761 30.7692 430.783 30.0824 434.355 30.0824H442.459V42.8571H433.805C429.227 42.8571 425.472 44.1392 422.542 46.7033C419.611 49.1758 418.146 53.022 418.146 58.2418V98.0769H403.998Z" fill="#191919"/>
<path d="M512.319 100C505.451 100 499.453 98.5806 494.324 95.7418C489.196 92.8113 485.167 88.7363 482.236 83.5165C479.398 78.2051 477.978 72.0696 477.978 65.1099V63.4615C477.978 56.4102 479.398 50.2747 482.236 45.0549C485.075 39.7436 489.013 35.6685 494.05 32.8297C499.178 29.8993 505.084 28.4341 511.769 28.4341C518.271 28.4341 523.949 29.8993 528.802 32.8297C533.747 35.6685 537.594 39.652 540.341 44.7802C543.088 49.9084 544.462 55.9066 544.462 62.7747V68.1319H492.401C492.584 74.0842 494.553 78.8461 498.308 82.4176C502.154 85.8974 506.916 87.6373 512.594 87.6373C517.905 87.6373 521.888 86.4469 524.544 84.0659C527.291 81.685 529.398 78.9377 530.863 75.8242L542.539 81.8681C541.257 84.4322 539.379 87.1337 536.907 89.9725C534.526 92.8113 531.366 95.1923 527.429 97.1154C523.491 99.0385 518.454 100 512.319 100ZM492.539 57.2802H530.039C529.672 52.152 527.841 48.1685 524.544 45.3297C521.247 42.3993 516.943 40.9341 511.632 40.9341C506.321 40.9341 501.971 42.3993 498.583 45.3297C495.286 48.1685 493.271 52.152 492.539 57.2802Z" fill="#191919"/>
<path d="M565.675 98.0769V42.3077H546.719V30.3571H565.675V15.522C565.675 11.4011 566.911 8.1044 569.383 5.63187C571.856 3.15934 575.153 1.92308 579.273 1.92308H596.719V13.8736H583.806C581.151 13.8736 579.823 15.2473 579.823 17.9945V30.3571H599.328V42.3077H579.823V98.0769H565.675Z" fill="#191919"/>
<path d="M453.825 98.7637V32.0055L468.365 32.0055V98.7638L453.825 98.7637ZM453.825 18.7824V1.88679L468.365 1.88679V18.7824L453.825 18.7824Z" fill="#191919"/>
<path d="M0 19.342V2.33899C0 2.08924 0.204156 1.88678 0.455996 1.88678H50.0423C50.4475 1.88678 50.6514 2.37169 50.3663 2.65719L19.4003 33.6647C19.1137 33.9517 18.6203 33.7504 18.6203 33.3464V20.2464C18.6203 19.9966 18.4162 19.7942 18.1643 19.7942H0.455996C0.204156 19.7942 0 19.5917 0 19.342Z" fill="#019EFF"/>
<path d="M37.6967 57.2771H54.8422C55.094 57.2771 55.2982 57.0746 55.2982 56.8249L55.2982 7.04774C55.2982 6.64494 54.8072 6.44315 54.5199 6.72787L23.2456 37.7202C22.9581 38.005 23.1616 38.4922 23.5679 38.4922H36.7847C37.0366 38.4922 37.2407 38.6947 37.2407 38.9444V56.8249C37.2407 57.0746 37.4449 57.2771 37.6967 57.2771Z" fill="#019EFF"/>
</svg>
