<?xml version="1.0" encoding="UTF-8"?>
<svg width="158px" height="50px" viewBox="0 0 158 50" version="1.1" xmlns="http://www.w3.org/2000/svg" xmlns:xlink="http://www.w3.org/1999/xlink">
    <title>OTLogo_Color@1x</title>
    <g id="OTLogo_Color" stroke="none" stroke-width="1" fill="none" fill-rule="evenodd">
        <g id="logo-/-OneTrust-/-color" transform="translate(0.000000, 11.000000)" fill="#6ABF4B" fill-rule="nonzero">
            <g id="OneTrustLogo">
                <path d="M12.2756292,24.1104593 C9.52319061,24.1104593 7.40040996,23.2278964 5.96631769,21.4872703 C4.51795009,19.7302469 3.78354206,17.0974124 3.78354206,13.6624585 C3.78354206,10.2747676 4.51795009,7.66604691 5.96631769,5.90863763 C7.40079578,4.16801151 9.53553685,3.28544868 12.3111246,3.28544868 C15.0739804,3.28544868 17.1842219,4.16145258 18.5835904,5.88896082 C19.99762,7.63537423 20.7144732,10.2506539 20.7144732,13.6624585 C20.7144732,17.1095657 19.9945334,19.7458726 18.5749094,21.4980733 C17.1695607,23.2315617 15.0504454,24.1104593 12.2756292,24.1104593 Z M12.3111246,0 C8.40199822,0 5.33781721,1.20800186 3.20384778,3.59082506 C1.07778767,5.96400277 0,9.34069784 0,13.6269631 C0,17.9479522 1.07470111,21.3481823 3.19420229,23.7331275 C5.3221915,26.1282969 8.37788448,27.3428577 12.2756292,27.3428577 C16.0910014,27.3428577 19.1166004,26.1072697 21.2688963,23.6702389 C23.4115467,21.243818 24.4980153,17.8767684 24.4980153,13.6624585 C24.4980153,9.43638115 23.4146332,6.06933159 21.2775772,3.65429242 C19.1314545,1.22941486 16.1147293,0 12.3111246,0 L12.3111246,0 Z" id="Fill-28"></path>
                <path d="M38.7687188,6.56105895 C37.3917278,6.56105895 36.1225735,6.83692012 34.9969442,7.38131188 C34.0285365,7.84969714 33.2343264,8.49092968 32.6301325,9.29169872 L32.2024513,6.91659191 L29.2669412,6.91659191 L29.2669412,26.9871318 L32.8014365,26.9871318 L32.8014365,16.4718056 C32.8014365,14.0183773 33.2563181,12.2459211 34.1535421,11.203243 C35.0393844,10.173297 36.4725121,9.65108988 38.4131858,9.65108988 C39.8623251,9.65108988 40.9329751,10.0143392 41.5952348,10.7309996 C42.2636676,11.4542188 42.6024174,12.5840922 42.6024174,14.0891753 L42.6024174,26.9871318 L46.1369128,26.9871318 L46.1369128,13.9824961 C46.1369128,11.4223887 45.5084123,9.52396225 44.2687732,8.33968832 C43.0326065,7.15946549 41.1822147,6.56105895 38.7687188,6.56105895" id="Fill-29"></path>
                <path d="M59.3410174,9.61540155 C60.8048178,9.61540155 61.8949517,10.0670036 62.673729,10.9958649 C63.4114165,11.8759199 63.8055314,13.1525977 63.8468142,14.7934894 L54.277711,14.7934894 C54.4700422,13.2147146 54.9860762,11.9561704 55.8134668,11.0496867 C56.6944863,10.0845585 57.8482805,9.61540155 59.3410174,9.61540155 Z M59.3767057,6.56105895 C56.6906281,6.56105895 54.5186555,7.52927378 52.9209756,9.4392748 C51.3362207,11.3336501 50.532558,13.9149776 50.532558,17.1118806 C50.532558,20.2923863 51.4000739,22.8185416 53.1109918,24.6203202 C54.8253822,26.4267286 57.1908435,27.3428577 60.1412077,27.3428577 C61.4711286,27.3428577 62.6249228,27.2419658 63.5705672,27.0430757 C64.5165974,26.8441856 65.5313035,26.5123806 66.5867136,26.0565344 L66.7626474,25.9807208 L66.7626474,22.7155277 L66.3565721,22.8893395 C64.3522381,23.7468241 62.2969759,24.181643 60.2478869,24.181643 C58.3502321,24.181643 56.8638612,23.6148737 55.830057,22.4971537 C54.8356064,21.4224526 54.2827266,19.8353828 54.1847284,17.7766482 L67.5983332,17.7766482 L67.5983332,15.6183721 C67.5983332,12.9259285 66.8558229,10.7223186 65.3914438,9.06850195 C63.917805,7.40465398 61.89418,6.56105895 59.3767057,6.56105895 L59.3767057,6.56105895 Z" id="Fill-30"></path>
                <polyline id="Fill-31" points="69.2378745 3.67666997 77.4703049 3.67666997 77.4703049 26.9871318 81.075984 26.9871318 81.075984 3.67666997 89.3084144 3.67666997 89.3084144 0.408776099 69.2378745 0.408776099 69.2378745 3.67666997"></polyline>
                <path d="M101.374736,6.56105895 C100.100566,6.56105895 98.9149421,6.92469413 97.851044,7.64212608 C96.95382,8.24747738 96.1599957,9.07834036 95.4853897,10.1171602 L95.1856077,6.91659191 L92.1928034,6.91659191 L92.1928034,26.9871318 L95.7274917,26.9871318 L95.7274917,16.2406995 C95.7274917,14.4136497 96.2684111,12.869213 97.3355887,11.6496365 C98.4075891,10.4244657 99.6589956,9.82875991 101.161185,9.82875991 C101.753419,9.82875991 102.450402,9.91634101 103.232073,10.0886096 L103.537064,10.156128 L104.033035,6.83634139 L103.762961,6.78039751 C103.05884,6.63475053 102.25537,6.56105895 101.374736,6.56105895" id="Fill-32"></path>
                <path d="M120.197342,17.4498588 C120.197342,19.8920983 119.744968,21.6653262 118.852567,22.7201575 C117.972705,23.7607136 116.542857,24.2883222 114.603341,24.2883222 C113.154394,24.2883222 112.083551,23.9248799 111.421292,23.2084125 C110.753052,22.4855791 110.414302,21.3557058 110.414302,19.8502368 L110.414302,6.91659191 L106.843925,6.91659191 L106.843925,19.9567231 C106.843925,22.5058346 107.469725,24.3951943 108.703384,25.5729093 C109.932992,26.7473448 111.79245,27.3428577 114.23006,27.3428577 C115.641582,27.3428577 116.919031,27.0760633 118.02672,26.549998 C118.984518,26.0951164 119.772747,25.4590925 120.37617,24.6558156 L120.756588,26.9871318 L123.731837,26.9871318 L123.731837,6.91659191 L120.197342,6.91659191 L120.197342,17.4498588" id="Fill-33"></path>
                <path d="M136.468714,15.3452117 C134.807374,14.7253922 133.672485,14.2469756 133.095299,13.9236586 C132.542998,13.6146169 132.14078,13.2897566 131.899836,12.9577586 C131.668151,12.6384927 131.555299,12.2584602 131.555299,11.7954764 C131.555299,11.1272365 131.858939,10.6152536 132.483774,10.2300125 C133.145262,9.82220097 134.158618,9.61540155 135.495677,9.61540155 C137.038184,9.61540155 138.789421,10.014918 140.701158,10.8025691 L140.965058,10.9113703 L142.246173,7.97991133 L141.975521,7.86455121 C139.945144,6.99954317 137.836831,6.56105895 135.709228,6.56105895 C133.405884,6.56105895 131.560315,7.04275499 130.223835,7.9928363 C128.856296,8.96510224 128.163171,10.310263 128.163171,11.9910871 C128.163171,12.9280505 128.364762,13.749268 128.762735,14.4315904 C129.157622,15.1079325 129.762394,15.7179136 130.561234,16.243979 C131.340204,16.7575051 132.661058,17.3626635 134.48425,18.0418993 C136.354897,18.7624178 137.623087,19.3899538 138.253517,19.9065665 C138.84575,20.3923137 139.133765,20.9554177 139.133765,21.6280945 C139.133765,22.5334208 138.773409,23.1871924 138.032056,23.6266412 C137.251736,24.0894321 136.105272,24.3240105 134.624496,24.3240105 C133.657052,24.3240105 132.637331,24.1893594 131.593495,23.9237225 C130.54638,23.6576997 129.552315,23.2884701 128.639659,22.8260651 L128.216414,22.6119351 L128.216414,25.9946104 L128.364569,26.0781404 C129.848046,26.9172985 131.930123,27.3428577 134.553312,27.3428577 C137.047058,27.3428577 139.019176,26.8274024 140.414686,25.811153 C141.839133,24.7738765 142.561581,23.2828758 142.561581,21.3792408 C142.561581,20.0161393 142.124833,18.8656246 141.26349,17.9599126 C140.412179,17.0653894 138.843049,16.2098339 136.468714,15.3452117" id="Fill-34"></path>
                <path d="M155.950686,23.9798593 C155.678297,24.0593381 155.301544,24.1374667 154.830651,24.211737 C154.363423,24.2862002 153.870346,24.3240105 153.365307,24.3240105 C152.472135,24.3240105 151.793285,24.0479565 151.289597,23.479451 C150.783787,22.9094022 150.527217,22.0652284 150.527217,20.9702718 L150.527217,9.79326449 L156.181599,9.79326449 L156.181599,6.91659191 L150.527217,6.91659191 L150.527217,2.40037801 L148.311839,2.40037801 L147.043457,6.6399591 L144.201122,7.88905077 L144.201122,9.79326449 L146.992722,9.79326449 L146.992722,21.0948916 C146.992722,25.2407184 148.993197,27.3428577 152.938398,27.3428577 C153.44768,27.3428577 154.028532,27.290772 154.665327,27.1879511 C155.322764,27.0812719 155.811212,26.9479711 156.158836,26.7805253 L156.323774,26.7010465 L156.323774,23.871251 L155.950686,23.9798593" id="Fill-35"></path>
            </g>
        </g>
    </g>
</svg>