<?xml version="1.0" encoding="UTF-8"?>
<svg width="300" height="168.67" version="1.1" xmlns="http://www.w3.org/2000/svg" xmlns:xlink="http://www.w3.org/1999/xlink">
 <defs>
  <linearGradient id="b" x1="-813.91" x2="-653.36" y1="222.03" y2="222.03" gradientTransform="matrix(.31509 0 0 .31509 470.13 -22.608)" gradientUnits="userSpaceOnUse">
   <stop stop-color="#7a9c49" offset="0"/>
   <stop stop-color="#566735" offset="1"/>
  </linearGradient>
  <linearGradient id="a" x1="-668.07" x2="-668.07" y1="112.15" y2="289.4" gradientTransform="matrix(.31509 0 0 .31509 470.13 -22.608)" gradientUnits="userSpaceOnUse">
   <stop stop-color="#b8cd94" offset="0"/>
   <stop stop-color="#6d853c" offset="1"/>
  </linearGradient>
 </defs>

 <path d="m254.17 86.263c-0.16048-0.0189-0.76072-0.07219-1.3339-0.12094-4.0259-0.34205-8.447-1.4357-12.463-3.083-1.4999-0.61519-4.5181-2.1536-5.9237-3.0194-6.7569-4.1621-12.143-9.9045-15.855-16.903-4.3381-8.1793-5.9387-18.21-4.2637-26.719 2.6902-13.667 13.609-24.604 27.335-27.381 2.6421-0.53465 3.6471-0.62555 6.9195-0.62574 3.1608-1.89e-4 3.7824 0.04989 6.2295 0.50014 7.0013 1.2888 13.297 4.5506 18.343 9.5031 0.832 0.81668 1.1208 1.2348 0.62525 0.90531-4.3667-2.9034-8.5779-4.4798-13.576-5.0819-1.5714-0.18936-4.5739-0.19087-6.2445-0.0035-9.8285 1.1032-18.284 6.9261-22.712 15.64-1.1022 2.1693-1.7564 3.9225-2.3393 6.2695-0.9983 4.0195-1.0948 8.4377-0.29023 13.286 1.6652 10.033 7.4765 19.038 15.921 24.67 1.7475 1.1655 2.8607 1.8045 4.5852 2.6322 7.3748 3.5395 15.772 4.614 23.635 3.0243 5.072-1.0255 9.9485-3.1325 14.199-6.1352 0.45032-0.31824 0.84423-0.55215 0.87535-0.52018 0.0762 0.07824-1.9781 2.0627-3.1606 3.0531-6.6977 5.6094-14.56 8.9642-23.335 9.9562-1.1341 0.12813-6.3873 0.24151-7.1696 0.15458z" fill="url(#b)"/>
 <path d="m263.04 77.672c-1.1223-0.09033-3.23-0.39625-4.5018-0.65306-6.2855-1.2693-11.828-4.1045-16.692-8.5384-1.0233-0.93282-1.4143-1.3852-1.0108-1.1692 0.10553 0.05631 0.56794 0.33411 1.0276 0.61682 5.9392 3.6541 13.092 5.0319 20.093 3.8705 4.8291-0.80096 9.4567-2.8863 13.422-6.0485 1.1404-0.90936 3.2778-3.0333 4.2342-4.2075 4.7029-5.7736 6.9927-12.866 6.5644-20.332-0.1581-2.7558-0.48398-4.9418-1.0998-7.378-1.0646-4.2111-2.8272-8.1684-5.2432-11.771-4.0082-5.977-9.8216-10.764-16.51-13.596-5.3856-2.2798-11.522-3.3285-17.165-2.9335-6.8175 0.47709-13.13 2.6762-18.841 6.5641l-1.0421 0.70938 0.5002-0.51942c0.27511-0.28573 0.93439-0.90403 1.4651-1.374 6.1055-5.408 13.61-8.9582 21.674-10.254 1.4245-0.22904 3.526-0.45728 4.3933-0.4775 0.55595-0.01134 0.5575-0.01512 0.14513-0.06312-0.67509-0.08126 2.6036-0.1595 3.9599-0.09411 0.66485 0.03024 1.0212 0.06992 0.79198 0.08466-0.25277 0.01512 0.01 0.05442 0.66694 0.09751 14.886 0.97659 28.396 9.8863 35.314 23.289 3.0003 5.8123 4.607 12.041 4.7955 18.591 0.25281 8.7857-2.7805 17.244-8.5393 23.811-5.6963 6.4957-13.395 10.558-22.025 11.623-1.0795 0.13304-5.3487 0.23509-6.3776 0.15194z" fill="url(#a)"/>
 <path d="m26.073 168.6c-0.90603-0.0813-2.4985-0.31446-3.4597-0.50672-7.0946-1.4198-13.301-5.4778-17.522-11.456-2.4358-3.4501-4.169-7.7988-4.7347-11.88-0.0729-0.52728-0.17083-1.1463-0.21732-1.3756-0.13153-0.64909-0.18822-3.6404-0.0884-4.6686 0.36283-3.7375 1.103-6.67 2.4399-9.6656 1.3476-3.0197 3.3651-5.931 5.7808-8.3422 4.4595-4.451 9.9207-7.1288 16.343-8.0134 1.523-0.20976 5.4711-0.21203 6.9612-4e-3 3.4264 0.47811 6.1615 1.3135 9.087 2.7757 8.6756 4.336 14.456 12.768 15.382 22.441 0.66748 6.9674-1.2995 13.936-5.5113 19.525-4.5568 6.0469-11.17 9.919-18.728 10.965-2.0146 0.27893-4.0849 0.35339-5.7318 0.20561zm5.4606-6.8254c1.8555-0.32429 3.2837-0.73406 4.8607-1.3947 5.0786-2.1278 9.2772-6.2766 11.423-11.287 2.093-4.888 2.3344-10.262 0.68547-15.256-2.155-6.5269-7.3314-11.658-13.866-13.744-1.1035-0.35225-2.4714-0.66365-3.7695-0.85806-1.1478-0.17197-4.5828-0.14816-5.794 0.0401-6.2138 0.96593-11.464 4.2958-14.881 9.4374-1.7314 2.6055-2.8016 5.3753-3.3491 8.6673-0.23773 1.4298-0.21543 5.1049 0.0397 6.586 0.6373 3.6962 2.1764 7.1667 4.4364 10.004 3.2619 4.095 8.1778 6.9645 13.345 7.7896 1.4942 0.23849 1.5035 0.23924 3.7851 0.21354 1.664-0.0189 2.2859-0.0586 3.0846-0.19805zm150.06 6.7309c-3.572-0.34129-5.576-0.77246-8.3637-1.799-1.2904-0.47524-3.6638-1.6521-4.8721-2.416-4.6796-2.9582-8.4235-7.2094-10.643-12.085-4.7956-10.534-2.7228-22.809 5.2465-31.069 2.4608-2.5506 4.7228-4.2056 7.8782-5.7642 2.8891-1.4272 5.4559-2.2025 8.8877-2.6846 1.4778-0.2075 5.4295-0.20523 6.952 4e-3 3.3347 0.45895 6.1764 1.3292 9.0036 2.7574 2.2431 1.1331 3.9106 2.2349 5.7669 3.8103 0.89428 0.75897 3.1285 3.0616 3.0899 3.1845l-2.5589 2.0789-2.5287 1.9829-1.0032-1.0094c-3.3828-3.4037-7.4226-5.4729-12.145-6.2206-1.3681-0.21657-4.8889-0.21619-6.2525 9.5e-4 -4.6502 0.73976-8.7712 2.8192-12.005 6.0574-3.3584 3.3632-5.4872 7.6707-6.1381 12.421-0.19298 1.4081-0.19359 4.0898-1e-3 5.4928 0.54981 4.01 2.1056 7.6318 4.6238 10.764 2.6421 3.2859 6.5601 5.9 10.603 7.0739 1.1816 0.34318 2.7499 0.64807 3.9522 0.76845 1.2612 0.12624 4.1195 0.0559 5.3016-0.13039 2.1164-0.33374 4.6144-1.1391 6.4407-2.0767 2.0461-1.0504 3.5884-2.1668 5.2883-3.828 0.80788-0.7895 1.2177-1.1354 1.2922-1.0907 0.45713 0.27439 4.9861 3.9054 4.9861 3.9977 0 0.18293-2.1 2.3029-3.1679 3.1983-4.2193 3.5375-9.2853 5.7567-14.548 6.3726-2.7396 0.32051-3.5653 0.35452-5.0854 0.20939zm32.138-41.172v-40.016h7.5028l0.0208 32.701 0.10432 32.699c0.10314-2e-3 0.94403-1.2712 14.584-22.006 7.5964-11.548 11.053-16.734 11.171-16.762l8.8275 0.0896-15.851 23.553 19.554 29.641-4.5895 0.0151-4.5536-0.0227-7.5269-11.233c-4.1398-6.1779-7.5689-11.273-7.6202-11.323l-0.10285-0.12775-0.23062 0.33789c-0.13206 0.16516-3.3404 4.867-7.1306 10.448l-7.5285 11.085-0.63802 0.93785h-5.9932zm-148.44 39.829c-0.02192-0.0574-0.02986-12.034-0.01814-26.615l0.02154-26.511h7.4197l0.04165 3.7446c0.02759 2.4596 0.07117 3.7544 0.1276 3.7732 0.04724 0.0151 0.3949-0.36094 0.7726-0.83709 1.6864-2.126 3.9433-3.892 6.7279-5.2644 1.6582-0.81728 3.0974-1.3507 4.8353-1.7922 1.9102-0.48526 4.3833-0.83188 5.9409-0.8326h0.60538l-0.04346 6.5443-0.37516 0.0189c-2.9919 0.16025-5.5008 0.79071-7.9248 1.9913-2.0676 1.0241-3.6153 2.1549-5.2501 3.836-2.8625 2.9435-4.5201 6.3217-5.2283 10.656-0.12253 0.74994-0.13984 2.4336-0.16547 16.114l-0.02872 15.277-7.4582-0.10432zm35.58-26.511 0.0208-26.615h7.4197l0.0417 3.7446c0.0295 2.6214 0.0693 3.7538 0.13365 3.7752 0.0506 0.0151 0.3117-0.26154 0.58023-0.61837 1.0761-1.4302 2.742-2.9581 4.4966-4.1242 1.1117-0.73882 3.3964-1.8968 4.6541-2.3588 2.5755-0.9461 5.6373-1.5451 8.0419-1.5732l1.0595-0.0113v6.5026l-0.37516 0.0189c-4.4864 0.24038-8.1765 1.6025-11.463 4.2314-3.2277 2.5819-5.6282 6.369-6.5792 10.379-0.53058 2.2376-0.49778 1.1214-0.5273 17.945l-0.0268 15.319h-7.4978zm35.598 9.4e-4 0.0212-26.616h7.4197v53.188l-3.7308 0.0227-3.7308 0.0227z" fill="#333d47"/>
</svg>
