<?xml version="1.0" encoding="utf-8"?>
<svg width="187px" height="40px" viewBox="0 0 187 40" version="1.1" xmlns:xlink="http://www.w3.org/1999/xlink" xmlns="http://www.w3.org/2000/svg">
  <desc>Created with Lunacy</desc>
  <defs>
    <path d="M0 39.8873L186.595 39.8873L186.595 0L0 0L0 39.8873Z" id="path_1" />
    <clipPath id="mask_1">
      <use xlink:href="#path_1" />
    </clipPath>
  </defs>
  <g id="Group-53">
    <path d="M2.475 8.04564L6.5646 8.04564C6.9174 8.04564 7.2378 7.97256 7.52616 7.82496C7.81308 7.67808 8.05968 7.47108 8.26596 7.20576C8.4726 6.9408 8.63388 6.6312 8.75268 6.27768C8.8704 5.9238 8.92908 5.53356 8.92908 5.10624C8.92908 4.66416 8.86356 4.26636 8.73072 3.91248C8.59824 3.55932 8.41392 3.25296 8.1774 2.9952C7.94232 2.7378 7.67268 2.53872 7.37028 2.39796C7.06824 2.25864 6.75576 2.18808 6.43176 2.18808L2.475 2.18808L2.475 8.04564ZM0 15.6942L0 0L6.5862 0C7.29324 0 7.94556 0.1476 8.5428 0.44208C9.13896 0.73728 9.65088 1.12392 10.0786 1.60272C10.5062 2.08188 10.8407 2.62692 11.084 3.23856C11.327 3.8502 11.4494 4.473 11.4494 5.10624C11.4494 5.76936 11.3342 6.40692 11.106 7.01784C10.8774 7.62948 10.557 8.17488 10.1455 8.65368C9.7326 9.13284 9.23472 9.51552 8.6526 9.80316C8.07012 10.0904 7.42572 10.2341 6.71904 10.2341L2.475 10.2341L2.475 15.6942L0 15.6942Z" transform="translate(58.28742 10.689912)" id="Fill-1" fill="#112C51" fill-rule="evenodd" stroke="none" />
    <path d="M9.837 9.59256L7.31664 2.85156L4.7088 9.59256L9.837 9.59256ZM6.23412 0L8.39916 0L14.5883 15.6938L11.9801 15.6938L10.3223 11.4275L4.266 11.4275L2.63124 15.6938L0 15.6938L6.23412 0Z" transform="translate(69.09908 10.690235)" id="Fill-3" fill="#112C51" fill-rule="evenodd" stroke="none" />
    <path d="M2.47536 8.04564L6.80796 8.04564C7.16076 8.04564 7.48152 7.9686 7.76988 7.8138C8.0568 7.659 8.3034 7.44552 8.50968 7.173C8.71596 6.90012 8.8776 6.58728 8.9964 6.2334C9.11376 5.87988 9.1728 5.50404 9.1728 5.10624C9.1728 4.70808 9.1026 4.33296 8.96292 3.97872C8.82216 3.62556 8.63892 3.31596 8.41068 3.05064C8.18136 2.78568 7.91604 2.57508 7.614 2.42064C7.31196 2.26548 6.99948 2.18808 6.67548 2.18808L2.47536 2.18808L2.47536 8.04564ZM0 15.6942L0 0L6.82992 0C7.53696 0 8.18928 0.1476 8.78544 0.44208C9.38268 0.73728 9.89424 1.12392 10.3223 1.60272C10.7489 2.08188 11.0844 2.62692 11.3274 3.23856C11.5708 3.8502 11.6928 4.473 11.6928 5.10624C11.6928 5.63688 11.6179 6.1452 11.4718 6.6312C11.3242 7.11756 11.1175 7.5672 10.8526 7.9794C10.5872 8.39196 10.2632 8.7498 9.87948 9.05148C9.4968 9.35388 9.07704 9.57852 8.62056 9.72576L12.3109 15.6942L9.50472 15.6942L6.1002 10.2341L2.47536 10.2341L2.47536 15.6942L0 15.6942Z" transform="translate(85.407295 10.689912)" id="Fill-5" fill="#112C51" fill-rule="evenodd" stroke="none" />
    <path d="M0 15.6938L0 0.02232L2.475 0.02232L2.475 8.08992L9.85752 0L12.5993 0L6.41016 6.94044L12.9521 15.6938L10.1894 15.6938L4.88484 8.46576L2.475 10.9634L2.475 15.6938L0 15.6938Z" transform="translate(99.89852 10.690127)" id="Fill-7" fill="#112C51" fill-rule="evenodd" stroke="none" />
    <path d="M2.47536 8.04564L6.5646 8.04564C6.91776 8.04564 7.2378 7.97256 7.52616 7.82496C7.81344 7.67808 8.06004 7.47108 8.26632 7.20576C8.4726 6.9408 8.63424 6.6312 8.75268 6.27768C8.87076 5.9238 8.92944 5.53356 8.92944 5.10624C8.92944 4.66416 8.86356 4.26636 8.73108 3.91248C8.5986 3.55932 8.41392 3.25296 8.17776 2.9952C7.94268 2.7378 7.67304 2.53872 7.37064 2.39796C7.0686 2.25864 6.75612 2.18808 6.43212 2.18808L2.47536 2.18808L2.47536 8.04564ZM0 15.6942L0 0L6.58656 0C7.2936 0 7.94592 0.1476 8.54316 0.44208C9.13932 0.73728 9.65124 1.12392 10.0789 1.60272C10.5066 2.08188 10.8407 2.62692 11.084 3.23856C11.3274 3.8502 11.4498 4.473 11.4498 5.10624C11.4498 5.76936 11.3342 6.40692 11.1064 7.01784C10.8778 7.62948 10.5574 8.17488 10.1459 8.65368C9.73296 9.13284 9.23472 9.51552 8.6526 9.80316C8.07048 10.0904 7.42608 10.2341 6.71904 10.2341L2.47536 10.2341L2.47536 15.6942L0 15.6942Z" transform="translate(119.94552 10.689912)" id="Fill-9" fill="#112C51" fill-rule="evenodd" stroke="none" />
    <path d="M0 15.6938L0 0L2.47536 0L2.47536 13.5058L10.8965 13.5058L10.8965 15.6938L0 15.6938Z" transform="translate(133.3643 10.690127)" id="Fill-11" fill="#112C51" fill-rule="evenodd" stroke="none" />
    <path d="M9.83664 9.59256L7.31628 2.85156L4.70844 9.59256L9.83664 9.59256ZM6.23376 0L8.39916 0L14.5879 15.6938L11.9797 15.6938L10.3223 11.4275L4.26564 11.4275L2.63088 15.6938L0 15.6938L6.23376 0Z" transform="translate(145.20499 10.690235)" id="Fill-13" fill="#112C51" fill-rule="evenodd" stroke="none" />
    <path d="M0 7.82424C0 6.88176 0.16956 5.94216 0.50832 5.00652C0.84744 4.07088 1.34388 3.231 2.00016 2.48616C2.65608 1.7424 3.45528 1.14192 4.39848 0.68544C5.34132 0.22824 6.41016 0 7.6032 0C9.03312 0 10.256 0.3168 11.273 0.95076C12.289 1.58436 13.0558 2.40912 13.5709 3.42576L11.6258 4.72968C11.4059 4.2588 11.1406 3.86064 10.8302 3.53664C10.5217 3.21264 10.1822 2.95452 9.8136 2.763C9.44568 2.57148 9.06192 2.43504 8.66376 2.35368C8.26632 2.27304 7.88328 2.23272 7.51464 2.23272C6.68916 2.23272 5.96736 2.39796 5.34924 2.72952C4.7304 3.06108 4.2102 3.49956 3.79044 4.04496C3.37104 4.59036 3.05388 5.202 2.84076 5.87952C2.6262 6.55704 2.52 7.23528 2.52 7.91316C2.52 8.67924 2.64492 9.40896 2.89476 10.1012C3.14604 10.7942 3.4956 11.4052 3.94524 11.9358C4.39488 12.4668 4.9284 12.8902 5.5476 13.2066C6.1668 13.5238 6.84468 13.6818 7.5816 13.6818C7.96428 13.6818 8.35848 13.6346 8.76456 13.5389C9.1692 13.4431 9.56016 13.288 9.936 13.0741C10.3118 12.8606 10.6574 12.5917 10.9742 12.267C11.2903 11.943 11.552 11.5528 11.7583 11.0959L13.8143 12.267C13.5641 12.8567 13.2098 13.3762 12.7537 13.8258C12.2969 14.2754 11.7817 14.6549 11.2064 14.9638C10.6319 15.2737 10.0235 15.5092 9.38232 15.6719C8.74116 15.8332 8.11188 15.9152 7.49268 15.9152C6.3882 15.9152 5.37804 15.6784 4.46508 15.2071C3.55068 14.7355 2.76228 14.121 2.09916 13.3614C1.4364 12.6025 0.92124 11.7407 0.55188 10.7752C0.18432 9.81036 0 8.82684 0 7.82424" transform="translate(159.89215 10.601784)" id="Fill-15" fill="#112C51" fill-rule="evenodd" stroke="none" />
    <path d="M10.7633 13.5058L10.7633 15.6938L0 15.6938L0 0L10.5649 0L10.5649 2.18808L2.47536 2.18808L2.47536 6.65352L9.48132 6.65352L9.48132 8.70912L2.47536 8.70912L2.47536 13.5058L10.7633 13.5058Z" transform="translate(175.83145 10.690091)" id="Fill-17" fill="#112C51" fill-rule="evenodd" stroke="none" />
    <path d="M7.29108 0.78516L4.08852 0.78516L4.08852 8.98704L3.20184 8.98704L3.20184 0.78516L0 0.78516L0 0L7.29108 0L7.29108 0.78516Z" transform="translate(85.40852 30.824099)" id="Fill-19" fill="#91959C" fill-rule="evenodd" stroke="none" />
    <path d="M6.03792 8.20296L6.03792 8.98704L0 8.98704L0 0L5.9238 0L5.9238 0.78516L0.88668 0.78516L0.88668 4.0248L5.27832 4.0248L5.27832 4.7718L0.88668 4.7718L0.88668 8.20296L6.03792 8.20296Z" transform="translate(94.54651 30.824244)" id="Fill-21" fill="#91959C" fill-rule="evenodd" stroke="none" />
    <path d="M0 4.48128C0 3.94056 0.09468 3.40308 0.28476 2.86704C0.47484 2.331 0.7506 1.85256 1.11384 1.43028C1.47708 1.00872 1.9242 0.66492 2.45592 0.39852C2.98728 0.13248 3.59028 0 4.266 0C5.067 0 5.75316 0.18216 6.32268 0.5436C6.8922 0.90684 7.31196 1.37988 7.58268 1.962L6.88644 2.39184C6.74244 2.097 6.56712 1.84788 6.36048 1.64484C6.1542 1.44324 5.9328 1.27836 5.69664 1.15164C5.46012 1.02456 5.21568 0.93456 4.96224 0.87948C4.7088 0.82548 4.45968 0.79776 4.21488 0.79776C3.6756 0.79776 3.19824 0.90684 2.78532 1.12644C2.37168 1.3464 2.02356 1.63224 1.74096 1.9872C1.45728 2.34144 1.24524 2.74032 1.10124 3.18312C0.95832 3.627 0.88668 4.0752 0.88668 4.53204C0.88668 5.02992 0.97308 5.5062 1.14624 5.96124C1.31904 6.41808 1.5552 6.82056 1.85508 7.1712C2.15352 7.52112 2.50884 7.7994 2.91816 8.00568C3.32748 8.21304 3.77244 8.31564 4.25304 8.31564C4.50684 8.31564 4.7664 8.28432 5.03136 8.22132C5.29776 8.15796 5.5548 8.05644 5.80392 7.9182C6.05268 7.77852 6.28236 7.60572 6.49332 7.39836C6.70428 7.19172 6.88176 6.94044 7.02612 6.64524L7.75908 7.0254C7.61616 7.36236 7.41348 7.65972 7.15176 7.9182C6.89004 8.17524 6.59952 8.3916 6.27876 8.56908C5.95836 8.74728 5.61816 8.88192 5.2596 8.97408C4.90104 9.06732 4.54824 9.1134 4.20228 9.1134C3.58668 9.1134 3.02076 8.97876 2.50632 8.70876C1.99116 8.43912 1.54836 8.08632 1.1772 7.6518C0.80604 7.21728 0.5166 6.72372 0.31032 6.17004C0.10404 5.6178 0 5.05548 0 4.48128" transform="translate(101.97716 30.773663)" id="Fill-23" fill="#91959C" fill-rule="evenodd" stroke="none" />
    <path d="M7.08804 0L7.08804 8.98704L6.2154 8.98704L6.2154 4.7844L0.88632 4.7844L0.88632 8.98704L0 8.98704L0 0L0.88632 0L0.88632 3.99924L6.2154 3.99924L6.2154 0L7.08804 0Z" transform="translate(111.76218 30.824207)" id="Fill-25" fill="#91959C" fill-rule="evenodd" stroke="none" />
    <path d="M0.88668 1.6452L0.88668 8.98704L0 8.98704L0 0L0.684 0L6.633 7.48116L6.633 0.0126L7.51968 0.0126L7.51968 8.98704L6.74676 8.98704L0.88668 1.6452Z" transform="translate(121.60908 30.824314)" id="Fill-27" fill="#91959C" fill-rule="evenodd" stroke="none" />
    <path d="M0.88668 4.5576C0.88668 5.04612 0.96624 5.51664 1.12644 5.9688C1.28664 6.41952 1.51488 6.82092 1.81008 7.1712C2.10528 7.52148 2.45556 7.79976 2.8602 8.00604C3.26628 8.2134 3.717 8.316 4.21524 8.316C4.72104 8.316 5.18148 8.20656 5.59512 7.98732C6.00804 7.76844 6.35832 7.48152 6.6456 7.12656C6.93252 6.77232 7.15392 6.37128 7.31088 5.9238C7.4664 5.47776 7.54488 5.02092 7.54488 4.5576C7.54488 4.06764 7.46208 3.59712 7.29828 3.1464C7.1334 2.69424 6.90264 2.29572 6.60744 1.94976C6.31224 1.6038 5.96196 1.32696 5.55732 1.12068C5.15268 0.9144 4.70484 0.81072 4.21524 0.81072C3.70908 0.81072 3.249 0.918 2.835 1.13328C2.42244 1.34784 2.0718 1.63368 1.78488 1.98756C1.4976 2.3418 1.2762 2.74284 1.12068 3.19032C0.96408 3.63744 0.88668 4.09284 0.88668 4.5576M4.21524 9.11376C3.59028 9.11376 3.01968 8.98596 2.49948 8.72784C1.98072 8.47044 1.53576 8.12952 1.16424 7.70256C0.79308 7.27632 0.50616 6.7896 0.30456 6.24096C0.10152 5.69196 0 5.1318 0 4.5576C0 3.9582 0.10728 3.384 0.32292 2.83644C0.53856 2.28744 0.83592 1.80216 1.21536 1.38024C1.5948 0.95832 2.04192 0.62244 2.55744 0.37368C3.07116 0.12492 3.62808 0 4.22784 0C4.8528 0 5.42448 0.13284 5.9436 0.39888C6.462 0.66528 6.90516 1.0134 7.27272 1.4436C7.63956 1.8738 7.92432 2.36124 8.127 2.90556C8.32896 3.44952 8.43012 4.00428 8.43012 4.5702C8.43012 5.16852 8.32284 5.74272 8.10756 6.29136C7.893 6.84036 7.59672 7.32348 7.22196 7.74108C6.84612 8.15832 6.4008 8.49132 5.886 8.74044C5.37156 8.98956 4.81464 9.11376 4.21524 9.11376" transform="translate(131.2925 30.760632)" id="Fill-29" fill="#91959C" fill-rule="evenodd" stroke="none" />
    <path d="M0 8.98704L0 0L0.88668 0L0.88668 8.20296L6.07572 8.20296L6.07572 8.98704L0 8.98704Z" transform="translate(141.89954 30.824171)" id="Fill-31" fill="#91959C" fill-rule="evenodd" stroke="none" />
    <path d="M0.88668 4.5576C0.88668 5.04612 0.96624 5.51664 1.12644 5.9688C1.28664 6.41952 1.51488 6.82092 1.81008 7.1712C2.10528 7.52148 2.45556 7.79976 2.8602 8.00604C3.26592 8.2134 3.717 8.316 4.21488 8.316C4.72104 8.316 5.18148 8.20656 5.59512 7.98732C6.00804 7.76844 6.35832 7.48152 6.64524 7.12656C6.93252 6.77232 7.15392 6.37128 7.31088 5.9238C7.46604 5.47776 7.54452 5.02092 7.54452 4.5576C7.54452 4.06764 7.46172 3.59712 7.29828 3.1464C7.1334 2.69424 6.90264 2.29572 6.60744 1.94976C6.31224 1.6038 5.96196 1.32696 5.55732 1.12068C5.15268 0.9144 4.70484 0.81072 4.21488 0.81072C3.70908 0.81072 3.249 0.918 2.835 1.13328C2.42244 1.34784 2.0718 1.63368 1.78452 1.98756C1.4976 2.3418 1.2762 2.74284 1.12032 3.19032C0.96372 3.63744 0.88668 4.09284 0.88668 4.5576M4.21488 9.11376C3.59028 9.11376 3.01968 8.98596 2.49948 8.72784C1.98072 8.47044 1.53576 8.12952 1.16424 7.70256C0.79308 7.27632 0.50616 6.7896 0.30456 6.24096C0.10116 5.69196 0 5.1318 0 4.5576C0 3.9582 0.10728 3.384 0.32292 2.83644C0.5382 2.28744 0.83556 1.80216 1.215 1.38024C1.59444 0.95832 2.04192 0.62244 2.55744 0.37368C3.07116 0.12492 3.62808 0 4.22784 0C4.8528 0 5.42448 0.13284 5.94324 0.39888C6.462 0.66528 6.9048 1.0134 7.27236 1.4436C7.6392 1.8738 7.92396 2.36124 8.127 2.90556C8.3286 3.44952 8.43012 4.00428 8.43012 4.5702C8.43012 5.16852 8.32284 5.74272 8.10756 6.29136C7.893 6.84036 7.59672 7.32348 7.22196 7.74108C6.84612 8.15832 6.4008 8.49132 5.88564 8.74044C5.37156 8.98956 4.81464 9.11376 4.21488 9.11376" transform="translate(148.62103 30.760632)" id="Fill-33" fill="#91959C" fill-rule="evenodd" stroke="none" />
    <path d="M7.08804 7.73388C6.2532 8.65404 5.29056 9.11376 4.20192 9.11376C3.5946 9.11376 3.03516 8.9838 2.52468 8.72172C2.01492 8.46036 1.5714 8.1144 1.19664 7.6842C0.8208 7.25292 0.52632 6.7662 0.3168 6.22116C0.10548 5.67684 0 5.11884 0 4.545C0 3.9456 0.10368 3.37104 0.30996 2.82348C0.51624 2.27484 0.80568 1.79172 1.17684 1.37304C1.548 0.9558 1.9872 0.62244 2.49336 0.37368C2.99988 0.12456 3.55212 0 4.15152 0C4.59072 0 4.99068 0.04824 5.35392 0.14544C5.7168 0.243 6.04008 0.378 6.32232 0.55116C6.60492 0.72396 6.85044 0.9306 7.05672 1.17144C7.263 1.4112 7.43868 1.67508 7.58232 1.96236L6.89904 2.4174C6.6024 1.86084 6.21864 1.45152 5.74704 1.1898C5.27436 0.92808 4.73832 0.79776 4.13892 0.79776C3.64068 0.79776 3.19212 0.90252 2.79072 1.11348C2.38968 1.3248 2.0484 1.60632 1.76616 1.95516C1.48248 2.3058 1.2654 2.7072 1.11348 3.15792C0.96228 3.60972 0.88632 4.07556 0.88632 4.5576C0.88632 5.06376 0.97308 5.54436 1.14552 6.00012C1.31868 6.45624 1.55736 6.8544 1.86048 7.19676C2.16468 7.53768 2.52108 7.80984 2.9304 8.01252C3.33972 8.21592 3.78468 8.316 4.26564 8.316C4.77972 8.316 5.2722 8.19612 5.7402 7.95636C6.2082 7.71516 6.65784 7.33392 7.08804 6.81048L7.08804 5.31612L5.0886 5.31612L5.0886 4.63356L7.83504 4.63356L7.83504 9.0504L7.08804 9.0504L7.08804 7.73388Z" transform="translate(158.63443 30.760738)" id="Fill-35" fill="#91959C" fill-rule="evenodd" stroke="none" />
    <path d="M0 39.8873L186.595 39.8873L186.595 0L0 0L0 39.8873Z" id="Clip-38" fill="none" fill-rule="evenodd" stroke="none" />
    <g clip-path="url(#mask_1)">
      <path d="M0 8.98704L0.88668 8.98704L0.88668 0L0 0L0 8.98704Z" transform="translate(168.79823 30.824278)" id="Fill-37" fill="#91959C" fill-rule="evenodd" stroke="none" />
      <path d="M6.03756 8.20296L6.03756 8.98704L0 8.98704L0 0L5.92344 0L5.92344 0.78516L0.88632 0.78516L0.88632 4.0248L5.27796 4.0248L5.27796 4.7718L0.88632 4.7718L0.88632 8.20296L6.03756 8.20296Z" transform="translate(172.44417 30.824244)" id="Fill-39" fill="#91959C" fill-rule="evenodd" stroke="none" />
      <path d="M5.97456 1.74708C5.72184 1.46088 5.3838 1.22832 4.96188 1.05048C4.54032 0.87408 4.05936 0.78552 3.52008 0.78552C2.72556 0.78552 2.14776 0.93528 1.78452 1.23516C1.42236 1.53468 1.24056 1.94184 1.24056 2.45628C1.24056 2.72592 1.2888 2.9484 1.38708 3.1212C1.48356 3.29436 1.63332 3.44412 1.83528 3.56976C2.03832 3.69648 2.29752 3.80628 2.61468 3.89952C2.93076 3.99168 3.30408 4.08492 3.73428 4.17744C4.21488 4.2786 4.64724 4.39308 5.03244 4.5198C5.41512 4.64688 5.74236 4.80456 6.01236 4.99392C6.28308 5.184 6.48972 5.41476 6.63264 5.6844C6.777 5.95404 6.84828 6.29172 6.84828 6.69636C6.84828 7.11036 6.76764 7.46928 6.60744 7.77204C6.44688 8.0766 6.22332 8.32896 5.93748 8.532C5.65056 8.73468 5.30784 8.8848 4.91148 8.98164C4.51476 9.07848 4.07988 9.12672 3.60756 9.12672C2.21616 9.12672 1.0134 8.6922 0 7.8228L0.44388 7.101C0.60408 7.27092 0.79524 7.43076 1.01916 7.58304C1.24272 7.73424 1.49184 7.8678 1.76652 7.98192C2.04048 8.09496 2.33352 8.18388 2.646 8.24724C2.95848 8.3106 3.2868 8.34156 3.63276 8.34156C4.34988 8.34156 4.90896 8.21376 5.31036 7.95672C5.71176 7.69824 5.91192 7.30872 5.91192 6.78528C5.91192 6.50628 5.85432 6.27228 5.74056 6.08328C5.62716 5.8932 5.4558 5.72832 5.22864 5.58864C5.00004 5.45004 4.7178 5.32908 4.37976 5.229C4.04208 5.12748 3.65004 5.0256 3.20292 4.92444C2.72988 4.81464 2.31732 4.70088 1.96236 4.58316C1.60812 4.46436 1.3086 4.31712 1.0638 4.13964C0.81864 3.96288 0.6354 3.7494 0.513 3.50064C0.3906 3.25152 0.3294 2.94588 0.3294 2.58264C0.3294 2.169 0.4068 1.8 0.56376 1.47492C0.71928 1.15092 0.94104 0.8802 1.2276 0.66564C1.51488 0.44964 1.85292 0.28476 2.24136 0.171C2.62872 0.05796 3.05856 0 3.53124 0C4.131 0 4.66452 0.09144 5.13288 0.27216C5.60196 0.45468 6.02532 0.7092 6.40548 1.03788L5.97456 1.74708Z" transform="translate(179.74652 30.760414)" id="Fill-40" fill="#91959C" fill-rule="evenodd" stroke="none" />
      <path d="M9.40558 5.86903L6.99718 8.28931C6.50146 8.79655 5.4859 8.61979 4.74214 7.88791C4.74214 7.88791 4.27018 7.45087 3.6445 6.87271C3.36082 6.61279 3.04222 6.32947 2.72362 6.03427C1.71994 5.11339 0.692863 4.21627 0.692863 4.21627C-0.0742971 3.56683 -0.228017 2.69311 0.350503 2.25643L3.13654 0.178506C3.62074 -0.175734 4.56538 0.0132664 5.2735 0.603666C5.2735 0.603666 6.19438 1.42987 7.11526 2.25643C7.2571 2.38639 7.39858 2.51635 7.52854 2.62219C8.28418 3.33067 8.93326 3.93295 8.93326 3.93295C9.60646 4.59391 9.83074 5.45575 9.40558 5.86903" transform="translate(25.464952 13.370309)" id="Fill-41" fill="#97CCEF" fill-rule="evenodd" stroke="none" />
      <path d="M7.3201 4.5614L5.45458 6.45068C5.06506 6.8402 4.27414 6.69836 3.69562 6.13172C3.69562 6.13172 2.93998 5.43512 2.16058 4.72664C2.14906 4.71476 2.13718 4.70324 2.1253 4.69136C1.33438 3.98288 0.543461 3.27476 0.543461 3.27476C-0.0588189 2.76716 -0.176899 2.09396 0.271661 1.7516L2.44426 0.134123C2.8219 -0.137317 3.55414 0.0164028 4.1089 0.476483C4.1089 0.476483 4.38034 0.724523 4.75798 1.055C4.99414 1.26776 5.26558 1.50356 5.53738 1.7516C6.2455 2.40104 6.95398 3.062 6.95398 3.062C7.48498 3.56996 7.65058 4.2428 7.3201 4.5614" transform="translate(32.249443 9.4950485)" id="Fill-42" fill="#112C51" fill-rule="evenodd" stroke="none" />
      <path d="M7.90305 2.80582C7.01673 1.74958 6.10809 0.697655 6.10809 0.697655C5.39421 -0.0907446 4.36353 -0.236185 3.79365 0.390935C3.79365 0.390935 2.99193 1.26898 2.15853 2.17654C1.32585 3.08338 0.467974 4.01938 0.467974 4.01938C-0.217106 4.75738 -0.142226 6.05626 0.641495 6.90765C0.641495 6.90765 1.64553 8.03481 2.62221 9.15154C3.59817 10.2722 4.54101 11.3771 4.54101 11.3771C5.21817 12.1943 6.26685 12.2112 6.88605 11.4372C6.88605 11.4372 7.65537 10.4432 8.39769 9.47338C9.14001 8.50066 9.85533 7.55277 9.85533 7.55277C10.3593 6.87022 10.2675 5.69554 9.65013 4.91146C9.65013 4.91146 8.78901 3.8599 7.90305 2.80582" transform="translate(27.424356 27.807108)" id="Fill-43" fill="#112C51" fill-rule="evenodd" stroke="none" />
      <path d="M9.77126 3.5491C9.77126 3.5491 8.80322 4.18666 7.83518 4.84762C6.86714 5.50894 5.88686 6.19366 5.88686 6.19366C5.14346 6.73654 4.01018 6.83122 3.38414 6.40606C3.38414 6.40606 2.61662 5.89846 1.84946 5.39086C1.08194 4.88326 0.326661 4.3753 0.326661 4.3753C-0.216579 4.0333 -0.0632186 3.34822 0.645261 2.84062C0.645261 2.84062 1.56614 2.21494 2.48702 1.60114C3.41978 0.987339 4.32878 0.385059 4.32878 0.385059C5.00162 -0.0401008 6.0053 -0.122541 6.58382 0.184539C6.58382 0.184539 7.39814 0.644979 8.21282 1.10506C9.0275 1.57738 9.84218 2.03782 9.84218 2.03782C10.4913 2.42734 10.4679 3.11242 9.77126 3.5491" transform="translate(2.6307869E-06 6.9774804)" id="Fill-44" fill="#112C51" fill-rule="evenodd" stroke="none" />
      <path d="M8.26877 2.94687L5.76605 4.09203C5.25845 4.32819 4.33757 4.23387 3.70001 3.87963C3.70001 3.87963 2.89721 3.44259 2.08253 3.01779C1.27973 2.58075 0.465054 2.15595 0.465054 2.15595C-0.113466 1.86075 -0.160626 1.43559 0.370734 1.19943L3.01529 0.101789C3.48761 -0.0872105 4.31381 -0.0044105 4.88045 0.278909L7.97357 1.96695C8.57585 2.30931 8.70545 2.74635 8.26877 2.94687" transform="translate(15.622301 0.00019850286)" id="Fill-45" fill="#112C51" fill-rule="evenodd" stroke="none" />
      <path d="M11.4888 6.85189C11.4888 6.85189 10.6504 7.70185 9.77703 8.57557C8.91519 9.44928 8.01771 10.3464 8.01771 10.3464C7.29771 11.0549 6.03447 10.9721 5.18451 10.1455C5.18451 10.1455 4.47603 9.46117 3.60231 8.65837C3.38991 8.44596 3.15375 8.2332 2.92947 8.0208C1.79619 6.96996 0.662547 5.94289 0.662547 5.94289C-0.175533 5.21065 -0.222693 4.07772 0.544827 3.43981C0.544827 3.43981 1.51287 2.62549 2.46903 1.85797C3.41331 1.07893 4.34643 0.323285 4.34643 0.323285C5.00739 -0.196195 6.17631 -0.0781148 6.96687 0.594725C6.96687 0.594725 8.01771 1.52749 9.06855 2.48365C9.41091 2.79072 9.75327 3.10933 10.0603 3.39301C10.686 3.97117 11.1583 4.40821 11.1583 4.40821C11.9374 5.16385 12.0907 6.26148 11.4888 6.85189" transform="translate(17.148344 18.656345)" id="Fill-46" fill="#112C51" fill-rule="evenodd" stroke="none" />
      <path d="M9.85159 4.48725L6.93559 6.45897C6.34519 6.87225 5.23531 6.75381 4.48003 6.18717C4.48003 6.18717 3.49975 5.49093 2.52019 4.80621C1.54027 4.12113 0.572231 3.47205 0.572231 3.47205C-0.136249 2.99973 -0.195289 2.32689 0.442271 1.94889C0.442271 1.94889 1.23319 1.50033 2.01259 1.05177C2.80351 0.615093 3.58255 0.166533 3.58255 0.166533C4.13731 -0.128667 5.12911 -0.0224667 5.80195 0.414213C5.80195 0.414213 6.72319 1.02801 7.64371 1.66557C8.56459 2.29125 9.48547 2.94069 9.48547 2.94069C10.1821 3.46017 10.3592 4.14489 9.85159 4.48725" transform="translate(16.31814 7.1490264)" id="Fill-47" fill="#97CCEF" fill-rule="evenodd" stroke="none" />
      <path d="M10.7916 5.47306L7.60418 7.86958C6.95474 8.3653 5.73866 8.22382 4.9121 7.5391C4.9121 7.5391 3.83786 6.68914 2.76362 5.86258C1.68902 5.0245 0.626658 4.23358 0.626658 4.23358C-0.152382 3.66658 -0.211422 2.84038 0.485178 2.37994C0.485178 2.37994 1.34702 1.8367 2.2085 1.29382C3.07034 0.750583 3.93218 0.207703 3.93218 0.207703C4.53446 -0.158417 5.62058 -0.028457 6.36434 0.502543C6.36434 0.502543 7.36766 1.25818 8.37134 2.0257C9.38654 2.80474 10.3902 3.59602 10.3902 3.59602C11.1693 4.2217 11.3464 5.05978 10.7916 5.47306" transform="translate(8.188301 12.963509)" id="Fill-48" fill="#112C51" fill-rule="evenodd" stroke="none" />
      <path d="M5.95518 3.92983C5.95518 3.92983 5.2755 3.10831 4.58898 2.29183C3.90246 1.47499 3.20298 0.662472 3.20298 0.662472C2.66118 0.0591124 1.99698 -0.175968 1.72662 0.141552L0.148743 1.97251C-0.175617 2.34547 0.049023 3.19183 0.642663 3.85819C0.642663 3.85819 1.40874 4.75459 2.15826 5.65567C2.91066 6.55387 3.64614 7.45891 3.64614 7.45891C4.1757 8.14003 4.82442 8.32651 5.09802 7.89055L6.42462 5.72983C6.65106 5.35327 6.44046 4.54975 5.95518 3.92983" transform="translate(39.458202 16.756378)" id="Fill-49" fill="#112C51" fill-rule="evenodd" stroke="none" />
      <path d="M7.09645 3.67145L5.47897 4.61609C5.14849 4.81661 4.39285 4.60421 3.79057 4.14377C3.79057 4.14377 2.98777 3.57713 2.19685 3.01049C1.39405 2.44349 0.591255 1.88873 0.591255 1.88873C-0.0106653 1.48733 -0.175905 1.03877 0.201735 0.861645L2.07877 0.0469654C2.40925 -0.0945146 3.11773 0.0941254 3.67285 0.472125L6.61225 2.59721C7.16737 3.02201 7.37977 3.50621 7.09645 3.67145" transform="translate(28.588833 2.0737226)" id="Fill-50" fill="#112C51" fill-rule="evenodd" stroke="none" />
      <path d="M13.0387 7.92629C13.0387 7.92629 11.9289 9.04769 10.7837 10.1928C9.65042 11.3261 8.4815 12.495 8.4815 12.495C7.59626 13.3803 6.1559 13.3803 5.25878 12.4832C5.25878 12.4832 4.08986 11.3146 2.9213 10.1576C2.07098 9.33101 1.2329 8.49293 0.843382 8.10305C0.689662 7.94969 0.607222 7.86725 0.607222 7.86725C-0.231218 7.04069 -0.195578 5.68313 0.678142 4.84469C0.678142 4.84469 1.83482 3.74705 2.99186 2.67245C4.13702 1.59821 5.28218 0.559247 5.28218 0.559247C6.12026 -0.196033 7.49006 -0.184513 8.34002 0.583007C8.34002 0.583007 9.48518 1.63385 10.6422 2.71961C10.7247 2.80241 10.819 2.88485 10.9018 2.95577C11.9645 3.95909 12.9444 4.91561 12.9444 4.91561C13.8059 5.76557 13.8534 7.11161 13.0387 7.92629" transform="translate(6.75575 26.448349)" id="Fill-51" fill="#112C51" fill-rule="evenodd" stroke="none" />
      <path d="M3.85588 2.60456C3.85588 2.60456 3.4174 2.05952 2.97136 1.51988C2.52676 0.9788 2.07496 0.43952 2.07496 0.43952C1.72072 0.0384798 1.29376 -0.1156 1.11916 0.0928398L0.0946039 1.30676C-0.112036 1.55516 0.0308839 2.11604 0.415724 2.55884C0.415724 2.55884 0.912884 3.15032 1.39852 3.74792C1.8838 4.343 2.35972 4.9424 2.35972 4.9424C2.70424 5.3942 3.12364 5.5184 3.29932 5.2286L4.1572 3.79724C4.30516 3.5474 4.17052 3.01388 3.85588 2.60456" transform="translate(40.541653 9.832396)" id="Fill-52" fill="#112C51" fill-rule="evenodd" stroke="none" />
    </g>
  </g>
</svg>