<?xml version="1.0" encoding="UTF-8"?>
<svg width="80" height="80" fill="none" version="1.1" viewBox="0 0 80 80" xmlns="http://www.w3.org/2000/svg">
 <defs>
  <clipPath id="a-7">
   <path d="m0 0h80.702v80h-80.702z" fill="#fff"/>
  </clipPath>
 </defs>
 <style type="text/css">.st0{fill:#63C3D1;}</style>
 <style type="text/css">.st0{fill:#63C3D1;}</style>
 <g transform="matrix(.74307 0 0 .74307 -50.484 -18.943)">
  <g transform="translate(-242.29,-151.34)" fill="#fff">
   <g transform="translate(-.0041 .00216)" fill="#fff"></g>
  </g>
  <path d="m116.53 85.549s-0.38668-0.36985-0.55123-0.50042c-0.16456-0.13057-2.4021 1.8464-2.4021 1.8464l2.5902 0.93083 0.35413-2.1146-9e-3 -0.1475z" fill="#0a2cca"/>
  <g transform="matrix(1.3453,0,0,1.3453,67.44,25.523)" fill="none">
   <g clip-path="url(#a-7)">
    <path d="m41.656 49.867-5.165-5.25-1.1777 0.29267c2.807 2.982-0.99702 6.2424-1.257 11.469-0.554 11.074-15.621 9.3061-25.186 15.33l-4.3941 2.7676 5.284 5.334h15.13c11.306 0 20.035-6.316 20.983-17.362 0.442-5.256-1.278-9.586-4.218-12.582z" fill="#0a2cca"/>
    <path d="m19.565 15.698-1.362-10.126-5.283-5.326 2.6761 33.691 3.9699-18.239zm2.281 48.752 0.42-9.762h4.162c0.54-3e-3 1.08 0.033 1.614 0.105 3.6653-1.7404 0.45978-8.5088-3.6932-7.2834l-9.8874 1.113 1.1128 17.31 5.6049 0.30082c0.473 2e-3 0.55593-0.77306 0.66594-1.7847zm17.99-48.833 1.2379-2.3611 3.712-7.72-5.277-5.29-12.041 14.406-21.384 20.548 4.302 4.344 9.14 6.9345c2.0285-0.01313 7.3279-4.1834 8.544-6.3035l9.2-19.052zm15.343 13.092-1.361-10.127-5.278-5.326 1.6007 33.825zm19.944-15.453-17.231 20.753-16.194 14.209 5.277 5.326h16.54l16.885-34.962z" fill="#0a2cca"/>
    <path d="m26.203 0.246-10.112 23.53-3.171-23.531h-12.548l5.712 34.955h16.534l16.89-34.954h-13.304zm-4.168 39.298h-16.014l-1.544 34.933h16.786c11.305 0 18.723-6.316 19.263-17.375 0.54-11.06-6.42-17.558-18.49-17.558zm6.07 17.544c-0.26 4.968-2.561 7.417-7.72 7.417h-3.41l0.625-15.024h3.509c5.235 0.014 7.249 2.744 6.996 7.62zm33.713-43.832-10.113 23.537-3.165-23.537h-12.554l5.712 34.962h16.534l16.89-34.962h-13.303z" fill="#ff6400"/>
   </g>
  </g>
 </g>
</svg>
