<svg width="157" height="44" viewBox="0 0 157 44" fill="none" xmlns="http://www.w3.org/2000/svg">
<path fill-rule="evenodd" clip-rule="evenodd" d="M134.817 19.7443L132.336 18.3123C131.624 17.9013 131.317 17.0566 131.598 16.2839L135.252 6.25668C137.328 10.4392 139.852 14.4226 142.803 18.1303C140.168 18.8356 137.501 19.3737 134.817 19.7443ZM147.9 27.2955L136.376 20.644C140.727 19.9489 145.027 18.8197 149.211 17.2541C149.033 20.6432 148.592 23.9996 147.9 27.2955ZM156.293 13.5121L156.291 32.1389L148.92 27.8845C150.116 22.3481 150.611 16.6386 150.359 10.888C152.385 11.6663 154.365 12.5429 156.293 13.5121ZM150.028 1.96823L154.907 2.82728C155.716 2.96971 156.294 3.65838 156.294 4.48056L156.294 12.2601C152.587 10.4355 148.694 8.94793 144.659 7.82943C146.334 5.76225 148.127 3.80566 150.028 1.96823ZM138.996 0.026198L148.67 1.72897C145.443 4.92532 142.53 8.46436 139.988 12.3053C138.419 9.88692 137.016 7.37595 135.786 4.79046L137.128 1.10471C137.409 0.333181 138.187 -0.116233 138.996 0.026198ZM113.602 43.6204H127.563V40.032H117.61V36.1815H126.253V32.5934H117.61V28.8739H125.011C125.974 28.8739 126.798 28.3616 127.225 27.4989L128.318 25.2858H113.602V43.6204ZM88.0124 43.6204H92.0463V25.2858H88.0124V43.6204ZM68.7088 43.6204H72.7422V38.0151L85.0792 25.2858H80.1285L72.7422 33.3005V25.2858H68.7088V43.6204ZM76.0686 37.1188L80.7667 43.6204H85.3932L78.7659 34.6484L76.0686 37.1188ZM39.113 43.6204H43.1465V29.0049H46.273C47.2355 29.0049 48.06 28.4928 48.4863 27.6297L49.6446 25.2858H35.9869C35.0242 25.2858 34.1999 25.7977 33.7732 26.6608L32.6153 29.0049H39.113V43.6204ZM0 43.6204H4.03367V36.5221H12.7819V32.8552H4.03367V28.9527H11.5206C12.4831 28.9527 13.3076 28.4402 13.7343 27.5775L14.8664 25.2858H0V43.6204ZM100.899 43.6204H104.933V29.0049H108.059C109.021 29.0049 109.846 28.4928 110.272 27.6297L111.43 25.2858H97.7728C96.8104 25.2858 95.9859 25.7977 95.5597 26.6608L94.4011 29.0049H100.899V43.6204ZM28.0296 34.453C28.0296 30.0892 27.0935 28.4515 23.6942 28.4515C20.2945 28.4515 19.3582 30.0892 19.3582 34.453C19.3582 38.8163 20.2945 40.4543 23.6942 40.4543C27.0935 40.4543 28.0296 38.8163 28.0296 34.453ZM23.6942 43.9349C18.277 43.9349 15.5223 41.951 15.5223 34.453C15.5223 26.9544 18.277 24.9708 23.6942 24.9708C29.1108 24.9708 31.8661 26.9544 31.8661 34.453C31.8661 41.951 29.1108 43.9349 23.6942 43.9349ZM61.9664 34.453C61.9664 30.0892 61.0299 28.4515 57.6306 28.4515C54.2311 28.4515 53.2948 30.0892 53.2948 34.453C53.2948 38.8163 54.2311 40.4543 57.6306 40.4543C61.0299 40.4543 61.9664 38.8163 61.9664 34.453ZM57.6306 43.9349C52.2138 43.9349 49.4587 41.951 49.4587 34.453C49.4587 26.9544 52.2138 24.9708 57.6306 24.9708C63.0476 24.9708 65.8029 26.9544 65.8029 34.453C65.8029 41.951 63.0476 43.9349 57.6306 43.9349Z" fill="black"/>
</svg>
