<?xml version="1.0" encoding="UTF-8" standalone="no"?>
<!DOCTYPE svg PUBLIC "-//W3C//DTD SVG 1.1//EN" "http://www.w3.org/Graphics/SVG/1.1/DTD/svg11.dtd">
<!-- Created with Inkscape (http://www.inkscape.org/) by Marsupilami -->
<svg
   xmlns:svg="http://www.w3.org/2000/svg"
   xmlns="http://www.w3.org/2000/svg"
   version="1.1"
   width="1024"
   height="667"
   viewBox="-2.65762506 -2.65762506 144.17824012 93.90275212"
   id="svg4315">
  <defs
     id="defs4317" />
  <path
     d="m 71.014239,65.60125 5.46875,0 0,-29.5175 -5.46875,0 0,29.5175 z m -6.56,0 5.4675,0 0,-36.0775 -5.4675,0 0,36.0775 z m -6.55875,0 5.46625,0 0,-29.5175 -5.46625,0 0,29.5175 z"
     id="path3444"
     style="fill:#d9bb6c;fill-opacity:1;fill-rule:nonzero;stroke:none" />
  <path
     d="m 89.597989,32.8 -5.4625,5.46625 0,-18.60125 5.4675,0 m -6.56125,19.6925 -5.4675,5.47 0,-31.72875 5.4675,0 m -12.0275,21.89 5.47,0 0,-28.43375 -5.47,0 0,28.43375 z m -6.56,-6.56 5.46625,0 0,-28.42875 -5.46625,0 0,28.42875 z m -6.55875,6.56 5.465,0 0,-28.43375 -5.465,0 0,28.43375 z m -1.095,9.8375 -5.4675,-5.46875 0,-26.25875 5.4675,0 m -12.02625,6.56625 0,13.13375 5.465,5.46875 0,-18.6025"
     id="path3466"
     style="fill:#000000;fill-opacity:1;fill-rule:nonzero;stroke:none" />
  <path
     d="m 14.351739,72.33625 c 2.73625,0 4.9725,2.20125 4.9725,4.89125 l 0,1.05 c 0,2.28875 -1.61875,4.22125 -3.7825,4.74875 l 4.50125,5.56125 -6.5,0 -4.3862499,-5.4175 -2.65625,0 0,5.4175 -6.50000002141,0 0,-16.25 C -0.07071092,72.3375 7.6454891,72.3365 14.351739,72.3365 m -7.8512499,7.04125 5.5224999,0 c 0.82,0 1.4925,-0.66 1.4925,-1.4675 l 0,-0.31375 c 0,-0.80875 -0.67125,-1.4675 -1.4925,-1.4675 l -5.5224999,0 m 40.1149999,12.4575 9.20875,0 c 2.83125,0 5.1475,-2.315 5.1475,-5.145 0,-2.8325 -2.31625,-5.14625 -5.1475,-5.14625 l -6.43625,0 c -0.48125,0 -0.87625,-0.39375 -0.87625,-0.87375 l 0,-0.42 c 0,-0.48 0.39375,-0.8725 0.87625,-0.8725 l 4.2075,0 c 0.48125,0 0.875,0.3925 0.875,0.8725 l 0,0.20875 6.49375,0 c -0.14375,-2.705 -2.4,-4.87375 -5.14,-4.87375 l -9.20875,0 c -2.82875,0 -5.14625,2.315 -5.14625,5.14625 0,2.83 2.3175,5.145 5.14625,5.145 l 6.43875,0 c 0.48125,0 0.87625,0.39375 0.87625,0.875 l 0,0.41875 c 0,0.48 -0.39625,0.875 -0.87625,0.875 l -4.20875,0 c -0.48125,0 -0.875,-0.395 -0.875,-0.875 l 0,-0.20875 -6.49375,0 c 0.1425,2.7025 2.4,4.87375 5.13875,4.87375 m 29.52375,0 6.49875,0 0,-16.25 -6.49875,0 0,9.36625 -7.585,-9.36625 -6.49875,0 0,16.25 6.49875,0 0,-9.365 m 34.062501,9.365 6.50125,0 0,-5.95875 9.74,0 0,-4.3325 -9.74,-0.0275 0,-1.5975 10.95875,0 0,-4.33375 -17.46,0 M 20.046739,80.439 c 0,5.3225 3.47875,8.1475 10.35,8.1475 6.8725,0 10.35125,-2.825 10.35125,-8.1475 0,-5.32375 -3.47875,-8.1025 -10.35125,-8.1025 -6.87125,0 -10.35,2.77875 -10.35,8.1025 m 10.35,-4.31125 c 2.1125,0 3.83875,1.46875 3.83875,3.26875 l 0,2.13 c 0,1.79875 -1.72625,3.27125 -3.83875,3.27125 -2.11,0 -3.8375,-1.4725 -3.8375,-3.27125 l 0,-2.13 c 0,-1.8 1.7275,-3.26875 3.8375,-3.26875 m 53.5075,12.45875 17.991251,0 0,-4.3325 -11.492501,0 0,-1.62625 9.738751,0 0,-4.3325 -9.738751,-0.0275 0,-1.5975 10.958751,0 0,-4.33375 -17.457501,0 m 42.757501,16.25 6.5025,0 0,-11.91625 5.69875,0 0,-4.3325 -18.06375,0 0,4.3325 5.8625,0"
     id="path3510"
     style="fill:#000000;fill-opacity:1;fill-rule:nonzero;stroke:none" />
</svg>
<!-- version: 20110311, original size: 138.86299 88.587502, border: 3% -->
