<?xml version="1.0" encoding="utf-8"?>
<!-- Generator: Adobe Illustrator 25.0.1, SVG Export Plug-In . SVG Version: 6.00 Build 0)  -->
<svg version="1.1" id="Layer_1" xmlns="http://www.w3.org/2000/svg" xmlns:xlink="http://www.w3.org/1999/xlink" x="0px" y="0px"
	 viewBox="0 0 300 150" style="enable-background:new 0 0 300 150;" xml:space="preserve">
<style type="text/css">
	.st0{fill:#056433;}
</style>
<g>
	<g>
		<path class="st0" d="M23.1,51.9c0.7,2.3,1.2,6,1.1,9c4.2-4.3,10.8-9,19.5-9c14.5,0,26.2,11.1,26.2,28.4c0,16.1-9.9,30.1-27.4,30.1
			c-8.8,0-13.7-3.8-18.3-8V123c0,14.8,0,15.6,9,15.6v3H4.8v-3h1.9c7.2,0,8-1.9,8-12.6V68.5c0-8.3-0.8-10.3-8-10.3H4.8v-3.1
			c6.5-0.7,13.5-2.6,16.5-3.2C21.3,51.9,23.1,51.9,23.1,51.9z M24.2,98.1c2.4,3,7.5,8.8,16,8.8c4.7,0,18.7-2.3,18.7-27
			c0-22.1-14.2-24-18.2-24c-8.9,0-14.1,6.2-16.5,9.1C24.2,65,24.2,98.1,24.2,98.1z"/>
		<path class="st0" d="M116.1,97.4c-4,6.6-10.8,13-20.7,13c-15.7,0-16.8-12.5-16.8-18.2V72.6c0-14.8,0-15.6-8.9-15.6v-3h18.4v37.5
			c0,5.7,0,14.2,10.4,14.2c3.7,0,17.6-3.2,17.6-19.4V72.6c0-15,0-15.6-9.5-15.6v-3h19v35.5v11.3c0,3.8,3.1,7,7,7c3.9,0,7-3.1,7-7
			v-8.1V37.9c0-12.3,0-14.9-8.7-14.9v-3c5.7,0,11-1.2,17.2-2.9h0.9v43c7.2-6.4,13.6-8.3,19.1-8.3c12.2,0,26.7,8.7,26.7,28.9
			c0,16-10.3,29.7-27.6,29.7c-6.1,0-13-1.8-18.2-10c-1.4,4.2-3.8,10-16.1,10C121.3,110.4,116.1,105.1,116.1,97.4z M149,89.6
			c0,7.3,6.1,17.6,15.9,17.6c13,0,19-10.8,19-27.1c0-15.3-6.1-24.8-17.4-24.8c-7.2,0-13.1,4.5-17.5,8.8V89.6L149,89.6z"/>
		<path class="st0" d="M212.2,89.7c0,15.2,0,15.6,9.6,15.6v3h-29v-3h1.8c8,0,8.1-1.5,8.1-15.6V27.2c0-10-0.1-13-9.1-13v-3
			c5.8-0.1,12.5-1.1,17.6-2.8h0.9L212.2,89.7L212.2,89.7z"/>
		<path class="st0" d="M241.7,89.7c0,11.8-0.9,15.6,7.4,15.6h2v3h-29.2v-3h2.3c6.1,0,8-0.8,8-10.3V73.3c0-14.9-0.8-14.9-10.3-14.9
			v-3c4.1-0.1,12.7-1.9,18.4-3.5h1.4L241.7,89.7L241.7,89.7z M235.6,17.2c3.8,0,6.8,3.2,6.8,7.1c0,3.8-3,7-6.8,7s-6.9-3.2-6.9-7
			C228.7,20.4,231.7,17.2,235.6,17.2z"/>
		<path class="st0" d="M269,89.7c0,13.8,0,15.6,8,15.6h1.9v3h-28.7v-3c9.3,0,9.3-0.5,9.3-15.6V74.4c0-15,0-15.6-9.4-15.6v-3
			c6.1-0.8,13.2-3,15.3-3.7l1-0.3c0.7,2.2,1.9,6.5,1.9,14.2c4.2-10,12.3-14.2,17.4-14.2c6.2,0,9.5,5,9.5,8.3c0,2.4-1.9,4.6-4.5,4.6
			c-3.2,0-4.2-2.7-4.7-4.1c-0.7-1.5-1.6-4.1-3.8-4.1c-3.8,0-13.1,6.5-13.1,20.3L269,89.7L269,89.7z"/>
	</g>
</g>
</svg>
