<?xml version="1.0" encoding="utf-8"?>
<!-- Generator: Adobe Illustrator 16.0.0, SVG Export Plug-In . SVG Version: 6.00 Build 0)  -->
<!DOCTYPE svg PUBLIC "-//W3C//DTD SVG 1.1//EN" "http://www.w3.org/Graphics/SVG/1.1/DTD/svg11.dtd">
<svg version="1.1" id="Layer_1" xmlns="http://www.w3.org/2000/svg" xmlns:xlink="http://www.w3.org/1999/xlink" x="0px" y="0px"
	 width="709.386px" height="226.147px" viewBox="0 0 709.386 226.147" enable-background="new 0 0 709.386 226.147"
	 xml:space="preserve">
<g>
	<path fill="#3B444B" d="M253.216,67.702c-16.886,0-27.796,11.855-27.796,30.201c0,18.35,10.91,30.209,27.796,30.209
		c6.107,0,11.432-1.563,15.748-4.42l4.191,4.098c0.275,0.282,0.653,0.42,1.014,0.42c0.364,0,0.724-0.137,1.007-0.401l4.965-4.728
		c0.287-0.276,0.446-0.65,0.45-1.042c0-0.398-0.156-0.779-0.438-1.057l-4.284-4.194c3.312-4.966,5.137-11.383,5.137-18.885
		C281.005,79.558,270.095,67.702,253.216,67.702z M262.147,103.355c-0.564-0.548-1.463-0.555-2.029-0.019l-4.957,4.733
		c-0.288,0.271-0.455,0.646-0.455,1.042c-0.002,0.395,0.16,0.774,0.438,1.057l6.391,6.252c-2.37,1.262-5.151,1.936-8.319,1.936
		c-10.794,0-17.242-7.642-17.242-20.453c0-12.804,6.448-20.449,17.242-20.449c10.79,0,17.229,7.646,17.229,20.449
		c0,4.45-0.792,8.26-2.265,11.361L262.147,103.355z"/>
	<path fill="#3B444B" d="M332.895,68.872c-0.229-0.236-0.555-0.368-0.888-0.368h-6.429c-0.333,0-0.651,0.132-0.888,0.368
		l-0.809,0.806c-0.23,0.236-0.364,0.556-0.364,0.886v35.382c0,10.26-6.755,12.411-12.416,12.411c-10.258,0-12.41-6.751-12.41-12.411
		V70.563c0-0.33-0.131-0.649-0.364-0.886l-0.809-0.806c-0.229-0.236-0.554-0.368-0.887-0.368H290.2
		c-0.338,0-0.655,0.132-0.896,0.368l-0.798,0.806c-0.24,0.236-0.377,0.556-0.377,0.886v35.382c0,13.673,8.812,22.167,22.973,22.167
		c14.167,0,22.973-8.494,22.973-22.167V70.563c0-0.33-0.131-0.649-0.373-0.886L332.895,68.872z"/>
	<path fill="#3B444B" d="M370.171,70.107c-0.062-0.162-0.162-0.31-0.283-0.43l-0.809-0.806c-0.229-0.236-0.549-0.368-0.883-0.368
		h-7.234c-0.342,0-0.658,0.132-0.892,0.368l-0.806,0.806c-0.124,0.12-0.217,0.268-0.286,0.43l-19.296,49.047
		c-0.057,0.146-0.085,0.303-0.085,0.464v5.624c0,0.337,0.132,0.659,0.37,0.89l0.8,0.803c0.237,0.24,0.559,0.372,0.892,0.372h4.825
		c0.334,0,0.659-0.132,0.893-0.372l0.805-0.803c0.117-0.119,0.209-0.265,0.275-0.422l4.644-11.615l0.917-0.459h21.111l0.914,0.459
		l4.654,11.615c0.06,0.157,0.156,0.303,0.276,0.422l0.802,0.803c0.24,0.24,0.557,0.372,0.898,0.372h4.818
		c0.336,0,0.65-0.132,0.891-0.372l0.805-0.803c0.23-0.23,0.364-0.553,0.364-0.89v-5.624c0-0.161-0.03-0.317-0.085-0.464
		L370.171,70.107z M372.298,103.883h-15.438l7.71-19.639L372.298,103.883z"/>
	<path fill="#3B444B" d="M415.632,68.504h-16.887c-0.334,0-0.65,0.132-0.883,0.368l-0.809,0.806
		c-0.236,0.236-0.369,0.556-0.369,0.886v54.679c0,0.337,0.133,0.659,0.369,0.89l0.809,0.803c0.232,0.24,0.549,0.372,0.883,0.372
		h16.887c18.705,0,27.791-9.62,27.791-29.403C443.423,78.121,434.337,68.504,415.632,68.504z M407.243,78.324l0.062-0.065h7.521
		c13.322,0,18.047,5.141,18.047,19.645c0,14.513-4.725,19.652-18.047,19.652h-7.521l-0.062-0.07V78.324z"/>
	<path fill="#3B444B" d="M495.313,85.848c0-11.187-7.018-17.344-19.757-17.344h-22.938c-0.334,0-0.66,0.132-0.892,0.368
		l-0.798,0.806c-0.24,0.236-0.373,0.556-0.373,0.886v54.679c0,0.337,0.133,0.659,0.373,0.89l0.798,0.803
		c0.231,0.24,0.558,0.372,0.892,0.372h6.43c0.336,0,0.658-0.132,0.895-0.372l0.801-0.803c0.236-0.23,0.372-0.553,0.372-0.89v-21.99
		l0.065-0.066h10.062l1.029,0.518l14.289,22.221c0.131,0.19,0.301,0.345,0.494,0.445l1.607,0.806
		c0.182,0.086,0.376,0.132,0.566,0.132h3.218c0.333,0,0.649-0.132,0.89-0.372l0.807-0.803c0.232-0.23,0.365-0.553,0.365-0.89v-5.624
		c0-0.243-0.068-0.476-0.195-0.677l-10.766-16.913C491.149,99.861,495.313,94.162,495.313,85.848z M461.115,78.324l0.065-0.065
		h14.376c6.704,0,9.198,2.055,9.198,7.589c0,5.53-2.494,7.583-9.198,7.583h-14.376l-0.065-0.066V78.324z"/>
	<path fill="#3B444B" d="M513.438,68.872c-0.236-0.236-0.559-0.368-0.887-0.368h-6.434c-0.332,0-0.658,0.132-0.891,0.368
		l-0.806,0.806c-0.235,0.236-0.368,0.556-0.368,0.886v54.679c0,0.337,0.133,0.659,0.368,0.89l0.806,0.803
		c0.232,0.24,0.559,0.372,0.891,0.372h6.434c0.328,0,0.65-0.132,0.887-0.372l0.801-0.803c0.236-0.23,0.373-0.553,0.373-0.89V70.563
		c0-0.33-0.137-0.649-0.373-0.886L513.438,68.872z"/>
	<path fill="#3B444B" d="M569.72,68.872c-0.225-0.236-0.551-0.368-0.891-0.368h-4.822c-0.328,0-0.65,0.132-0.887,0.368l-0.803,0.806
		c-0.135,0.131-0.236,0.286-0.297,0.456l-15.299,42.083l-15.305-42.083c-0.059-0.17-0.16-0.325-0.295-0.456l-0.801-0.806
		c-0.229-0.236-0.555-0.368-0.887-0.368h-4.828c-0.336,0-0.648,0.132-0.889,0.368l-0.799,0.806c-0.24,0.236-0.371,0.556-0.371,0.886
		v5.632c0,0.149,0.023,0.301,0.076,0.442l18.498,49.05c0.066,0.167,0.162,0.317,0.287,0.444l0.805,0.803
		c0.232,0.24,0.555,0.372,0.891,0.372h7.23c0.342,0,0.654-0.132,0.895-0.372l0.797-0.803c0.133-0.127,0.227-0.277,0.293-0.444
		l18.492-49.05c0.055-0.142,0.086-0.293,0.086-0.442v-5.632c0-0.33-0.137-0.649-0.365-0.886L569.72,68.872z"/>
	<path fill="#3B444B" d="M588.218,68.872c-0.234-0.236-0.559-0.368-0.889-0.368h-6.439c-0.334,0-0.652,0.132-0.885,0.368
		l-0.805,0.806c-0.234,0.236-0.365,0.556-0.365,0.886v54.679c0,0.337,0.131,0.659,0.365,0.89l0.805,0.803
		c0.232,0.24,0.551,0.372,0.885,0.372h6.439c0.33,0,0.654-0.132,0.889-0.372l0.805-0.803c0.232-0.23,0.367-0.553,0.367-0.89V70.563
		c0-0.33-0.135-0.649-0.367-0.886L588.218,68.872z"/>
	<path fill="#3B444B" d="M644.497,68.872c-0.236-0.236-0.557-0.368-0.891-0.368h-6.428c-0.334,0-0.66,0.132-0.893,0.368
		l-0.805,0.806c-0.24,0.236-0.367,0.556-0.367,0.886v35.382c0,10.26-6.752,12.411-12.414,12.411
		c-10.256,0-12.406-6.751-12.406-12.411V70.563c0-0.33-0.133-0.649-0.369-0.886l-0.811-0.806c-0.229-0.236-0.551-0.368-0.883-0.368
		h-6.438c-0.328,0-0.65,0.132-0.887,0.368l-0.805,0.806c-0.232,0.236-0.367,0.556-0.367,0.886v35.382
		c0,13.673,8.801,22.167,22.965,22.167c14.168,0,22.975-8.494,22.975-22.167V70.563c0-0.33-0.135-0.649-0.371-0.886L644.497,68.872z
		"/>
	<path fill="#3B444B" d="M709.024,69.689l-0.793-0.802c-0.232-0.236-0.559-0.373-0.887-0.373h-8.688
		c-0.342,0-0.65,0.137-0.893,0.373l-0.789,0.802c-0.094,0.097-0.162,0.203-0.225,0.316l-14.477,28.815l-14.477-28.815
		c-0.055-0.113-0.131-0.22-0.225-0.316l-0.791-0.802c-0.232-0.236-0.549-0.373-0.887-0.373h-8.688c-0.34,0-0.658,0.137-0.898,0.373
		l-0.781,0.802c-0.23,0.236-0.363,0.551-0.363,0.874v54.679c0,0.327,0.133,0.644,0.363,0.875l0.781,0.806
		c0.24,0.238,0.559,0.372,0.898,0.372h6.316c0.33,0,0.656-0.134,0.889-0.372l0.793-0.806c0.229-0.231,0.355-0.548,0.355-0.875
		V90.127l11.268,20.932c0.062,0.103,0.123,0.199,0.209,0.282l0.799,0.804c0.229,0.24,0.551,0.367,0.891,0.367h7.105
		c0.334,0,0.654-0.127,0.889-0.367l0.789-0.804c0.078-0.083,0.154-0.179,0.213-0.282l11.266-20.932v35.115
		c0,0.327,0.129,0.644,0.357,0.875l0.793,0.806c0.229,0.238,0.555,0.372,0.887,0.372h6.318c0.328,0,0.654-0.134,0.887-0.372
		l0.793-0.806c0.229-0.231,0.361-0.548,0.361-0.875V70.563C709.386,70.24,709.253,69.922,709.024,69.689z"/>
	<g>
		<polygon fill="#00EED5" points="91.436,82.432 35.066,26.061 31.244,26.061 26.069,31.231 26.069,35.055 82.462,91.439 
			91.436,91.439 		"/>
		<polygon fill="#00EED5" points="113.164,104.159 104.151,104.159 104.151,113.132 217.167,226.147 220.986,226.147 
			226.158,220.975 226.158,217.151 		"/>
		<polygon fill="#00EED5" points="82.444,104.159 26.058,160.542 26.058,164.359 31.227,169.537 35.058,169.537 91.436,113.149 
			91.436,104.159 		"/>
		<polygon fill="#00EED5" points="113.148,91.439 169.53,35.048 169.53,31.231 164.354,26.055 160.537,26.055 104.151,82.45 
			104.151,91.439 		"/>
		<polygon fill="#00EED5" points="104.151,82.45 104.151,2.7 101.453,0 94.133,0 91.436,2.7 91.436,82.432 97.803,88.799 		"/>
		<polygon fill="#00EED5" points="91.436,113.149 91.436,192.896 94.133,195.591 101.453,195.591 104.155,192.885 104.151,113.132 
			97.803,106.781 		"/>
		<polygon fill="#00EED5" points="82.462,91.439 2.701,91.439 0,94.139 0,101.457 2.701,104.159 82.444,104.159 88.811,97.787 		"/>
		<polygon fill="#00EED5" points="113.164,104.159 192.884,104.153 195.584,101.457 195.584,94.139 192.884,91.439 113.148,91.439 
			106.792,97.787 		"/>
		<g>
			<g>
				<polygon fill="#03D6BC" points="95.162,91.439 97.803,88.799 91.436,82.432 91.436,91.439 				"/>
				<polygon fill="#03D6BC" points="100.431,104.159 97.803,106.781 104.151,113.132 104.151,104.159 				"/>
				<polygon fill="#03D6BC" points="100.445,91.439 104.151,91.439 104.151,82.45 97.803,88.799 				"/>
				<polygon fill="#03D6BC" points="95.17,104.159 91.436,104.159 91.436,113.149 97.803,106.781 				"/>
				<polygon fill="#E6E7E8" points="97.803,88.799 95.162,91.439 100.445,91.439 				"/>
				<polygon fill="#E6E7E8" points="97.803,106.792 100.445,104.146 95.162,104.146 				"/>
				<polygon fill="#03D6BC" points="104.151,100.433 104.151,104.159 113.164,104.159 106.792,97.787 				"/>
				<polygon fill="#03D6BC" points="91.436,95.166 91.436,91.439 82.462,91.439 88.811,97.787 				"/>
				<polygon fill="#03D6BC" points="91.436,100.414 88.811,97.787 82.444,104.159 91.436,104.159 				"/>
				<polygon fill="#03D6BC" points="104.151,95.146 106.792,97.787 113.148,91.439 104.151,91.439 				"/>
				<polygon fill="#E6E7E8" points="88.811,97.787 91.436,100.414 91.436,95.166 				"/>
				<polygon fill="#E6E7E8" points="106.792,97.787 104.151,95.146 104.151,100.433 				"/>
				<polygon fill="#E6E7E8" points="91.436,91.439 91.436,95.166 95.162,91.439 				"/>
				<polygon fill="#E6E7E8" points="100.431,104.159 104.151,104.159 104.151,100.433 				"/>
				<polygon fill="#E6E7E8" points="91.436,104.159 95.17,104.159 91.436,100.414 				"/>
				<polygon fill="#E6E7E8" points="104.151,91.439 100.445,91.439 104.151,95.146 				"/>
				<polygon fill="#E6E7E8" points="104.151,95.146 100.445,91.439 95.162,91.439 91.436,95.166 91.436,100.414 95.17,104.159 
					100.431,104.159 104.151,100.433 				"/>
			</g>
			<g>
				<polygon fill="#04BCA1" points="97.803,106.781 100.431,104.159 95.17,104.159 				"/>
				<polygon fill="#04BCA1" points="97.803,88.799 95.162,91.439 100.445,91.439 				"/>
				<polygon fill="#04BCA1" points="88.811,97.787 91.436,100.414 91.436,95.166 				"/>
				<polygon fill="#04BCA1" points="106.792,97.787 104.151,95.146 104.151,100.433 				"/>
				<polygon fill="#04BCA1" points="91.436,91.439 91.436,95.166 95.162,91.439 				"/>
				<polygon fill="#04BCA1" points="100.431,104.159 104.151,104.159 104.151,100.433 				"/>
				<polygon fill="#04BCA1" points="91.436,104.159 95.17,104.159 91.436,100.414 				"/>
				<polygon fill="#04BCA1" points="104.151,91.439 100.445,91.439 104.151,95.146 				"/>
				<polygon fill="#02AA8E" points="104.151,95.146 100.445,91.439 95.162,91.439 91.436,95.166 91.436,100.414 95.17,104.159 
					100.431,104.159 104.151,100.433 				"/>
			</g>
		</g>
	</g>
</g>
</svg>
