<?xml version="1.0" encoding="utf-8"?>
<!-- Generator: Adobe Illustrator 21.0.0, SVG Export Plug-In . SVG Version: 6.00 Build 0)  -->
<svg version="1.1" id="Layer_1" xmlns="http://www.w3.org/2000/svg" xmlns:xlink="http://www.w3.org/1999/xlink" x="0px" y="0px"
	 viewBox="0 0 628 302" style="enable-background:new 0 0 628 302;" xml:space="preserve">
<style type="text/css">
	.st0{fill:#808080;}
	.st1{stroke:#000000;stroke-width:16;}
	.st2{fill:#F05A24;}
	.st3{fill:#395691;}
</style>
<g>
	<g>
		<path class="st0" d="M279.5,64.3c-16.4,0-32,2.6-46.1,7.4c4.2,2.4,7.8,5.9,10.4,10c8.6-2.1,17.7-3.2,27.1-3.2
			c14,0,27.4,2.5,39.5,6.8c0.3-5.9,1.5-11.6,3.5-17.1C303,65.7,291.5,64.3,279.5,64.3z"/>
		<path class="st0" d="M312.7,88.8l-3.2-1.1c-12.3-4.4-25.3-6.7-38.7-6.7c-8.9,0-17.8,1-26.5,3.1l-1.7,0.4l-1-1.5
			c-2.4-3.8-5.6-6.9-9.5-9.2l-4.8-2.8l5.3-1.8c15-5,30.7-7.5,46.9-7.5c11.8,0,23.6,1.4,34.9,4l2.7,0.6l-1,2.6
			c-1.9,5.4-3.1,10.8-3.4,16.3L312.7,88.8z M270.8,76c12.8,0,25.4,2,37.3,5.9c0.4-4,1.3-7.9,2.5-11.8c-10.1-2.2-20.6-3.3-31.1-3.3
			c-13.9,0-27.5,1.9-40.5,5.7c2.2,1.8,4.2,4,5.9,6.3C253.4,77,262.1,76,270.8,76z"/>
	</g>
	<g>
		<path class="st0" d="M503.4,88.4c0,3.3-0.3,6.6-0.9,9.8c2.7-0.2,5.4-0.4,8.2-0.4c0.7-3.7,1-7.5,1-11.4
			c0-45.1-46.6-81.7-104.2-81.7c-56.1,0-101.8,34.8-104.1,78.3c2.3,0.7,4.6,1.4,6.9,2.2c2.1-39.9,45.2-72.6,96.5-72.6
			C459.5,12.7,503.4,47.1,503.4,88.4z"/>
		<path class="st0" d="M499.5,101l0.5-3.2c0.6-3.2,0.8-6.4,0.8-9.4c0-19.2-9.8-37.4-27.6-51.4c-18-14.1-41.6-21.9-66.5-21.9
			c-49.7,0-91.9,31.5-94,70.2l-0.2,3.4l-3.2-1.1c-2.2-0.8-4.5-1.5-6.7-2.2l-1.9-0.6l0.1-2c2.3-45.3,49.1-80.7,106.6-80.7
			c58.8,0,106.7,37.8,106.7,84.2c0,3.9-0.4,7.9-1.1,11.8l-0.4,2l-2.1,0c-2.8,0.1-5.4,0.2-8,0.4L499.5,101z M406.8,10.2
			c26,0,50.7,8.1,69.6,22.9c19,14.9,29.5,34.6,29.5,55.3c0,2.3-0.1,4.7-0.4,7.1c1-0.1,2-0.1,3.1-0.1c0.4-3,0.7-6,0.7-9
			c0-43.7-45.6-79.2-101.7-79.2c-26.5,0-51.6,7.9-70.7,22.3c-18.2,13.8-29.1,32.1-30.7,51.7c0.7,0.2,1.3,0.4,2,0.6
			C312.4,42.1,355.9,10.2,406.8,10.2z"/>
	</g>
	<g>
		<path class="st0" d="M502.7,79.6c0.4,2.9,0.7,5.8,0.7,8.8c0,3.3-0.3,6.6-0.9,9.8c3.5-0.3,7-0.5,10.6-0.5
			c52.6,0,96.6,34.4,96.6,75.7c0,41.3-43.9,75.7-96.6,75.7c-16.4,0-31.9-3.3-45.6-9.2c-6.9,6.5-15.2,12-24.5,16.4
			c17.4,7.6,37.4,12,58.8,12c66.5,0,120.4-42.3,120.4-94.4C622.4,122.1,568.9,80,502.7,79.6z"/>
		<path class="st0" d="M501.9,271c-20.9,0-41.6-4.2-59.8-12.2l-5-2.2l4.9-2.3c9-4.3,17-9.7,23.8-16l1.2-1.1l1.5,0.6
			c13.7,5.9,29.1,9,44.6,9c24.9,0,48.5-7.8,66.5-21.9c17.8-14,27.6-32.2,27.6-51.4c0-19.2-9.8-37.4-27.6-51.4
			c-18-14.1-41.6-21.9-66.5-21.9c-3.4,0-6.9,0.2-10.4,0.5l-3.2,0.3l0.5-3.2c0.6-3.2,0.8-6.4,0.8-9.4c0-2.7-0.2-5.5-0.7-8.4l-0.4-2.9
			l2.9,0c32.6,0.2,63.2,10.2,86.2,28.4c23.2,18.3,36,42.6,36,68.5C624.9,227.5,569.7,271,501.9,271z M449.1,256.3
			c16.3,6.4,34.5,9.8,52.8,9.8c65,0,117.9-41.2,117.9-91.9c0-49.6-51-90.4-114.3-91.9c0.2,2.1,0.3,4.2,0.3,6.2
			c0,2.3-0.1,4.7-0.4,7.1c2.6-0.2,5.2-0.3,7.7-0.3c26,0,50.7,8.1,69.6,22.9c19,14.9,29.5,34.6,29.5,55.3c0,20.8-10.5,40.4-29.5,55.3
			c-18.8,14.8-43.6,22.9-69.6,22.9c-15.6,0-31.1-3-45.1-8.8C462.5,248,456.1,252.5,449.1,256.3z"/>
	</g>
	<g>
		<path class="st0" d="M467.6,240c-17.8,16.6-44.5,27.3-73.8,27.3c-35.4,0-66.8-15.2-83.6-37.9c-0.2,0-5.3,0-10.8,0
			c13.7,28.7,52.6,50.9,94,50.9c35.3,0,66.2-14.9,83-37C473.4,242.4,470.5,241.3,467.6,240z"/>
		<path class="st0" d="M393.4,282.9c-41.2,0-81.7-22-96.2-52.4l-1.7-3.6l16,0l0.7,1c16.8,22.8,48.1,36.9,81.6,36.9
			c27.7,0,53.9-9.7,72.1-26.7l1.2-1.1l1.5,0.6c2.9,1.2,5.8,2.3,8.6,3.3l3.3,1.1l-2.1,2.8C460.4,268.7,428.6,282.9,393.4,282.9z
			 M303.6,232c15.1,26.8,52.1,46,89.8,46c31.7,0,61.6-12.7,78.9-33.3c-1.4-0.5-2.8-1.1-4.2-1.6c-19,17.1-46,26.9-74.3,26.9
			c-34.6,0-66.9-14.5-84.8-37.9L303.6,232z"/>
	</g>
	<path class="st1" d="M423.2,221.4"/>
	<path class="st1" d="M40.8,221.4"/>
	<g>
		<path class="st2" d="M85.6,266.1c0.9,0.8,2,1.5,3.2,2c1.2,0.5,2.3,0.8,3.4,0.8c1.2,0,2.2-0.2,2.8-0.7c0.6-0.5,0.9-1.1,0.9-1.9
			c0-0.4-0.1-0.8-0.3-1.1c-0.2-0.3-0.4-0.6-0.8-0.8c-0.3-0.2-0.7-0.4-1.2-0.7c-0.5-0.2-1-0.4-1.6-0.7l-3.5-1.5
			c-0.7-0.3-1.3-0.6-2-1.1c-0.6-0.4-1.2-0.9-1.7-1.5c-0.5-0.6-0.9-1.3-1.2-2c-0.3-0.8-0.4-1.6-0.4-2.6c0-1.1,0.2-2.1,0.7-3.1
			c0.5-1,1.1-1.8,2-2.5c0.8-0.7,1.8-1.3,3-1.7c1.2-0.4,2.4-0.6,3.8-0.6c1.5,0,3.1,0.3,4.6,0.9c1.5,0.6,2.8,1.5,4,2.6l-3.1,3.8
			c-0.9-0.7-1.7-1.2-2.6-1.6c-0.9-0.4-1.8-0.5-2.9-0.5c-1,0-1.9,0.2-2.5,0.6c-0.6,0.4-0.9,1-0.9,1.8c0,0.4,0.1,0.8,0.3,1
			c0.2,0.3,0.5,0.5,0.9,0.8c0.4,0.2,0.8,0.4,1.3,0.7c0.5,0.2,1,0.4,1.6,0.7l3.4,1.4c1.6,0.7,2.9,1.5,3.8,2.7
			c0.9,1.1,1.4,2.6,1.4,4.5c0,1.1-0.2,2.2-0.7,3.2c-0.4,1-1.1,1.9-2,2.6c-0.9,0.7-1.9,1.3-3.2,1.8c-1.2,0.4-2.7,0.7-4.2,0.7
			c-1.7,0-3.5-0.3-5.2-1c-1.7-0.6-3.3-1.6-4.6-2.9L85.6,266.1z"/>
		<path class="st2" d="M117.2,274c-1.8,0-3.4-0.3-4.9-1c-1.5-0.6-2.7-1.6-3.8-2.7c-1.1-1.2-1.9-2.6-2.5-4.4
			c-0.6-1.7-0.9-3.6-0.9-5.8c0-2.2,0.3-4.1,0.9-5.8c0.6-1.7,1.4-3.1,2.5-4.3c1.1-1.2,2.3-2,3.8-2.6c1.5-0.6,3.1-0.9,4.9-0.9
			c1.8,0,3.4,0.3,4.9,0.9c1.5,0.6,2.7,1.5,3.8,2.7c1.1,1.2,1.9,2.6,2.5,4.3c0.6,1.7,0.9,3.6,0.9,5.8c0,2.2-0.3,4.1-0.9,5.8
			c-0.6,1.7-1.4,3.2-2.5,4.4c-1.1,1.2-2.3,2.1-3.8,2.7C120.7,273.7,119,274,117.2,274z M117.2,268.8c1.8,0,3.3-0.8,4.3-2.3
			c1.1-1.6,1.6-3.7,1.6-6.4c0-2.7-0.5-4.7-1.6-6.2c-1.1-1.5-2.5-2.2-4.3-2.2c-1.8,0-3.3,0.7-4.3,2.2c-1.1,1.5-1.6,3.6-1.6,6.2
			c0,2.7,0.5,4.8,1.6,6.4C114,268.1,115.4,268.8,117.2,268.8z"/>
		<path class="st2" d="M134.3,247h6v21.5h10.5v5h-16.5V247z"/>
		<path class="st2" d="M153.7,247h6v14.8c0,2.6,0.4,4.4,1.2,5.5c0.8,1,1.9,1.5,3.4,1.5c1.5,0,2.6-0.5,3.5-1.5c0.8-1,1.2-2.8,1.2-5.5
			V247h5.8v14.2c0,4.4-0.9,7.7-2.7,9.7c-1.8,2-4.4,3.1-7.8,3.1c-3.4,0-6.1-1-7.9-3.1c-1.8-2-2.7-5.3-2.7-9.7V247z"/>
		<path class="st2" d="M186.1,252h-7.3v-5h20.6v5h-7.3v21.5h-6V252z"/>
		<path class="st2" d="M203.5,247h6v26.5h-6V247z"/>
		<path class="st2" d="M226.5,274c-1.8,0-3.4-0.3-4.9-1c-1.5-0.6-2.7-1.6-3.8-2.7c-1.1-1.2-1.9-2.6-2.5-4.4
			c-0.6-1.7-0.9-3.6-0.9-5.8c0-2.2,0.3-4.1,0.9-5.8c0.6-1.7,1.4-3.1,2.5-4.3c1.1-1.2,2.3-2,3.8-2.6c1.5-0.6,3.1-0.9,4.9-0.9
			c1.8,0,3.4,0.3,4.9,0.9c1.5,0.6,2.7,1.5,3.8,2.7c1.1,1.2,1.9,2.6,2.5,4.3c0.6,1.7,0.9,3.6,0.9,5.8c0,2.2-0.3,4.1-0.9,5.8
			c-0.6,1.7-1.4,3.2-2.5,4.4c-1.1,1.2-2.3,2.1-3.8,2.7C230,273.7,228.3,274,226.5,274z M226.5,268.8c1.8,0,3.3-0.8,4.3-2.3
			c1.1-1.6,1.6-3.7,1.6-6.4c0-2.7-0.5-4.7-1.6-6.2c-1.1-1.5-2.5-2.2-4.3-2.2s-3.3,0.7-4.3,2.2c-1.1,1.5-1.6,3.6-1.6,6.2
			c0,2.7,0.5,4.8,1.6,6.4C223.3,268.1,224.7,268.8,226.5,268.8z"/>
		<path class="st2" d="M243.6,247h6.1l6.9,13.2l2.6,5.9h0.2c-0.1-1.4-0.3-3-0.5-4.7c-0.2-1.7-0.3-3.4-0.3-5V247h5.7v26.5h-6.1
			l-6.9-13.2l-2.6-5.8h-0.2c0.1,1.5,0.3,3,0.5,4.7c0.2,1.7,0.3,3.3,0.3,4.9v9.4h-5.7V247z"/>
		<path class="st2" d="M272.3,266.1c0.9,0.8,2,1.5,3.2,2c1.2,0.5,2.3,0.8,3.4,0.8c1.2,0,2.2-0.2,2.8-0.7c0.6-0.5,0.9-1.1,0.9-1.9
			c0-0.4-0.1-0.8-0.3-1.1c-0.2-0.3-0.4-0.6-0.8-0.8c-0.3-0.2-0.7-0.4-1.2-0.7c-0.5-0.2-1-0.4-1.6-0.7l-3.5-1.5
			c-0.7-0.3-1.3-0.6-2-1.1c-0.6-0.4-1.2-0.9-1.7-1.5c-0.5-0.6-0.9-1.3-1.2-2c-0.3-0.8-0.4-1.6-0.4-2.6c0-1.1,0.2-2.1,0.7-3.1
			c0.5-1,1.1-1.8,2-2.5c0.8-0.7,1.8-1.3,3-1.7c1.2-0.4,2.4-0.6,3.8-0.6c1.5,0,3.1,0.3,4.6,0.9c1.5,0.6,2.8,1.5,4,2.6l-3.1,3.8
			c-0.9-0.7-1.7-1.2-2.6-1.6c-0.9-0.4-1.8-0.5-2.9-0.5c-1,0-1.9,0.2-2.5,0.6c-0.6,0.4-0.9,1-0.9,1.8c0,0.4,0.1,0.8,0.3,1
			c0.2,0.3,0.5,0.5,0.9,0.8c0.4,0.2,0.8,0.4,1.3,0.7c0.5,0.2,1,0.4,1.6,0.7l3.4,1.4c1.6,0.7,2.9,1.5,3.8,2.7
			c0.9,1.1,1.4,2.6,1.4,4.5c0,1.1-0.2,2.2-0.7,3.2c-0.4,1-1.1,1.9-2,2.6c-0.9,0.7-1.9,1.3-3.2,1.8c-1.2,0.4-2.7,0.7-4.2,0.7
			c-1.7,0-3.5-0.3-5.2-1c-1.7-0.6-3.3-1.6-4.6-2.9L272.3,266.1z"/>
	</g>
	<path class="st2" d="M215.7,82C206,82,198,90,198,99.7c0,9.8,7.9,17.7,17.7,17.7c9.8,0,17.7-7.9,17.7-17.7
		C233.5,90,225.5,82,215.7,82z M215.8,108.7c-11.2,0-11.2-17.4,0-17.4C227.1,91.3,227.1,108.7,215.8,108.7z"/>
	<g>
		<g>
			<path class="st3" d="M286.9,236.1c-3,0-196.6,0.4-202.9,0.4c-19.7,0-33.2-10.5-39.4-24.9C21.2,208.4,5.6,188,5.6,156.9
				c0-33.8,18.7-54.2,45.6-54.2S97,123.3,97,156.9c0,30.4-15.2,50.7-37.8,54.5c4.9,9.3,14.7,13.8,26.2,13.8c4.7,0,198.7,0,201.3,0
				L286.9,236.1z M51.2,200.4c19.1,0,31.6-17,31.6-43.4c0-26.2-12.5-42.5-31.6-42.5c-19.1,0-31.6,16.2-31.6,42.5
				C19.6,183.3,32.2,200.4,51.2,200.4z"/>
			<path class="st3" d="M84,240.1c-19.1,0-34.2-9.2-41.8-25.3c-11.7-2.1-21.6-8.3-28.6-18c-7.5-10.3-11.4-24-11.4-39.8
				c0-17.2,4.7-31.8,13.6-42.1c8.8-10.2,21.1-15.7,35.5-15.7c29.5,0,49.3,23.2,49.3,57.7c0,29.3-13.5,50.5-35.5,56.8
				c4.5,5.2,11.6,8.1,20.5,8.1c2.7,0,67.9,0,123.3,0l81.4,0l0.3,17.8h-3.6c-1.2,0-34.5,0.1-73,0.2C157.7,239.9,87.7,240.1,84,240.1z
				 M51.2,106.2c-25.6,0-42.1,19.9-42.1,50.7c0,28.5,13.8,48.2,35.9,51.2l2,0.3l0.8,1.8c6.2,14.5,19.4,22.8,36.2,22.8
				c3.8,0,73.7-0.2,129.9-0.3c31.6-0.1,59.8-0.1,69.4-0.2l-0.1-3.8l-74.6,0c-55.5,0-120.6,0-123.3,0c-13.4,0-24.1-5.7-29.3-15.7
				l-2.2-4.3l4.7-0.8c21.5-3.7,34.9-23.2,34.9-51.1C93.5,126.1,76.9,106.2,51.2,106.2z M51.2,203.9c-21,0-35.1-18.9-35.1-46.9
				c0-27.9,13.8-46,35.1-46c21.3,0,35.1,18,35.1,46C86.3,185,72.2,203.9,51.2,203.9z M51.2,118c-17.3,0-28.1,14.9-28.1,39
				c0,24.3,11,39.9,28.1,39.9c17.1,0,28.1-15.7,28.1-39.9C79.3,132.9,68.6,118,51.2,118z"/>
		</g>
		<g>
			<path class="st3" d="M118.2,132h13.5v47.8c0,14.6,4.4,20.9,14.8,20.9c8.1,0,13.7-4,21.2-13.2V132h13.5v78.2h-11.1l-1.1-12.2h-0.5
				c-7.3,8.5-15.3,14.2-26.1,14.2c-16.8,0-24.3-10.6-24.3-30.6V132z"/>
			<path class="st3" d="M142.4,215.6c-18.4,0-27.8-11.5-27.8-34.1v-53h20.5v51.3c0,16.1,5.6,17.4,11.3,17.4
				c6.3,0,10.8-2.8,17.7-10.9v-57.7h20.5v85.2h-17.8l-0.8-8.2C160.6,210.7,152.8,215.6,142.4,215.6z M121.7,135.5v46
				c0,24,11.1,27.1,20.8,27.1c8.5,0,15.7-4,23.4-12.9l1-1.2h5.3l1.1,12.2h4.4v-71.2h-6.5v53.2l-0.8,1c-7.3,8.9-13.8,14.5-23.9,14.5
				c-16.4,0-18.3-13.9-18.3-24.4v-44.3H121.7z"/>
		</g>
		<g>
			<path class="st3" d="M207.9,132h13.4v78.2h-13.4V132z"/>
			<path class="st3" d="M224.8,213.7h-20.4v-85.2h20.4V213.7z M211.4,206.7h6.4v-71.2h-6.4V206.7z"/>
		</g>
		<g>
			<path class="st3" d="M280.2,130.1c10.4,0,17.8,4.3,23.1,9.3l-6.7,8.5c-4.7-4-9.6-6.9-16-6.9c-14.3,0-24.8,12.2-24.8,30.2
				c0,17.9,9.9,29.9,24.4,29.9c7.5,0,13.8-3.7,18.6-7.9l6,8.7c-7.2,6.3-16.3,10.1-25.7,10.1c-21,0-37.1-15-37.1-40.9
				C242.1,145,259.9,130.1,280.2,130.1z"/>
			<path class="st3" d="M279.3,215.6c-24.3,0-40.6-17.8-40.6-44.4c0-13.3,4.3-24.7,12.4-32.9c7.6-7.6,17.9-11.8,29.2-11.8
				c9.7,0,18.1,3.4,25.5,10.3l2.4,2.2L297.2,153l-2.8-2.4c-5.1-4.3-9-6.1-13.7-6.1c-12.5,0-21.3,11-21.3,26.7
				c0,15.8,8.4,26.4,20.9,26.4c5.5,0,11-2.4,16.3-7l2.9-2.6l10.1,14.5l-2.4,2.1C299.2,211.7,289.2,215.6,279.3,215.6z M280.2,133.6
				c-16.7,0-34.6,11.8-34.6,37.7c0,22.7,13.2,37.4,33.6,37.4c7.3,0,14.7-2.6,21-7.3l-2-2.9c-5.7,4.1-11.8,6.3-17.8,6.3
				c-16.4,0-27.9-13.7-27.9-33.4c0-19.9,11.6-33.7,28.3-33.7c6.4,0,11.5,2.6,15.4,5.5l2.4-3.1C293.1,135.6,287.1,133.6,280.2,133.6z
				"/>
		</g>
		<g>
			<path class="st3" d="M322.3,95.7h13.2v77.5h0.5l33.7-41.2h14.8l-26.6,31.4l30.1,46.8h-14.7l-23.1-37.6l-14.8,17v20.6h-13.2V95.7z
				"/>
			<path class="st3" d="M394.5,213.7h-23l-21.7-35.2L339,190.9v22.8h-20.2V92.2H339V164l29.1-35.5h24l-29.8,35.1L394.5,213.7z
				 M375.4,206.7h6.3l-28.1-43.6l23.4-27.6h-5.6l-33.7,41.2H332V99.2h-6.2v107.5h6.2v-18.4l18.8-21.6L375.4,206.7z"/>
		</g>
		<g>
			<path class="st2" d="M430.3,130.1c20.2,0,31.6,14.3,31.6,36.7c0,2.7-0.2,5.3-0.5,7.2h-53.4c1,16.9,11.2,27.5,26.4,27.5
				c7.5,0,13.8-2.4,19.7-6.1l4.7,8.7c-6.8,4.3-15.3,8-26.1,8c-21.2,0-38-15.3-38-40.9C394.8,145.7,412.2,130.1,430.3,130.1z
				 M450.1,165.3c0-15.9-7.2-24.8-19.5-24.8c-11.1,0-21.2,9-22.8,24.8H450.1z"/>
			<path class="st2" d="M432.7,215.6c-24.4,0-41.5-18.2-41.5-44.4c0-12.8,4.2-24.3,11.9-32.6c7.2-7.7,17.1-12.1,27.1-12.1
				c21.7,0,35.1,15.4,35.1,40.2c0,2.1-0.1,5.2-0.5,7.8l-0.5,2.9h-52.5c2,12.7,10.4,20.5,22.5,20.5c6.1,0,11.8-1.8,17.8-5.6l3.2-2
				l8.1,14.8l-2.8,1.8C451.5,212.8,442.4,215.6,432.7,215.6z M430.3,133.6c-15.5,0-32,13.2-32,37.7c0,22.3,13.8,37.4,34.5,37.4
				c7.5,0,14.3-1.9,21.4-5.8l-1.4-2.6c-6,3.2-12.1,4.8-18.4,4.8c-17.1,0-28.8-12.1-29.9-30.8l-0.2-3.7h54c0.1-1.1,0.1-2.4,0.1-3.7
				C458.4,145.7,448.1,133.6,430.3,133.6z M453.6,168.8h-49.7l0.4-3.9c1.7-16.4,12.5-27.9,26.3-27.9c14.4,0,23,10.6,23,28.3V168.8z
				 M411.9,161.8h34.6c-0.7-8.8-4.2-17.8-15.9-17.8C421.4,144,414.2,151,411.9,161.8z"/>
		</g>
		<g>
			<path class="st2" d="M481.9,142.8h-11.7v-10l12.4-0.8l1.6-21.9h11.2V132h21.3v10.8h-21.3v43.4c0,9.7,3.1,15.1,12.2,15.1
				c2.8,0,6.4-1.1,9-2.1l2.6,10c-4.4,1.4-9.8,2.9-14.7,2.9c-16.9,0-22.6-10.6-22.6-26.1V142.8z"/>
			<path class="st2" d="M504.5,215.6c-11.9,0-26.1-5.1-26.1-29.6v-39.8h-11.7v-16.8l12.6-0.8l1.6-22.1h18v21.9h21.3v17.8h-21.3v39.9
				c0,9.7,3.2,11.6,8.7,11.6c1.2,0,3.6-0.3,7.7-1.9l3.6-1.3l4.4,16.9l-3.1,1C513.9,214.6,508.9,215.6,504.5,215.6z M473.7,139.3
				h11.7V186c0,15.6,5.9,22.6,19.1,22.6c2.9,0,6.3-0.6,10.4-1.8l-0.8-3.1c-2.5,0.7-4.7,1.1-6.5,1.1c-10.4,0-15.7-6.3-15.7-18.6
				v-46.9h21.3v-3.8h-21.3v-21.9h-4.5l-1.6,21.7l-12.1,0.8V139.3z"/>
		</g>
	</g>
	<g>
		<path class="st0" d="M609.9,264.4c0,5.3-4.2,9.5-9.7,9.5c-5.4,0-9.7-4.2-9.7-9.5c0-5.2,4.3-9.4,9.7-9.4
			C605.7,255,609.9,259.2,609.9,264.4z M593,264.4c0,4.2,3.1,7.5,7.4,7.5c4.1,0,7.2-3.3,7.2-7.5c0-4.2-3-7.6-7.2-7.6
			C596.1,256.9,593,260.2,593,264.4z M598.8,269.3h-2.2v-9.4c0.9-0.2,2.1-0.3,3.6-0.3c1.8,0,2.6,0.3,3.3,0.7
			c0.5,0.4,0.9,1.1,0.9,2.1c0,1-0.8,1.8-2,2.2v0.1c0.9,0.3,1.4,1,1.7,2.3c0.3,1.4,0.5,2,0.7,2.4h-2.4c-0.3-0.3-0.5-1.2-0.7-2.3
			c-0.2-1-0.7-1.5-2-1.5h-1V269.3z M598.8,264h1c1.2,0,2.2-0.4,2.2-1.4c0-0.9-0.6-1.4-2-1.4c-0.6,0-1,0.1-1.2,0.1V264z"/>
	</g>
</g>
</svg>
