<?xml version="1.0" encoding="utf-8"?>
<!-- Generator: Adobe Illustrator 22.0.1, SVG Export Plug-In . SVG Version: 6.00 Build 0)  -->
<svg version="1.1" id="Layer_1" xmlns="http://www.w3.org/2000/svg" xmlns:xlink="http://www.w3.org/1999/xlink" x="0px" y="0px"
	 width="250.1px" height="41.69px" viewBox="0 0 250.1 41.69" enable-background="new 0 0 250.1 41.69" xml:space="preserve">
<g>
	<path fill="#84BD00" d="M15.66,20.04l9.5,20.89H0.05L15.66,20.04z M16.23,19.36l11.81,21.59L24.06,8.77L16.23,19.36z M30.48,0.05
		l-5.91,7.91l5.91,32.99l5.95-32.97L30.48,0.05z M33.07,40.94l11.79-21.66L36.95,8.72L33.07,40.94z M36,40.94h25.03L45.36,19.99
		L36,40.94z"/>
	<path fill="#658D1B" d="M82.56,25.39c5.74,0.4,8.38-1.36,8.38-6.23c0-3.77-2.17-5.82-6.31-5.82h-2.07V25.39 M75.89,16.55
		c0-2.46-0.57-3.41-3.83-4.02v-0.86h14.38c8.38,0,11.74,3.27,11.74,7.38c0,3.01-1.76,5.78-6.1,6.98v0.1
		c3.36,0.75,6.62,10.14,9.36,12.81c0.78,0.75,1.45,1.05,2.74,1.25v0.85h-8.74c-3.31-3.82-5.48-10.39-7.81-12.65
		c-1.34-1.31-2.38-1.36-5.07-1.36v9.04c0,2.61,1.09,3.72,3.88,4.12v0.85H72.07V40.2c2.48-0.2,3.83-1.4,3.83-3.76V16.55 M124,33.21
		h-0.76c-0.28-1.98-1.32-2.91-3.24-2.91h-4.12v6.68c0,2.06,0.88,2.8,3.2,2.8h1.36c2.88,0,4.16-2.06,4.92-4.23h0.68l-0.44,5.52
		h-17.84v-0.66c2.6-0.54,2.96-1.32,2.96-3.64V22.15c0-1.98-0.48-2.68-2.96-3.15v-0.66h17.56v5.05h-0.68
		c-0.76-2.91-1.64-3.76-4.24-3.76h-4.52v9.4H120c1.88,0,2.76-0.77,3.24-2.83H124V33.21 M152.32,40.01
		c-2.24,1.05-5.56,1.63-9.08,1.63c-8.44,0-12.72-5.94-12.72-11.77c0-6.95,5.4-12.11,12.72-12.11c3.56,0,5.16,1.36,6.68,1.36
		c0.64,0,1.08-0.19,1.68-0.77h0.72v6.37h-0.72c-1.4-3.46-4.52-5.67-8.04-5.67c-4.8,0-7.44,4.19-7.44,11.23
		c0,7.26,3.2,10.1,7.52,10.1c2.12,0,3.52-0.55,3.52-2.41v-3.38c0-1.48-0.6-2.45-2.4-2.8v-0.66h9.84v0.66
		c-1.72,0.47-2.28,1.32-2.28,3.42V40.01 M167.36,37.21c0,2.02,0.52,2.6,2.96,3.18v0.66h-11.08V40.4c2.88-0.7,2.95-1.47,2.95-3.69
		V22.18c0-2.02-0.52-2.6-2.95-3.19v-0.66h11.08V19c-2.8,0.62-2.96,1.48-2.96,3.65V37.21 M188.41,19.04c-4.6,0-7.12,3.69-7.12,10.87
		c0,5.48,1.84,10.45,7.12,10.45c3.92,0,7.16-2.99,7.16-10.49C195.57,23.5,193.53,19.04,188.41,19.04 M188.41,41.64
		c-7.4,0-12.72-4.97-12.72-11.92c0-6.95,5.32-11.96,12.72-11.96c7.44,0,12.76,5.01,12.76,11.96
		C201.17,36.67,195.85,41.64,188.41,41.64 M227.53,41.33h-0.76l-16.84-18.45v13.9c0,2.49,0.76,3.19,3.44,3.61v0.66h-8.08V40.4
		c2.52-0.39,3.12-1.71,3.08-3.92V21.25c-1.8-1.78-2.16-2.06-3.12-2.25v-0.66h7.04l13.68,15.23V23.35c0-2.75-0.48-3.81-2.96-4.35
		v-0.66h7.92V19c-2.68,0.16-3.39,1.71-3.39,3.73V41.33 M248.69,23.73h-0.68c-0.89-2.64-3.4-4.7-5.81-4.7
		c-2.12,0-3.84,1.36-3.84,3.07c0,0.86,0.44,1.71,1.16,2.41c1.16,1.13,6.52,3.88,7.96,5.28c1.76,1.71,2.56,3.26,2.56,5.25
		c0,5.01-4.64,6.6-7.52,6.6c-2.81,0-4.52-0.89-5.72-0.89c-0.52,0-0.96,0.27-1.2,0.74h-0.68v-6.84h0.68
		c0.68,3.38,2.92,5.71,6.28,5.71c2.52,0,4.32-1.36,4.32-3.22c0-0.74-0.32-1.75-1.2-2.6c-1.8-1.75-5.92-3.42-7.88-5.32
		c-1.4-1.36-2.08-3.03-2.08-4.82c0-3.92,3.04-6.64,7.36-6.64c0.88,0,1.68,0.16,2.4,0.31c0.72,0.16,1.4,0.31,2,0.31
		c0.36,0,0.76-0.19,1.2-0.62h0.68V23.73"/>
</g>
</svg>
