<?xml version="1.0" encoding="UTF-8" standalone="no"?>
<!-- Created with Inkscape (http://www.inkscape.org/) -->

<svg
   xmlns:dc="http://purl.org/dc/elements/1.1/"
   xmlns:cc="http://creativecommons.org/ns#"
   xmlns:rdf="http://www.w3.org/1999/02/22-rdf-syntax-ns#"
   xmlns:svg="http://www.w3.org/2000/svg"
   xmlns="http://www.w3.org/2000/svg"
   xmlns:sodipodi="http://sodipodi.sourceforge.net/DTD/sodipodi-0.dtd"
   xmlns:inkscape="http://www.inkscape.org/namespaces/inkscape"
   width="72.669289"
   height="106.01186"
   id="svg4616"
   version="1.1"
   inkscape:version="0.48.3.1 r9886"
   sodipodi:docname="Renault Trucks logo svg 2.svg">
  <defs
     id="defs3">
    <linearGradient
       x1="0"
       y1="0"
       x2="1"
       y2="0"
       gradientUnits="userSpaceOnUse"
       gradientTransform="matrix(32.378952,18.694,18.694,-32.378952,60.641113,89.353516)"
       spreadMethod="pad"
       id="linearGradient3235">
      <stop
         style="stop-opacity:1;stop-color:#231f20"
         offset="0"
         id="stop3237" />
      <stop
         style="stop-opacity:1;stop-color:#d3d2d2"
         offset="1"
         id="stop3239" />
    </linearGradient>
    <linearGradient
       x1="0"
       y1="0"
       x2="1"
       y2="0"
       gradientUnits="userSpaceOnUse"
       gradientTransform="matrix(33.407974,-19.288101,-19.288101,-33.407959,92.877441,105.7876)"
       spreadMethod="pad"
       id="linearGradient3215">
      <stop
         style="stop-opacity:1;stop-color:#393536"
         offset="0"
         id="stop3217" />
      <stop
         style="stop-opacity:1;stop-color:#ffffff"
         offset="1"
         id="stop3219" />
    </linearGradient>
    <linearGradient
       x1="0"
       y1="0"
       x2="1"
       y2="0"
       gradientUnits="userSpaceOnUse"
       gradientTransform="matrix(9.3661957,34.955124,34.955124,-9.3661957,93.276367,78.193848)"
       spreadMethod="pad"
       id="linearGradient3195">
      <stop
         style="stop-opacity:1;stop-color:#231f20"
         offset="0"
         id="stop3197" />
      <stop
         style="stop-opacity:1;stop-color:#a7a5a6"
         offset="1"
         id="stop3199" />
    </linearGradient>
    <linearGradient
       x1="0"
       y1="0"
       x2="1"
       y2="0"
       gradientUnits="userSpaceOnUse"
       gradientTransform="matrix(-10.777496,18.667175,18.667175,10.777496,96.665039,96.383789)"
       spreadMethod="pad"
       id="linearGradient3175">
      <stop
         style="stop-opacity:1;stop-color:#918f90"
         offset="0"
         id="stop3177" />
      <stop
         style="stop-opacity:1;stop-color:#ffffff"
         offset="1"
         id="stop3179" />
    </linearGradient>
    <linearGradient
       x1="0"
       y1="0"
       x2="1"
       y2="0"
       gradientUnits="userSpaceOnUse"
       gradientTransform="matrix(32.378952,18.694,18.694,-32.378952,100.46777,130.45703)"
       spreadMethod="pad"
       id="linearGradient3155">
      <stop
         style="stop-opacity:1;stop-color:#d3d2d2"
         offset="0"
         id="stop3157" />
      <stop
         style="stop-opacity:1;stop-color:#ffffff"
         offset="1"
         id="stop3159" />
    </linearGradient>
    <linearGradient
       x1="0"
       y1="0"
       x2="1"
       y2="0"
       gradientUnits="userSpaceOnUse"
       gradientTransform="matrix(38.975723,-22.50264,-22.50264,-38.975723,65.026367,154.0459)"
       spreadMethod="pad"
       id="linearGradient3135">
      <stop
         style="stop-opacity:1;stop-color:#7b7979"
         offset="0"
         id="stop3137" />
      <stop
         style="stop-opacity:1;stop-color:#ffffff"
         offset="1"
         id="stop3139" />
    </linearGradient>
    <linearGradient
       x1="0"
       y1="0"
       x2="1"
       y2="0"
       gradientUnits="userSpaceOnUse"
       gradientTransform="matrix(27.638245,-15.956955,-15.956955,-27.638245,81.915527,150.854)"
       spreadMethod="pad"
       id="linearGradient3115">
      <stop
         style="stop-opacity:1;stop-color:#231f20"
         offset="0"
         id="stop3117" />
      <stop
         style="stop-opacity:1;stop-color:#ffffff"
         offset="1"
         id="stop3119" />
    </linearGradient>
    <linearGradient
       x1="0"
       y1="0"
       x2="1"
       y2="0"
       gradientUnits="userSpaceOnUse"
       gradientTransform="matrix(15.625351,9.0213013,9.0213013,-15.625351,96.188965,128.67236)"
       spreadMethod="pad"
       id="linearGradient3095">
      <stop
         style="stop-opacity:1;stop-color:#231f20"
         offset="0"
         id="stop3097" />
      <stop
         style="stop-opacity:1;stop-color:#a7a5a6"
         offset="1"
         id="stop3099" />
    </linearGradient>
    <linearGradient
       x1="0"
       y1="0"
       x2="1"
       y2="0"
       gradientUnits="userSpaceOnUse"
       gradientTransform="matrix(67.33641,38.876694,38.876694,-67.33641,63.064453,99.888184)"
       spreadMethod="pad"
       id="linearGradient3075">
      <stop
         style="stop-opacity:1;stop-color:#231f20"
         offset="0"
         id="stop3077" />
      <stop
         style="stop-opacity:1;stop-color:#ffffff"
         offset="1"
         id="stop3079" />
    </linearGradient>
    <clipPath
       clipPathUnits="userSpaceOnUse"
       id="clipPath3955">
      <path
         inkscape:connector-curvature="0"
         d="m 496.289,33.183 57.602,0 0,84.484 -57.602,0 0,-84.484 z"
         id="path3957" />
    </clipPath>
  </defs>
  <sodipodi:namedview
     inkscape:document-units="mm"
     id="base"
     pagecolor="#ffffff"
     bordercolor="#666666"
     borderopacity="1.0"
     inkscape:pageopacity="0.0"
     inkscape:pageshadow="2"
     inkscape:zoom="3.959798"
     inkscape:cx="78.16775"
     inkscape:cy="33.716197"
     inkscape:current-layer="layer1"
     showgrid="false"
     units="mm"
     fit-margin-left="0.1"
     fit-margin-top="0.1"
     fit-margin-right="0.1"
     fit-margin-bottom="0.1"
     inkscape:window-width="1360"
     inkscape:window-height="708"
     inkscape:window-x="-4"
     inkscape:window-y="-4"
     inkscape:window-maximized="1" />
  <metadata
     id="metadata4">
    <rdf:RDF>
      <cc:Work
         rdf:about="">
        <dc:format>image/svg+xml</dc:format>
        <dc:type
           rdf:resource="http://purl.org/dc/dcmitype/StillImage" />
        <dc:title></dc:title>
      </cc:Work>
    </rdf:RDF>
  </metadata>
  <g
     inkscape:label="Layer 1"
     inkscape:groupmode="layer"
     id="layer1"
     transform="translate(-138.23678,-302.2134)">
    <g
       id="g4894">
      <g
         transform="matrix(1.25,0,0,-1.25,143.22736,383.46335)"
         id="g3959">
        <path
           inkscape:connector-curvature="0"
           id="path3961"
           style="fill:#000000;fill-opacity:1;fill-rule:nonzero;stroke:none"
           d="M 0,0 C 0.508,0 1.118,0.051 1.338,-0.491 1.473,-1.236 1.626,-2.269 1.219,-2.93 0.915,-3.285 0.457,-3.269 0,-3.251 L 0,0 z M 0.881,-7.892 C 0.576,-7.875 0.186,-7.977 0.034,-7.638 -0.102,-6.452 -0.051,-5.131 0,-3.912 0.779,-5.436 1.372,-7.045 2.151,-8.586 l 3.082,0.051 -0.034,0.694 c -0.237,0 -0.491,-0.051 -0.609,0.203 l -1.914,3.726 0.779,0.169 c 1.05,0.712 0.931,2.253 0.677,3.371 C 3.997,0.102 3.506,0.474 3.048,0.559 l -6.706,0.051 0,-0.695 c 0.271,-0.033 0.644,0.102 0.813,-0.203 0.135,-2.371 0.085,-4.928 0.034,-7.282 -0.119,-0.39 -0.576,-0.288 -0.898,-0.356 0.017,-0.22 -0.034,-0.457 0.051,-0.66 l 4.539,0 0,0.694 z" />
      </g>
      <g
         transform="matrix(1.25,0,0,-1.25,150.02287,394.1961)"
         id="g3963">
        <path
           inkscape:connector-curvature="0"
           id="path3965"
           style="fill:#000000;fill-opacity:1;fill-rule:nonzero;stroke:none"
           d="m 0,0 7.773,0.051 0,2.676 -1.388,0 C 6.266,2.066 6.554,1.05 5.741,0.745 5.081,0.779 4.098,0.44 3.709,1.016 l 0,3.218 C 3.895,4.539 4.352,4.488 4.674,4.437 5.081,4.268 4.962,3.81 5.047,3.455 5.436,3.472 5.86,3.421 6.215,3.505 l 0,2.727 -1.219,0 c 0,-0.338 0.051,-0.711 -0.203,-0.948 -0.339,0 -0.881,-0.186 -1.084,0.169 l 0,2.676 C 4.047,8.773 5.047,8.451 5.656,8.417 6.249,8.112 6.046,7.384 6.148,6.842 l 1.371,0 0,2.354 -7.519,0 0,-0.661 0.457,0 c 0.187,0 0.407,-0.118 0.441,-0.321 l 0,-7.232 C 0.745,0.576 0.271,0.762 -0.034,0.66 -0.017,0.44 -0.068,0.203 0,0" />
      </g>
      <g
         transform="matrix(1.25,0,0,-1.25,162.72449,393.0741)"
         id="g3967">
        <path
           inkscape:connector-curvature="0"
           id="path3969"
           style="fill:#000000;fill-opacity:1;fill-rule:nonzero;stroke:none"
           d="m 0,0 -0.034,4.996 3.167,-5.894 c 0.864,0.017 1.761,-0.033 2.608,0.051 L 5.775,7.316 C 5.91,7.723 6.334,7.638 6.672,7.638 l 0,0.66 C 5.69,8.281 4.691,8.332 3.743,8.248 3.76,8.044 3.709,7.824 3.777,7.638 4.098,7.655 4.471,7.672 4.64,7.401 L 4.674,2.151 C 3.506,4.183 2.456,6.249 1.338,8.298 l -3.404,0 0,-0.66 c 0.322,-0.017 0.694,0.085 0.897,-0.237 0.136,-2.371 0.085,-4.878 0.034,-7.282 -0.118,-0.424 -0.609,-0.271 -0.931,-0.356 0.017,-0.22 -0.034,-0.458 0.034,-0.661 l 2.963,0.051 c 0,0.22 0.034,0.457 -0.033,0.644 C 0.576,-0.169 0.203,-0.271 0,0" />
      </g>
      <g
         transform="matrix(1.25,0,0,-1.25,175.42611,384.7336)"
         id="g3971">
        <path
           inkscape:connector-curvature="0"
           id="path3973"
           style="fill:#000000;fill-opacity:1;fill-rule:nonzero;stroke:none"
           d="M 0,0 C 0.305,-1.084 0.711,-2.185 0.898,-3.336 L -0.813,-3.37 C -0.728,-2.219 -0.203,-1.152 0,0 m -3.777,-7.57 c 0.915,0.017 1.863,-0.034 2.761,0.051 -0.017,0.22 0.034,0.457 -0.034,0.643 l -0.491,0 c -0.203,0.034 -0.288,0.254 -0.237,0.458 0.237,0.728 0.305,1.574 0.728,2.184 l 2.185,0 C 1.558,-4.945 1.643,-5.792 1.88,-6.588 1.761,-6.96 1.372,-6.825 1.101,-6.91 l 0,-0.609 4.674,0 C 5.758,-7.299 5.809,-7.062 5.741,-6.876 5.402,-6.893 5.03,-6.893 4.877,-6.554 l -2.557,8.18 -4.098,0 0.034,-0.695 c 0.304,-0.016 0.711,0.085 0.846,-0.236 -0.457,-2.422 -1.321,-4.776 -1.981,-7.164 -0.169,-0.373 -0.542,-0.407 -0.898,-0.407 l 0,-0.694 z" />
      </g>
      <g
         transform="matrix(1.25,0,0,-1.25,182.68711,383.97136)"
         id="g3975">
        <path
           inkscape:connector-curvature="0"
           id="path3977"
           style="fill:#000000;fill-opacity:1;fill-rule:nonzero;stroke:none"
           d="M 0,0 0.051,-6.266 C 0.135,-6.808 0.322,-7.35 0.813,-7.689 2.134,-8.586 4.302,-8.57 5.775,-8.01 c 0.542,0.287 0.948,0.846 1.05,1.422 L 6.91,0.034 C 7.096,0.39 7.485,0.373 7.841,0.356 l 0,0.66 -2.879,0 0,-0.66 C 5.318,0.373 5.69,0.39 5.86,0.034 L 5.893,-5.775 C 5.877,-6.266 5.843,-6.74 5.453,-7.079 4.945,-7.485 4.115,-7.469 3.506,-7.282 3.184,-7.147 2.845,-6.825 2.811,-6.469 l 0,6.503 c 0.17,0.356 0.542,0.339 0.898,0.322 l 0,0.66 -4.59,0 0,-0.66 0.407,0 C -0.271,0.373 -0.051,0.203 0,0" />
      </g>
      <g
         transform="matrix(1.25,0,0,-1.25,192.74249,393.3706)"
         id="g3979">
        <path
           inkscape:connector-curvature="0"
           id="path3981"
           style="fill:#000000;fill-opacity:1;fill-rule:nonzero;stroke:none"
           d="m 0,0 c 0.017,-0.22 -0.017,-0.457 0.051,-0.66 l 7.401,0.05 C 7.435,0.288 7.485,1.236 7.401,2.117 L 5.978,2.066 C 5.961,1.575 6.046,1.05 5.894,0.61 5.843,0.339 5.572,0.169 5.335,0.085 4.827,0.119 3.997,-0.22 3.743,0.356 l 0,7.197 c 0.186,0.356 0.576,0.339 0.931,0.322 l 0,0.66 -4.674,0 0,-0.66 C 0.339,7.858 0.711,7.96 0.898,7.638 1.033,5.267 0.999,2.76 0.948,0.356 0.83,-0.068 0.339,0.085 0,0" />
      </g>
      <g
         transform="matrix(1.25,0,0,-1.25,210.52474,382.70123)"
         id="g3983">
        <path
           inkscape:connector-curvature="0"
           id="path3985"
           style="fill:#000000;fill-opacity:1;fill-rule:nonzero;stroke:none"
           d="m 0,0 -7.841,0 0.051,-2.727 1.371,0.034 c 0.034,0.491 -0.067,1.033 0.085,1.474 0.119,0.321 0.457,0.643 0.847,0.559 0.085,-0.085 0.203,-0.17 0.203,-0.271 L -5.318,-8.18 C -5.436,-8.535 -5.86,-8.502 -6.215,-8.502 l 0,-0.643 4.64,0 c -0.017,0.22 0.034,0.457 -0.051,0.643 -0.305,0.034 -0.728,-0.118 -0.847,0.288 l -0.033,7.35 c 0.05,0.187 0.237,0.22 0.406,0.204 0.881,-0.289 0.677,-1.305 0.762,-2.067 l 1.389,0.034 C 0.034,-1.795 0.085,-0.881 0,0" />
      </g>
      <g
         transform="matrix(1.25,0,0,-1.25,204.02574,400.84335)"
         id="g3987">
        <path
           inkscape:connector-curvature="0"
           id="path3989"
           style="fill:#000000;fill-opacity:1;fill-rule:nonzero;stroke:none"
           d="m 0,0 c -1.033,0.728 -2.744,0.491 -3.201,1.914 -0.068,0.542 0.051,0.999 0.474,1.338 0.356,0.271 0.949,0.169 1.355,0.084 0.779,-0.389 0.796,-1.219 0.813,-1.998 L 0.864,1.389 0.813,3.658 C -0.898,4.132 -3.302,4.403 -4.877,3.421 -5.606,2.727 -5.673,1.694 -5.606,0.728 c 0.034,-2.252 2.575,-2.117 3.895,-3.048 0.39,-0.305 0.458,-0.728 0.407,-1.22 -0.051,-0.44 -0.118,-0.931 -0.61,-1.168 -0.406,-0.152 -0.931,-0.237 -1.371,-0.085 -0.915,0.424 -0.78,1.491 -0.898,2.354 l -1.389,-0.034 0,-2.371 c 1.812,-0.863 4.573,-1.236 6.182,0.288 0.762,0.813 0.779,2.033 0.609,3.133 C 1.118,-0.83 0.525,-0.288 0,0" />
      </g>
      <g
         transform="matrix(1.25,0,0,-1.25,175.99761,398.0066)"
         id="g3991">
        <path
           inkscape:connector-curvature="0"
           id="path3993"
           style="fill:#000000;fill-opacity:1;fill-rule:nonzero;stroke:none"
           d="M 0,0 C -0.61,-1.981 -0.661,-4.606 0.203,-6.503 1.727,-8.434 4.844,-7.977 6.91,-7.35 6.893,-6.486 6.926,-5.589 6.859,-4.742 L 5.487,-4.793 c 0,-0.728 0.051,-1.473 -0.373,-2.032 -0.287,-0.39 -0.711,-0.424 -1.134,-0.44 -0.525,0.05 -1.084,0.27 -1.304,0.812 -0.407,1.559 -0.254,3.354 -0.288,5.081 0.101,0.932 -0.017,2.1 1.067,2.473 C 3.98,1.253 4.623,1.219 5.03,0.813 5.419,0.322 5.487,-0.305 5.436,-0.965 l 1.474,0 0,2.32 C 4.725,1.812 1.219,2.473 0,0" />
      </g>
      <g
         transform="matrix(1.25,0,0,-1.25,142.50774,399.46735)"
         id="g3995">
        <path
           inkscape:connector-curvature="0"
           id="path3997"
           style="fill:#000000;fill-opacity:1;fill-rule:nonzero;stroke:none"
           d="M 0,0 1.389,0.034 C 1.406,0.762 1.253,1.592 1.914,2.032 2.066,2.066 2.337,2.151 2.439,1.948 2.574,-0.457 2.523,-2.981 2.473,-5.402 2.371,-5.843 1.88,-5.741 1.541,-5.809 1.558,-6.012 1.507,-6.249 1.592,-6.419 l 4.623,0 0,0.644 C 5.894,-5.758 5.487,-5.843 5.318,-5.487 L 5.284,1.863 C 5.335,2.032 5.521,2.083 5.69,2.066 6.554,1.778 6.385,0.762 6.469,0 l 1.338,0.034 0,2.693 -7.841,0 L 0,0 z" />
      </g>
      <g
         transform="matrix(1.25,0,0,-1.25,158.80811,400.29298)"
         id="g3999">
        <path
           inkscape:connector-curvature="0"
           id="path4001"
           style="fill:#000000;fill-opacity:1;fill-rule:nonzero;stroke:none"
           d="m 0,0 c -0.237,-0.474 -0.779,-0.44 -1.253,-0.474 l 0,3.251 C -0.864,2.761 -0.44,2.811 -0.152,2.574 0.271,1.863 0.254,0.779 0,0 m 3.302,-4.877 c -0.626,1.27 -1.372,2.523 -1.88,3.793 0.322,-0.068 0.526,0.102 0.78,0.153 1.016,0.728 0.914,2.32 0.609,3.421 -0.152,0.44 -0.626,0.762 -1.05,0.846 l -6.706,0.051 0,-0.694 c 0.271,-0.017 0.576,0.068 0.762,-0.17 0.22,-2.354 0.118,-4.877 0.085,-7.265 -0.085,-0.491 -0.593,-0.254 -0.898,-0.372 0.017,-0.221 -0.034,-0.458 0.051,-0.644 l 4.539,0 -0.034,0.677 c -0.288,0.034 -0.661,-0.067 -0.813,0.204 -0.136,1.202 -0.085,2.523 -0.034,3.742 0.745,-1.524 1.406,-3.082 2.1,-4.623 l 3.099,0 0,0.677 c -0.237,0.017 -0.491,-0.033 -0.61,0.204" />
      </g>
      <g
         transform="matrix(1.25,0,0,-1.25,171.25562,396.8846)"
         id="g4003">
        <path
           inkscape:connector-curvature="0"
           id="path4005"
           style="fill:#000000;fill-opacity:1;fill-rule:nonzero;stroke:none"
           d="M 0,0 C 0.356,0.034 0.711,0 0.898,-0.288 L 0.948,-6.385 0.813,-6.994 C 0.61,-7.35 0.237,-7.655 -0.152,-7.723 -0.931,-7.773 -1.744,-7.74 -2.1,-6.994 l -0.051,6.588 c 0.068,0.491 0.593,0.372 0.932,0.457 0,0.203 0.034,0.423 -0.034,0.609 l -4.59,0 0,-0.66 0.237,0 c 0.237,-0.051 0.576,-0.034 0.661,-0.322 l 0.068,-6.418 c 0.135,-0.491 0.338,-0.983 0.779,-1.304 1.371,-0.932 3.539,-0.83 5.046,-0.237 0.475,0.287 0.83,0.762 0.932,1.287 l 0.085,6.638 C 2.066,0.068 2.523,0 2.896,0 l 0,0.66 L 0,0.66 0,0 z" />
      </g>
      <g
         transform="matrix(1.25,0,0,-1.25,196.40474,406.68598)"
         id="g4007">
        <path
           inkscape:connector-curvature="0"
           id="path4009"
           style="fill:#000000;fill-opacity:1;fill-rule:nonzero;stroke:none"
           d="m 0,0 c -0.22,-0.017 -0.406,0.051 -0.559,0.203 l -2.405,5.199 0,0.204 c 0.796,0.728 1.118,2.201 2.405,2.201 l 0,0.694 -2.811,0 0,-0.694 0.44,0 c 0.102,-0.051 0.271,-0.135 0.203,-0.288 -0.88,-1.117 -1.71,-2.388 -2.642,-3.37 l 0.051,3.37 c 0.153,0.356 0.542,0.339 0.898,0.322 l 0,0.66 -4.59,0 0,-0.66 c 0.305,0 0.661,0.068 0.847,-0.237 C -8.027,5.233 -8.078,2.743 -8.129,0.372 -8.231,-0.051 -8.671,0 -9.01,0 l 0,-0.644 4.59,0 0,0.644 c -0.356,-0.017 -0.745,-0.034 -0.898,0.322 0.102,0.897 -0.474,2.218 0.491,2.76 l 1.491,-3.726 3.387,0.034 C 0.034,-0.406 0.085,-0.186 0,0" />
      </g>
      <path
         inkscape:connector-curvature="0"
         id="path4011"
         style="fill:#e32119;fill-opacity:1;fill-rule:nonzero;stroke:none"
         d="m 210.43174,380.70773 -71.84,0 0,-78.14 71.84,0 0,78.14 z" />
      <g
         transform="matrix(0.62170157,0,0,-0.62170157,114.40063,414.93308)"
         id="g3065">
        <g
           id="g3071">
          <g
             id="g3073">
            <path
               inkscape:connector-curvature="0"
               d="m 86.536,166.392 c -0.72,0 -1.152,-0.144 -1.44,-0.72 l 0,0 -24.408,-44.352 c -0.36,-0.648 -0.576,-1.224 -0.576,-1.872 l 0,0 c 0,-0.72 0.216,-1.296 0.576,-1.872 l 0,0 24.408,-44.352 c 0.288,-0.576 0.72,-0.72 1.44,-0.72 l 0,0 20.88,0 c 0.576,0 1.08,0.144 1.368,0.648 l 0,0 24.696,44.424 c 0.432,0.648 0.576,1.296 0.576,1.872 l 0,0 c 0,0.504 -0.144,1.152 -0.576,1.872 l 0,0 -24.696,44.424 c -0.288,0.504 -0.792,0.648 -1.368,0.648 l 0,0 -20.88,0 z m -1.08,-47.016 11.664,24.336 11.592,-24.264 -11.592,-24.192 -11.664,24.12 z"
               style="fill:url(#linearGradient3075);stroke:none"
               id="path3081" />
          </g>
        </g>
      </g>
      <g
         id="g3083"
         transform="matrix(0.62170157,0,0,-0.62170157,114.40063,414.93308)">
        <g
           id="g3085">
          <g
             id="g3091">
            <g
               id="g3093">
              <path
                 id="path3101"
                 style="fill:url(#linearGradient3095);stroke:none"
                 d="m 97.12,146.88 0,-3.168 11.592,-24.264 2.16,0 -13.68,27.504 -0.072,-0.072 z m 0,-3.24 0,0.072 0,-0.072 z"
                 inkscape:connector-curvature="0" />
            </g>
          </g>
        </g>
      </g>
      <g
         id="g3103"
         transform="matrix(0.62170157,0,0,-0.62170157,114.40063,414.93308)">
        <g
           id="g3105">
          <g
             id="g3111">
            <g
               id="g3113">
              <path
                 id="path3121"
                 style="fill:url(#linearGradient3115);stroke:none"
                 d="m 97.12,146.88 -13.824,-27.432 2.16,0 7.92,16.488 3.744,7.704 c 4.752,10.296 8.28,16.344 11.664,22.104 l 0,0 c -0.144,0.288 -0.432,0.504 -0.72,0.576 l 0,0 c -3.744,-6.336 -7.416,-13.032 -10.944,-19.44"
                 inkscape:connector-curvature="0" />
            </g>
          </g>
        </g>
      </g>
      <g
         id="g3123"
         transform="matrix(0.62170157,0,0,-0.62170157,114.40063,414.93308)">
        <g
           id="g3125">
          <g
             id="g3131">
            <g
               id="g3133">
              <path
                 id="path3141"
                 style="fill:url(#linearGradient3135);stroke:none"
                 d="m 86.968,166.248 c -0.36,-0.072 -0.648,-0.072 -0.792,-0.36 l 0,0 -24.84,-45 0,-0.072 -0.072,-0.072 -0.072,-0.144 0,-0.072 -0.072,-0.072 -0.072,-0.144 0,-0.072 0,-0.072 -0.072,-0.072 0,-0.144 0,-0.072 -0.072,-0.072 0,-0.072 0,-0.144 0,-0.072 0,-0.072 22.392,0 13.824,27.432 0.072,0.072 c 3.312,6.12 7.272,13.104 10.872,19.224 l 0,0 c -0.072,0 -0.144,0 -0.216,0.072 l 0,0 -20.88,0 z"
                 inkscape:connector-curvature="0" />
            </g>
          </g>
        </g>
      </g>
      <g
         id="g3143"
         transform="matrix(0.62170157,0,0,-0.62170157,114.40063,414.93308)">
        <g
           id="g3145">
          <g
             id="g3151">
            <g
               id="g3153">
              <path
                 id="path3161"
                 style="fill:url(#linearGradient3155);stroke:none"
                 d="m 97.912,145.368 12.96,-25.92 22.392,0 c 0,0.504 -0.216,1.008 -0.432,1.44 l 0,0 -24.48,44.064 c -3.096,-5.184 -6.264,-10.8 -10.44,-19.584"
                 inkscape:connector-curvature="0" />
            </g>
          </g>
        </g>
      </g>
      <g
         id="g3163"
         transform="matrix(0.62170157,0,0,-0.62170157,114.40063,414.93308)">
        <g
           id="g3165">
          <g
             id="g3171">
            <g
               id="g3173">
              <path
                 id="path3181"
                 style="fill:url(#linearGradient3175);stroke:none"
                 d="m 83.296,119.448 0,-0.072 13.824,-27.432 0,0.072 0,3.24 -11.664,24.12 0,0.072 -2.16,0 z"
                 inkscape:connector-curvature="0" />
            </g>
          </g>
        </g>
      </g>
      <g
         id="g3183"
         transform="matrix(0.62170157,0,0,-0.62170157,114.40063,414.93308)">
        <g
           id="g3185">
          <g
             id="g3191">
            <g
               id="g3193">
              <path
                 id="path3201"
                 style="fill:url(#linearGradient3195);stroke:none"
                 d="M 108.712,119.448 100.792,102.96 97.12,95.256 C 92.296,85.032 88.768,78.912 85.384,73.152 l 0,0 c 0.216,-0.288 0.432,-0.504 0.72,-0.576 l 0,0 c 3.744,6.408 7.488,13.032 11.016,19.44 l 0,0 13.752,27.432 -2.16,0 z"
                 inkscape:connector-curvature="0" />
            </g>
          </g>
        </g>
      </g>
      <g
         id="g3203"
         transform="matrix(0.62170157,0,0,-0.62170157,114.40063,414.93308)">
        <g
           id="g3205">
          <g
             id="g3211">
            <g
               id="g3213">
              <path
                 id="path3221"
                 style="fill:url(#linearGradient3215);stroke:none"
                 d="M 110.872,119.448 97.12,92.016 l 0,-0.072 C 93.664,85.824 89.704,78.84 86.104,72.72 l 0,0 0.288,0 20.808,0 c 0.36,0 0.648,0 0.792,0.288 l 0,0 24.84,44.928 0.072,0.072 0,0.144 0.072,0.072 0.072,0.072 0,0.144 0.072,0.072 0,0.072 0.072,0.072 0,0.144 0,0.072 0.072,0.072 0,0.072 0,0.144 0,0.072 0,0.072 0,0.144 -22.392,0 z"
                 inkscape:connector-curvature="0" />
            </g>
          </g>
        </g>
      </g>
      <g
         id="g3223"
         transform="matrix(0.62170157,0,0,-0.62170157,114.40063,414.93308)">
        <g
           id="g3225">
          <g
             id="g3231">
            <g
               id="g3233">
              <path
                 id="path3241"
                 style="fill:url(#linearGradient3235);stroke:none"
                 d="m 61.336,117.936 24.48,-43.992 c 3.096,5.184 6.264,10.8 10.44,19.584 l 0,0 -12.96,25.848 -22.392,0.072 c 0,-0.576 0.216,-1.08 0.432,-1.512"
                 inkscape:connector-curvature="0" />
            </g>
          </g>
        </g>
      </g>
    </g>
  </g>
</svg>
