<?xml version="1.0" encoding="utf-8"?>
<!-- Generator: Adobe Illustrator 15.1.0, SVG Export Plug-In . SVG Version: 6.00 Build 0)  -->
<!DOCTYPE svg PUBLIC "-//W3C//DTD SVG 1.1//EN" "http://www.w3.org/Graphics/SVG/1.1/DTD/svg11.dtd">
<svg version="1.1" id="Rheinmetall_Group_4c_positiv"
	 xmlns="http://www.w3.org/2000/svg" xmlns:xlink="http://www.w3.org/1999/xlink" x="0px" y="0px" width="184.252px"
	 height="53.941px" viewBox="0 0 184.252 53.941" enable-background="new 0 0 184.252 53.941" xml:space="preserve">
<g>
	<path fill="#007EC1" d="M34.827,0.048c0,0-31.6,14.071-31.601,14.072C0.635,15.27,0,16.995,0,18.211v14.875v16.626
		c0,0.324,0.328,0.589,0.673,0.44l16.395-7.296c0.981-0.479,2.277-1.595,2.277-3.82v-17.49l13.696-6.104
		c1.42-0.671,2.424-2.536,2.424-4.999c0-0.005,0-8.333,0-9.948C35.466,0.098,35.187-0.097,34.827,0.048z"/>
	<path fill="#00406E" d="M0.673,50.152l16.395-7.296c0.981-0.479,2.277-1.595,2.277-3.82v-17.49c0,0-16.124,7.271-16.123,7.271h0
		C0.546,30.004,0.027,31.777,0,33.085v16.626C0,50.036,0.328,50.301,0.673,50.152z"/>
	<path fill="#001836" d="M0,33.085c0.027-1.308,0.546-3.082,3.223-4.269h0c-0.001,0,16.123-7.271,16.123-7.271v2.863L3.223,30.401
		c-2.399,0.9-3.196,2.645-3.223,3.953V33.085z"/>
	<path id="RHEINMETALL_1_" fill="#3E3D40" d="M37.798,41.33H35.87c-0.373,0-0.604-0.208-0.604-0.698V27.545
		c0-1.766,0.65-2.649,2.58-2.649h1.765c2.279,0,3.837,0.21,4.72,0.559c1.766,0.72,2.371,2.348,2.371,4.346
		c0,2-0.675,3.672-2.627,4.486l3.162,5.719c0.139,0.255,0.324,0.558,0.324,0.837c0,0.233-0.162,0.395-0.347,0.418
		c-0.209,0.047-1.838,0.116-2.326,0.116c-0.418,0-0.65-0.209-0.813-0.534l-3.045-5.974c-0.395,0.023-0.814,0.023-1.278,0.023h-1.279
		v5.74C38.472,41.098,38.193,41.33,37.798,41.33z M39.844,32.334c0.999,0,1.813-0.092,2.348-0.279
		c0.744-0.278,1.208-1.045,1.208-2.091c0-1.232-0.373-1.905-1.163-2.185c-0.465-0.164-1.186-0.21-2.092-0.21h-0.907
		c-0.558,0-0.767,0.256-0.767,0.768v3.998H39.844z M52.582,41.33h-1.951c-0.373,0-0.604-0.208-0.604-0.698V25.57
		c0-0.418,0.186-0.697,0.627-0.697h2c0.441,0,0.581,0.256,0.581,0.675v5.857h6.369V25.57c0-0.418,0.186-0.697,0.652-0.697h1.974
		c0.442,0,0.581,0.256,0.581,0.675v15.084c0,0.443-0.254,0.698-0.65,0.698h-1.93c-0.372,0-0.627-0.208-0.627-0.698v-6.415h-6.369
		v6.415C53.233,41.075,52.978,41.33,52.582,41.33z M69.11,41.307c-1.627,0-2.487-0.651-2.487-2.487V27.453
		c0-1.744,0.791-2.557,2.487-2.557h6.972c0.443,0,0.652,0.14,0.652,0.628v1.627c0,0.395-0.209,0.535-0.652,0.535h-5.508
		c-0.488,0-0.744,0.256-0.744,0.86v2.859h5.672c0.418,0,0.65,0.139,0.65,0.626v1.628c0,0.395-0.231,0.557-0.65,0.557H69.83v3.394
		c0,0.627,0.233,0.907,0.883,0.907h5.766c0.417,0,0.65,0.116,0.65,0.627v1.604c0,0.396-0.21,0.559-0.65,0.559H69.11z M82.747,41.33
		h-1.952c-0.373,0-0.604-0.208-0.604-0.698V25.57c0-0.418,0.186-0.697,0.627-0.697h1.999c0.442,0,0.582,0.256,0.582,0.675v15.084
		C83.399,41.075,83.144,41.33,82.747,41.33z M89.868,41.33h-1.86c-0.372,0-0.604-0.208-0.604-0.698V26.989
		c0-1.465,0.58-2.186,2.138-2.186h0.883c1.325,0,1.628,0.581,2.092,1.557c3.742,7.671,4.416,9.229,5.137,10.972
		c-0.07-2.115-0.07-4.138-0.07-11.6c0-0.511,0.233-0.86,0.698-0.86h1.744c0.465,0,0.626,0.326,0.626,0.791v13.994
		c0,1.534-0.859,1.813-1.812,1.813H98.12c-1.349,0-1.744-0.465-2.395-1.79c-4.161-8.508-4.532-9.392-5.253-11.111
		c0.023,1.603,0.046,3.184,0.046,12.063C90.519,41.075,90.263,41.33,89.868,41.33z M107.182,41.33h-1.975
		c-0.373,0-0.558-0.255-0.558-0.698V27.151c0-1.209,0.301-2.348,2.278-2.348h0.698c1.626,0,1.743,0.418,2.532,2.417
		c1.604,4.113,2.07,5.348,2.534,6.764c0.511-1.463,0.884-2.603,2.488-6.811c0.65-1.719,0.883-2.371,2.65-2.371h0.79
		c1.884,0,2,0.929,2,2.348v13.412c0,0.559-0.232,0.767-0.652,0.767h-1.954c-0.371,0-0.603-0.208-0.603-0.744
		c0-8.368,0.023-10.227,0.093-12.528c-0.582,1.905-1.046,3.275-3.208,8.972c-0.372,0.975-0.626,1.37-1.44,1.37h-0.373
		c-0.767,0-1.115-0.372-1.441-1.278c-2.068-5.579-2.602-7.02-3.3-9.064c0.07,2.301,0.07,4.299,0.07,12.598
		C107.811,41.028,107.648,41.33,107.182,41.33z M126.918,41.307c-1.627,0-2.486-0.651-2.486-2.487V27.453
		c0-1.744,0.79-2.557,2.486-2.557h6.973c0.441,0,0.65,0.14,0.65,0.628v1.627c0,0.395-0.209,0.535-0.65,0.535h-5.509
		c-0.488,0-0.744,0.256-0.744,0.86v2.859h5.672c0.418,0,0.651,0.139,0.651,0.626v1.628c0,0.395-0.233,0.557-0.651,0.557h-5.672
		v3.394c0,0.627,0.231,0.907,0.883,0.907h5.765c0.417,0,0.652,0.116,0.652,0.627v1.604c0,0.396-0.211,0.559-0.652,0.559H126.918z
		 M143.236,41.33h-1.974c-0.374,0-0.628-0.231-0.628-0.698V27.686h-3.009c-0.44,0-0.651-0.14-0.651-0.535v-1.627
		c0-0.488,0.211-0.628,0.651-0.628h10.025c0.441,0,0.652,0.158,0.493,0.628l-0.572,1.627c-0.122,0.39-0.33,0.535-0.773,0.535h-2.911
		v12.946C143.887,41.098,143.609,41.33,143.236,41.33z M150.361,40.586c-0.185,0.559-0.324,0.79-0.791,0.79
		c-0.463,0-1.998-0.046-2.3-0.116c-0.256-0.07-0.325-0.279-0.325-0.465c0-0.209,0.069-0.489,0.162-0.744l4.556-13.25
		c0.464-1.347,0.813-1.999,2.487-1.999h0.744c1.558,0,1.79,0.605,2.232,1.929l4.463,13.272c0.093,0.255,0.163,0.511,0.163,0.767
		c0,0.186-0.093,0.395-0.304,0.488c-0.278,0.116-1.626,0.116-2.3,0.116c-0.464,0-0.628-0.231-0.813-0.79l-1.185-3.509h-5.649
		L150.361,40.586z M156.429,34.357c-1.279-4.091-1.675-5.393-2.046-6.765c-0.373,1.349-0.79,2.696-2.092,6.765H156.429z
		 M166.193,41.307c-1.58,0-2.438-0.699-2.438-2.372V25.57c0-0.418,0.185-0.697,0.625-0.697h1.999c0.443,0,0.582,0.256,0.582,0.675
		v12.109c0,0.558,0.232,0.86,0.859,0.86h4.661c0.417,0,0.649,0.116,0.649,0.627v1.604c0,0.396-0.232,0.559-0.649,0.559H166.193z
		 M177.315,41.307c-1.582,0-2.441-0.699-2.441-2.372V25.57c0-0.418,0.185-0.697,0.627-0.697h2c0.441,0,0.58,0.256,0.58,0.675v12.109
		c0,0.558,0.233,0.86,0.858,0.86h4.661c0.419,0,0.651,0.116,0.651,0.627v1.604c0,0.396-0.232,0.559-0.651,0.559H177.315z"/>
	<path id="Group_2_" fill="#3E3D40" d="M41.283,53.271c-0.061,0.097-0.183,0.17-0.305,0.231c-0.45,0.195-1.496,0.426-2.785,0.426
		c-2.225,0-3.417-1.009-3.417-4.318c0-3.186,0.937-4.585,3.771-4.585c0.802,0,1.63,0.073,2.116,0.195
		c0.22,0.061,0.292,0.146,0.292,0.279c0,0.122-0.048,0.402-0.121,0.597c-0.025,0.084-0.098,0.133-0.195,0.133
		c-0.097,0-0.231-0.024-0.414-0.061c-0.34-0.061-0.949-0.157-1.751-0.157c-2.116,0-2.53,1.423-2.53,3.417
		c0,1.996,0.292,3.528,2.383,3.528c0.851,0,1.35-0.098,1.752-0.208c0.195-0.049,0.279-0.134,0.279-0.389v-2.141H38.57
		c-0.158,0-0.219-0.085-0.219-0.218v-0.573c0-0.158,0.073-0.231,0.231-0.231h2.53c0.183,0,0.267,0.085,0.267,0.292v3.358
		C41.38,53.027,41.368,53.149,41.283,53.271z M44.132,53.794h-0.596c-0.17,0-0.254-0.098-0.254-0.292v-7.103
		c0-0.803,0.279-1.217,1.167-1.217h0.948c1.035,0,1.8,0.085,2.262,0.268c0.924,0.365,1.229,1.13,1.229,2.166
		c0,1.18-0.511,1.982-1.582,2.334l1.849,3.272c0.061,0.122,0.146,0.231,0.146,0.364c0,0.085-0.061,0.159-0.134,0.171
		c-0.097,0.024-0.584,0.049-0.754,0.049c-0.17,0-0.267-0.073-0.365-0.256l-1.837-3.417c-0.231,0.025-0.486,0.025-0.741,0.025h-1.058
		v3.344C44.412,53.685,44.314,53.794,44.132,53.794z M45.519,49.208c0.669,0,1.131-0.072,1.447-0.194
		c0.461-0.182,0.754-0.644,0.754-1.338c0-0.839-0.28-1.179-0.73-1.35c-0.279-0.109-0.754-0.158-1.435-0.158h-0.693
		c-0.329,0-0.45,0.146-0.45,0.45v2.591H45.519z M53.755,53.928c-2.36,0-3.491-0.925-3.491-4.501c0-3.636,1.532-4.403,3.587-4.403
		c2.347,0,3.491,0.645,3.491,4.392C57.342,52.979,56.199,53.928,53.755,53.928z M53.815,46.011c-1.533,0-2.383,0.583-2.383,3.417
		c0,2.993,0.814,3.515,2.347,3.515c1.496,0,2.383-0.461,2.383-3.502C56.162,46.521,55.519,46.011,53.815,46.011z M65.312,50.34
		c0,1.228-0.049,1.885-0.353,2.42c-0.438,0.779-1.374,1.18-2.833,1.18c-1.277,0-2.335-0.268-2.798-1.266
		c-0.242-0.535-0.267-1.362-0.267-2.311v-4.927c0-0.145,0.072-0.279,0.267-0.279h0.633c0.17,0,0.231,0.11,0.231,0.279v5.267
		c0,0.693,0.049,1.228,0.268,1.569c0.279,0.438,0.839,0.668,1.727,0.668c0.621,0,1.435-0.097,1.751-0.632
		c0.207-0.34,0.28-0.802,0.28-1.569v-5.304c0-0.145,0.073-0.279,0.267-0.279h0.596c0.17,0,0.231,0.11,0.231,0.279V50.34z
		 M68.367,53.794h-0.596c-0.17,0-0.255-0.098-0.255-0.292v-7.103c0-0.815,0.268-1.217,1.155-1.217h1.083
		c1.033,0,1.8,0.098,2.262,0.28c0.912,0.377,1.228,1.191,1.228,2.213c0,1.18-0.499,1.995-1.618,2.335
		c-0.414,0.122-1.046,0.195-1.8,0.195h-1.179v3.296C68.647,53.685,68.549,53.794,68.367,53.794z M69.899,49.257
		c0.668,0,1.119-0.061,1.423-0.182c0.462-0.195,0.753-0.657,0.753-1.338c0-0.839-0.304-1.216-0.742-1.399
		c-0.268-0.109-0.778-0.17-1.495-0.17h-0.791c-0.28,0-0.401,0.11-0.401,0.45v2.64H69.899z"/>
</g>
</svg>
