<svg width="125" height="59" viewBox="0 0 125 59" fill="none" xmlns="http://www.w3.org/2000/svg">
<path d="M108.975 24.4768H125V21.1301H112.782V16.1294H123.167V12.8555H112.782V3.357H124.496V0.0102699H108.975V24.4768ZM93.8468 24.4768H97.6203V3.35531H104.878V0.00857544H86.5872V3.35531H93.8451V24.4768H93.8468ZM78.6108 24.4768H82.3843V0.0102699H78.6108V24.4768ZM60.5363 14.9055V3.35531H62.6919C67.4713 3.35531 69.4831 5.47812 69.4831 9.14818C69.4831 12.7827 67.5423 14.9055 62.6919 14.9055H60.5363V14.9055ZM68.4772 16.92C71.6759 15.5166 73.3648 12.9266 73.3648 9.14818C73.3648 3.53475 69.5913 0.00857544 62.8356 0.00857544H56.7274V24.4751H60.5363V18.1795H62.8356C63.5186 18.1795 64.2016 18.1067 64.8846 18.0356L69.2684 24.4751H73.6522L68.4772 16.92Z" fill="#003DA6"/>
<path d="M5.05131e-06 34.483C0.00676757 25.0167 0.0473446 4.11189 0.0574884 0H47.6047C47.6149 4.11359 47.6554 25.0184 47.6622 34.483C47.6639 36.5229 47.2412 38.5475 46.3469 40.3842C43.0096 47.2504 35.0383 54.5228 23.8311 58.3147H23.8294H23.8277C12.6222 54.5228 4.65093 47.2504 1.31193 40.3842C0.420973 38.5475 -0.00168558 36.5229 5.05131e-06 34.483Z" fill="#003DA6"/>
<path d="M34.2808 23.7556C35.7787 21.1537 37.2022 18.518 37.6824 17.9458C38.6511 16.7896 42.7323 14.9715 42.5784 13.8576C42.5007 13.2939 41.4592 12.2138 40.4499 11.2862C39.3629 10.4516 38.1202 9.61196 37.5522 9.63397C36.4313 9.67629 35.3493 14.0167 34.3806 15.1729C33.5048 16.2174 26.4143 21.5617 24.7355 23.7556H34.2808Z" fill="white"/>
<path d="M14.2334 47.4214C15.5656 48.4269 17.0415 49.3952 18.6679 50.2941H28.9977C30.6241 49.3935 32.1 48.4252 33.4322 47.4214H14.2334Z" fill="white"/>
<path d="M41.603 38.0718C42.1153 37.0172 42.3858 35.7781 42.3858 34.4864C42.3841 32.4787 42.3807 29.9835 42.3773 27.2597H5.28495C5.28157 29.9919 5.27819 32.4906 5.2765 34.4864C5.27481 35.7781 5.54531 37.0172 6.05926 38.0718C7.12774 40.2708 8.98236 42.8084 11.6451 45.2664H36.0189C38.6816 42.8084 40.5346 40.2708 41.603 38.0718Z" fill="white"/>
<path d="M11.3847 16.4086C9.11248 14.1335 5.16824 15.0561 5.16824 15.0561C5.16824 15.0561 4.24685 19.0054 6.51905 21.2806C8.81662 23.5812 12.7017 22.5993 12.7017 22.5993C12.7017 22.5993 13.6822 18.7075 11.3847 16.4086ZM17.7905 9.9454C17.7905 6.69177 14.35 4.63498 14.35 4.63498C14.35 4.63498 10.9096 6.69177 10.9096 9.9454C10.9096 13.1635 14.35 15.3032 14.35 15.3032C14.35 15.3032 17.7905 13.1635 17.7905 9.9454ZM23.5318 15.0544C23.5318 15.0544 19.5876 14.1318 17.3154 16.4069C15.0178 18.7075 15.9984 22.5976 15.9984 22.5976C15.9984 22.5976 19.8835 23.5778 22.181 21.2789C24.4532 19.0037 23.5318 15.0544 23.5318 15.0544Z" fill="#8CC745"/>
<path d="M91.9364 50.7478V32.973H94.5958C100.956 32.973 103.938 36.6431 103.938 41.8604C103.938 47.0777 100.956 50.7478 94.5958 50.7478H91.9364ZM88.1274 54.0945H94.8477C102.718 54.0945 107.891 49.2005 107.891 41.8604C107.891 34.5203 102.68 29.628 94.8477 29.628H88.1274V54.0945ZM60.5279 47.4383L63.5828 39.8104C64.1932 38.3715 64.768 36.1759 64.768 36.1759C64.768 36.1759 65.3783 38.3698 65.9903 39.8104L69.0453 47.4383H60.5279V47.4383ZM54.1677 54.0945H57.833L59.2345 50.6411H70.4096L71.8111 54.0945H75.7638L65.0554 29.3757H64.6243L54.1677 54.0945Z" fill="#6EA101"/>
<path d="M82.3843 29.628H78.6108V54.0945H82.3843V29.628Z" fill="#6EA101"/>
<path d="M38.57 52.3527H37.9343V52.0598H39.5337V52.3527H38.898V54.1996H38.5683V52.3527H38.57Z" fill="#003DA6"/>
<path d="M39.8617 52.0377H39.8955L40.9167 53.2329L41.9294 52.0377H41.9632V54.1995H41.6453V53.089C41.6453 52.9688 41.6572 52.7809 41.6572 52.7809C41.6572 52.7809 41.554 52.9417 41.4661 53.0382L40.9285 53.6866H40.8913L40.3537 53.0382C40.2725 52.94 40.1643 52.7809 40.1643 52.7809C40.1643 52.7809 40.1762 52.9705 40.1762 53.089V54.1995H39.8583V52.0377H39.8617Z" fill="#003DA6"/>
</svg>
