<svg width="151" height="25" viewBox="0 0 151 25" fill="none" xmlns="http://www.w3.org/2000/svg">
<path d="M19.0028 18.116C17.6623 17.3348 16.3053 16.5462 14.9062 15.73C12.3662 17.2079 9.87751 18.6602 7.38514 20.105C6.30468 20.7318 5.34875 20.6234 4.68766 19.8127C4.04305 19.0241 4.10348 18.0774 4.85797 17.1491C4.90192 17.0958 4.92939 17.0278 4.92023 17.0443V12.0977C4.05953 12.6179 3.2556 13.0315 2.53041 13.5591C0.878601 14.7576 0.0417061 16.4341 0.00141796 18.4635C-0.0974711 23.3054 4.99532 26.3495 9.23839 23.9653C12.4559 22.1565 15.6241 20.2594 18.816 18.4028C18.9167 18.344 19.0284 18.2962 19.0028 18.116Z" fill="#00A599"/>
<path d="M21.7411 24.8741C24.3323 24.3245 26.1728 22.3612 26.616 19.6939C27.0225 17.2528 25.8505 14.7178 23.6474 13.4145C20.5123 11.5597 17.3552 9.73989 14.2054 7.90717C14.0937 7.84284 13.9856 7.70497 13.8281 7.82445C13.8281 9.42004 13.8281 11.0138 13.8281 12.6333C14.7859 13.1921 15.729 13.7454 16.6739 14.2969C18.2781 15.2325 19.8952 16.1498 21.4829 17.1094C22.3271 17.6204 22.6293 18.534 22.3326 19.4072C22.0396 20.2675 21.2064 20.7803 20.2523 20.6866C20.0655 20.6682 19.8787 20.6443 19.6937 20.6222C18.3294 21.42 16.9816 22.2068 15.5166 23.0634C16.7966 23.7528 17.8514 24.5818 19.1901 24.8594C20.0398 25.0359 20.8932 25.0542 21.7411 24.8741Z" fill="#00A599"/>
<path d="M7.35227 17.6087C8.70009 16.8238 10.0497 16.0389 11.4269 15.2392C11.4269 14.9543 11.4269 14.6933 11.4269 14.4341C11.4269 11.8293 11.4232 9.22453 11.4287 6.62159C11.4324 5.35689 12.0367 4.50578 13.0402 4.32012C14.0291 4.13814 14.8257 4.68041 15.2964 5.85689C15.3128 5.89917 15.3531 5.93225 15.4117 6.00394C16.7266 6.76681 18.0799 7.5499 19.5523 8.40468C19.5523 7.54255 19.5669 6.81277 19.5504 6.08483C19.4735 2.67858 16.6973 -0.0309824 13.3241 0.000267608C9.94902 0.0315176 7.2314 2.78703 7.22408 6.20247C7.21675 9.78703 7.22041 13.3716 7.22774 16.9543C7.22774 17.1547 7.1435 17.3789 7.35227 17.6087Z" fill="#00A599"/>
<path d="M84.2677 16.297C83.5992 16.4606 82.9198 16.3797 82.2441 16.3852C80.8963 16.3962 79.5485 16.3889 78.1713 16.3889V13.3447C80.1986 13.4072 82.2001 13.2161 84.1926 13.4587C85.0752 13.5653 85.4964 14.0782 85.5056 14.8411C85.5166 15.6352 85.1393 16.0837 84.2677 16.297ZM78.1658 8.71239C78.3178 8.52122 78.5266 8.59291 78.7097 8.59107C80.1857 8.58556 81.6617 8.58556 83.1359 8.58923C83.548 8.59107 83.9563 8.61497 84.3464 8.77306C84.8335 8.96975 85.0441 9.32453 85.035 9.85026C85.0258 10.3778 84.8042 10.7326 84.3024 10.8925C84.1193 10.9514 83.927 11.0065 83.7384 11.0083C81.9053 11.0175 80.0722 11.0139 78.164 11.0139V8.71239H78.1658ZM86.5458 12.0561C87.3936 11.2124 87.6464 10.7087 87.694 9.84475C87.7983 7.91828 86.8058 6.72342 84.6888 6.45872C81.6581 6.08004 78.6108 6.38335 75.5508 6.27857V18.6756C78.3655 18.6756 81.1215 18.6867 83.8758 18.6683C84.6504 18.6628 85.4085 18.4973 86.1264 18.172C87.9174 17.3613 88.6664 15.4128 87.8753 13.6021C87.5987 12.9642 87.1556 12.4624 86.5458 12.0561Z" fill="#042228"/>
<path d="M41.7185 11.6922V8.58192C43.6541 8.63706 45.5568 8.46611 47.4522 8.68853C48.3788 8.79883 48.7451 9.26758 48.7414 10.1315C48.7377 11.0047 48.3953 11.4183 47.4375 11.5562C45.5641 11.8264 43.6798 11.6058 41.7185 11.6922ZM48.518 13.7124C50.602 13.0966 51.5488 11.7749 51.3931 9.69956C51.2411 7.68486 50.2394 6.70508 48.0217 6.40361C47.7818 6.37052 47.5419 6.32824 47.302 6.32824C44.643 6.31353 41.9822 6.30434 39.3231 6.29883C39.2371 6.29883 39.151 6.34662 39.0869 6.365V18.6573H41.6873V13.9845H45.1777C46.3589 15.5948 47.5016 17.1554 48.6059 18.6628H51.8894C50.6533 17.0047 49.4758 15.422 48.2818 13.819C48.3935 13.7676 48.4539 13.7308 48.518 13.7124Z" fill="#042228"/>
<path d="M148.515 6.32227V14.7726C145.802 11.8204 143.253 9.04653 140.774 6.34616H138.093V18.6421H140.631V9.96749C143.392 12.9601 146.044 15.8333 148.641 18.6476H151V6.32227H148.515Z" fill="#042228"/>
<path d="M127.243 16.5295C126.174 16.7206 125.123 16.6747 124.09 16.3585C122.33 15.8217 121.402 14.478 121.398 12.5037C121.394 10.5478 122.334 9.18571 124.075 8.6324C124.704 8.43204 125.348 8.3438 126.009 8.3199C126.441 8.36954 126.875 8.39527 127.302 8.47432C129.439 8.8677 130.637 10.3199 130.633 12.4909C130.63 14.7133 129.421 16.1398 127.243 16.5295ZM129.089 6.46145C127.469 5.93388 125.808 5.89344 124.139 6.1563C120.814 6.68204 118.931 8.8438 118.724 12.3475C118.55 15.3125 120.369 17.8364 123.281 18.6545C124.171 18.9045 125.084 18.9945 126.084 18.989C126.907 19.0019 127.793 18.8971 128.665 18.6765C131.45 17.9706 133.221 15.6931 133.305 12.7206C133.387 9.67101 131.836 7.35667 129.089 6.46145Z" fill="#042228"/>
<path d="M106.883 16.5281C105.079 16.1494 103.861 14.7818 103.74 13.0024C103.592 10.802 104.482 9.27261 106.269 8.66232C108.641 7.84982 110.728 8.49687 112.058 10.4509H114.627C114.162 8.5079 113.063 7.19908 111.25 6.52996C109.595 5.91967 107.881 5.87739 106.168 6.1954C103.661 6.66048 101.793 7.96746 101.231 10.5869C100.645 13.3222 101.101 15.8369 103.434 17.6697C105.842 19.5612 110.615 19.4454 112.986 17.5061C114.048 16.6366 114.6 15.4932 114.788 14.1072H112.221C111.137 16.2248 109.324 17.041 106.883 16.5281Z" fill="#042228"/>
<path d="M69.5938 6.33703H67.0464C67.0464 6.64402 67.0464 6.90689 67.0464 7.16792C67.0355 9.37564 67.0702 11.5852 66.9952 13.7911C66.9421 15.3536 66.0905 16.2286 64.5669 16.5153C63.7282 16.6734 62.8894 16.6918 62.0434 16.5539C60.1938 16.2543 59.3441 15.2764 59.3367 13.3848C59.3276 11.3462 59.3386 9.30762 59.3312 7.27086C59.3294 6.96387 59.3349 6.31497 59.3349 6.32233H56.7162C56.7162 8.99512 56.6411 11.5907 56.7382 14.1826C56.8242 16.4933 58.1995 18.0705 60.4264 18.6587C62.0892 19.0981 63.7776 19.1238 65.4551 18.7745C68.1214 18.2157 69.5113 16.6863 69.6359 13.9565C69.7494 11.4639 69.6707 8.96203 69.6725 6.46387C69.6707 6.42343 69.6249 6.38667 69.5938 6.33703Z" fill="#042228"/>
<path d="M95.868 6.34961H93.3408V18.6695H95.868V6.34961Z" fill="#042228"/>
</svg>
