<?xml version="1.0" encoding="utf-8"?>
<!-- Generator: Adobe Illustrator 25.0.0, SVG Export Plug-In . SVG Version: 6.00 Build 0)  -->
<svg version="1.1" id="Layer_1" xmlns="http://www.w3.org/2000/svg" xmlns:xlink="http://www.w3.org/1999/xlink" x="0px" y="0px"
	 width="827.273px" height="70px" viewBox="0 0 827.273 70" enable-background="new 0 0 827.273 70" xml:space="preserve">
<g>
	<g>
		<g>
			<path d="M4.068,2.256l0.211,11.326c0.005,0.272,0.119,0.521,0.321,0.703c0.202,0.182,0.464,0.269,0.733,0.245l67.812-5.93
				c0.506-0.044,0.895-0.477,0.886-0.985l-0.124-6.664C73.897,0.424,73.463,0,72.937,0c-0.006,0-0.012,0-0.018,0L5.02,1.268
				C4.485,1.279,4.058,1.722,4.068,2.256z"/>
		</g>
		<g>
			<path d="M75.959,58.534c0-0.266-0.105-0.513-0.297-0.698c-0.182-0.176-0.42-0.272-0.672-0.272c-0.012,0-0.023,0-0.036,0.001
				L7.043,59.976c-0.525,0.018-0.936,0.444-0.936,0.969v7.793c0,0.535,0.435,0.97,0.97,0.97h67.911c0.535,0,0.97-0.435,0.97-0.97
				V58.534z"/>
		</g>
		<g>
			<path d="M9.041,19.021v9.546c0,0.477,0.356,0.89,0.828,0.96l68.253,10.106c0.279,0.04,0.562-0.041,0.776-0.226
				c0.214-0.184,0.336-0.452,0.336-0.734V13.59c0-0.274-0.111-0.527-0.312-0.712c-0.182-0.168-0.412-0.258-0.656-0.258
				c-0.026,0-0.053,0.001-0.079,0.003L9.934,18.054C9.433,18.094,9.041,18.518,9.041,19.021z"/>
		</g>
		<g>
			<path d="M3.057,33.015L1.932,54.103c-0.014,0.272,0.081,0.529,0.27,0.725c0.188,0.196,0.449,0.294,0.714,0.297L71.32,54.09
				c0.508-0.008,0.927-0.411,0.954-0.918l0.478-8.946c0.026-0.495-0.323-0.929-0.812-1.009L4.183,32.11
				c-0.052-0.008-0.105-0.013-0.157-0.013c-0.22,0-0.435,0.075-0.608,0.214C3.204,32.484,3.072,32.741,3.057,33.015z"/>
		</g>
	</g>
	<g>
		<path d="M137.37,67.041c-11.5,0-16.9-4.092-17.51-4.092c-0.349,0-1.744,1.914-2.703,3.222h-0.783l-0.261-18.556h0.871
			c2.09,6.185,7.317,12.98,11.412,15.419c1.917,1.134,5.403,2.615,8.624,2.615c8.19,0,13.851-4.966,13.851-12.807
			c0-6.27-4.441-9.146-10.105-11.236c-4.617-1.656-7.754-2.615-12.632-4.532c-6.534-2.612-11.588-8.276-11.588-15.941
			c0-12.547,10.717-18.556,21.781-18.556c10.629,0,15.246,4.356,15.856,4.356c0.349,0,1.741-1.917,2.612-3.312h0.959v17.252h-0.959
			c-2.873-7.842-9.495-16.903-18.031-16.903c-7.232,0-12.807,4.793-12.807,11.937c0,6.01,4.529,9.407,10.105,11.497
			c4.007,1.568,7.669,2.788,11.937,4.356c8.275,3.137,12.893,8.278,12.893,16.815C160.892,60.073,150.611,67.041,137.37,67.041z"/>
	</g>
	<g>
		<path d="M163.646,66.258v-0.871c2.873-0.437,5.661-1.395,7.405-3.398c1.132-1.307,1.132-5.576,1.219-9.322
			c0.085-3.225,0.173-11.673,0.173-18.034V17.646c0-4.095,0-8.624-1.307-10.193c-1.653-1.917-4.18-2.7-7.229-3.049V3.531h28.139
			v0.873c-2.439,0.349-5.837,0.959-7.32,3.746c-1.044,2.002-0.871,5.4-0.956,8.015c-0.088,5.924-0.088,10.975-0.088,18.119v19.69
			c0,3.222,0,6.968,0.871,8.188c1.395,1.917,5.139,3.049,7.581,3.225v0.871H163.646z"/>
	</g>
	<g>
		<path d="M238.01,37.944c-6.707,2.354-15.856,2.178-20.822,2.178c0,7.493,0,9.759,0.088,13.59c0.088,3.746,0,6.361,1.132,8.103
			c0.959,1.483,3.746,3.398,8.451,3.573v0.871H196.89v-0.871c2.788-0.437,5.924-1.219,7.493-3.137
			c1.219-1.48,1.307-5.837,1.392-9.583c0.088-3.225,0.176-11.327,0.176-18.034V17.646c0-4.183-0.088-9.061-1.483-10.541
			c-1.741-1.829-4.79-2.266-7.927-2.7V3.531c2.178,0,19.603-0.173,26.049-0.173c7.666,0,13.59,0.437,18.905,3.31
			c5.227,2.788,9.061,8.015,9.061,14.986C250.556,30.19,244.456,35.681,238.01,37.944z M230.693,6.322
			c-2.527-1.307-5.488-1.656-8.539-1.656c-2.263,0-3.398,0.261-4.092,0.349c-0.349,1.568-0.61,1.917-0.786,6.707
			c-0.173,8.103-0.088,25.351-0.088,27.095c4.356,0,8.19-0.176,11.5-1.395c6.883-2.527,10.368-8.885,10.368-16.205
			C239.056,14.51,235.919,8.934,230.693,6.322z"/>
	</g>
	<g>
		<g>
			<path fill="#C42A35" d="M332.974,39.688c-0.786,1.219-0.786,4.356-0.786,7.056v12.632c-1.741,1.307-13.678,7.493-25.002,7.493
				c-22.302,0-35.371-12.198-35.371-32.058c0-5.839,1.917-15.683,10.02-23.437c5.661-5.4,13.502-9.061,25.263-9.061
				c14.288,0,21.432,6.012,21.954,6.012c0.176,0,1.395-1.741,2.876-3.746h0.871V24.18h-1.044c-1.307-5.142-4.271-10.541-7.232-13.59
				c-3.834-3.834-9.671-6.795-17.076-6.795c-14.376,0-23.085,14.722-23.085,31.188c0,17.773,8.015,30.493,22.648,30.493
				c4.881,0,9.671-2.005,12.286-6.188c0.871-1.48,1.392-5.837,1.392-9.844c0-4.092-0.261-7.493-2.09-9.583
				c-1.307-1.568-4.18-2.527-7.232-2.788v-0.871h27.529v0.871C336.805,37.334,334.017,38.032,332.974,39.688z"/>
		</g>
		<g>
			<path fill="#C42A35" d="M336.675,66.258V65.3c5.315-0.349,6.619-1.392,6.619-3.222V13.29c0-0.871-0.085-1.307-0.871-1.829
				c-1.046-0.61-3.658-2.09-5.054-2.7V8.236l14.288-4.966h0.61v59.242c0,2.351,2.005,2.351,6.449,2.788v0.959H336.675z"/>
		</g>
		<g>
			<path fill="#C42A35" d="M378.776,66.78c-9.234,0-21.083-6.88-21.083-21.693c0-10.975,8.363-21.083,21.259-21.083
				c9.583,0,20.734,6.883,20.734,21.083C399.686,57.024,390.364,66.78,378.776,66.78z M378.43,25.4
				c-6.883,0-10.805,10.02-10.805,19.951c0,10.366,3.137,20.036,11.327,20.036c8.015,0,10.802-12.286,10.802-20.385
				C389.754,36.812,386.966,25.4,378.43,25.4z"/>
		</g>
		<g>
			<path fill="#C42A35" d="M423.684,66.607c-6.273,0-11.761-1.917-15.941-5.227h-0.437l-2.876,4.966h-0.61V12.593
				c-1.044-0.695-3.137-1.829-5.139-2.873V9.195l13.502-6.185h0.698l-0.173,30.842l0.173,0.085c2.005-4.702,8.103-9.932,14.81-9.932
				c10.629,0,16.727,10.02,16.727,20.822C444.418,56.936,435.794,66.607,423.684,66.607z M422.116,30.366
				c-6.358,0-9.234,4.529-9.322,6.01c-0.085,1.395-0.173,4.62-0.173,6.622c0,2.178,0.088,4.705,0.173,6.883
				c0.264,6.707,3.485,15.332,10.89,15.332c6.622,0,10.89-7.839,10.89-18.641C434.574,38.032,430.74,30.366,422.116,30.366z"/>
		</g>
		<g>
			<path fill="#C42A35" d="M477.619,66.607c-4.268,0-8.188-2.527-8.363-8.19l-0.173-0.085c-1.829,3.746-6.097,8.188-12.371,8.188
				c-4.007,0-8.363-2.527-8.363-8.536c0-3.312,2.961-6.71,6.795-8.973c7.754-4.617,11.588-6.361,14.027-7.842v-7.842
				c-0.261-1.917-2.266-5.139-6.622-5.315c-3.658,0.264-5.749,2.788-5.749,4.183v5.315c0,1.653-2.615,3.31-4.966,3.31
				c-2.178,0-4.183-1.656-4.183-3.746c0-3.137,2.7-4.79,5.054-6.273c5.749-3.398,13.678-6.707,16.815-6.795
				c3.571,0.088,6.446,1.656,8.1,4.881c0.437,0.783,0.525,3.137,0.525,5.139c0,8.276-0.261,11.673-0.261,19.603
				c0,5.227,2.178,6.446,4.441,6.446c2.7,0,3.746-1.395,4.183-3.137h0.61C486.856,61.381,483.022,66.607,477.619,66.607z
				 M469.171,42.476c-3.922,2.876-12.11,5.576-12.11,12.11c0,2.961,2.351,5.576,5.315,5.576c2.263,0,4.79-0.61,6.01-2.005
				c0.61-0.698,0.786-1.48,0.786-2.351V42.476z"/>
		</g>
		<g>
			<path fill="#C42A35" d="M485.818,66.258V65.3c5.315-0.349,6.622-1.392,6.622-3.222V13.29c0-0.871-0.088-1.307-0.871-1.829
				c-1.046-0.61-3.661-2.09-5.054-2.7V8.236l14.288-4.966h0.61v59.242c0,2.351,2.002,2.351,6.446,2.788v0.959H485.818z"/>
		</g>
		<g>
			<path fill="#C42A35" d="M567.246,37.944c-6.707,2.354-15.856,2.178-20.822,2.178c0,7.493,0,9.759,0.088,13.59
				c0.088,3.746,0,6.361,1.132,8.103c0.959,1.483,3.746,3.398,8.451,3.573v0.871h-29.968v-0.871
				c2.788-0.437,5.924-1.219,7.493-3.137c1.219-1.48,1.307-5.837,1.393-9.583c0.088-3.225,0.176-11.327,0.176-18.034V17.646
				c0-4.183-0.088-9.061-1.483-10.541c-1.741-1.829-4.79-2.266-7.927-2.7V3.531c2.178,0,19.603-0.173,26.049-0.173
				c7.666,0,13.59,0.437,18.905,3.31c5.227,2.788,9.061,8.015,9.061,14.986C579.792,30.19,573.692,35.681,567.246,37.944z
				 M559.929,6.322c-2.527-1.307-5.488-1.656-8.539-1.656c-2.263,0-3.398,0.261-4.092,0.349c-0.349,1.568-0.61,1.917-0.786,6.707
				c-0.173,8.103-0.088,25.351-0.088,27.095c4.356,0,8.19-0.176,11.5-1.395c6.883-2.527,10.368-8.885,10.368-16.205
				C568.292,14.51,565.156,8.934,559.929,6.322z"/>
		</g>
		<g>
			<path fill="#C42A35" d="M607.171,66.607c-4.268,0-8.188-2.527-8.363-8.19l-0.173-0.085c-1.829,3.746-6.097,8.188-12.371,8.188
				c-4.007,0-8.363-2.527-8.363-8.536c0-3.312,2.961-6.71,6.795-8.973c7.754-4.617,11.588-6.361,14.027-7.842v-7.842
				c-0.261-1.917-2.266-5.139-6.622-5.315c-3.659,0.264-5.749,2.788-5.749,4.183v5.315c0,1.653-2.615,3.31-4.966,3.31
				c-2.178,0-4.183-1.656-4.183-3.746c0-3.137,2.7-4.79,5.054-6.273c5.749-3.398,13.678-6.707,16.815-6.795
				c3.571,0.088,6.446,1.656,8.1,4.881c0.437,0.783,0.525,3.137,0.525,5.139c0,8.276-0.261,11.673-0.261,19.603
				c0,5.227,2.178,6.446,4.441,6.446c2.7,0,3.746-1.395,4.183-3.137h0.61C616.408,61.381,612.574,66.607,607.171,66.607z
				 M598.723,42.476c-3.922,2.876-12.11,5.576-12.11,12.11c0,2.961,2.351,5.576,5.315,5.576c2.263,0,4.79-0.61,6.01-2.005
				c0.61-0.698,0.786-1.48,0.786-2.351V42.476z"/>
		</g>
		<g>
			<path fill="#C42A35" d="M642.372,34.285c-4.532,0-4.271-3.222-6.71-3.222c-2.7,0-5.315,3.31-6.534,6.795v24.914
				c0.786,2.178,5.054,2.266,7.405,2.615v0.871h-21.344v-0.871c2.703-0.261,4.966-1.307,4.966-3.137v-28.4
				c0-0.873-0.085-1.307-0.871-1.829c-1.047-0.613-2.615-1.568-4.007-2.178v-0.525l13.241-5.4h0.525l-0.176,12.195h0.176
				c1.219-2.788,4.702-12.11,12.107-12.11c2.964,0,5.315,2.178,5.315,5.23C646.465,32.283,644.375,34.285,642.372,34.285z"/>
		</g>
		<g>
			<path fill="#C42A35" d="M676.732,30.19h-12.893v22.302c0,5.924,2.524,8.451,6.619,8.451c3.398,0,5.751-1.392,7.232-3.398
				l0.522,0.261c-1.307,3.573-5.315,8.973-13.068,8.973c-5.227,0-10.366-3.919-10.366-7.666c0-10.89,0.261-21.344,0.261-28.925
				h-6.446v-0.956l14.373-12.807h0.698v8.451h15.768L676.732,30.19z"/>
		</g>
		<g>
			<path fill="#C42A35" d="M703.929,66.258V65.3c3.137-0.173,5.227-0.871,5.227-2.7V41.341c0-6.185-2.09-10.887-7.754-10.887
				c-3.222,0-5.488,1.305-7.927,3.919v28.4c0.437,2.266,2.351,2.266,4.705,2.615v0.871h-18.644v-0.871
				c2.7-0.261,4.966-1.307,4.966-3.137V33.327c0-0.871-0.088-1.305-0.871-1.829c-1.047-0.61-2.615-1.392-4.007-2.002v-0.525
				l13.241-5.051h0.522v9.495l0.176,0.088c2.612-4.007,7.754-9.498,14.2-9.498c6.795,0,10.454,5.576,10.454,13.417v25.439
				c0,1.741,3.31,2.351,5.315,2.615v0.783H703.929z"/>
		</g>
		<g>
			<path fill="#C42A35" d="M742.162,66.607c-12.459,0-20.212-10.105-20.212-22.302c0-9.844,7.232-20.3,18.993-20.3
				c9.41,0,16.639,4.532,17.337,14.464H731.01c0,0.871-0.088,2.002-0.088,3.049c0,9.932,5.491,18.119,15.334,18.119
				c5.488,0,10.629-3.134,12.022-7.405l0.786,0.176C758.106,57.722,752.615,66.607,742.162,66.607z M740.681,25.488
				c-5.836,0-9.234,8.712-9.495,11.761c4.617,0,6.968-0.176,11.846-0.264c1.219,0,2.615-0.173,3.661-0.61
				c0.783-0.783,1.132-1.565,1.132-3.134C747.825,29.234,745.125,25.488,740.681,25.488z"/>
		</g>
		<g>
			<path fill="#C42A35" d="M787.056,34.285c-4.529,0-4.268-3.222-6.707-3.222c-2.703,0-5.315,3.31-6.534,6.795v24.914
				c0.783,2.178,5.051,2.266,7.405,2.615v0.871h-21.344v-0.871c2.7-0.261,4.966-1.307,4.966-3.137v-28.4
				c0-0.873-0.088-1.307-0.871-1.829c-1.047-0.613-2.615-1.568-4.01-2.178v-0.525l13.244-5.4h0.522l-0.173,12.195h0.173
				c1.22-2.788,4.705-12.11,12.11-12.11c2.961,0,5.315,2.178,5.315,5.23C791.151,32.283,789.061,34.285,787.056,34.285z"/>
		</g>
		<g>
			<path fill="#C42A35" d="M806.267,66.695c-5.576,0-10.542-1.307-14.376-3.052V51.273h0.698
				c2.002,5.491,6.358,14.203,13.241,14.203c4.878,0,8.8-2.876,8.8-9.237c0-3.571-2.527-5.661-6.361-6.534
				c-2.788-0.695-6.185-1.568-8.536-2.351c-4.356-1.568-7.405-5.749-7.405-11.063c0-7.493,7.229-12.286,14.898-12.286
				c5.139,0,9.319,1.046,12.632,2.354l1.044,11.673l-0.695,0.176c-3.137-6.622-7.405-12.983-13.244-12.983
				c-3.919,0-7.49,2.788-7.49,7.493c0,4.268,2.7,5.751,6.358,6.71c1.219,0.349,7.232,1.741,8.015,2.002
				c5.488,1.48,9.498,5.924,9.498,11.849C823.343,62.6,814.979,66.695,806.267,66.695z"/>
		</g>
	</g>
</g>
</svg>
