<?xml version="1.0" encoding="UTF-8"?>
<svg width="308px" height="45px" viewBox="0 0 308 45" version="1.1" xmlns="http://www.w3.org/2000/svg" xmlns:xlink="http://www.w3.org/1999/xlink">
    <title>Combined Shape</title>
    <g id="Pages" stroke="none" stroke-width="1" fill="none" fill-rule="evenodd">
        <g id="Elements" transform="translate(-160.000000, -600.000000)" fill="#242424">
            <path d="M192.0455,619.3184 C193.8005,617.5634 196.6555,617.5634 198.4095,619.3184 C200.1645,621.0724 200.1645,623.9274 198.4095,625.6814 L198.4095,625.6814 L181.7285,642.3644 C180.0395,644.0514 177.7515,645.0004 175.3645,645.0004 L175.3645,645.0004 L164.5005,645.0004 C162.0145,645.0004 160.0005,642.9854 160.0005,640.5004 L160.0005,640.5004 L160.0005,631.8144 C160.0755,631.8914 160.1495,631.9694 160.2265,632.0464 C165.4895,637.3094 174.0545,637.3094 179.3185,632.0464 L179.3185,632.0464 Z M359.4993,600 L359.4993,645 L357.9993,645 L357.9993,600 L359.4993,600 Z M205.0001,631.814 L205.0001,640.5 C205.0001,642.985 202.9851,645 200.5001,645 L200.5001,645 L191.8201,645 L204.7741,632.046 L204.7741,632.046 L205.0001,631.814 Z M408.7891,635.8257 C410.4131,635.8257 411.6121,637.0857 411.6121,639.2297 C411.6121,641.3677 410.4301,642.6507 408.8021,642.6507 C407.5771,642.6507 407.0961,641.9137 406.8601,641.4917 L406.7801,641.4917 L406.7801,644.9997 L405.4721,644.9997 L405.4721,635.9117 L406.7501,635.9117 L406.7501,636.9837 L406.8601,636.9837 C407.0911,636.5737 407.5421,635.8257 408.7891,635.8257 Z M428.1014,635.9118 L429.8034,641.0408 L429.8734,641.0408 L431.5754,635.9118 L432.9894,635.9248 L430.2104,643.4028 C429.8254,644.4268 429.1384,644.9828 428.0574,644.9828 C427.6634,644.9828 427.3214,644.9138 427.1644,644.8398 L427.4794,643.7858 C428.1974,643.9798 428.6654,643.9028 428.9984,643.0458 L429.1604,642.6078 L426.7004,635.9118 L428.1014,635.9118 Z M415.7501,635.8257 C416.8181,635.8257 418.3581,636.2077 418.3581,638.1317 L418.3581,642.5217 L417.0811,642.5217 L417.0811,641.6167 L417.0281,641.6167 C416.7791,642.1137 416.1531,642.6667 415.0411,642.6667 C413.7631,642.6667 412.7701,641.9527 412.7701,640.6537 C412.7701,639.1517 414.0741,638.8247 415.3471,638.6787 C416.5561,638.5407 417.0461,638.5487 417.0461,638.0797 L417.0461,638.0497 C417.0461,637.3017 416.6131,636.8667 415.7681,636.8667 C414.8881,636.8667 414.3981,637.3187 414.2051,637.7877 L412.9761,637.5127 C413.4131,636.3077 414.5331,635.8257 415.7501,635.8257 Z M389.9744,635.8262 C391.8694,635.8262 393.1084,637.1892 393.1084,639.2462 C393.1084,641.2902 391.8694,642.6542 389.9744,642.6542 C388.0794,642.6542 386.8414,641.2902 386.8414,639.2462 C386.8414,637.1892 388.0794,635.8262 389.9744,635.8262 Z M381.9182,633.5872 C383.8132,633.5872 385.3152,634.6892 385.6212,636.5742 L384.2552,636.5742 C384.0322,635.4332 383.0742,634.8022 381.9322,634.8022 C380.3872,634.8022 379.2322,635.9752 379.2322,638.1152 C379.2322,640.2702 380.3912,641.4282 381.9272,641.4282 C383.0612,641.4282 384.0232,640.8082 384.2552,639.6812 L385.6212,639.6852 C385.3272,641.4282 383.8882,642.6412 381.9182,642.6412 C379.5902,642.6412 377.8882,640.9322 377.8882,638.1152 C377.8882,635.2962 379.5992,633.5872 381.9182,633.5872 Z M434.6668,640.8862 C435.1448,640.8862 435.5418,641.2732 435.5418,641.7422 C435.5418,642.2202 435.1448,642.6022 434.6668,642.6022 C434.1858,642.6022 433.7918,642.2202 433.7918,641.7422 C433.7918,641.2732 434.1858,640.8862 434.6668,640.8862 Z M423.4283,635.8265 C424.8023,635.8265 425.7173,636.6815 425.7173,638.3165 L425.7173,642.5215 L424.4083,642.5215 L424.4083,638.4715 C424.4083,637.5125 423.8703,636.9395 422.9813,636.9395 C422.0713,636.9395 421.4153,637.5425 421.4153,638.5965 L421.4153,642.5215 L420.1063,642.5215 L420.1063,635.9125 L421.3623,635.9125 L421.3623,636.9875 L421.4463,636.9875 C421.7573,636.2865 422.4173,635.8265 423.4283,635.8265 Z M401.6361,635.8261 C402.8531,635.8261 403.7111,636.5781 403.7111,638.0891 L403.7111,642.5211 L402.4021,642.5211 L402.4021,638.2101 C402.4021,637.3141 401.8331,636.9351 401.1421,636.9351 C400.2881,636.9351 399.7941,637.5131 399.7941,638.3081 L399.7941,642.5211 L398.4901,642.5211 L398.4901,638.1281 C398.4901,637.4091 397.9871,636.9351 397.2601,636.9351 C396.5161,636.9351 395.8821,637.5561 395.8821,638.4461 L395.8821,642.5211 L394.5731,642.5211 L394.5731,635.9121 L395.8291,635.9121 L395.8291,636.9871 L395.9121,636.9871 C396.1931,636.2601 396.8531,635.8261 397.7421,635.8261 C398.6381,635.8261 399.2561,636.2651 399.5491,636.9871 L399.6191,636.9871 C399.9431,636.2821 400.6691,635.8261 401.6361,635.8261 Z M417.0501,639.2847 C416.8621,639.4697 415.8561,639.5817 415.4311,639.6377 C414.6741,639.7377 414.0521,639.9827 414.0521,640.6707 C414.0521,641.3077 414.5861,641.6347 415.3251,641.6347 C416.4161,641.6347 417.0501,640.9207 417.0501,640.1377 L417.0501,639.2847 Z M389.9794,636.9012 C388.7414,636.9012 388.1634,637.9772 388.1634,639.2422 C388.1634,640.5122 388.7414,641.5742 389.9794,641.5742 C391.2094,641.5742 391.7864,640.5122 391.7864,639.2422 C391.7864,637.9772 391.2094,636.9012 389.9794,636.9012 Z M408.5091,636.9187 C407.3671,636.9187 406.7541,637.8347 406.7541,639.2167 C406.7541,640.6067 407.3841,641.5527 408.5091,641.5527 C409.6771,641.5527 410.2901,640.5417 410.2901,639.2167 C410.2901,637.9037 409.6951,636.9187 408.5091,636.9187 Z M261.4173,615 C261.6923,615 261.9173,615.137 262.0913,615.407 L262.0913,615.407 L265.7503,621.621 L269.4293,615.407 C269.4873,615.309 269.5703,615.215 269.6803,615.129 C269.7893,615.043 269.9223,615 270.0833,615 L270.0833,615 L272.0433,615 C272.1733,615 272.2823,615.043 272.3693,615.129 C272.4553,615.215 272.4993,615.322 272.4993,615.451 C272.4993,615.536 272.4783,615.615 272.4343,615.687 L272.4343,615.687 L267.2953,624.665 L267.2953,629.486 C267.2953,629.643 267.2443,629.769 267.1443,629.86 C267.0423,629.954 266.9113,630 266.7513,630 L266.7513,630 L264.7483,630 C264.6023,630 264.4793,629.95 264.3773,629.851 C264.2763,629.75 264.2253,629.629 264.2253,629.486 L264.2253,629.486 L264.2253,624.665 L259.0643,615.687 C259.0213,615.559 259.0003,615.479 259.0003,615.451 C259.0003,615.322 259.0463,615.215 259.1423,615.129 C259.2343,615.043 259.3393,615 259.4563,615 L259.4563,615 Z M283.7089,615 C284.9399,615 285.9999,615.219 286.8899,615.655 C287.7789,616.094 288.4509,616.635 288.9069,617.281 C289.3609,617.927 289.6019,618.562 289.6289,619.187 C289.6289,619.312 289.5889,619.416 289.5079,619.499 C289.4279,619.583 289.3209,619.625 289.1879,619.625 L289.1879,619.625 L287.0809,619.625 C286.9459,619.625 286.8469,619.597 286.7789,619.541 C286.7119,619.485 286.6519,619.396 286.5989,619.27 C286.4119,618.757 286.0839,618.319 285.6169,617.958 C285.1469,617.598 284.5129,617.416 283.7089,617.416 C282.7719,617.416 282.0409,617.676 281.5119,618.197 C280.9839,618.718 280.7059,619.527 280.6799,620.625 C280.6669,621.027 280.6599,621.639 280.6599,622.459 C280.6599,623.265 280.6669,623.875 280.6799,624.291 C280.7059,625.417 280.9869,626.247 281.5219,626.781 C282.0579,627.315 282.7929,627.583 283.7299,627.583 C284.6799,627.583 285.4409,627.32 286.0169,626.791 C286.5919,626.264 286.8799,625.473 286.8799,624.416 L286.8799,624.416 L286.8799,623.771 L284.4319,623.771 C284.2979,623.771 284.1849,623.722 284.0909,623.625 C283.9969,623.527 283.9509,623.409 283.9509,623.271 L283.9509,623.271 L283.9509,622.125 C283.9509,621.986 283.9969,621.867 284.0909,621.771 C284.1849,621.674 284.2979,621.625 284.4319,621.625 L284.4319,621.625 L289.2479,621.625 C289.3939,621.625 289.5149,621.674 289.6079,621.771 C289.7029,621.867 289.7489,621.986 289.7489,622.125 L289.7489,622.125 L289.7489,624.333 C289.7489,625.486 289.5009,626.49 289.0059,627.343 C288.5109,628.197 287.8099,628.854 286.8999,629.312 C285.9899,629.771 284.9269,630 283.7089,630 C281.8629,630 280.4289,629.507 279.4059,628.521 C278.3819,627.534 277.8369,626.16 277.7699,624.396 C277.7559,623.993 277.7489,623.348 277.7489,622.459 C277.7489,621.569 277.7559,620.924 277.7699,620.521 C277.8239,618.798 278.3729,617.447 279.4149,616.469 C280.4589,615.49 281.8909,615 283.7089,615 Z M303.314,615 C305.07,615 306.446,615.407 307.439,616.223 C308.431,617.035 308.928,618.193 308.928,619.693 C308.928,620.736 308.678,621.611 308.178,622.318 C307.728,622.9552 307.11681,623.43283 306.341514,623.75089 L306.077,623.851 L309.185,629.315 C309.227,629.4 309.25,629.479 309.25,629.551 C309.25,629.68 309.202,629.786 309.11,629.872 C309.04025,629.9365 308.964875,629.97625 308.883453,629.992094 L308.8,630 L306.828,630 C306.599,630 306.421,629.947 306.293,629.84 C306.19625,629.759 306.107938,629.660562 306.027219,629.544688 L305.949,629.423 L303.206,624.343 L300.271,624.343 L300.271,629.486 C300.271,629.629 300.221,629.75 300.12,629.851 C300.0416,629.9302 299.94272,629.97804 299.82592,629.994008 L299.735,630 L297.764,630 C297.621,630 297.499,629.95 297.4,629.851 C297.32,629.7702 297.27136,629.6766 297.255104,629.569176 L297.249,629.486 L297.249,615.536 C297.249,615.38 297.296,615.251 297.388,615.15 C297.4624,615.0708 297.55792,615.02232 297.673536,615.006096 L297.764,615 L303.314,615 Z M319.2488,615 C319.4018,615 319.5228,615.048 319.6138,615.14 C319.7048,615.233 319.7488,615.357 319.7488,615.515 L319.7488,615.515 L319.7488,629.486 C319.7488,629.629 319.7048,629.75 319.6138,629.851 C319.5228,629.95 319.4018,630 319.2488,630 L319.2488,630 L317.2488,630 C317.1098,630 316.9928,629.95 316.8958,629.851 C316.7978,629.75 316.7488,629.629 316.7488,629.486 L316.7488,629.486 L316.7488,615.515 C316.7488,615.357 316.7978,615.233 316.8958,615.14 C316.9928,615.048 317.1098,615 317.2488,615 L317.2488,615 Z M229.0906,615.0004 C229.7276,615.0004 230.3776,615.0934 231.0386,615.2794 C231.6996,615.4654 232.3096,615.7224 232.8726,616.0494 C233.0406,616.1474 233.2126,616.2574 233.3876,616.3824 C233.5636,616.5064 233.7256,616.6314 233.8716,616.7594 C234.0206,616.8874 234.1406,617.0114 234.2356,617.1324 C234.3306,617.2534 234.3786,617.3564 234.3786,617.4414 C234.3786,617.5204 234.3586,617.5994 234.3156,617.6814 C234.2736,617.7634 234.2206,617.8374 234.1576,617.9024 L234.1576,617.9024 L233.8406,618.2154 C233.7346,618.3104 233.6266,618.4194 233.5146,618.5304 C233.4026,618.6404 233.2896,618.7404 233.1766,618.8284 C233.0646,618.9174 232.9626,618.9904 232.8726,619.0494 C232.7796,619.1084 232.7036,619.1374 232.6396,619.1374 C232.5486,619.1374 232.4646,619.1164 232.3866,619.0734 C232.3096,619.0314 232.2216,618.9734 232.1226,618.9024 L232.1226,618.9024 L232.1026,618.8924 C231.9696,618.7684 231.7976,618.6304 231.5866,618.4804 C231.3756,618.3304 231.1406,618.1894 230.8806,618.0584 C230.6206,617.9284 230.3406,617.8174 230.0436,617.7254 C229.7436,617.6344 229.4416,617.5874 229.1316,617.5874 C228.7386,617.5874 228.3896,617.6294 228.0886,617.7114 C227.7866,617.7934 227.5316,617.9034 227.3296,618.0444 C227.1256,618.1854 226.9716,618.3494 226.8666,618.5394 C226.7596,618.7284 226.7086,618.9314 226.7086,619.1464 C226.7086,619.3824 226.7876,619.5884 226.9456,619.7644 C227.1036,619.9414 227.3176,620.0974 227.5876,620.2354 C227.8586,620.3724 228.1686,620.4994 228.5206,620.6134 C228.8716,620.7274 229.2406,620.8394 229.6266,620.9514 C230.0696,621.0754 230.5076,621.2094 230.9436,621.3524 C231.3796,621.4974 231.7956,621.6584 232.1926,621.8384 C232.5896,622.0174 232.9606,622.2174 233.3046,622.4364 C233.6476,622.6554 233.9446,622.9074 234.1946,623.1914 C234.4436,623.4754 234.6396,623.7934 234.7846,624.1414 C234.9276,624.4924 234.9996,624.8854 234.9996,625.3234 C234.9996,626.0364 234.8446,626.6794 234.5356,627.2544 C234.2276,627.8304 233.8006,628.3224 233.2566,628.7304 C232.7116,629.1384 232.0726,629.4524 231.3386,629.6704 C230.6046,629.8904 229.8166,630.0004 228.9736,630.0004 C228.4326,630.0004 227.8946,629.9414 227.3616,629.8234 C226.8276,629.7064 226.3146,629.5394 225.8236,629.3234 C225.3306,629.1074 224.8656,628.8474 224.4266,628.5444 C223.9876,628.2404 223.5966,627.8984 223.2526,627.5194 L223.2526,627.5194 L223.2526,627.5294 L223.2316,627.4904 C223.0766,627.3274 222.9996,627.1764 222.9996,627.0394 C222.9996,626.9674 223.0206,626.8984 223.0626,626.8344 C223.1036,626.7674 223.1676,626.6964 223.2526,626.6184 L223.2526,626.6184 L223.5996,626.2944 C223.7056,626.2094 223.8176,626.1144 223.9366,626.0094 C224.0556,625.9054 224.1756,625.8104 224.2946,625.7254 C224.4146,625.6404 224.5256,625.5684 224.6266,625.5094 C224.7286,625.4514 224.8116,625.4214 224.8746,625.4214 C224.9726,625.4214 225.0646,625.4514 225.1476,625.5094 C225.2336,625.5684 225.3026,625.6244 225.3596,625.6764 L225.3596,625.6764 L225.4026,625.7154 L225.3916,625.7154 C225.6366,625.9314 225.9126,626.1374 226.2186,626.3334 C226.5246,626.5294 226.8386,626.7044 227.1606,626.8574 C227.4856,627.0114 227.8056,627.1314 228.1256,627.2204 C228.4446,627.3094 228.7456,627.3534 229.0276,627.3534 C229.4116,627.3534 229.7746,627.3074 230.1116,627.2154 C230.4476,627.1244 230.7406,626.9954 230.9866,626.8284 C231.2306,626.6624 231.4246,626.4614 231.5646,626.2254 C231.7056,625.9904 231.7756,625.7284 231.7756,625.4404 C231.7756,625.1534 231.6846,624.9064 231.5016,624.7014 C231.3196,624.4954 231.0806,624.3154 230.7856,624.1624 C230.4906,624.0074 230.1576,623.8764 229.7896,623.7644 C229.4216,623.6534 229.0496,623.5484 228.6786,623.4514 C227.8206,623.2104 227.0716,622.9484 226.4286,622.6674 C225.7866,622.3854 225.2496,622.0704 224.8216,621.7204 C224.3936,621.3714 224.0726,620.9784 223.8576,620.5444 C223.6426,620.1094 223.5366,619.6214 223.5366,619.0794 C223.5366,618.4704 223.6686,617.9174 223.9306,617.4174 C224.1946,616.9174 224.5696,616.4884 225.0536,616.1324 C225.5376,615.7764 226.1206,615.4994 226.8026,615.2994 C227.4856,615.0994 228.2466,615.0004 229.0906,615.0004 Z M333.632,614.9999 C337.764,614.9999 339.872,616.9429 339.957,620.8289 C339.985,621.6569 339.999,622.2159 339.999,622.4999 C339.999,622.7729 339.985,623.3219 339.957,624.1499 C339.901,626.1509 339.371,627.6259 338.369,628.5759 C337.424556,629.472178 335.993985,629.945659 334.078972,629.995502 L333.736,629.9999 L328.504,629.9999 C328.363,629.9999 328.244,629.9499 328.147,629.8509 C328.0678,629.7701 328.0206,629.6765 328.004888,629.569076 L327.999,629.4859 L327.999,615.5359 C327.999,615.3799 328.045,615.2509 328.136,615.1499 C328.208,615.0707 328.30112,615.02222 328.414848,615.005996 L328.504,614.9999 L333.632,614.9999 Z M245.0198,614.9997 C245.1808,614.9997 245.3138,615.0507 245.4178,615.1507 C245.5198,615.2507 245.5718,615.3797 245.5718,615.5357 L245.5718,615.5357 L245.5718,620.5497 L250.4988,615.3867 C250.7208,615.1287 251.0078,614.9997 251.3608,614.9997 L251.3608,614.9997 L253.6148,614.9997 C253.7328,614.9997 253.8388,615.0427 253.9358,615.1287 C254.0308,615.2147 254.0798,615.3227 254.0798,615.4507 C254.0798,615.5507 254.0418,615.6367 253.9688,615.7067 L253.9688,615.7067 L247.9578,622.1797 L254.4108,629.2717 C254.4698,629.3717 254.4998,629.4637 254.4998,629.5507 C254.4998,629.6797 254.4548,629.7857 254.3658,629.8717 C254.2788,629.9577 254.1748,629.9997 254.0568,629.9997 L254.0568,629.9997 L251.7378,629.9997 C251.4278,629.9997 251.2068,629.9407 251.0738,629.8187 C250.9418,629.6977 250.8668,629.6287 250.8528,629.6157 L250.8528,629.6157 L245.5718,623.9577 L245.5718,629.4867 C245.5718,629.6287 245.5198,629.7497 245.4178,629.8507 C245.3138,629.9507 245.1808,629.9997 245.0198,629.9997 L245.0198,629.9997 L243.0308,629.9997 C242.8818,629.9997 242.7578,629.9507 242.6548,629.8507 C242.5518,629.7497 242.4998,629.6287 242.4998,629.4867 L242.4998,629.4867 L242.4998,615.5357 C242.4998,615.3797 242.5468,615.2507 242.6438,615.1507 C242.7388,615.0507 242.8678,614.9997 243.0308,614.9997 L243.0308,614.9997 Z M431.2749,619.1481 C432.5259,619.1481 432.9909,619.8961 433.2229,620.3061 L433.3189,620.3061 L433.3189,619.2341 L434.6019,619.2341 L434.6019,625.9891 C434.6019,627.6771 433.2789,628.4461 431.5689,628.4461 C429.9619,628.4461 429.0649,627.7581 428.7109,626.9621 L429.8349,626.5061 C430.0669,626.8711 430.4919,627.4101 431.5809,627.4101 C432.5749,627.4101 433.2969,626.9581 433.2969,625.9381 L433.2969,624.6391 L433.2139,624.6391 C432.9769,625.0601 432.5009,625.7441 431.2659,625.7441 C429.6779,625.7441 428.4569,624.6211 428.4569,622.5131 C428.4569,620.4081 429.6519,619.1481 431.2749,619.1481 Z M389.3267,619.148 C390.9507,619.148 392.1497,620.408 392.1497,622.552 C392.1497,624.69 390.9677,625.973 389.3397,625.973 C388.1147,625.973 387.6337,625.236 387.3977,624.814 L387.3177,624.814 L387.3177,628.322 L386.0097,628.322 L386.0097,619.234 L387.2877,619.234 L387.2877,620.306 L387.3977,620.306 C387.6297,619.896 388.0797,619.148 389.3267,619.148 Z M333.527,617.4859 L330.963,617.4859 L330.963,627.5139 L333.632,627.5139 C334.793,627.5139 335.635,627.2499 336.153,626.7219 C336.67,626.1929 336.944,625.3149 336.973,624.0859 C337,623.2289 337.015,622.6919 337.015,622.4799 L337.01463,622.409782 C337.012174,622.151412 336.997545,621.646536 336.973,620.8929 C336.944,619.7229 336.657,618.8609 336.111,618.3109 C335.565,617.7609 334.703,617.4859 333.527,617.4859 Z M200.4998,600 C202.9848,600 204.9998,602.015 204.9998,604.5 L204.9998,604.5 L204.9998,613.187 C204.9248,613.108 204.8508,613.031 204.7738,612.954 C199.5108,607.69 190.9458,607.69 185.6818,612.954 L185.6818,612.954 L172.9548,625.682 C171.1998,627.437 168.3448,627.437 166.5908,625.682 C164.8358,623.928 164.8358,621.072 166.5908,619.318 L166.5908,619.318 L183.2718,602.637 C184.9598,600.948 187.2498,600 189.6358,600 L189.6358,600 Z M396.2877,619.148 C397.3557,619.148 398.8967,619.53 398.8967,621.454 L398.8967,625.844 L397.6187,625.844 L397.6187,624.939 L397.5657,624.939 C397.3167,625.436 396.6907,625.989 395.5787,625.989 C394.3007,625.989 393.3077,625.275 393.3077,623.976 C393.3077,622.474 394.6117,622.147 395.8847,622.001 C397.0937,621.863 397.5837,621.871 397.5837,621.402 L397.5837,621.372 C397.5837,620.624 397.1507,620.189 396.3057,620.189 C395.4257,620.189 394.9357,620.641 394.7427,621.11 L393.5137,620.835 C393.9507,619.63 395.0717,619.148 396.2877,619.148 Z M381.2408,616.9106 C383.0618,616.9106 384.3298,617.9346 384.3698,619.3456 L383.0648,619.3456 C382.9698,618.5326 382.2378,618.0586 381.2098,618.0586 C380.1068,618.0586 379.4118,618.6146 379.4118,619.3636 C379.4068,620.2056 380.3388,620.5296 381.0388,620.7056 L381.9148,620.9296 C383.0518,621.2046 384.4918,621.8206 384.4918,623.4086 C384.4918,624.9006 383.2798,625.9896 381.1748,625.9896 C379.1658,625.9896 377.9098,625.0036 377.8228,623.4086 L379.1798,623.4086 C379.2578,624.3676 380.1248,624.8236 381.1668,624.8236 C382.3168,624.8236 383.1528,624.2546 383.1528,623.3946 C383.1528,622.6116 382.4128,622.3016 381.4548,622.0516 L380.3958,621.7686 C378.9558,621.3856 378.0638,620.6666 378.0638,619.4406 C378.0638,617.9206 379.4418,616.9106 381.2408,616.9106 Z M424.1512,619.1485 C426.0472,619.1485 427.2852,620.5115 427.2852,622.5685 C427.2852,624.6125 426.0472,625.9765 424.1512,625.9765 C422.2562,625.9765 421.0182,624.6125 421.0182,622.5685 C421.0182,620.5115 422.2562,619.1485 424.1512,619.1485 Z M457.2894,619.1485 C459.1844,619.1485 460.4234,620.5115 460.4234,622.5685 C460.4234,624.6125 459.1844,625.9765 457.2894,625.9765 C455.3944,625.9765 454.1564,624.6125 454.1564,622.5685 C454.1564,620.5115 455.3944,619.1485 457.2894,619.1485 Z M416.0955,616.9105 C417.9895,616.9105 419.4905,618.0115 419.7975,619.8965 L418.4315,619.8965 C418.2085,618.7555 417.2505,618.1245 416.1085,618.1245 C414.5635,618.1245 413.4085,619.2975 413.4085,621.4375 C413.4085,623.5925 414.5675,624.7505 416.1035,624.7505 C417.2375,624.7505 418.1995,624.1305 418.4315,623.0035 L419.7975,623.0075 C419.5035,624.7505 418.0635,625.9635 416.0955,625.9635 C413.7665,625.9635 412.0645,624.2545 412.0645,621.4375 C412.0645,618.6185 413.7755,616.9105 416.0955,616.9105 Z M448.5613,617.6506 L448.5613,619.2346 L449.9393,619.2346 L449.9393,620.2666 L448.5613,620.2666 L448.5613,623.9026 C448.5613,624.6476 448.9413,624.7856 449.3653,624.7856 C449.5753,624.7856 449.7373,624.7466 449.8253,624.7286 L450.0623,625.7916 C449.9083,625.8486 449.6283,625.9246 449.2123,625.9296 C448.1803,625.9516 447.2483,625.3706 447.2523,624.1686 L447.2523,620.2666 L446.2673,620.2666 L446.2673,619.2346 L447.2523,619.2346 L447.2523,617.6506 L448.5613,617.6506 Z M406.6926,617.0312 L406.6926,622.0312 L406.8056,622.0312 L409.4846,619.2342 L411.0506,619.2342 L408.3286,622.0692 L411.2356,625.8442 L409.6286,625.8442 L407.3446,622.8572 L406.6926,623.4982 L406.6926,625.8442 L405.3836,625.8442 L405.3836,617.0312 L406.6926,617.0312 Z M403.6863,619.1344 C403.8523,619.1344 404.1103,619.1484 404.2413,619.1654 L404.2413,620.3954 C404.1373,620.3654 403.8303,620.3184 403.5593,620.3184 C402.6313,620.3184 401.9533,620.9424 401.9533,621.8074 L401.9533,625.8434 L400.6443,625.8434 L400.6443,619.2344 L401.9093,619.2344 L401.9093,620.2844 L401.9793,620.2844 C402.2243,619.5734 402.8983,619.1344 403.6863,619.1344 Z M465.2091,619.1487 C466.5831,619.1487 467.4981,620.0037 467.4981,621.6387 L467.4981,625.8437 L466.1901,625.8437 L466.1901,621.7937 C466.1901,620.8347 465.6511,620.2617 464.7631,620.2617 C463.8531,620.2617 463.1961,620.8647 463.1961,621.9187 L463.1961,625.8437 L461.8871,625.8437 L461.8871,619.2347 L463.1431,619.2347 L463.1431,620.3097 L463.2271,620.3097 C463.5381,619.6087 464.1981,619.1487 465.2091,619.1487 Z M439.6847,619.1487 C441.0587,619.1487 441.9737,620.0037 441.9737,621.6387 L441.9737,625.8437 L440.6657,625.8437 L440.6657,621.7937 C440.6657,620.8347 440.1267,620.2617 439.2387,620.2617 C438.3277,620.2617 437.6717,620.8647 437.6717,621.9187 L437.6717,625.8437 L436.3627,625.8437 L436.3627,619.2347 L437.6187,619.2347 L437.6187,620.3097 L437.7027,620.3097 C438.0137,619.6087 438.6737,619.1487 439.6847,619.1487 Z M445.0393,619.234 L445.0393,625.843 L443.7303,625.843 L443.7303,619.234 L445.0393,619.234 Z M452.6973,619.234 L452.6973,625.843 L451.3883,625.843 L451.3883,619.234 L452.6973,619.234 Z M397.5877,622.607 C397.3997,622.792 396.3937,622.904 395.9687,622.96 C395.2117,623.06 394.5897,623.305 394.5897,623.993 C394.5897,624.63 395.1247,624.957 395.8637,624.957 C396.9537,624.957 397.5877,624.243 397.5877,623.46 L397.5877,622.607 Z M424.1562,620.2235 C422.9182,620.2235 422.3402,621.2995 422.3402,622.5645 C422.3402,623.8345 422.9182,624.8965 424.1562,624.8965 C425.3862,624.8965 425.9632,623.8345 425.9632,622.5645 C425.9632,621.2995 425.3862,620.2235 424.1562,620.2235 Z M457.2944,620.2235 C456.0564,620.2235 455.4784,621.2995 455.4784,622.5645 C455.4784,623.8345 456.0564,624.8965 457.2944,624.8965 C458.5234,624.8965 459.1014,623.8345 459.1014,622.5645 C459.1014,621.2995 458.5234,620.2235 457.2944,620.2235 Z M389.0467,620.241 C387.9047,620.241 387.2917,621.157 387.2917,622.539 C387.2917,623.929 387.9217,624.875 389.0467,624.875 C390.2147,624.875 390.8277,623.864 390.8277,622.539 C390.8277,621.226 390.2327,620.241 389.0467,620.241 Z M431.5549,620.2411 C430.3739,620.2411 429.7779,621.2251 429.7779,622.4961 C429.7779,623.7951 430.3869,624.6771 431.5549,624.6771 C432.6849,624.6771 433.3099,623.8591 433.3099,622.4961 C433.3099,621.1571 432.6969,620.2411 431.5549,620.2411 Z M303.249,617.401 L300.271,617.401 L300.271,621.9 L303.249,621.9 C304.106,621.9 304.749,621.712 305.178,621.332 C305.606,620.954 305.821,620.4 305.821,619.672 C305.821,618.942 305.606,618.383 305.178,617.99 C304.749,617.597 304.106,617.401 303.249,617.401 Z M444.3923,616.678 C444.8433,616.678 445.2193,617.026 445.2193,617.448 C445.2193,617.87 444.8433,618.214 444.3923,618.214 C443.9373,618.214 443.5643,617.87 443.5643,617.448 C443.5643,617.026 443.9373,616.678 444.3923,616.678 Z M452.0483,616.678 C452.5003,616.678 452.8763,617.026 452.8763,617.448 C452.8763,617.87 452.5003,618.214 452.0483,618.214 C451.5943,618.214 451.2213,617.87 451.2213,617.448 C451.2213,617.026 451.5943,616.678 452.0483,616.678 Z M173.18,600 L160.226,612.954 C160.15,613.031 160.075,613.108 160,613.187 L160,613.187 L160,604.5 C160,602.015 162.015,600 164.5,600 L164.5,600 L173.18,600 Z M425.6811,602.4704 C426.9321,602.4704 427.3971,603.2184 427.6291,603.6284 L427.7251,603.6284 L427.7251,602.5564 L429.0071,602.5564 L429.0071,609.3114 C429.0071,610.9994 427.6851,611.7684 425.9741,611.7684 C424.3681,611.7684 423.4711,611.0804 423.1161,610.2844 L424.2411,609.8284 C424.4731,610.1934 424.8981,610.7324 425.9871,610.7324 C426.9811,610.7324 427.7031,610.2804 427.7031,609.2604 L427.7031,607.9614 L427.6201,607.9614 C427.3831,608.3824 426.9061,609.0664 425.6721,609.0664 C424.0841,609.0664 422.8631,607.9434 422.8631,605.8354 C422.8631,603.7304 424.0581,602.4704 425.6811,602.4704 Z M432.4711,607.9607 L432.4061,608.4307 C432.2701,609.4617 431.8061,610.7527 431.5961,611.3177 L430.6691,611.3177 C430.7871,610.7837 431.0671,609.6087 431.1671,608.4427 L431.2111,607.9607 L432.4711,607.9607 Z M408.277,602.4712 C409.8,602.4712 411.253,603.4032 411.253,605.7922 L411.253,606.2482 L406.474,606.2482 C406.51,607.5212 407.262,608.2362 408.383,608.2362 C409.126,608.2362 409.695,607.9182 409.931,607.2942 L411.17,607.5132 C410.872,608.5892 409.835,609.3002 408.369,609.3002 C406.387,609.3002 405.17,607.9562 405.17,605.9042 C405.17,603.8732 406.404,602.4712 408.277,602.4712 Z M400.8734,602.4707 C402.7684,602.4707 404.0074,603.8337 404.0074,605.8907 C404.0074,607.9347 402.7684,609.2997 400.8734,609.2997 C398.9784,609.2997 397.7404,607.9347 397.7404,605.8907 C397.7404,603.8337 398.9784,602.4707 400.8734,602.4707 Z M393.3606,600.3534 C395.2686,600.3534 396.1876,601.3644 396.1876,602.6684 C396.1876,603.7694 395.5006,604.3204 394.6786,604.5274 L394.6786,604.6134 C395.5666,604.6604 396.5376,605.4304 396.5376,606.7954 C396.5376,608.1454 395.5966,609.1664 393.5146,609.1664 L390.0786,609.1664 L390.0786,600.3534 L393.3606,600.3534 Z M419.1095,602.471 C420.4835,602.471 421.3985,603.326 421.3985,604.961 L421.3985,609.166 L420.0905,609.166 L420.0905,605.116 C420.0905,604.157 419.5515,603.584 418.6635,603.584 C417.7535,603.584 417.0965,604.187 417.0965,605.241 L417.0965,609.166 L415.7875,609.166 L415.7875,602.557 L417.0435,602.557 L417.0435,603.632 L417.1275,603.632 C417.4385,602.931 418.0985,602.471 419.1095,602.471 Z M382.2861,600.3538 L385.5121,609.1658 L384.0761,609.1658 L383.2581,606.8328 L379.7571,606.8328 L378.9341,609.1658 L377.4991,609.1658 L380.7241,600.3538 L382.2861,600.3538 Z M414.0263,602.557 L414.0263,609.166 L412.7173,609.166 L412.7173,602.557 L414.0263,602.557 Z M400.8784,603.5457 C399.6404,603.5457 399.0624,604.6217 399.0624,605.8867 C399.0624,607.1567 399.6404,608.2187 400.8784,608.2187 C402.1074,608.2187 402.6854,607.1567 402.6854,605.8867 C402.6854,604.6217 402.1074,603.5457 400.8784,603.5457 Z M393.4306,605.2024 L391.4306,605.2024 L391.4306,608.0254 L393.3826,608.0254 C394.6826,608.0254 395.1946,607.4704 395.1946,606.7304 C395.1946,605.8904 394.5166,605.2024 393.4306,605.2024 Z M425.9611,603.5634 C424.7791,603.5634 424.1841,604.5474 424.1841,605.8184 C424.1841,607.1174 424.7931,607.9994 425.9611,607.9994 C427.0911,607.9994 427.7161,607.1814 427.7161,605.8184 C427.7161,604.4794 427.1031,603.5634 425.9611,603.5634 Z M381.5431,601.9538 L381.4721,601.9538 L380.1511,605.7148 L382.8641,605.7148 L381.5431,601.9538 Z M408.286,603.5332 C407.222,603.5332 406.531,604.3472 406.478,605.2842 L409.971,605.2842 C409.967,604.2722 409.301,603.5332 408.286,603.5332 Z M393.2786,601.4844 L391.4306,601.4844 L391.4306,604.1664 L393.2426,604.1664 C394.1526,604.1664 394.8616,603.6234 394.8616,602.7714 C394.8616,602.0404 394.3496,601.4844 393.2786,601.4844 Z M413.3783,600 C413.8293,600 414.2053,600.349 414.2053,600.771 C414.2053,601.192 413.8293,601.536 413.3783,601.536 C412.9223,601.536 412.5503,601.192 412.5503,600.771 C412.5503,600.349 412.9223,600 413.3783,600 Z" id="Combined-Shape"></path>
        </g>
    </g>
</svg>