<?xml version="1.0" encoding="UTF-8"?>
<svg width="80px" height="21px" viewBox="0 0 80 21" version="1.1" xmlns="http://www.w3.org/2000/svg" xmlns:xlink="http://www.w3.org/1999/xlink">
    <title>Snorkel-logo</title>
    <g id="Page-1" stroke="none" stroke-width="1" fill="none" fill-rule="evenodd">
        <g id="PPC-Landing-Page-1440" transform="translate(-680.000000, -30.000000)" fill="#000000" fill-rule="nonzero">
            <g id="Snorkel-logo" transform="translate(680.000000, 30.000000)">
                <path d="M7.03121099,17.9775281 C9.42821473,17.9775281 10.6267166,17.0986267 10.6267166,15.4207241 C10.6267166,14.062422 9.82771536,13.2634207 8.22971286,12.9438202 C7.51061174,12.8639201 6.71161049,12.7041199 5.83270911,12.6242197 C4.23470662,12.3845194 3.03620474,11.7453184 2.2372035,10.866417 C1.35830212,9.98751561 0.958801498,8.78901373 0.958801498,7.51061174 C0.958801498,5.91260924 1.51810237,4.63420724 2.556804,3.59550562 C3.59550562,2.63670412 5.03370787,2.15730337 6.95131086,2.07740325 C9.26841448,2.15730337 11.2659176,2.79650437 12.9438202,3.99500624 L11.4257179,6.31210986 C10.0674157,5.43320849 8.54931336,4.95380774 6.87141074,4.87390762 C5.99250936,4.87390762 5.27340824,5.11360799 4.71410737,5.51310861 C4.07490637,5.99250936 3.75530587,6.63171036 3.75530587,7.59051186 C3.75530587,8.14981273 3.99500624,8.62921348 4.39450687,9.02871411 C4.79400749,9.42821473 5.43320849,9.74781523 6.39200999,9.90761548 C6.87141074,9.98751561 7.59051186,10.0674157 8.46941323,10.227216 C10.227216,10.4669164 11.4257179,11.1061174 12.3046192,12.0649189 C13.1036205,13.0237203 13.5031211,14.2222222 13.5031211,15.5006242 C13.423221,19.0162297 11.2659176,20.7740325 7.03121099,20.8539326 C4.31460674,20.8539326 1.99750312,20.0549313 0,18.2971286 L1.83770287,16.2197253 C3.27590512,17.3383271 5.03370787,17.9775281 7.03121099,17.9775281 Z" id="Path"></path>
                <path d="M15.7403246,7.59051186 L18.3770287,7.59051186 L18.3770287,8.94881398 L18.3770287,8.94881398 C19.2559301,7.91011236 20.3745318,7.43071161 21.8127341,7.43071161 C22.9313358,7.43071161 23.8901373,7.83021223 24.7690387,8.54931336 C25.6479401,9.34831461 26.1273408,10.4669164 26.1273408,11.9850187 L26.1273408,20.6941323 L23.4906367,20.6941323 L23.4906367,12.8639201 C23.4906367,11.9850187 23.2509363,11.2659176 22.7715356,10.7865169 C22.2921348,10.3071161 21.6529338,10.0674157 20.9338327,10.0674157 C20.2147316,10.0674157 19.5755306,10.3071161 19.0961298,10.7865169 C18.6167291,11.2659176 18.3770287,11.9850187 18.3770287,12.8639201 L18.3770287,20.6941323 L15.7403246,20.6941323 L15.7403246,7.59051186 L15.7403246,7.59051186 Z" id="Path"></path>
                <path d="M28.4444444,14.062422 C28.4444444,12.7041199 28.5243446,11.6654182 28.7640449,10.866417 C29.0037453,10.1473159 29.3233458,9.50811486 29.8826467,9.02871411 C30.2821473,8.62921348 30.7615481,8.22971286 31.4007491,7.83021223 C32.0399501,7.51061174 32.8389513,7.35081149 33.8776529,7.35081149 C34.9163546,7.35081149 35.7153558,7.51061174 36.3545568,7.83021223 C36.9937578,8.14981273 37.4731586,8.54931336 37.7927591,9.02871411 C38.3520599,9.50811486 38.6716604,10.1473159 38.9113608,10.866417 C39.1510612,11.5855181 39.2309613,12.6242197 39.2309613,14.062422 C39.2309613,15.5006242 39.1510612,16.4594257 38.9113608,17.1785268 C38.6716604,17.897628 38.3520599,18.536829 37.7927591,19.0961298 C37.6329588,19.2559301 37.3932584,19.4956305 37.1535581,19.6554307 C36.9138577,19.8951311 36.6741573,20.0549313 36.2746567,20.2147316 C35.6354557,20.6142322 34.8364544,20.7740325 33.7977528,20.7740325 C32.8389513,20.7740325 31.9600499,20.5343321 31.3208489,20.2147316 C30.6816479,19.8951311 30.2022472,19.4956305 29.8027466,19.0961298 C29.3233458,18.536829 28.9238452,17.897628 28.6841448,17.1785268 C28.6042447,16.5393258 28.4444444,15.4207241 28.4444444,14.062422 Z M36.5942572,14.062422 C36.5942572,13.1036205 36.5942572,12.4644195 36.4344569,11.9850187 C36.3545568,11.5855181 36.1947566,11.1860175 35.9550562,10.866417 C35.7952559,10.5468165 35.4756554,10.3071161 35.0761548,10.1473159 C34.6766542,9.98751561 34.2771536,9.90761548 33.7977528,9.90761548 C33.3183521,9.90761548 32.9188514,9.98751561 32.5992509,10.1473159 C32.1997503,10.3071161 31.9600499,10.5468165 31.7203496,10.866417 C31.4806492,11.1860175 31.3208489,11.505618 31.2409488,11.9850187 C31.1610487,12.3845194 31.0811486,13.1036205 31.0811486,13.9825218 C31.0811486,14.8614232 31.1610487,15.5805243 31.2409488,15.980025 C31.3208489,16.3795256 31.4806492,16.7790262 31.7203496,17.0986267 C31.9600499,17.3383271 32.2796504,17.5780275 32.5992509,17.7378277 C32.9987516,17.897628 33.3982522,17.9775281 33.7977528,17.9775281 C34.2771536,17.9775281 34.6766542,17.897628 35.0761548,17.7378277 C35.4756554,17.5780275 35.7153558,17.3383271 35.9550562,17.0986267 C36.1947566,16.7790262 36.3545568,16.3795256 36.4344569,15.980025 C36.5942572,15.6604245 36.5942572,15.0212235 36.5942572,14.062422 Z" id="Shape"></path>
                <path d="M41.627965,7.59051186 L44.2646692,7.59051186 L44.2646692,8.94881398 L44.3445693,8.94881398 C45.2234707,7.91011236 46.3420724,7.43071161 47.7802747,7.43071161 C48.8189763,7.43071161 49.7777778,7.75031211 50.4968789,8.46941323 L48.5792759,10.7865169 C48.019975,10.3870162 47.4606742,10.1473159 46.8214732,10.1473159 C46.1822722,10.1473159 45.5430712,10.3870162 45.0636704,10.7865169 C44.5043695,11.1860175 44.2646692,11.9051186 44.2646692,12.8639201 L44.2646692,20.7740325 L41.5480649,20.7740325 L41.5480649,17.0986267 L41.627965,7.59051186 L41.627965,7.59051186 Z" id="Path"></path>
                <polygon id="Path" points="51.4556804 2.2372035 54.0923845 2.2372035 54.0923845 13.6629213 54.1722846 13.6629213 59.1260924 7.59051186 62.2421973 7.59051186 57.7677903 12.7041199 62.8813983 20.6941323 59.6054931 20.6941323 56.0898876 14.6217228 54.0124844 16.9388265 54.0124844 20.6941323 51.3757803 20.6941323 51.3757803 2.2372035"></polygon>
                <path d="M77.5031211,2.39700375 L77.5031211,14.5418227 C77.5031211,18.0574282 75.5855181,18.2172285 73.1885144,18.2172285 L73.1885144,18.2172285 L68.8739076,18.2172285 C67.9950062,18.2172285 67.196005,17.9775281 66.6367041,17.4182272 C66.0774032,16.8589263 65.7578027,16.0599251 65.7578027,15.0212235 L73.9076155,15.0212235 L73.9076155,12.8639201 C73.9076155,11.1061174 73.3483146,9.82771536 72.309613,8.78901373 C71.2709114,7.83021223 69.9925094,7.35081149 68.5543071,7.35081149 C67.9151061,7.35081149 67.2759051,7.43071161 66.6367041,7.67041199 C65.9975031,7.91011236 65.4382022,8.22971286 64.8789014,8.78901373 C64.3995006,9.26841448 63.9200999,9.98751561 63.6004994,10.866417 C63.2808989,11.7453184 63.1210986,12.78402 63.1210986,14.062422 C63.1210986,15.4207241 63.2808989,16.4594257 63.6803995,17.3383271 C64,18.2172285 64.4794007,18.8564295 65.0387016,19.3358302 C65.3583021,19.5755306 65.5980025,19.7353308 65.9975031,19.8951311 C66.3171036,20.0549313 66.6367041,20.2147316 66.9563046,20.2946317 C67.5955056,20.454432 68.3146067,20.6142322 68.9538077,20.6142322 L73.2684145,20.6142322 L74.6267166,20.6142322 C78.4619226,20.6142322 79.980025,17.9775281 79.980025,15.4207241 C79.980025,13.6629213 79.980025,0.639200999 79.980025,0.639200999 L77.5031211,2.39700375 Z M66.556804,10.6267166 C67.0362047,10.1473159 67.6754057,9.90761548 68.474407,9.90761548 C69.2734082,9.90761548 69.9126092,10.1473159 70.39201,10.6267166 C70.8714107,11.1860175 71.1910112,11.9051186 71.1910112,12.9438202 L65.6779026,12.9438202 C65.7578027,11.9051186 66.0774032,11.1061174 66.556804,10.6267166 Z" id="Shape"></path>
            </g>
        </g>
    </g>
</svg>
