<svg xmlns="http://www.w3.org/2000/svg" width="317" height="313.7" version="1.1" viewBox="0 0 6720 6650">
  <g fill="#272526">
    <path d="M1170 6115v-75h294c254 0 297-2 310-16 9-8 16-22 16-29s-7-21-16-29c-13-14-51-16-255-16-264 0-285-4-314-60-21-41-21-220 1-261 28-56 50-59 409-59h325v150h-269c-232 0-272 2-285 16-20 19-20 25-2 50 13 18 30 19 268 22 249 3 254 3 283 26 30 24 30 25 33 146 4 138 0 161-30 190-21 19-34 20-395 20h-373zM2070 6000v-190h180v230h165c176 0 223-9 244-48 6-12 11-62 11-112 0-161 3-160-345-160h-266l3-72 3-73h320c329.73-8.7212 470.86 13.975 463 320-3 202-4 205-83 261-84.26 43.333-259.94 31.018-367 32l-328 3zM3035 6167c-21-12-53-42-70-65-49.165-82.68-34.337-192.18-35.5-286.75L2929 5570h170l3 205c.6842 85.451-3.9154 169.27 31 232 27 28 28 28 181 31 151 3 154 3 182-21 45.425-62.577 32.305-163.16 34-234l5-208h180l3 220c3 243-2 276-50 331-56 63-60 64-340 64-244 0-254-1-293-23zM3780 6115v-75h291c181 0 298-4 310-10 23-13 25-43 3-64-13-14-51-16-255-16-264 0-285-4-314-60-21-41-21-220 1-261 28-56 50-59 409-59h325v150h-267c-148 0-273 4-279 8-19 13-23 40-9 59 12 16 35 18 275 23 276.71 4.235 309.87-37.383 310 186 0 130-11 175-45 188-9 3-183 6-386 6h-369zM4700 6172c-26-21-39-79-40-177 0-85 14-138 42-165 21-19 36-20 294-20 259 0 272 1 298 21l26 20v-39c0-28-7-45-25-62-36.982-32.268-9.2729-25.429-323-26l-297-2-3-77-3-76 345 3 344 3c73.177.3687 146.32 82.824 147 147l3 234 3 234h-95c-80 0-96-3-96-16 0-14-2-14-22 0-19 14-65 16-299 16-251 0-279-2-299-18zm575-152c17-19 17-21 0-40s-31-20-210-20c-196 0-215 4-215 40s19 40 215 40c179 0 193-1 210-20zM3995 5460c-3-5-15-10-26-10-64 0-73-16-320-525-233-484-272-557-423-795-136-215-376-472-465-498-27-9-60-9-122-1-173 21-461 80-564 115-39 14-38 14 40 9 44-2 124-9 179-15 84-9 105-9 150 6 60 19 119 71 151 134 29 57 61 169 68 237 9 81 74 207 149 285 55 58 71 69 123 83 157 43 241 99 269 180 8 22 18 85 21 140 4 55 13 132 21 170 59 278 71 415 38 415-20 0-56 22-72 43-21 27-60 21-98-17-19-19-34-41-34-50 0-14-83-16-827-18-769-3-831-4-874-21-70-27-124-79-161-155l-33-67-3-1485c-1-816 0-1491 3-1500 4-8 30 41 64 120 31 74 64 146 72 160 12 21 15 225 19 1345 5 1276 6 1321 24 1359 11 21 33 47 50 57 30 18 66 19 834 19 757 0 802-1 802-17-1-10-7-45-15-78s-22-125-30-205c-9-80-20-148-23-152-4-4-28-9-54-12-94-9-237-100-319-203-36-45-41.929-52.442-49-28-28.788 49.969-98.361 69.665-141 98l-64 42c-18.556 6.3986-74.667 2.9375-112 3-103 3-113 5-113 23 0 14 13 22 53 33 148 42 279 41 382-1 46-18 70-23 103-18 23 3 42 10 42 15s8 11 19 15c22 7 35 59 21 85-6 10-20 22-32 25-13 4-34 17-48 29-35 31-101 73-130 84-83 31-374 13-468-28-24-11-50-20-58-20-7 0-22-14-34-31-19-26-21-39-17-102 3-40 8-84 12-98 6-25 4-28-46-44-99-33-162-66-195-101-45.056-37.652-22.142-54.426 2-102 18-37 30-70 26-73-4-4-25-12-46-19-59-19-129-63-144-91-19-37-9-108 26-179 18-35 32-65 32-66 0-2-19-13-42-25-101-51-140-99-140-175 0-46 10-67 86-182l41-63 55 5c30 3 87 12 126 20 87 19 118 16 449-49 198-39 355-65 452-75 145-14 248 20 374 124 58 48 236 244 306 336 46 61 198 304 262 420 42 74 256 507 373 753l61 127h599c580 0 600-1 638-20 76-39 65.581 47.747 70-2190 3.4976-1771-2-2116-14-2144-13-30-38-56-81-81-15-9-12-14 26-40 24-16 56-40 72-54l27-25 36 35c46 44 79 109 94 184 8 44 10 620 8 2160-3 2019-4 2102-22 2148-26 68-98 139-171 168-186.59 38.329-434.36 25.96-633 27-361 2-571 6-567 12 3 6-7 15-22 22-40 17-73 48-73 70 0 19-15 24-25 8zM2530 4413c0-4-21-57-47-119-38-91-49-110-58-97-6 8-32 27-57 42-25 14-68 39-94 54-66 38-110 46-249 47-105 0-117 2-100 14 70 48 339 74 447 42 72-21 91-20 119 4 25 20 39 25 39 13zm-93-260c-3-10-11-43-17-73-7-30-21-72-32-92-22-45-38-47-122-18-74 26-185 37-363 36-141-1-142-1-148 22-14 56 32 69 300 86 28 1 81-5 120-15 86-23 137-13 202 36 51 39 67 44 60 18z"/>
    <path d="M1865 3339c-27-4-81-12-119-18-38-5-73-14-79-20-5-5-16-7-24-4-12 5-14-6-11-57 1-34 6-64 10-66 5-3 8-16 8-29s6-27 13-32c6-4 147-11 312-15 169-3 357-13 430-22 72-9 177-16 235-15 161 2 234 1 249-2 8-2 17 4 19 14 2 9 17 32 33 49 34 38 35 43 9 61-13 9-19 23-18 38 3 20-2 25-25 27-16 2-31 10-34 18-4 10-25 14-82 14-42 0-105 5-141 11-36 5-121 16-190 24s-154 19-190 24c-80 10-337 11-405 0z"/>
  </g>
  <path fill="#DE2139" d="M1323 2407c-9-18-43-93-75-167-44.201-96.595-48.284-110.86-63-120-17-17-19-257 0-340 42-191 62-251 121-379 125-268 147-298 325-448 152-128 260-199 472-308 222-115 444-164 740-165 163 0 234 8 612 70 552 90 1006 137 1165 119 191-22 257-33 295-49 88-39 213-91 275-114 36-13 84-32 108-42 42-17 45-17 76 0 47.91 38.939 48.205 128.59-4 162l-27 25c-16 14-48 38-71 54-81.656 91.444-211.99 124.62-316 149-59 14-151 38-205 54-134 41-216 59-361 78-110 14-147 15-310 4-337-23-370-23-481 0-109 22-187 46-284 87-75 32-367 185-361 190 2 2 66-4 142-13 79-9 226-16 339-17 196-1 238 2 664 55 119 14 468 4 565-17 39-8 107-33 153-56 77-37 87-39 119-29 46 15 94 57 94 81-6.7016 66.953-56 87.724-92 125-23 25-63 57-88 71-25 15-76 45-115 68-119 72-229 113-445 164-147 34-169 38-320 51-63 6-153 17-200 25-317 56-412 75-445 91-70 33-157 125-205 217-27 52-54 90-71 100-15 8-34 26-42 39-148 238-227 368-227 372 0 2-22 42-50 88-106 176-190 266-299 320-62 30-196 30-272 0-30-11-99-37-154-58s-113-45-130-54c-16-9-57-32-90-50s-71-43-85-55c-14-13-66-48-117-79-109.97-73.18-209.73-189.69-260-299zm1090 363c96-45 141-99 252-300 32-58 74-130 94-160 21-30 63-100 95-155 96-163 269-407 328-462 38-35 203-93 322-113 127-22 314-58 335-66 26-9 1-17-76-25-43-4-116-13-163-19-136-19-455-1-631 35-69 15-223 81-341 147-123 70-218 72-226 6-9-77 51-189 185-348 102-122 138-153 253-225 117-72 432-234 518-265 35-13 59-27 54-32-4-4-43-12-86-18-43-5-94-14-114-19-81-21-396-44-521-38-356 15-742 192-1025 471-173 171-268 329-269 448 0 21 6 44 13 52 8 11 9 24 2 48-6 18-13 75-17 126-5 83-3 100 19 162 23 64 58 136 89 185 110.84 217.3 196.67 297.15 412 432 105 65 146 85 275 130 107 37 149 38 223 3z"/>
</svg>
