<?xml version="1.0" encoding="UTF-8" standalone="no"?>
<!-- Created with Inkscape (http://www.inkscape.org/) -->

<svg
   xmlns:dc="http://purl.org/dc/elements/1.1/"
   xmlns:cc="http://creativecommons.org/ns#"
   xmlns:rdf="http://www.w3.org/1999/02/22-rdf-syntax-ns#"
   xmlns:svg="http://www.w3.org/2000/svg"
   xmlns="http://www.w3.org/2000/svg"
   xmlns:sodipodi="http://sodipodi.sourceforge.net/DTD/sodipodi-0.dtd"
   xmlns:inkscape="http://www.inkscape.org/namespaces/inkscape"
   width="117"
   height="28.99999"
   viewBox="0 0 30.956251 7.6729143"
   version="1.1"
   id="svg8"
   inkscape:version="0.92.0 r15299"
   sodipodi:docname="standard industries.svg">
  <defs
     id="defs2" />
  <sodipodi:namedview
     id="base"
     pagecolor="#ffffff"
     bordercolor="#666666"
     borderopacity="1.0"
     inkscape:pageopacity="0.0"
     inkscape:pageshadow="2"
     inkscape:zoom="7.7327587"
     inkscape:cx="58.000003"
     inkscape:cy="13.999988"
     inkscape:document-units="mm"
     inkscape:current-layer="layer1"
     showgrid="false"
     fit-margin-top="0"
     fit-margin-left="0"
     fit-margin-right="0"
     fit-margin-bottom="0"
     units="px"
     inkscape:window-width="1280"
     inkscape:window-height="744"
     inkscape:window-x="-4"
     inkscape:window-y="-4"
     inkscape:window-maximized="1" />
  <metadata
     id="metadata5">
    <rdf:RDF>
      <cc:Work
         rdf:about="">
        <dc:format>image/svg+xml</dc:format>
        <dc:type
           rdf:resource="http://purl.org/dc/dcmitype/StillImage" />
        <dc:title></dc:title>
      </cc:Work>
    </rdf:RDF>
  </metadata>
  <g
     inkscape:label="Layer 1"
     inkscape:groupmode="layer"
     id="layer1"
     transform="translate(22.149406,-286.22768)">
    <g
       id="g31"
       transform="translate(0.1322912,-0.13228768)">
      <path
         id="path10"
         d="m -19.221261,291.7662 c 0.111125,0.18627 0.167746,0.42518 0.167746,0.71067 v 0.23178 c 0,0.37359 -0.106363,0.66886 -0.315384,0.87788 -0.208756,0.20823 -0.499798,0.31406 -0.864923,0.31406 h -0.729456 c -0.365125,0 -0.655902,-0.10583 -0.864394,-0.31406 -0.209285,-0.20902 -0.314854,-0.50429 -0.314854,-0.87788 v -0.35111 h 0.98769 v 0.26908 c 0,0.15029 0.02646,0.25533 0.07832,0.30428 0.03678,0.0349 0.122238,0.0767 0.32094,0.0767 h 0.31459 c 0.154516,0 0.261143,-0.028 0.316441,-0.0828 0.05424,-0.0537 0.08281,-0.16854 0.08281,-0.33232 v -0.082 c 0,-0.10768 -0.04154,-0.18785 -0.126471,-0.24553 -0.09419,-0.0635 -0.215371,-0.10239 -0.359304,-0.11483 a 4.2280416,4.2280416 0 0 1 -0.513292,-0.0799 3.3136416,3.3136416 0 0 1 -0.515937,-0.15346 c -0.170127,-0.0677 -0.313532,-0.19923 -0.42598,-0.39238 -0.111125,-0.19024 -0.166687,-0.43577 -0.166687,-0.72999 v -0.23918 c 0,-0.37359 0.105833,-0.66887 0.314854,-0.87789 0.209021,-0.20822 0.499798,-0.31406 0.865188,-0.31406 h 0.668602 c 0.369358,0 0.662516,0.10584 0.871273,0.31406 0.20955,0.20902 0.315648,0.5043 0.315648,0.87789 v 0.3437 h -0.988219 v -0.2548 c 0,-0.15452 -0.02725,-0.26194 -0.07832,-0.31115 -0.03651,-0.0349 -0.122502,-0.0767 -0.320939,-0.0767 h -0.261144 c -0.159544,0 -0.270934,0.0291 -0.320675,0.0833 -0.03598,0.0397 -0.07858,0.13414 -0.07858,0.36591 v 0.12992 c 0,0.0635 0,0.25664 0.48551,0.29897 0.384175,0.0323 0.731308,0.11245 1.030817,0.23734 0.170127,0.0746 0.312208,0.20716 0.424127,0.39449 z m 1.162579,-1.39779 h -0.613833 v -0.95859 h 0.613833 v -1.10728 h 1.083998 l 5.29e-4,1.10728 h 0.94615 v 0.95859 h -0.94615 l -5.29e-4,2.02247 c 0,0.17992 0.03969,0.30903 0.119327,0.38788 0.0799,0.0783 0.210344,0.11747 0.392642,0.11747 h 0.52017 v 0.95885 h -0.699293 c -0.449527,0 -0.797719,-0.12197 -1.045105,-0.36591 -0.24765,-0.24395 -0.371475,-0.59294 -0.371475,-1.04617 z m 5.106987,1.86531 5.29e-4,-1.86531 h -0.904875 c -0.181768,0 -0.309827,0.0389 -0.38391,0.11747 -0.07382,0.0786 -0.110596,0.21061 -0.110596,0.39661 v 1.49966 c 0,0.186 0.03678,0.31776 0.110596,0.39661 0.07408,0.0783 0.202142,0.11747 0.38391,0.11747 h 0.315648 c 0.392377,0 0.588698,-0.22092 0.588698,-0.66251 z m -0.86995,1.62136 h -0.205052 c -0.449791,0 -0.796396,-0.12197 -1.040606,-0.36618 -0.24474,-0.24394 -0.366977,-0.59531 -0.366977,-1.05463 v -1.6039 c 0,-0.45905 0.122237,-0.81095 0.366977,-1.0549 0.24421,-0.24394 0.591079,-0.36565 1.040606,-0.36565 h 2.159 v 4.445 h -1.084262 v -0.47016 h -0.0344 c -0.06218,0.15689 -0.172773,0.27463 -0.332317,0.35321 a 1.1255375,1.1255375 0 0 1 -0.503237,0.11748 z m 13.98349389,-1.62136 5.2916e-4,-1.86531 h -0.90487499 c -0.18176874,0 -0.31009166,0.0389 -0.38391036,0.11747 -0.074083,0.0786 -0.1105959,0.21061 -0.1105959,0.39661 v 1.49966 c 0,0.186 0.036777,0.31776 0.1105959,0.39661 0.074083,0.0783 0.20214162,0.11747 0.38391036,0.11747 h 0.31564792 c 0.39237707,0 0.58869791,-0.22092 0.58869791,-0.66251 z m -0.87021458,1.62136 H -0.9128886 c -0.4497917,0 -0.7963958,-0.12197 -1.0408708,-0.36618 -0.2447396,-0.24394 -0.3667125,-0.59531 -0.3667125,-1.05463 v -1.6039 c 0,-0.45905 0.1219729,-0.81095 0.3667125,-1.0549 0.2442104,-0.24394 0.5913437,-0.36565 1.0408708,-0.36565 h 2.1587354 v 4.445 H 0.16184889 v -0.47016 h -0.0343958 c -0.06244166,0.15689 -0.1730375,0.27463 -0.33231666,0.35321 a 1.1252729,1.1252729 0 0 1 -0.50350208,0.11748 z m -3.45281241,-1.62136 v -1.2028 c 0,-0.44185 -0.1960563,-0.66251 -0.5884334,-0.66251 h -0.3836458 c -0.1822979,0 -0.3106208,0.0389 -0.3844396,0.11747 -0.07329,0.0786 -0.1105958,0.21061 -0.1105958,0.39661 v 1.49966 c 0,0.186 0.037042,0.31776 0.1105958,0.39661 0.074083,0.0783 0.2021417,0.11747 0.384175,0.11747 h 0.3839104 c 0.3923771,0 0.5884334,-0.22092 0.5884334,-0.66251 z m -0.86995,1.62136 h -0.3497792 c -0.43815,0 -0.7694083,-0.12197 -0.9943041,-0.36618 -0.2246313,-0.24394 -0.33655,-0.59531 -0.33655,-1.05463 v -1.6039 c 0,-0.45905 0.1119187,-0.81095 0.33655,-1.0549 0.2248958,-0.24394 0.5561541,-0.36565 0.9943041,-0.36565 h 0.3500438 c 0.1762124,0 0.3442229,0.0386 0.503502,0.11748 0.15875,0.0783 0.269875,0.19605 0.3328459,0.35295 h 0.033602 v -2.15318 h 1.0837334 v 6.12775 h -1.0837334 v -0.47016 h -0.033602 c -0.062706,0.15689 -0.1740959,0.27463 -0.3328459,0.35321 a 1.12395,1.12395 0 0 1 -0.503502,0.11748 z M 7.458528,292.23372 v -1.2028 c 0,-0.44185 -0.1960563,-0.66251 -0.5884334,-0.66251 H 6.4864488 c -0.1825625,0 -0.3106208,0.0389 -0.3844396,0.11747 -0.073554,0.0786 -0.1105958,0.21061 -0.1105958,0.39661 v 1.49966 c 0,0.186 0.037042,0.31776 0.1105958,0.39661 0.073819,0.0783 0.2021417,0.11747 0.384175,0.11747 h 0.3839104 c 0.3923771,0 0.5884334,-0.22092 0.5884334,-0.66251 z m -0.86995,1.62136 H 6.2387988 c -0.4378854,0 -0.7696729,-0.12197 -0.9943041,-0.36618 -0.2246313,-0.24394 -0.33655,-0.59531 -0.33655,-1.05463 v -1.6039 c 0,-0.45905 0.1119187,-0.81095 0.33655,-1.0549 0.2248958,-0.24394 0.5564187,-0.36565 0.9943041,-0.36565 H 6.588578 c 0.1762125,0 0.3439583,0.0386 0.503502,0.11748 0.15875,0.0783 0.269875,0.19605 0.3325813,0.35295 h 0.033867 v -2.15318 h 1.0837333 v 6.12775 H 7.458528 v -0.47016 H 7.4246613 C 7.361955,293.54155 7.25083,293.65929 7.09208,293.73787 a 1.12395,1.12395 0 0 1 -0.503502,0.11748 z m -3.4255604,0 H 2.0792843 v -4.44526 H 3.162753 v 0.4789 h 0.034396 c 0.062706,-0.15664 0.1733021,-0.2757 0.3325813,-0.35719 a 1.0887604,1.0887604 0 0 1 0.5032375,-0.12171 h 0.4775729 v 0.95859 h -0.758825 c -0.3923771,0 -0.5889625,0.22648 -0.5889625,0.67945 v 2.80722 z m -13.1138082,0 h -1.0834684 v -4.44526 h 1.0834684 v 0.47016 h 0.034131 c 0.1251479,-0.31353 0.4040187,-0.47016 0.8360833,-0.47016 h 0.2733146 c 0.8927041,0 1.3393208,0.4736 1.3393208,1.42081 v 3.02419 h -1.0839979 v -2.97206 c 0,-0.18601 -0.0381,-0.31777 -0.1145646,-0.39635 -0.076994,-0.0788 -0.206375,-0.11774 -0.3881437,-0.11774 H -9.362093 c -0.392377,0 -0.5886979,0.22066 -0.5886979,0.66252 v 2.82416 z"
         inkscape:connector-curvature="0"
         style="fill:#91999f;fill-rule:evenodd;stroke-width:0.26458332" />
      <path
         id="path12"
         d="m -9.4123635,286.49226 -1.6880415,1.25148 v 1.21788 l 1.6880415,-1.25122 1.6880417,1.25148 v -1.21867 z"
         inkscape:connector-curvature="0"
         style="fill:#ed2a37;fill-rule:evenodd;stroke-width:0.26458332" />
    </g>
  </g>
</svg>
