<svg xmlns="http://www.w3.org/2000/svg" width="166.164" height="56.732" viewBox="0 0 166.164 56.732">
  <g id="Group_1" data-name="Group 1" transform="translate(-130 -130)">
    <path id="Path_1" data-name="Path 1" d="M193.447,179.084a10.18,10.18,0,0,1-1.207-4.887,11.465,11.465,0,0,1,1.192-4.9,5.937,5.937,0,0,0,.9-2.9,4.964,4.964,0,0,0-4.944-4.947,10.8,10.8,0,0,1-9.191-5.265,4.949,4.949,0,1,0-4.289,7.351,10.713,10.713,0,0,1,10.62,10.658,10.451,10.451,0,0,1-1.487,5.425,5.691,5.691,0,0,0-.6,2.384,4.947,4.947,0,0,0,9.894,0,5.568,5.568,0,0,0-.881-2.922" transform="translate(-13.882 -8.023)" fill="#00365a"/>
    <path id="Path_2" data-name="Path 2" d="M151.34,149.711a10.179,10.179,0,0,1,1.207,4.886,11.465,11.465,0,0,1-1.192,4.9,5.937,5.937,0,0,0-.9,2.9,4.964,4.964,0,0,0,4.944,4.946,10.8,10.8,0,0,1,9.191,5.265,4.949,4.949,0,1,0,4.289-7.352,10.712,10.712,0,0,1-10.62-10.658,10.448,10.448,0,0,1,1.487-5.425,5.694,5.694,0,0,0,.6-2.384,4.947,4.947,0,1,0-9.894,0,5.569,5.569,0,0,0,.881,2.922" transform="translate(-6.941 -4.018)" fill="#00365a"/>
    <path id="Path_3" data-name="Path 3" d="M213.91,166.393a10.1,10.1,0,0,0-1.208-4.9,5.82,5.82,0,0,1-.881-2.909,4.949,4.949,0,1,1,9.9,0,5.821,5.821,0,0,1-.881,2.909,10.535,10.535,0,0,0,0,9.793,5.819,5.819,0,0,1,.881,2.908,4.949,4.949,0,1,1-9.9,0,5.818,5.818,0,0,1,.881-2.908,10.1,10.1,0,0,0,1.208-4.9" transform="translate(-27.76 -8.02)" fill="#e4003a"/>
    <path id="Path_4" data-name="Path 4" d="M181.186,141.347a10.089,10.089,0,0,0-4.842-1.409,5.823,5.823,0,0,1-2.958-.7,4.949,4.949,0,1,1,4.961-8.565,5.819,5.819,0,0,1,2.075,2.221,10.53,10.53,0,0,0,8.474,4.909,5.817,5.817,0,0,1,2.958.7,4.949,4.949,0,1,1-4.961,8.564,5.82,5.82,0,0,1-2.075-2.22,10.109,10.109,0,0,0-3.632-3.5" transform="translate(-13.883 0)" fill="#239f7c"/>
    <path id="Path_5" data-name="Path 5" d="M160.726,200.355a10.1,10.1,0,0,0-4.842-1.409,5.824,5.824,0,0,1-2.959-.7,4.949,4.949,0,1,1,4.962-8.565,5.822,5.822,0,0,1,2.075,2.221,10.532,10.532,0,0,0,8.474,4.909,5.822,5.822,0,0,1,2.958.7,4.949,4.949,0,1,1-4.961,8.565,5.82,5.82,0,0,1-2.075-2.22,10.109,10.109,0,0,0-3.632-3.5" transform="translate(-6.941 -20.02)" fill="#239f7c"/>
    <path id="Path_6" data-name="Path 6" d="M132.089,166.393a10.09,10.09,0,0,0-1.207-4.9,5.821,5.821,0,0,1-.881-2.909,4.949,4.949,0,1,1,9.9,0,5.82,5.82,0,0,1-.881,2.909,10.53,10.53,0,0,0,0,9.793,5.817,5.817,0,0,1,.881,2.908,4.949,4.949,0,1,1-9.9,0,5.819,5.819,0,0,1,.881-2.908,10.091,10.091,0,0,0,1.207-4.9" transform="translate(0 -8.02)" fill="#e4003a"/>
    <path id="Path_32" data-name="Path 32" d="M244.738,152.948a29.65,29.65,0,0,0-2.348-1.875,12.2,12.2,0,0,1-2.054-1.761,2.371,2.371,0,0,1-.523-1.556,2.217,2.217,0,0,1,.484-1.518,1.594,1.594,0,0,1,1.25-.548,1.624,1.624,0,0,1,1.314.6,2.334,2.334,0,0,1,.44,1.3,1.442,1.442,0,0,0,1.44,1.265h1.525c0-2.521-.433-3.524-1.3-4.4a5.134,5.134,0,0,0-6.788-.064,4.5,4.5,0,0,0-1.275,3.368,4.984,4.984,0,0,0,.523,2.334,6.141,6.141,0,0,0,1.3,1.722,22.363,22.363,0,0,0,2.054,1.633q1.121.817,1.633,1.25a3.586,3.586,0,0,1,.791.918,2.256,2.256,0,0,1,.28,1.148,2.194,2.194,0,0,1-.51,1.518,1.705,1.705,0,0,1-1.522.564,1.531,1.531,0,0,1-.936-.455,1.977,1.977,0,0,1-.575-1.36,1.354,1.354,0,0,0-1.337-1.21H237.32a.363.363,0,0,0-.363.363v.607a4.472,4.472,0,0,0,1.3,3.342,4.674,4.674,0,0,0,3.419,1.276,4.593,4.593,0,0,0,3.419-1.314,4.731,4.731,0,0,0,1.3-3.483,4.578,4.578,0,0,0-.433-2.066,5.547,5.547,0,0,0-1.225-1.595" transform="translate(-36.27 -4.458)" fill="#00365a"/>
    <path id="Path_33" data-name="Path 33" d="M310.053,150.718a1.84,1.84,0,0,1-1.518.727H307a.113.113,0,0,1-.128-.128V145.96h1.659a1.818,1.818,0,0,1,1.518.753,3.27,3.27,0,0,1,.573,2.028,3.109,3.109,0,0,1-.573,1.977m1.352-6.646a4.32,4.32,0,0,0-2.385-.663h-3.651a1.453,1.453,0,0,0-1.452,1.453v16.126a.3.3,0,0,0,.306.306h2.29a.363.363,0,0,0,.363-.363v-7.036a.127.127,0,0,1,.128-.128h2.169a4.025,4.025,0,0,0,3.2-1.4,5.465,5.465,0,0,0,1.211-3.7,6.27,6.27,0,0,0-.573-2.73,4.433,4.433,0,0,0-1.608-1.863" transform="translate(-59.005 -4.549)" fill="#00365a"/>
    <path id="Path_34" data-name="Path 34" d="M328.656,143.447h-8.369a1.453,1.453,0,0,0-1.453,1.453v.792a.3.3,0,0,0,.306.306H322.2a.128.128,0,0,1,.128.128V161a.306.306,0,0,0,.306.306h2.291a.364.364,0,0,0,.363-.363V146.126a.127.127,0,0,1,.128-.128h3.546v-2.245a.306.306,0,0,0-.307-.306" transform="translate(-64.066 -4.562)" fill="#00365a"/>
    <path id="Path_35" data-name="Path 35" d="M344.414,143.447H337.27a1.453,1.453,0,0,0-1.454,1.453V161a.306.306,0,0,0,.306.306h8.292a.3.3,0,0,0,.307-.306v-1.939a.306.306,0,0,0-.307-.307H338.9a.127.127,0,0,1-.127-.127V153.78a.128.128,0,0,1,.128-.128h3.266a.3.3,0,0,0,.305-.306v-1.964a.3.3,0,0,0-.305-.306H338.9a.128.128,0,0,1-.128-.128v-4.823A.128.128,0,0,1,338.9,146h5.51a.3.3,0,0,0,.217-.089.294.294,0,0,0,.089-.217v-1.939a.3.3,0,0,0-.307-.306" transform="translate(-69.828 -4.562)" fill="#00365a"/>
    <path id="Path_36" data-name="Path 36" d="M376.563,143.537a.294.294,0,0,0-.216-.089h-1.2a1.453,1.453,0,0,0-1.453,1.453v6.048a.128.128,0,0,1-.127.128h-3.24a.128.128,0,0,1-.128-.128V144.9a1.453,1.453,0,0,0-1.453-1.453H367.6a.363.363,0,0,0-.363.363V161a.3.3,0,0,0,.306.306h2.348A.306.306,0,0,0,370.2,161V153.78a.128.128,0,0,1,.128-.128h3.24a.128.128,0,0,1,.127.128V161a.3.3,0,0,0,.306.306h2.348a.3.3,0,0,0,.305-.306V143.754a.3.3,0,0,0-.089-.217" transform="translate(-80.489 -4.563)" fill="#00365a"/>
    <path id="Path_37" data-name="Path 37" d="M258.054,144.418l-1.836,5.855-1.7-5.828a1.416,1.416,0,0,0-1.364-1.034h-1.512a.363.363,0,0,0-.344.481l3.417,9.953.026.153v6.965a.3.3,0,0,0,.306.306h2.291a.363.363,0,0,0,.363-.363V154l.025-.153,3.508-9.95a.363.363,0,0,0-.343-.484h-1.478a1.416,1.416,0,0,0-1.356,1.007" transform="translate(-41.146 -4.55)" fill="#00365a"/>
    <path id="Path_38" data-name="Path 38" d="M292.413,155.9h-2.833c-.1,0-.145-.042-.127-.128l1.454-8.063c.017-.051.042-.076.076-.076s.059.025.076.076l1.48,8.063c.017.085-.025.128-.127.128m-.026-12.451h-1.8a1.453,1.453,0,0,0-1.419,1.142L285.6,160.866a.363.363,0,0,0,.355.441h2.2a.364.364,0,0,0,.357-.3l.481-2.661c0-.085.051-.128.153-.128h3.725c.1,0,.153.042.153.128l.485,2.661a.364.364,0,0,0,.357.3h2.346c.187,0,.281-.076.281-.229v-.1l-3.776-17.248a.306.306,0,0,0-.332-.28" transform="translate(-52.787 -4.562)" fill="#00365a"/>
    <path id="Path_39" data-name="Path 39" d="M353.686,147.7a2.082,2.082,0,0,1,.509-1.454,1.587,1.587,0,0,1,1.266-.561,1.876,1.876,0,0,1,1.414.561,1.721,1.721,0,0,1,.449,1.072,1.443,1.443,0,0,0,1.436,1.236H360a.367.367,0,0,0,.365-.375,5.217,5.217,0,0,0-1.32-3.73,4.929,4.929,0,0,0-3.582-1.314,4.475,4.475,0,0,0-4.735,4.771v8.7a4.518,4.518,0,0,0,4.8,4.8,4.783,4.783,0,0,0,3.522-1.314,5.215,5.215,0,0,0,1.32-3.73.367.367,0,0,0-.365-.375h-1.238a1.443,1.443,0,0,0-1.436,1.236,1.72,1.72,0,0,1-.449,1.072,1.744,1.744,0,0,1-1.353.561,1.713,1.713,0,0,1-1.327-.561,2.081,2.081,0,0,1-.509-1.455V147.7Z" transform="translate(-74.887 -4.458)" fill="#00365a"/>
    <path id="Path_40" data-name="Path 40" d="M278.307,143.537a.3.3,0,0,0-.217-.089h-1.175a1.453,1.453,0,0,0-1.454,1.452v9.051c0,.051-.021.081-.063.089s-.073-.013-.09-.063l-4.222-9.563a1.451,1.451,0,0,0-1.368-.965H268.58a.363.363,0,0,0-.363.363v17.133a.363.363,0,0,0,.363.363h2.2a.363.363,0,0,0,.363-.364l-.02-10.332a.078.078,0,0,1,.065-.089c.042-.009.071.013.089.063l4.329,9.751a1.454,1.454,0,0,0,1.371.971h1.055a.363.363,0,0,0,.363-.363v-17.19a.3.3,0,0,0-.09-.217" transform="translate(-46.893 -4.563)" fill="#00365a"/>
    <path id="Path_41" data-name="Path 41" d="M276.581,182a1.841,1.841,0,0,1-1.518.727h-1.532a.113.113,0,0,1-.128-.128v-5.358h1.659a1.82,1.82,0,0,1,1.518.753,3.274,3.274,0,0,1,.573,2.028,3.114,3.114,0,0,1-.573,1.978m1.351-6.646a4.322,4.322,0,0,0-2.385-.663H271.9a1.453,1.453,0,0,0-1.453,1.453v16.126a.306.306,0,0,0,.307.306h2.289a.364.364,0,0,0,.363-.363v-7.035a.127.127,0,0,1,.128-.128H275.7a4.027,4.027,0,0,0,3.2-1.4,5.468,5.468,0,0,0,1.211-3.7,6.269,6.269,0,0,0-.573-2.73,4.438,4.438,0,0,0-1.609-1.863" transform="translate(-47.649 -15.163)" fill="#00365a"/>
    <path id="Path_42" data-name="Path 42" d="M302.9,174.731h-8.369a1.453,1.453,0,0,0-1.452,1.453v.792a.3.3,0,0,0,.306.306h3.06a.128.128,0,0,1,.128.128v14.875a.307.307,0,0,0,.307.307h2.29a.364.364,0,0,0,.363-.364V177.41a.128.128,0,0,1,.128-.128h3.546v-2.245a.3.3,0,0,0-.089-.217.3.3,0,0,0-.217-.089" transform="translate(-55.33 -15.176)" fill="#00365a"/>
    <path id="Path_43" data-name="Path 43" d="M289.751,175.037a.3.3,0,0,0-.089-.217.3.3,0,0,0-.217-.089h-1.219a1.453,1.453,0,0,0-1.453,1.453l-.017,16.1a.293.293,0,0,0,.09.217.29.29,0,0,0,.216.089h2.29a.363.363,0,0,0,.363-.363Z" transform="translate(-53.183 -15.176)" fill="#00365a"/>
    <path id="Path_44" data-name="Path 44" d="M258.941,187.182h-2.832c-.1,0-.145-.042-.128-.128l1.454-8.063c.016-.05.042-.076.077-.076s.059.026.076.076l1.48,8.063c.017.085-.025.128-.128.128m-.025-12.451h-1.8a1.453,1.453,0,0,0-1.419,1.142l-3.569,16.277a.363.363,0,0,0,.355.441h2.2a.364.364,0,0,0,.357-.3l.482-2.661c0-.085.051-.128.153-.128H259.4c.1,0,.153.042.153.128l.486,2.661a.364.364,0,0,0,.357.3h2.346c.186,0,.281-.077.281-.23v-.1l-3.776-17.247a.306.306,0,0,0-.332-.281" transform="translate(-41.431 -15.176)" fill="#00365a"/>
    <path id="Path_45" data-name="Path 45" d="M313.132,187.182H310.3c-.1,0-.145-.042-.127-.128l1.454-8.063c.017-.05.042-.076.077-.076s.06.026.077.076l1.479,8.063c.017.085-.025.128-.127.128m-.026-12.451h-1.8a1.452,1.452,0,0,0-1.419,1.142l-3.569,16.277a.363.363,0,0,0,.355.441h2.2a.365.365,0,0,0,.357-.3l.481-2.661c0-.085.051-.128.153-.128h3.725c.1,0,.153.042.153.128l.485,2.661a.364.364,0,0,0,.357.3h2.346q.28,0,.281-.23v-.1l-3.776-17.247a.306.306,0,0,0-.332-.281" transform="translate(-59.816 -15.176)" fill="#00365a"/>
    <path id="Path_46" data-name="Path 46" d="M239.865,178.989a2.079,2.079,0,0,1,.509-1.455,1.586,1.586,0,0,1,1.266-.561,1.874,1.874,0,0,1,1.413.561,1.72,1.72,0,0,1,.449,1.072,1.443,1.443,0,0,0,1.436,1.236h1.238a.367.367,0,0,0,.365-.375,5.215,5.215,0,0,0-1.321-3.73,4.928,4.928,0,0,0-3.582-1.314,4.474,4.474,0,0,0-4.735,4.771v8.7a4.517,4.517,0,0,0,4.8,4.8,4.781,4.781,0,0,0,3.521-1.314,5.217,5.217,0,0,0,1.321-3.73.368.368,0,0,0-.365-.376H244.94a1.443,1.443,0,0,0-1.436,1.236,1.716,1.716,0,0,1-.449,1.072,1.739,1.739,0,0,1-1.353.562,1.709,1.709,0,0,1-1.327-.562,2.078,2.078,0,0,1-.509-1.455v-9.133Z" transform="translate(-36.27 -15.071)" fill="#00365a"/>
    <path id="Path_47" data-name="Path 47" d="M326.922,175.037a.307.307,0,0,0-.1-.217.3.3,0,0,0-.218-.089h-1.2a1.452,1.452,0,0,0-1.453,1.453v13.16h0V191.1a1.487,1.487,0,0,0,1.486,1.487h5.8a.314.314,0,0,0,.314-.313,2.3,2.3,0,0,0-2.3-2.3h-2.2a.131.131,0,0,1-.13-.131Z" transform="translate(-65.804 -15.176)" fill="#00365a"/>
  </g>
</svg>
