<?xml version="1.0" encoding="UTF-8" standalone="no"?>
<!-- Created with Inkscape (http://www.inkscape.org/) -->

<svg
   xmlns:dc="http://purl.org/dc/elements/1.1/"
   xmlns:cc="http://creativecommons.org/ns#"
   xmlns:rdf="http://www.w3.org/1999/02/22-rdf-syntax-ns#"
   xmlns:svg="http://www.w3.org/2000/svg"
   xmlns="http://www.w3.org/2000/svg"
   xmlns:sodipodi="http://sodipodi.sourceforge.net/DTD/sodipodi-0.dtd"
   xmlns:inkscape="http://www.inkscape.org/namespaces/inkscape"
   width="115.8266mm"
   height="33.087959mm"
   viewBox="0 0 410.40921 117.2408"
   id="svg2"
   version="1.1"
   inkscape:version="0.91 r13725"
   sodipodi:docname="logo.svg">
  <defs
     id="defs4">
    <clipPath
       id="clipPath4160"
       clipPathUnits="userSpaceOnUse">
      <path
         inkscape:connector-curvature="0"
         id="path4162"
         d="m 0,0 540,0 0,385.004 -540,0 L 0,0 Z" />
    </clipPath>
    <clipPath
       id="clipPath4168"
       clipPathUnits="userSpaceOnUse">
      <path
         inkscape:connector-curvature="0"
         id="path4170"
         d="m 226.215,356.252 203.69,0 0,-224.639 -203.69,0 0,224.639 z" />
    </clipPath>
    <clipPath
       id="clipPath4172"
       clipPathUnits="userSpaceOnUse">
      <path
         inkscape:connector-curvature="0"
         id="path4174"
         d="m 226.215,131.613 203.69,0 0,224.639 -203.69,0 0,-224.639 z" />
    </clipPath>
    <clipPath
       id="clipPath4176"
       clipPathUnits="userSpaceOnUse">
      <path
         inkscape:connector-curvature="0"
         id="path4178"
         d="m 260.167,325.131 31.062,0 0,-26.083 -31.062,0 0,26.083 z" />
    </clipPath>
    <clipPath
       id="clipPath4180"
       clipPathUnits="userSpaceOnUse">
      <path
         inkscape:connector-curvature="0"
         id="path4182"
         d="m 260.167,299.048 31.062,0 0,26.082 -31.062,0 0,-26.082 z" />
    </clipPath>
    <clipPath
       id="clipPath4184"
       clipPathUnits="userSpaceOnUse">
      <path
         inkscape:connector-curvature="0"
         id="path4186"
         d="m 264.45,320.152 38.633,0 0,-35.102 -38.633,0 0,35.102 z" />
    </clipPath>
    <clipPath
       id="clipPath4188"
       clipPathUnits="userSpaceOnUse">
      <path
         inkscape:connector-curvature="0"
         id="path4190"
         d="m 264.45,285.05 38.634,0 0,35.102 -38.634,0 0,-35.102 z" />
    </clipPath>
    <clipPath
       id="clipPath4192"
       clipPathUnits="userSpaceOnUse">
      <path
         inkscape:connector-curvature="0"
         id="path4194"
         d="m 254.055,308.045 25.669,0 0,-30.219 -25.669,0 0,30.219 z" />
    </clipPath>
    <clipPath
       id="clipPath4196"
       clipPathUnits="userSpaceOnUse">
      <path
         inkscape:connector-curvature="0"
         id="path4198"
         d="m 254.055,277.826 25.669,0 0,30.219 -25.669,0 0,-30.219 z" />
    </clipPath>
    <clipPath
       id="clipPath4200"
       clipPathUnits="userSpaceOnUse">
      <path
         inkscape:connector-curvature="0"
         id="path4202"
         d="m 236.485,293.082 25.658,0 0,-30.216 -25.658,0 0,30.216 z" />
    </clipPath>
    <clipPath
       id="clipPath4204"
       clipPathUnits="userSpaceOnUse">
      <path
         inkscape:connector-curvature="0"
         id="path4206"
         d="m 236.485,262.866 25.658,0 0,30.216 -25.658,0 0,-30.216 z" />
    </clipPath>
    <clipPath
       id="clipPath4208"
       clipPathUnits="userSpaceOnUse">
      <path
         inkscape:connector-curvature="0"
         id="path4210"
         d="m 301.047,347.495 25.668,0 0,-30.219 -25.668,0 0,30.219 z" />
    </clipPath>
    <clipPath
       id="clipPath4212"
       clipPathUnits="userSpaceOnUse">
      <path
         inkscape:connector-curvature="0"
         id="path4214"
         d="m 301.047,317.276 25.667,0 0,30.219 -25.667,0 0,-30.219 z" />
    </clipPath>
    <clipPath
       id="clipPath4216"
       clipPathUnits="userSpaceOnUse">
      <path
         inkscape:connector-curvature="0"
         id="path4218"
         d="m 283.476,332.532 25.659,0 0,-30.216 -25.659,0 0,30.216 z" />
    </clipPath>
    <clipPath
       id="clipPath4220"
       clipPathUnits="userSpaceOnUse">
      <path
         inkscape:connector-curvature="0"
         id="path4222"
         d="m 283.476,302.316 25.659,0 0,30.216 -25.659,0 0,-30.216 z" />
    </clipPath>
    <clipPath
       id="clipPath4224"
       clipPathUnits="userSpaceOnUse">
      <path
         inkscape:connector-curvature="0"
         id="path4226"
         d="m 228.046,287.088 26.642,0 0,-31.445 -26.642,0 0,31.445 z" />
    </clipPath>
    <clipPath
       id="clipPath4228"
       clipPathUnits="userSpaceOnUse">
      <path
         inkscape:connector-curvature="0"
         id="path4230"
         d="m 228.046,255.643 26.642,0 0,31.445 -26.642,0 0,-31.445 z" />
    </clipPath>
    <clipPath
       id="clipPath4232"
       clipPathUnits="userSpaceOnUse">
      <path
         inkscape:connector-curvature="0"
         id="path4234"
         d="m 308.513,354.687 26.604,0 0,-31.414 -26.604,0 0,31.414 z" />
    </clipPath>
    <clipPath
       id="clipPath4236"
       clipPathUnits="userSpaceOnUse">
      <path
         inkscape:connector-curvature="0"
         id="path4238"
         d="m 308.513,323.273 26.604,0 0,31.413 -26.604,0 0,-31.413 z" />
    </clipPath>
    <clipPath
       id="clipPath4240"
       clipPathUnits="userSpaceOnUse">
      <path
         inkscape:connector-curvature="0"
         id="path4242"
         d="m 311.768,271.235 70.111,0 0,-76.147 -70.111,0 0,76.147 z" />
    </clipPath>
    <clipPath
       id="clipPath4244"
       clipPathUnits="userSpaceOnUse">
      <path
         inkscape:connector-curvature="0"
         id="path4246"
         d="m 311.768,195.088 70.112,0 0,76.147 -70.112,0 0,-76.147 z" />
    </clipPath>
    <clipPath
       id="clipPath4248"
       clipPathUnits="userSpaceOnUse">
      <path
         inkscape:connector-curvature="0"
         id="path4250"
         d="m 313.249,341.747 14.142,0 0,-16.789 -14.142,0 0,16.789 z" />
    </clipPath>
    <clipPath
       id="clipPath4252"
       clipPathUnits="userSpaceOnUse">
      <path
         inkscape:connector-curvature="0"
         id="path4254"
         d="m 313.25,324.958 14.141,0 0,16.789 -14.141,0 0,-16.789 z" />
    </clipPath>
    <clipPath
       id="clipPath4256"
       clipPathUnits="userSpaceOnUse">
      <path
         inkscape:connector-curvature="0"
         id="path4258"
         d="m 304.354,280.436 9.758,0 0,-9.839 -9.758,0 0,9.839 z" />
    </clipPath>
    <clipPath
       id="clipPath4260"
       clipPathUnits="userSpaceOnUse">
      <path
         inkscape:connector-curvature="0"
         id="path4262"
         d="m 304.354,270.597 9.758,0 0,9.839 -9.758,0 0,-9.839 z" />
    </clipPath>
    <clipPath
       id="clipPath4500"
       clipPathUnits="userSpaceOnUse">
      <path
         inkscape:connector-curvature="0"
         id="path4502"
         d="m 219.261,346.822 217.1,0 0,-212.515 -217.1,0 0,212.515 z" />
    </clipPath>
    <clipPath
       id="clipPath4504"
       clipPathUnits="userSpaceOnUse">
      <path
         inkscape:connector-curvature="0"
         id="path4506"
         d="m 219.261,134.307 217.1,0 0,212.514 -217.1,0 0,-212.514 z" />
    </clipPath>
    <clipPath
       id="clipPath4508"
       clipPathUnits="userSpaceOnUse">
      <path
         inkscape:connector-curvature="0"
         id="path4510"
         d="m 251.161,313.7 28.564,0 0,-28.856 -28.564,0 0,28.856 z" />
    </clipPath>
    <clipPath
       id="clipPath4512"
       clipPathUnits="userSpaceOnUse">
      <path
         inkscape:connector-curvature="0"
         id="path4514"
         d="m 251.161,284.844 28.565,0 0,28.856 -28.565,0 0,-28.856 z" />
    </clipPath>
    <clipPath
       id="clipPath4516"
       clipPathUnits="userSpaceOnUse">
      <path
         inkscape:connector-curvature="0"
         id="path4518"
         d="m 255.947,309.204 37.05,0 0,-37.023 -37.05,0 0,37.023 z" />
    </clipPath>
    <clipPath
       id="clipPath4520"
       clipPathUnits="userSpaceOnUse">
      <path
         inkscape:connector-curvature="0"
         id="path4522"
         d="m 255.947,272.181 37.05,0 0,37.022 -37.05,0 0,-37.022 z" />
    </clipPath>
    <clipPath
       id="clipPath4524"
       clipPathUnits="userSpaceOnUse">
      <path
         inkscape:connector-curvature="0"
         id="path4526"
         d="m 244.517,292.999 28.549,0 0,-27.541 -28.549,0 0,27.541 z" />
    </clipPath>
    <clipPath
       id="clipPath4528"
       clipPathUnits="userSpaceOnUse">
      <path
         inkscape:connector-curvature="0"
         id="path4530"
         d="m 244.517,265.458 28.55,0 0,27.542 -28.55,0 0,-27.542 z" />
    </clipPath>
    <clipPath
       id="clipPath4532"
       clipPathUnits="userSpaceOnUse">
      <path
         inkscape:connector-curvature="0"
         id="path4534"
         d="m 228.482,276.379 28.543,0 0,-27.534 -28.543,0 0,27.534 z" />
    </clipPath>
    <clipPath
       id="clipPath4536"
       clipPathUnits="userSpaceOnUse">
      <path
         inkscape:connector-curvature="0"
         id="path4538"
         d="m 228.482,248.845 28.542,0 0,27.533 -28.542,0 0,-27.533 z" />
    </clipPath>
    <clipPath
       id="clipPath4540"
       clipPathUnits="userSpaceOnUse">
      <path
         inkscape:connector-curvature="0"
         id="path4542"
         d="m 287.058,337.211 28.549,0 0,-27.54 -28.549,0 0,27.54 z" />
    </clipPath>
    <clipPath
       id="clipPath4544"
       clipPathUnits="userSpaceOnUse">
      <path
         inkscape:connector-curvature="0"
         id="path4546"
         d="m 287.058,309.671 28.549,0 0,27.54 -28.549,0 0,-27.54 z" />
    </clipPath>
    <clipPath
       id="clipPath4548"
       clipPathUnits="userSpaceOnUse">
      <path
         inkscape:connector-curvature="0"
         id="path4550"
         d="m 271.024,320.591 28.542,0 0,-27.533 -28.542,0 0,27.533 z" />
    </clipPath>
    <clipPath
       id="clipPath4552"
       clipPathUnits="userSpaceOnUse">
      <path
         inkscape:connector-curvature="0"
         id="path4554"
         d="m 271.024,293.058 28.542,0 0,27.533 -28.542,0 0,-27.533 z" />
    </clipPath>
    <clipPath
       id="clipPath4556"
       clipPathUnits="userSpaceOnUse">
      <path
         inkscape:connector-curvature="0"
         id="path4558"
         d="m 220.804,269.468 29.634,0 0,-28.671 -29.634,0 0,28.671 z" />
    </clipPath>
    <clipPath
       id="clipPath4560"
       clipPathUnits="userSpaceOnUse">
      <path
         inkscape:connector-curvature="0"
         id="path4562"
         d="m 220.804,240.797 29.634,0 0,28.671 -29.634,0 0,-28.671 z" />
    </clipPath>
    <clipPath
       id="clipPath4564"
       clipPathUnits="userSpaceOnUse">
      <path
         inkscape:connector-curvature="0"
         id="path4566"
         d="m 293.652,345.225 29.6,0 0,-28.636 -29.6,0 0,28.636 z" />
    </clipPath>
    <clipPath
       id="clipPath4568"
       clipPathUnits="userSpaceOnUse">
      <path
         inkscape:connector-curvature="0"
         id="path4570"
         d="m 293.652,316.589 29.6,0 0,28.636 -29.6,0 0,-28.636 z" />
    </clipPath>
    <clipPath
       id="clipPath4572"
       clipPathUnits="userSpaceOnUse">
      <path
         inkscape:connector-curvature="0"
         id="path4574"
         d="m 305.926,262.819 76.544,0 0,-70.458 -76.544,0 0,70.458 z" />
    </clipPath>
    <clipPath
       id="clipPath4576"
       clipPathUnits="userSpaceOnUse">
      <path
         inkscape:connector-curvature="0"
         id="path4578"
         d="m 305.926,192.361 76.544,0 0,70.459 -76.544,0 0,-70.459 z" />
    </clipPath>
    <clipPath
       id="clipPath4580"
       clipPathUnits="userSpaceOnUse">
      <path
         inkscape:connector-curvature="0"
         id="path4582"
         d="m 299.648,332.756 15.819,0 0,-15.217 -15.819,0 0,15.217 z" />
    </clipPath>
    <clipPath
       id="clipPath4584"
       clipPathUnits="userSpaceOnUse">
      <path
         inkscape:connector-curvature="0"
         id="path4586"
         d="m 299.648,317.539 15.819,0 0,15.218 -15.819,0 0,-15.218 z" />
    </clipPath>
    <clipPath
       id="clipPath4588"
       clipPathUnits="userSpaceOnUse">
      <path
         inkscape:connector-curvature="0"
         id="path4590"
         d="m 297.695,271.314 9.946,0 0,-9.703 -9.946,0 0,9.703 z" />
    </clipPath>
    <clipPath
       id="clipPath4592"
       clipPathUnits="userSpaceOnUse">
      <path
         inkscape:connector-curvature="0"
         id="path4594"
         d="m 297.695,261.611 9.946,0 0,9.704 -9.946,0 0,-9.704 z" />
    </clipPath>
    <clipPath
       id="clipPath4832"
       clipPathUnits="userSpaceOnUse">
      <path
         inkscape:connector-curvature="0"
         id="path4834"
         d="m 212.98,330.816 227.539,0 0,-199.821 -227.539,0 0,199.821 z" />
    </clipPath>
    <clipPath
       id="clipPath4836"
       clipPathUnits="userSpaceOnUse">
      <path
         inkscape:connector-curvature="0"
         id="path4838"
         d="m 212.98,130.995 227.539,0 0,199.82 -227.539,0 0,-199.82 z" />
    </clipPath>
    <clipPath
       id="clipPath4840"
       clipPathUnits="userSpaceOnUse">
      <path
         inkscape:connector-curvature="0"
         id="path4842"
         d="m 243.205,295.971 26.046,0 0,-31.072 -26.046,0 0,31.072 z" />
    </clipPath>
    <clipPath
       id="clipPath4844"
       clipPathUnits="userSpaceOnUse">
      <path
         inkscape:connector-curvature="0"
         id="path4846"
         d="m 243.205,264.899 26.046,0 0,31.072 -26.046,0 0,-31.072 z" />
    </clipPath>
    <clipPath
       id="clipPath4848"
       clipPathUnits="userSpaceOnUse">
      <path
         inkscape:connector-curvature="0"
         id="path4850"
         d="m 248.398,291.951 35.272,0 0,-38.392 -35.272,0 0,38.392 z" />
    </clipPath>
    <clipPath
       id="clipPath4852"
       clipPathUnits="userSpaceOnUse">
      <path
         inkscape:connector-curvature="0"
         id="path4854"
         d="m 248.398,253.559 35.272,0 0,38.392 -35.272,0 0,-38.392 z" />
    </clipPath>
    <clipPath
       id="clipPath4856"
       clipPathUnits="userSpaceOnUse">
      <path
         inkscape:connector-curvature="0"
         id="path4858"
         d="m 236.147,272.22 30.863,0 0,-24.87 -30.863,0 0,24.87 z" />
    </clipPath>
    <clipPath
       id="clipPath4860"
       clipPathUnits="userSpaceOnUse">
      <path
         inkscape:connector-curvature="0"
         id="path4862"
         d="m 236.147,247.35 30.862,0 0,24.87 -30.862,0 0,-24.87 z" />
    </clipPath>
    <clipPath
       id="clipPath4864"
       clipPathUnits="userSpaceOnUse">
      <path
         inkscape:connector-curvature="0"
         id="path4866"
         d="m 221.647,254.27 30.859,0 0,-24.857 -30.859,0 0,24.857 z" />
    </clipPath>
    <clipPath
       id="clipPath4868"
       clipPathUnits="userSpaceOnUse">
      <path
         inkscape:connector-curvature="0"
         id="path4870"
         d="m 221.647,229.413 30.86,0 0,24.858 -30.86,0 0,-24.858 z" />
    </clipPath>
    <clipPath
       id="clipPath4872"
       clipPathUnits="userSpaceOnUse">
      <path
         inkscape:connector-curvature="0"
         id="path4874"
         d="m 274.281,320.285 30.862,0 0,-24.868 -30.862,0 0,24.868 z" />
    </clipPath>
    <clipPath
       id="clipPath4876"
       clipPathUnits="userSpaceOnUse">
      <path
         inkscape:connector-curvature="0"
         id="path4878"
         d="m 274.281,295.417 30.862,0 0,24.868 -30.862,0 0,-24.868 z" />
    </clipPath>
    <clipPath
       id="clipPath4880"
       clipPathUnits="userSpaceOnUse">
      <path
         inkscape:connector-curvature="0"
         id="path4882"
         d="m 259.781,302.336 30.86,0 0,-24.859 -30.86,0 0,24.859 z" />
    </clipPath>
    <clipPath
       id="clipPath4884"
       clipPathUnits="userSpaceOnUse">
      <path
         inkscape:connector-curvature="0"
         id="path4886"
         d="m 259.781,277.477 30.859,0 0,24.859 -30.859,0 0,-24.859 z" />
    </clipPath>
    <clipPath
       id="clipPath4888"
       clipPathUnits="userSpaceOnUse">
      <path
         inkscape:connector-curvature="0"
         id="path4890"
         d="m 214.726,246.601 32.038,0 0,-25.902 -32.038,0 0,25.902 z" />
    </clipPath>
    <clipPath
       id="clipPath4892"
       clipPathUnits="userSpaceOnUse">
      <path
         inkscape:connector-curvature="0"
         id="path4894"
         d="m 214.726,220.699 32.038,0 0,25.902 -32.038,0 0,-25.902 z" />
    </clipPath>
    <clipPath
       id="clipPath4896"
       clipPathUnits="userSpaceOnUse">
      <path
         inkscape:connector-curvature="0"
         id="path4898"
         d="m 280.026,328.96 32.008,0 0,-25.864 -32.008,0 0,25.864 z" />
    </clipPath>
    <clipPath
       id="clipPath4900"
       clipPathUnits="userSpaceOnUse">
      <path
         inkscape:connector-curvature="0"
         id="path4902"
         d="m 280.026,303.096 32.008,0 0,25.864 -32.008,0 0,-25.864 z" />
    </clipPath>
    <clipPath
       id="clipPath4904"
       clipPathUnits="userSpaceOnUse">
      <path
         inkscape:connector-curvature="0"
         id="path4906"
         d="m 300.261,248.319 81.615,0 0,-64.7 -81.615,0 0,64.7 z" />
    </clipPath>
    <clipPath
       id="clipPath4908"
       clipPathUnits="userSpaceOnUse">
      <path
         inkscape:connector-curvature="0"
         id="path4910"
         d="m 300.261,183.619 81.615,0 0,64.7 -81.615,0 0,-64.7 z" />
    </clipPath>
    <clipPath
       id="clipPath4912"
       clipPathUnits="userSpaceOnUse">
      <path
         inkscape:connector-curvature="0"
         id="path4914"
         d="m 287.096,317.039 17.179,0 0,-13.665 -17.179,0 0,13.665 z" />
    </clipPath>
    <clipPath
       id="clipPath4916"
       clipPathUnits="userSpaceOnUse">
      <path
         inkscape:connector-curvature="0"
         id="path4918"
         d="m 287.096,303.374 17.179,0 0,13.664 -17.179,0 0,-13.664 z" />
    </clipPath>
    <clipPath
       id="clipPath4920"
       clipPathUnits="userSpaceOnUse">
      <path
         inkscape:connector-curvature="0"
         id="path4922"
         d="m 291.401,256.066 10.019,0 0,-9.487 -10.019,0 0,9.487 z" />
    </clipPath>
    <clipPath
       id="clipPath4924"
       clipPathUnits="userSpaceOnUse">
      <path
         inkscape:connector-curvature="0"
         id="path4926"
         d="m 291.401,246.579 10.019,0 0,9.487 -10.019,0 0,-9.487 z" />
    </clipPath>
    <clipPath
       id="clipPath5344"
       clipPathUnits="userSpaceOnUse">
      <path
         inkscape:connector-curvature="0"
         id="path5346"
         d="m 230.528,284.404 23.798,0 0,-32.681 -23.798,0 0,32.681 z" />
    </clipPath>
    <clipPath
       id="clipPath5348"
       clipPathUnits="userSpaceOnUse">
      <path
         inkscape:connector-curvature="0"
         id="path5350"
         d="m 230.528,251.723 23.798,0 0,32.681 -23.798,0 0,-32.681 z" />
    </clipPath>
    <clipPath
       id="clipPath5372"
       clipPathUnits="userSpaceOnUse">
      <path
         inkscape:connector-curvature="0"
         id="path5374"
         d="m 236.021,280.803 33.568,0 0,-39.256 -33.568,0 0,39.256 z" />
    </clipPath>
    <clipPath
       id="clipPath5376"
       clipPathUnits="userSpaceOnUse">
      <path
         inkscape:connector-curvature="0"
         id="path5378"
         d="m 236.021,241.547 33.568,0 0,39.256 -33.568,0 0,-39.256 z" />
    </clipPath>
    <clipPath
       id="clipPath5396"
       clipPathUnits="userSpaceOnUse">
      <path
         inkscape:connector-curvature="0"
         id="path5398"
         d="m 223.149,258.309 32.581,0 0,-22.506 -32.581,0 0,22.506 z" />
    </clipPath>
    <clipPath
       id="clipPath5400"
       clipPathUnits="userSpaceOnUse">
      <path
         inkscape:connector-curvature="0"
         id="path5402"
         d="m 223.149,235.803 32.581,0 0,22.506 -32.581,0 0,-22.506 z" />
    </clipPath>
    <clipPath
       id="clipPath5420"
       clipPathUnits="userSpaceOnUse">
      <path
         inkscape:connector-curvature="0"
         id="path5422"
         d="m 210.037,239.388 32.582,0 0,-22.489 -32.582,0 0,22.489 z" />
    </clipPath>
    <clipPath
       id="clipPath5424"
       clipPathUnits="userSpaceOnUse">
      <path
         inkscape:connector-curvature="0"
         id="path5426"
         d="m 210.037,216.899 32.582,0 0,22.49 -32.582,0 0,-22.49 z" />
    </clipPath>
    <clipPath
       id="clipPath5444"
       clipPathUnits="userSpaceOnUse">
      <path
         inkscape:connector-curvature="0"
         id="path5446"
         d="m 257.401,309.213 32.582,0 0,-22.503 -32.582,0 0,22.503 z" />
    </clipPath>
    <clipPath
       id="clipPath5448"
       clipPathUnits="userSpaceOnUse">
      <path
         inkscape:connector-curvature="0"
         id="path5450"
         d="m 257.401,286.71 32.582,0 0,22.503 -32.582,0 0,-22.503 z" />
    </clipPath>
    <clipPath
       id="clipPath5468"
       clipPathUnits="userSpaceOnUse">
      <path
         inkscape:connector-curvature="0"
         id="path5470"
         d="m 244.288,290.295 32.582,0 0,-22.492 -32.582,0 0,22.492 z" />
    </clipPath>
    <clipPath
       id="clipPath5472"
       clipPathUnits="userSpaceOnUse">
      <path
         inkscape:connector-curvature="0"
         id="path5474"
         d="m 244.288,267.803 32.582,0 0,22.491 -32.582,0 0,-22.491 z" />
    </clipPath>
    <clipPath
       id="clipPath5492"
       clipPathUnits="userSpaceOnUse">
      <path
         inkscape:connector-curvature="0"
         id="path5494"
         d="m 203.785,231.148 33.797,0 0,-23.45 -33.797,0 0,23.45 z" />
    </clipPath>
    <clipPath
       id="clipPath5496"
       clipPathUnits="userSpaceOnUse">
      <path
         inkscape:connector-curvature="0"
         id="path5498"
         d="m 203.785,207.698 33.796,0 0,23.45 -33.796,0 0,-23.45 z" />
    </clipPath>
    <clipPath
       id="clipPath5516"
       clipPathUnits="userSpaceOnUse">
      <path
         inkscape:connector-curvature="0"
         id="path5518"
         d="m 262.438,318.373 33.769,0 0,-23.41 -33.769,0 0,23.41 z" />
    </clipPath>
    <clipPath
       id="clipPath5520"
       clipPathUnits="userSpaceOnUse">
      <path
         inkscape:connector-curvature="0"
         id="path5522"
         d="m 262.438,294.963 33.769,0 0,23.41 -33.769,0 0,-23.41 z" />
    </clipPath>
    <clipPath
       id="clipPath5540"
       clipPathUnits="userSpaceOnUse">
      <path
         inkscape:connector-curvature="0"
         id="path5542"
         d="m 289.06,239.755 85.243,0 0,-59.552 -85.243,0 0,59.552 z" />
    </clipPath>
    <clipPath
       id="clipPath5544"
       clipPathUnits="userSpaceOnUse">
      <path
         inkscape:connector-curvature="0"
         id="path5546"
         d="m 289.06,180.203 85.243,0 0,59.552 -85.243,0 0,-59.552 z" />
    </clipPath>
    <clipPath
       id="clipPath5580"
       clipPathUnits="userSpaceOnUse">
      <path
         inkscape:connector-curvature="0"
         id="path5582"
         d="m 270.341,306.983 18.181,0 0,-12.299 -18.181,0 0,12.299 z" />
    </clipPath>
    <clipPath
       id="clipPath5584"
       clipPathUnits="userSpaceOnUse">
      <path
         inkscape:connector-curvature="0"
         id="path5586"
         d="m 270.341,294.684 18.182,0 0,12.299 -18.182,0 0,-12.299 z" />
    </clipPath>
    <clipPath
       id="clipPath5608"
       clipPathUnits="userSpaceOnUse">
      <path
         inkscape:connector-curvature="0"
         id="path5610"
         d="m 449.433,254.456 66.198,0 0,-77.557 -66.198,0 0,77.557 z" />
    </clipPath>
    <clipPath
       id="clipPath5612"
       clipPathUnits="userSpaceOnUse">
      <path
         inkscape:connector-curvature="0"
         id="path5614"
         d="m 449.433,176.899 66.198,0 0,77.557 -66.198,0 0,-77.557 z" />
    </clipPath>
    <clipPath
       id="clipPath5632"
       clipPathUnits="userSpaceOnUse">
      <path
         inkscape:connector-curvature="0"
         id="path5634"
         d="m 279.761,246.81 10.011,0 0,-9.245 -10.011,0 0,9.245 z" />
    </clipPath>
    <clipPath
       id="clipPath5636"
       clipPathUnits="userSpaceOnUse">
      <path
         inkscape:connector-curvature="0"
         id="path5638"
         d="m 279.761,237.565 10.011,0 0,9.245 -10.011,0 0,-9.245 z" />
    </clipPath>
    <clipPath
       id="clipPath5752"
       clipPathUnits="userSpaceOnUse">
      <path
         inkscape:connector-curvature="0"
         id="path5754"
         d="m -41.5247,-11.4187 18.8311,0 0,-98.2523 -18.8311,0 0,98.2523 z" />
    </clipPath>
    <clipPath
       id="clipPath5756"
       clipPathUnits="userSpaceOnUse">
      <path
         inkscape:connector-curvature="0"
         id="path5758"
         d="m -41.525,-109.671 18.831,0 0,98.252 -18.831,0 0,-98.252 z" />
    </clipPath>
    <clipPath
       id="clipPath5774"
       clipPathUnits="userSpaceOnUse">
      <path
         inkscape:connector-curvature="0"
         id="path5776"
         d="m 97.4446,-11.4187 18.8314,0 0,-98.2523 -18.8314,0 0,98.2523 z" />
    </clipPath>
    <clipPath
       id="clipPath5778"
       clipPathUnits="userSpaceOnUse">
      <path
         inkscape:connector-curvature="0"
         id="path5780"
         d="m 97.445,-109.671 18.831,0 0,98.252 -18.831,0 0,-98.252 z" />
    </clipPath>
    <clipPath
       id="clipPath5796"
       clipPathUnits="userSpaceOnUse">
      <path
         inkscape:connector-curvature="0"
         id="path5798"
         d="m 236.411,-11.4187 18.835,0 0,-98.2523 -18.835,0 0,98.2523 z" />
    </clipPath>
    <clipPath
       id="clipPath5800"
       clipPathUnits="userSpaceOnUse">
      <path
         inkscape:connector-curvature="0"
         id="path5802"
         d="m 236.411,-109.671 18.835,0 0,98.252 -18.835,0 0,-98.252 z" />
    </clipPath>
    <clipPath
       id="clipPath5818"
       clipPathUnits="userSpaceOnUse">
      <path
         inkscape:connector-curvature="0"
         id="path5820"
         d="m 375.381,-11.4187 18.832,0 0,-98.2523 -18.832,0 0,98.2523 z" />
    </clipPath>
    <clipPath
       id="clipPath5822"
       clipPathUnits="userSpaceOnUse">
      <path
         inkscape:connector-curvature="0"
         id="path5824"
         d="m 375.381,-109.671 18.832,0 0,98.252 -18.832,0 0,-98.252 z" />
    </clipPath>
    <clipPath
       id="clipPath5848"
       clipPathUnits="userSpaceOnUse">
      <path
         inkscape:connector-curvature="0"
         id="path5850"
         d="m -61.4573,39.3907 476.0173,0 0,-38.654204 -476.0173,0 0,38.654204 z" />
    </clipPath>
    <clipPath
       id="clipPath5852"
       clipPathUnits="userSpaceOnUse">
      <path
         inkscape:connector-curvature="0"
         id="path5854"
         d="m -61.457,0.736 476.018,0 0,38.654 -476.018,0 0,-38.654 z" />
    </clipPath>
    <clipPath
       id="clipPath5886"
       clipPathUnits="userSpaceOnUse">
      <path
         inkscape:connector-curvature="0"
         id="path5888"
         d="m 36,640.256 153.141,0 0,43.744 L 36,684 36,640.256 Z" />
    </clipPath>
    <clipPath
       id="clipPath5958"
       clipPathUnits="userSpaceOnUse">
      <path
         inkscape:connector-curvature="0"
         id="path5960"
         d="m 36.014,640.256 153.128,0 0,43.744 -153.128,0 0,-43.744 z" />
    </clipPath>
    <clipPath
       id="clipPath5974"
       clipPathUnits="userSpaceOnUse">
      <path
         inkscape:connector-curvature="0"
         id="path5976"
         d="m 36,640.256 153.141,0 0,43.744 L 36,684 36,640.256 Z" />
    </clipPath>
    <clipPath
       id="clipPath6006"
       clipPathUnits="userSpaceOnUse">
      <path
         inkscape:connector-curvature="0"
         id="path6008"
         d="m 36.014,640.256 153.128,0 0,43.744 -153.128,0 0,-43.744 z" />
    </clipPath>
    <clipPath
       id="clipPath6022"
       clipPathUnits="userSpaceOnUse">
      <path
         inkscape:connector-curvature="0"
         id="path6024"
         d="m 36,640.256 153.141,0 0,43.744 L 36,684 36,640.256 Z" />
    </clipPath>
    <clipPath
       id="clipPath6036"
       clipPathUnits="userSpaceOnUse">
      <path
         inkscape:connector-curvature="0"
         id="path6038"
         d="M 0,0 540,0 540,720 0,720 0,0 Z" />
    </clipPath>
  </defs>
  <sodipodi:namedview
     id="base"
     pagecolor="#ffffff"
     bordercolor="#666666"
     borderopacity="1.0"
     inkscape:pageopacity="0.0"
     inkscape:pageshadow="2"
     inkscape:zoom="1"
     inkscape:cx="206.278"
     inkscape:cy="60.223027"
     inkscape:document-units="px"
     inkscape:current-layer="layer1"
     showgrid="false"
     fit-margin-top="0"
     fit-margin-left="0"
     fit-margin-right="0"
     fit-margin-bottom="0"
     inkscape:window-width="1020"
     inkscape:window-height="854"
     inkscape:window-x="453"
     inkscape:window-y="96"
     inkscape:window-maximized="0" />
  <metadata
     id="metadata7">
    <rdf:RDF>
      <cc:Work
         rdf:about="">
        <dc:format>image/svg+xml</dc:format>
        <dc:type
           rdf:resource="http://purl.org/dc/dcmitype/StillImage" />
        <dc:title></dc:title>
      </cc:Work>
    </rdf:RDF>
  </metadata>
  <g
     inkscape:label="Calque 1"
     inkscape:groupmode="layer"
     id="layer1"
     transform="translate(-128.57913,-107.96747)">
    <g
       id="g7758"
       transform="matrix(2.1232479,0,0,2.1232479,25.137887,-155.81736)"
       style="fill:#004b8d;fill-opacity:1">
      <g
         style="fill:#004b8d;fill-opacity:1"
         transform="matrix(1.25,0,0,-1.25,4.6428571,979.50506)"
         id="g5882">
        <g
           style="fill:#004b8d;fill-opacity:1"
           clip-path="url(#clipPath5886)"
           id="g5884">
          <g
             style="fill:#004b8d;fill-opacity:1"
             transform="translate(74.3937,676.8696)"
             id="g5890">
            <path
               inkscape:connector-curvature="0"
               id="path5892"
               style="fill:#004b8d;fill-opacity:1;fill-rule:nonzero;stroke:none"
               d="m 0,0 c 1.698,2.344 4.617,3.8 7.614,3.8 3,0 5.916,-1.456 7.614,-3.8 1.024,-1.412 1.485,-2.998 1.772,-4.538 l 2.334,0 0,1.564 0,0.695 0,7.15 0,0.694 c 0,0.864 -0.701,1.565 -1.564,1.565 l -20.31,0 c -0.865,0 -1.565,-0.701 -1.565,-1.565 l 0,-0.694 0,-7.15 0,-0.695 0,-1.564 2.335,0 C -1.487,-2.998 -1.023,-1.412 0,0" />
          </g>
          <g
             style="fill:#004b8d;fill-opacity:1"
             transform="translate(91.0983,664.8898)"
             id="g5894">
            <path
               inkscape:connector-curvature="0"
               id="path5896"
               style="fill:#004b8d;fill-opacity:1;fill-rule:nonzero;stroke:none"
               d="m 0,0 c -0.303,1.09 -0.446,2.263 -0.686,3.643 -0.221,1.262 -0.34,2.572 -0.596,3.833 -0.195,0.952 -0.47,1.878 -0.928,2.738 -0.157,0.303 -0.334,0.598 -0.541,0.882 -0.714,0.987 -1.695,1.775 -2.799,2.318 -1.105,0.541 -2.333,0.836 -3.541,0.836 -1.207,0 -2.435,-0.295 -3.54,-0.836 -1.105,-0.543 -2.087,-1.331 -2.8,-2.318 -0.206,-0.284 -0.384,-0.577 -0.54,-0.879 -0.46,-0.861 -0.734,-1.789 -0.927,-2.741 -0.258,-1.261 -0.375,-2.571 -0.596,-3.833 -0.242,-1.38 -0.384,-2.553 -0.688,-3.643 -0.568,-2.04 -1.954,-3.375 -3.469,-4.751 l 0,-2.258 25.122,0 0,2.258 C 1.903,-3.363 0.578,-2.079 0,0" />
          </g>
          <g
             style="fill:#004b8d;fill-opacity:1"
             transform="translate(79.1029,647.6295)"
             id="g5898">
            <path
               inkscape:connector-curvature="0"
               id="path5900"
               style="fill:#004b8d;fill-opacity:1;fill-rule:nonzero;stroke:none"
               d="m 0,0 -0.735,-3.265 c -0.062,-0.27 -0.229,-0.437 -0.366,-0.549 -0.407,-0.33 -0.291,-0.542 -0.253,-0.611 0.057,-0.106 0.197,-0.156 0.429,-0.156 l 1.97,0 c 0.187,0 0.351,0.008 0.48,0.092 0.111,0.074 0.194,0.223 0.207,0.372 0.007,0.077 -0.003,0.184 -0.088,0.263 -0.026,0.027 -0.056,0.051 -0.086,0.072 -0.076,0.06 -0.161,0.127 -0.218,0.231 -0.089,0.166 -0.067,0.361 -0.048,0.515 0.019,0.179 0.049,0.332 0.079,0.484 l 0.19,0.856 0.876,3.92 c 0.101,0.515 0.068,0.605 0.002,0.721 -0.035,0.061 -0.1,0.13 -0.314,0.13 L 2.074,3.073 c 0,0 -0.806,-0.091 -1.576,-0.422 C 0.271,2.554 0.046,2.441 -0.032,2.224 -0.056,2.154 -0.066,2.053 0.079,1.9 0.394,1.566 0.31,1.261 0.183,0.799 L 0.156,0.699 0,0 Z" />
          </g>
          <g
             style="fill:#004b8d;fill-opacity:1"
             transform="translate(84.102,650.5898)"
             id="g5902">
            <path
               inkscape:connector-curvature="0"
               id="path5904"
               style="fill:#004b8d;fill-opacity:1;fill-rule:nonzero;stroke:none"
               d="m 0,0 c -0.379,0 -0.612,-0.08 -0.682,-0.496 -0.042,-0.192 -0.033,-0.324 0.024,-0.395 0.086,-0.106 0.312,-0.106 0.509,-0.106 l 0.549,0 -1.202,-5.69 c -0.052,-0.406 -0.034,-0.627 0.062,-0.736 0.07,-0.079 0.204,-0.116 0.424,-0.116 l 1.32,0 c 0.186,0 0.351,0.007 0.479,0.093 0.112,0.074 0.195,0.222 0.208,0.371 0.007,0.076 -0.003,0.184 -0.087,0.264 -0.028,0.027 -0.057,0.049 -0.087,0.072 -0.076,0.059 -0.162,0.128 -0.218,0.23 -0.09,0.168 -0.066,0.361 -0.048,0.515 l 0.138,0.741 0.922,4.256 0.909,0 c 0.378,0 0.611,0.081 0.681,0.494 0.042,0.194 0.034,0.327 -0.024,0.396 C 3.791,0 3.566,0 3.367,0 L 2.53,0 2.565,0.157 C 2.88,1.585 2.88,1.585 2.887,1.602 3.054,2.391 3.025,2.49 2.947,2.631 2.896,2.72 2.806,2.758 2.642,2.758 L 2.593,2.756 C 2.584,2.756 2.371,2.74 1.647,2.423 1.483,2.35 1.339,2.281 1.244,2.173 1.153,2.071 1.118,1.926 1.089,1.773 1.044,1.541 0.998,1.31 0.952,1.08 0.9,0.824 0.85,0.568 0.799,0.311 L 0.737,0 0,0 Z" />
          </g>
          <g
             style="fill:#004b8d;fill-opacity:1"
             transform="translate(75.1442,646.5825)"
             id="g5906">
            <path
               inkscape:connector-curvature="0"
               id="path5908"
               style="fill:#004b8d;fill-opacity:1;fill-rule:nonzero;stroke:none"
               d="M 0,0 C 1.25,3.961 3.336,4.954 3.962,5.169 3.976,5.175 4.46,5.364 5.146,5.364 5.295,5.364 5.445,5.356 5.591,5.337 6.202,5.261 6.609,5.434 6.736,5.782 6.816,6.001 6.756,6.252 6.592,6.389 6.099,6.801 5.184,6.661 5.18,6.661 3.931,6.469 1.472,5.2 0.736,3.406 l 0,0.067 C 0.79,3.809 0.758,3.894 0.702,3.992 0.668,4.053 0.602,4.122 0.39,4.122 L 0.337,4.12 C 0.338,4.12 -0.469,4.029 -1.24,3.698 -1.465,3.601 -1.691,3.489 -1.768,3.271 -1.793,3.201 -1.803,3.1 -1.657,2.946 -1.343,2.613 -1.426,2.308 -1.553,1.845 L -1.581,1.746 -1.739,1.042 -2.472,-2.218 C -2.534,-2.49 -2.7,-2.655 -2.838,-2.767 c -0.407,-0.33 -0.291,-0.542 -0.253,-0.611 0.057,-0.106 0.198,-0.156 0.43,-0.156 l 1.97,0 c 0.186,0 0.351,0.008 0.481,0.092 0.11,0.074 0.193,0.222 0.205,0.371 0.007,0.077 -0.003,0.185 -0.087,0.264 -0.026,0.026 -0.058,0.05 -0.087,0.072 -0.075,0.06 -0.161,0.127 -0.217,0.23 -0.089,0.167 -0.068,0.36 -0.049,0.516 0.021,0.183 0.052,0.338 0.082,0.494 l 0.245,1.105 c 0.022,0.074 0.042,0.148 0.065,0.221 L 0,0 Z" />
          </g>
          <g
             style="fill:#004b8d;fill-opacity:1"
             transform="translate(69.1786,647.7698)"
             id="g5910">
            <path
               inkscape:connector-curvature="0"
               id="path5912"
               style="fill:#004b8d;fill-opacity:1;fill-rule:nonzero;stroke:none"
               d="m 0,0 -0.052,0 0,0.001 L -0.057,0 -2.565,0 -2.492,0.178 c 0.344,0.848 0.963,1.863 1.963,1.863 0.737,0 1.16,-0.53 1.19,-1.491 L 0.656,0.501 C 0.652,0.428 0.633,0.353 0.598,0.272 0.528,0.116 0.368,0.017 0.167,0.004 L 0.13,0 c 0,0 -0.012,-0.002 -0.024,-0.002 L 0.061,0 0,0 Z m -2.09,-4.906 c 1.582,0 3.209,1.036 4.048,2.575 0.031,0.054 0.1,0.214 0.068,0.327 C 2.012,-1.96 1.985,-1.927 1.939,-1.9 1.762,-1.804 1.582,-1.99 1.536,-2.058 c -1.243,-1.63 -2.367,-2.193 -3.512,-1.773 -1.564,0.575 -0.872,2.896 -0.842,2.995 l 0.028,0.091 5.303,0 C 2.567,-0.444 2.591,-0.151 2.584,0.126 2.543,1.794 1.408,2.961 -0.173,2.961 -1.246,2.961 -2.292,2.554 -3.118,1.814 -3.949,1.127 -4.59,0.1 -4.881,-1.007 c -0.232,-1.204 -0.037,-2.234 0.569,-2.97 0.444,-0.619 1.19,-0.929 2.222,-0.929" />
          </g>
          <g
             style="fill:#004b8d;fill-opacity:1"
             transform="translate(98.9068,646.137)"
             id="g5914">
            <path
               inkscape:connector-curvature="0"
               id="path5916"
               style="fill:#004b8d;fill-opacity:1;fill-rule:nonzero;stroke:none"
               d="m 0,0 c -0.109,0 -0.206,0.014 -0.289,0.042 -0.334,0.121 -0.538,0.353 -0.608,0.694 -0.159,0.533 0.069,2.072 0.583,2.693 0.171,0.201 0.339,0.359 0.601,0.479 0.134,0.053 0.287,0.088 0.436,0.099 0.039,0.003 0.079,0.005 0.122,0.005 0.213,0 0.394,-0.045 0.536,-0.136 C 1.684,3.66 1.812,3.358 1.818,2.863 1.835,2.459 1.644,0.837 0.852,0.266 0.672,0.127 0.387,0.026 0.109,0.004 0.072,0.001 0.037,0 0,0 m -0.837,-4.985 c -0.29,0 -0.689,0.025 -0.94,0.145 -0.289,0.157 -0.423,0.375 -0.431,0.689 0.01,0.288 0.172,0.585 0.422,0.788 0.029,0.022 0.116,0.09 0.617,0.13 0.252,0.021 0.58,0.03 0.949,0.03 0.701,0 1.487,-0.039 1.68,-0.084 0.257,-0.06 0.51,-0.146 0.535,-0.468 C 2.015,-4.002 1.761,-4.321 1.374,-4.532 1.009,-4.74 0.319,-4.912 -0.385,-4.968 -0.543,-4.98 -0.694,-4.985 -0.837,-4.985 M 1.16,4.8 C 1.024,4.799 0.915,4.795 0.806,4.786 -0.05,4.718 -1.247,4.369 -2.089,3.094 -2.626,2.255 -2.992,0.566 -2.071,-0.393 l 0.115,-0.121 -0.145,-0.082 c -0.705,-0.397 -1.111,-0.781 -1.277,-1.211 -0.201,-0.523 0.067,-1.08 0.427,-1.294 l 0.163,-0.096 -0.148,-0.116 c -0.896,-0.708 -0.707,-1.529 -0.558,-1.786 0.286,-0.52 0.904,-0.782 1.835,-0.782 0.145,0 0.288,0.006 0.424,0.017 0.135,0.012 0.246,0.025 0.32,0.033 l 0.097,0.014 c 0.826,0.111 3.337,0.449 4.15,1.889 0.271,0.487 0.326,1.23 0.117,1.591 -0.502,0.854 -1.562,0.821 -2.448,0.809 l -1.588,-0.037 c -0.528,0 -0.767,0.083 -0.802,0.28 -0.031,0.188 0.104,0.371 0.315,0.424 0.228,0.01 0.424,0.019 0.61,0.035 1.339,0.106 2.044,0.45 2.399,0.721 C 3.077,0.711 3.597,2.101 3.523,3.059 3.53,3.299 3.499,3.431 3.461,3.598 L 3.443,3.674 3.498,3.737 c 0.1,0.088 0.201,0.172 0.336,0.239 0.045,0.025 0.099,0.042 0.158,0.046 L 4.027,4.024 C 4.206,4.024 4.382,3.921 4.524,3.839 4.567,3.814 4.607,3.791 4.643,3.773 4.789,3.706 4.934,3.677 5.074,3.689 5.336,3.708 5.539,3.876 5.617,4.022 5.768,4.283 5.738,4.528 5.706,4.65 5.646,4.912 5.295,5.179 5.046,5.227 4.818,5.284 4.624,5.3 4.433,5.286 3.89,5.244 3.459,4.93 2.94,4.439 L 2.875,4.377 2.796,4.415 C 2.24,4.678 1.72,4.8 1.16,4.8" />
          </g>
          <g
             style="fill:#004b8d;fill-opacity:1"
             transform="translate(56.7091,648.3475)"
             id="g5918">
            <path
               inkscape:connector-curvature="0"
               id="path5920"
               style="fill:#004b8d;fill-opacity:1;fill-rule:nonzero;stroke:none"
               d="M 0,0 4.308,0 3.594,-3.415 C 3.56,-3.58 3.512,-3.774 3.422,-3.944 3.336,-4.11 3.202,-4.232 3.081,-4.329 L 2.96,-4.423 C 2.918,-4.453 2.877,-4.485 2.837,-4.518 2.425,-4.855 2.542,-5.07 2.58,-5.14 2.638,-5.247 2.781,-5.299 3.019,-5.299 l 2.474,0 c 0.067,0 0.136,0.004 0.203,0.014 0.091,0.013 0.183,0.047 0.268,0.097 0.117,0.072 0.21,0.227 0.212,0.354 0.002,0.123 -0.06,0.25 -0.193,0.395 -0.114,0.125 -0.248,0.296 -0.276,0.527 -0.025,0.186 0.025,0.405 0.069,0.599 L 5.827,-3.092 7.442,4.64 C 7.477,4.805 7.525,4.998 7.614,5.171 7.701,5.337 7.835,5.458 7.956,5.554 L 8.08,5.65 C 8.12,5.682 8.16,5.712 8.2,5.742 8.611,6.081 8.494,6.295 8.457,6.367 8.399,6.473 8.255,6.525 8.017,6.525 l -2.473,0 C 5.477,6.525 5.408,6.521 5.34,6.511 5.249,6.497 5.157,6.464 5.074,6.412 4.956,6.342 4.862,6.186 4.86,6.061 4.859,5.938 4.922,5.809 5.054,5.664 5.168,5.54 5.303,5.367 5.331,5.137 5.355,4.952 5.303,4.722 5.261,4.539 L 5.21,4.318 4.579,1.297 0.271,1.297 0.972,4.64 C 1.006,4.805 1.054,4.998 1.143,5.171 1.23,5.337 1.364,5.458 1.484,5.554 L 1.606,5.649 C 1.648,5.68 1.688,5.711 1.728,5.742 2.141,6.08 2.024,6.295 1.986,6.367 1.927,6.473 1.784,6.525 1.547,6.525 l -2.474,0 C -0.995,6.525 -1.065,6.521 -1.131,6.511 -1.222,6.497 -1.315,6.464 -1.398,6.412 -1.515,6.34 -1.609,6.186 -1.611,6.061 -1.613,5.937 -1.551,5.81 -1.417,5.664 -1.303,5.54 -1.169,5.368 -1.14,5.137 -1.117,4.952 -1.167,4.733 -1.21,4.539 L -1.261,4.319 -2.879,-3.415 C -2.913,-3.579 -2.961,-3.771 -3.051,-3.944 -3.136,-4.11 -3.272,-4.232 -3.392,-4.329 l -0.122,-0.095 c -0.041,-0.031 -0.082,-0.061 -0.122,-0.094 -0.413,-0.337 -0.295,-0.552 -0.256,-0.622 0.057,-0.107 0.201,-0.159 0.438,-0.159 l 2.474,0 c 0.067,0 0.136,0.004 0.203,0.014 0.092,0.013 0.183,0.047 0.267,0.097 0.118,0.072 0.211,0.227 0.213,0.354 0.002,0.123 -0.059,0.25 -0.193,0.395 -0.114,0.125 -0.249,0.298 -0.277,0.527 -0.024,0.186 0.026,0.405 0.07,0.599 L -0.646,-3.092 0,0 Z" />
          </g>
          <g
             style="fill:#004b8d;fill-opacity:1"
             transform="translate(108.6611,647.9836)"
             id="g5922">
            <path
               inkscape:connector-curvature="0"
               id="path5924"
               style="fill:#004b8d;fill-opacity:1;fill-rule:nonzero;stroke:none"
               d="m 0,0 -0.052,0.001 0,0.001 -0.007,-0.001 -2.506,0 0.072,0.177 c 0.343,0.849 0.963,1.863 1.964,1.863 0.737,0 1.159,-0.529 1.189,-1.49 L 0.656,0.5 C 0.651,0.428 0.632,0.353 0.597,0.273 0.527,0.117 0.366,0.017 0.167,0.005 L 0.13,0.001 C 0.13,0 0.117,0 0.105,0 L 0.059,0.001 0,0 Z m -2.09,-4.905 c 1.582,0 3.209,1.037 4.047,2.575 0.03,0.054 0.1,0.213 0.068,0.326 C 2.012,-1.959 1.984,-1.926 1.938,-1.9 1.762,-1.803 1.58,-1.989 1.536,-2.056 0.292,-3.687 -0.831,-4.251 -1.976,-3.83 c -1.564,0.575 -0.873,2.895 -0.843,2.994 l 0.027,0.092 5.304,0 c 0.054,0.303 0.077,0.594 0.07,0.87 -0.04,1.67 -1.174,2.835 -2.756,2.835 -1.073,0 -2.119,-0.407 -2.944,-1.146 C -3.95,1.127 -4.591,0.1 -4.883,-1.006 c -0.232,-1.204 -0.035,-2.234 0.569,-2.97 0.445,-0.619 1.191,-0.929 2.224,-0.929" />
          </g>
          <g
             style="fill:#004b8d;fill-opacity:1"
             transform="translate(90.3361,643.8694)"
             id="g5926">
            <path
               inkscape:connector-curvature="0"
               id="path5928"
               style="fill:#004b8d;fill-opacity:1;fill-rule:nonzero;stroke:none"
               d="m 0,0 c -0.225,0 -0.414,0.089 -0.547,0.255 -0.19,0.24 -0.245,0.636 -0.146,1.059 0.302,1.359 1.49,1.98 2.467,1.98 l 0.342,0 L 1.996,2.641 1.998,2.614 1.978,2.505 C 1.842,1.894 1.736,1.409 1.357,0.858 1.123,0.535 0.637,0 0,0 M 1.61,0.237 1.587,0.063 C 1.535,-0.372 1.555,-0.594 1.649,-0.703 1.719,-0.781 1.854,-0.819 2.075,-0.819 l 1.232,0 c 0.185,0 0.352,0.008 0.479,0.094 0.112,0.073 0.195,0.222 0.207,0.37 C 4.001,-0.278 3.99,-0.171 3.907,-0.09 3.879,-0.064 3.85,-0.041 3.82,-0.019 3.744,0.041 3.659,0.109 3.602,0.212 3.513,0.379 3.534,0.573 3.553,0.728 3.574,0.908 3.603,1.06 3.634,1.214 l 0.018,0.097 0.57,2.558 C 4.468,5.05 4.317,5.749 3.697,6.277 3.127,6.771 2.188,6.846 1.68,6.846 0.939,6.846 -1.039,6.62 -1.292,5.592 -1.322,5.41 -1.294,5.259 -1.204,5.154 -1.108,5.04 -0.936,4.975 -0.732,4.975 c 0.376,0 0.646,0.232 0.931,0.481 0.308,0.267 0.626,0.545 1.099,0.545 0.366,0 0.646,-0.118 0.831,-0.35 0.248,-0.31 0.303,-0.807 0.16,-1.437 L 2.268,4.124 2.176,4.115 1.68,4.113 C 1.295,4.113 -2.094,4.032 -2.662,1.308 -2.863,0.337 -2.758,-0.975 -0.923,-1.02 0.915,-1.065 1.61,0.237 1.61,0.237" />
          </g>
          <g
             style="fill:#004b8d;fill-opacity:1"
             transform="translate(119.7437,648.3783)"
             id="g5930">
            <path
               inkscape:connector-curvature="0"
               id="path5932"
               style="fill:#004b8d;fill-opacity:1;fill-rule:evenodd;stroke:none"
               d="M 0,0 Z" />
          </g>
          <g
             style="fill:#004b8d;fill-opacity:1"
             transform="translate(128.3491,646.9466)"
             id="g5934">
            <path
               inkscape:connector-curvature="0"
               id="path5936"
               style="fill:#004b8d;fill-opacity:1;fill-rule:evenodd;stroke:none"
               d="M 0,0 Z" />
          </g>
          <g
             style="fill:#004b8d;fill-opacity:1"
             transform="translate(126.1692,643.6824)"
             id="g5938">
            <path
               inkscape:connector-curvature="0"
               id="path5940"
               style="fill:#004b8d;fill-opacity:1;fill-rule:nonzero;stroke:none"
               d="m 0,0 c -0.366,0 -0.655,0.128 -0.857,0.375 -0.391,0.484 -0.441,1.431 -0.147,2.818 0.168,0.69 0.822,2.936 2.307,2.936 0.374,0 0.667,-0.135 0.871,-0.4 C 2.726,5.013 2.414,3.597 2.305,3.18 1.814,1.071 1.037,0 0,0 M 1.658,7.049 C 0.586,7.049 -0.459,6.641 -1.287,5.903 -2.118,5.213 -2.76,4.185 -3.052,3.081 -3.284,1.877 -3.088,0.846 -2.483,0.112 c 0.445,-0.62 1.191,-0.93 2.224,-0.93 1.793,0 4.004,1.388 4.563,3.96 C 4.557,4.289 4.372,5.324 3.781,6.061 3.279,6.689 2.505,7.049 1.658,7.049" />
          </g>
          <g
             style="fill:#004b8d;fill-opacity:1"
             transform="translate(174.1592,643.7369)"
             id="g5942">
            <path
               inkscape:connector-curvature="0"
               id="path5944"
               style="fill:#004b8d;fill-opacity:1;fill-rule:evenodd;stroke:none"
               d="M 0,0 Z M 4.929,3.236 Z" />
          </g>
          <g
             style="fill:#004b8d;fill-opacity:1"
             transform="translate(176.9304,643.6824)"
             id="g5946">
            <path
               inkscape:connector-curvature="0"
               id="path5948"
               style="fill:#004b8d;fill-opacity:1;fill-rule:nonzero;stroke:none"
               d="M 0,0 C -0.349,0 -0.626,0.124 -0.819,0.366 -1.31,0.98 -1.152,2.257 -0.932,3.22 -0.645,4.625 0.094,6.129 1.302,6.129 1.652,6.129 1.931,6 2.13,5.75 2.677,5.05 2.385,3.628 2.283,3.209 2.004,1.749 1.381,0 0,0 M 1.611,7.049 C 0.512,7.049 -0.494,6.653 -1.383,5.877 -2.246,5.166 -2.894,4.114 -3.117,3.062 -3.392,1.899 -3.218,0.861 -2.622,0.138 c 0.506,-0.646 1.262,-0.956 2.314,-0.956 1.861,0 4.123,1.49 4.682,3.985 C 4.612,4.288 4.423,5.305 3.836,6.032 3.314,6.677 2.502,7.049 1.611,7.049" />
          </g>
          <g
             style="fill:#004b8d;fill-opacity:1"
             transform="translate(138.0183,646.1126)"
             id="g5950">
            <path
               inkscape:connector-curvature="0"
               id="path5952"
               style="fill:#004b8d;fill-opacity:1;fill-rule:nonzero;stroke:none"
               d="M 0,0 0.16,0.711 C 0.405,1.797 0.766,3.401 0.77,3.42 0.951,4.239 0.923,4.337 0.843,4.478 0.787,4.575 0.678,4.614 0.476,4.606 c 0,0 -0.806,-0.093 -1.575,-0.423 C -1.325,4.085 -1.551,3.973 -1.63,3.755 -1.654,3.686 -1.662,3.585 -1.519,3.431 -1.245,3.142 -1.302,2.889 -1.377,2.54 -1.397,2.452 -1.418,2.355 -1.438,2.243 L -1.984,-0.27 c -0.098,-0.417 -0.248,-0.939 -0.55,-1.288 -0.313,-0.357 -0.82,-0.596 -1.258,-0.596 -0.269,0 -0.475,0.081 -0.609,0.242 -0.292,0.349 -0.182,0.972 -0.077,1.575 l 0.014,0.067 c 0.001,0.005 0.824,3.663 0.83,3.69 0.181,0.819 0.152,0.917 0.073,1.058 -0.056,0.097 -0.165,0.136 -0.366,0.128 0,0 -0.808,-0.093 -1.577,-0.423 C -5.728,4.085 -5.956,3.973 -6.033,3.755 -6.058,3.686 -6.067,3.585 -5.921,3.431 -5.607,3.098 -5.69,2.792 -5.819,2.331 L -5.845,2.232 C -6.287,0.21 -6.404,-0.32 -6.444,-0.47 l 0.008,-0.002 c -0.04,-0.184 -0.077,-0.367 -0.102,-0.554 -0.053,-0.372 -0.064,-0.675 -0.034,-0.954 0.044,-0.409 0.224,-0.748 0.505,-0.958 0.261,-0.191 0.67,-0.311 1.068,-0.311 0.894,0 1.692,0.371 2.515,1.165 l 0.264,0.258 -0.045,-0.366 C -2.319,-2.603 -2.3,-2.825 -2.205,-2.933 -2.134,-3.012 -2,-3.05 -1.78,-3.05 l 1.233,0 c 0.186,0 0.351,0.008 0.48,0.093 0.11,0.073 0.193,0.223 0.205,0.37 0.009,0.077 -0.002,0.187 -0.086,0.266 -0.028,0.025 -0.057,0.05 -0.086,0.072 -0.078,0.06 -0.162,0.126 -0.219,0.23 -0.089,0.167 -0.067,0.359 -0.049,0.514 0.021,0.18 0.049,0.332 0.082,0.485 l 0.163,0.755 -0.002,0.001 L 0,0" />
          </g>
        </g>
      </g>
      <g
         style="fill:#004b8d;fill-opacity:1"
         transform="matrix(1.25,0,0,-1.25,4.6428571,979.50506)"
         id="g5954">
        <g
           style="fill:#004b8d;fill-opacity:1"
           clip-path="url(#clipPath5958)"
           id="g5956">
          <g
             style="fill:#004b8d;fill-opacity:1"
             transform="translate(144.4682,649.6261)"
             id="g5962">
            <path
               inkscape:connector-curvature="0"
               id="path5964"
               style="fill:#004b8d;fill-opacity:1;fill-rule:nonzero;stroke:none"
               d="M 0,0 C 0.27,0 0.475,-0.082 0.609,-0.241 0.901,-0.592 0.791,-1.216 0.684,-1.819 L 0.673,-1.885 -0.085,-5.246 c -0.061,-0.267 -0.218,-0.427 -0.366,-0.549 -0.406,-0.33 -0.291,-0.542 -0.253,-0.611 0.059,-0.105 0.198,-0.157 0.431,-0.157 l 1.969,0 c 0.186,0 0.351,0.008 0.481,0.093 0.11,0.073 0.192,0.222 0.205,0.369 0.007,0.078 -0.002,0.187 -0.086,0.266 -0.028,0.026 -0.058,0.049 -0.086,0.073 -0.077,0.058 -0.163,0.126 -0.219,0.229 -0.089,0.167 -0.065,0.36 -0.049,0.515 0.021,0.182 0.053,0.338 0.082,0.493 l 0.028,0.133 c 0.442,2.027 0.558,2.557 0.599,2.706 l -0.008,0.002 c 0.04,0.184 0.076,0.369 0.102,0.555 0.054,0.372 0.064,0.674 0.033,0.952 C 2.734,0.234 2.554,0.574 2.274,0.782 2.015,0.973 1.605,1.094 1.206,1.094 c -0.822,0 -1.557,-0.31 -2.309,-0.978 l -0.288,-0.251 0.076,0.373 c 0.101,0.52 0.068,0.61 0.002,0.727 -0.051,0.089 -0.148,0.129 -0.315,0.129 l -0.05,-0.002 c 0,0 -0.806,-0.092 -1.576,-0.423 -0.226,-0.098 -0.453,-0.208 -0.529,-0.427 -0.025,-0.07 -0.035,-0.17 0.109,-0.325 0.317,-0.333 0.232,-0.637 0.106,-1.099 l -0.03,-0.1 -0.154,-0.7 -0.735,-3.264 c -0.061,-0.271 -0.229,-0.435 -0.365,-0.55 -0.408,-0.329 -0.292,-0.541 -0.256,-0.61 0.059,-0.105 0.198,-0.157 0.432,-0.157 l 1.971,0 c 0.184,0 0.35,0.008 0.478,0.093 0.11,0.073 0.194,0.222 0.206,0.369 0.007,0.078 -0.002,0.187 -0.086,0.266 -0.027,0.026 -0.058,0.05 -0.087,0.073 -0.076,0.059 -0.161,0.126 -0.218,0.229 -0.089,0.167 -0.068,0.361 -0.049,0.517 0.02,0.179 0.051,0.332 0.08,0.485 l 0.187,0.84 0.506,2.254 c 0.118,0.371 0.257,0.643 0.428,0.84 C -0.946,-0.24 -0.44,0 0,0" />
          </g>
          <g
             style="fill:#004b8d;fill-opacity:1"
             transform="translate(186.3466,649.6261)"
             id="g5966">
            <path
               inkscape:connector-curvature="0"
               id="path5968"
               style="fill:#004b8d;fill-opacity:1;fill-rule:nonzero;stroke:none"
               d="M 0,0 C 0.27,0 0.474,-0.082 0.608,-0.243 0.902,-0.592 0.789,-1.217 0.684,-1.82 L 0.672,-1.885 -0.084,-5.246 c -0.06,-0.265 -0.219,-0.427 -0.367,-0.549 -0.405,-0.33 -0.292,-0.542 -0.252,-0.611 0.056,-0.105 0.197,-0.157 0.43,-0.157 l 1.969,0 c 0.186,0 0.351,0.008 0.48,0.093 0.111,0.073 0.193,0.222 0.206,0.369 0.008,0.078 -0.003,0.187 -0.087,0.266 -0.028,0.026 -0.056,0.049 -0.086,0.073 -0.075,0.058 -0.162,0.126 -0.218,0.229 -0.089,0.167 -0.066,0.36 -0.048,0.515 0.02,0.18 0.048,0.333 0.08,0.485 l 0.027,0.141 c 0.425,1.944 0.552,2.523 0.608,2.706 l -0.016,0.002 c 0.041,0.184 0.078,0.369 0.104,0.555 0.052,0.373 0.062,0.674 0.032,0.952 -0.044,0.411 -0.223,0.751 -0.504,0.959 -0.26,0.191 -0.67,0.312 -1.069,0.312 -0.821,0 -1.557,-0.31 -2.309,-0.978 l -0.286,-0.251 0.074,0.373 c 0.101,0.521 0.069,0.611 0.003,0.727 -0.052,0.089 -0.148,0.129 -0.317,0.129 L -1.678,1.092 C -1.677,1.092 -2.485,1 -3.254,0.669 -3.48,0.571 -3.705,0.459 -3.784,0.242 c -0.024,-0.07 -0.035,-0.17 0.11,-0.324 0.316,-0.334 0.232,-0.639 0.103,-1.103 l -0.026,-0.097 -0.156,-0.7 -0.735,-3.264 c -0.061,-0.271 -0.227,-0.435 -0.366,-0.55 -0.269,-0.218 -0.355,-0.424 -0.253,-0.61 0.056,-0.105 0.199,-0.157 0.43,-0.157 l 1.97,0 c 0.185,0 0.35,0.008 0.48,0.093 0.109,0.073 0.193,0.222 0.206,0.369 0.007,0.078 -0.003,0.187 -0.087,0.266 -0.026,0.026 -0.056,0.05 -0.087,0.073 -0.075,0.059 -0.162,0.126 -0.217,0.229 -0.09,0.169 -0.066,0.363 -0.048,0.518 0.019,0.178 0.05,0.331 0.08,0.486 l 0.185,0.838 0.508,2.254 c 0.116,0.371 0.256,0.643 0.427,0.84 C -0.946,-0.24 -0.441,0 0,0" />
          </g>
        </g>
      </g>
      <g
         style="fill:#004b8d;fill-opacity:1"
         clip-path="url(#clipPath5974)"
         id="g5972"
         transform="matrix(1.25,0,0,-1.25,4.6428571,979.50506)">
        <g
           style="fill:#004b8d;fill-opacity:1"
           transform="translate(172.8339,654.313)"
           id="g5978">
          <path
             inkscape:connector-curvature="0"
             id="path5980"
             style="fill:#004b8d;fill-opacity:1;fill-rule:nonzero;stroke:none"
             d="m 0,0 c -0.599,0 -1.337,-0.443 -1.521,-1.262 -0.054,-0.303 0.007,-0.57 0.173,-0.771 0.174,-0.209 0.455,-0.329 0.766,-0.329 0.523,0 1.342,0.42 1.521,1.209 0.075,0.329 0.026,0.613 -0.137,0.818 C 0.631,-0.122 0.338,0 0,0" />
        </g>
        <g
           style="fill:#004b8d;fill-opacity:1"
           transform="translate(170.6648,647.6444)"
           id="g5982">
          <path
             inkscape:connector-curvature="0"
             id="path5984"
             style="fill:#004b8d;fill-opacity:1;fill-rule:nonzero;stroke:none"
             d="M 0,0 -0.736,-3.264 C -0.798,-3.535 -0.964,-3.7 -1.1,-3.815 c -0.408,-0.329 -0.292,-0.54 -0.255,-0.61 0.058,-0.105 0.197,-0.157 0.432,-0.157 l 1.968,0 c 0.187,0 0.351,0.008 0.481,0.093 0.11,0.073 0.193,0.223 0.206,0.37 0.006,0.078 -0.003,0.187 -0.087,0.266 -0.027,0.026 -0.058,0.049 -0.088,0.072 -0.075,0.059 -0.161,0.126 -0.217,0.231 -0.089,0.167 -0.064,0.36 -0.047,0.516 0.019,0.179 0.049,0.332 0.079,0.487 l 0.185,0.838 0.88,3.933 C 2.537,2.739 2.505,2.83 2.44,2.947 2.388,3.035 2.292,3.075 2.125,3.075 L 2.073,3.074 c 0,0 -0.805,-0.092 -1.576,-0.423 C 0.272,2.553 0.046,2.441 -0.031,2.224 -0.057,2.154 -0.067,2.053 0.08,1.9 0.394,1.566 0.311,1.26 0.183,0.797 L 0.156,0.7 0,0 Z" />
        </g>
        <g
           style="fill:#004b8d;fill-opacity:1"
           transform="translate(151.549,643.8843)"
           id="g5986">
          <path
             inkscape:connector-curvature="0"
             id="path5988"
             style="fill:#004b8d;fill-opacity:1;fill-rule:nonzero;stroke:none"
             d="m 0,0 c -0.343,0 -0.615,0.122 -0.81,0.36 -0.505,0.621 -0.337,1.883 -0.192,2.581 0.225,0.902 0.901,2.99 2.322,2.99 0.421,0 0.773,-0.215 0.943,-0.575 C 2.421,4.931 2.364,4.541 2.274,4.071 2.258,3.966 1.837,1.401 1.328,0.729 0.983,0.383 0.533,0 0,0 m 1.225,6.953 c -1.891,0 -3.723,-1.791 -4.263,-4.166 -0.264,-1.234 -0.087,-2.351 0.485,-3.057 0.396,-0.491 0.961,-0.75 1.629,-0.75 0.955,0 1.657,0.373 2.205,1.173 L 1.517,0.496 1.516,0.039 C 1.464,-0.372 1.483,-0.594 1.577,-0.704 1.646,-0.781 1.782,-0.818 2.001,-0.818 l 1.234,0 c 0.188,0 0.352,0.006 0.479,0.091 0.111,0.074 0.194,0.223 0.208,0.372 C 3.928,-0.279 3.92,-0.169 3.834,-0.09 3.808,-0.064 3.777,-0.041 3.747,-0.018 3.67,0.041 3.587,0.107 3.53,0.213 3.442,0.379 3.465,0.572 3.481,0.727 3.502,0.909 3.532,1.066 3.562,1.221 l 0.019,0.09 0.617,2.764 C 4.556,5.667 4.556,5.667 4.562,5.682 L 4.855,7.064 4.86,7.062 5.256,8.817 c 0.161,0.72 0.299,1.33 0.301,1.342 0.18,0.82 0.154,0.916 0.072,1.057 -0.049,0.09 -0.146,0.129 -0.313,0.129 L 5.264,11.344 c 0,0 -0.807,-0.092 -1.577,-0.422 C 3.463,10.825 3.236,10.713 3.16,10.494 3.136,10.424 3.125,10.323 3.269,10.171 3.542,9.882 3.486,9.628 3.409,9.278 3.391,9.192 3.369,9.093 3.35,8.982 L 2.748,6.306 2.587,6.426 C 2.151,6.751 1.772,6.953 1.225,6.953" />
        </g>
        <g
           style="fill:#004b8d;fill-opacity:1"
           transform="translate(165.7899,650.6038)"
           id="g5990">
          <path
             inkscape:connector-curvature="0"
             id="path5992"
             style="fill:#004b8d;fill-opacity:1;fill-rule:nonzero;stroke:none"
             d="m 0,0 c -0.369,0 -0.612,-0.082 -0.683,-0.493 -0.041,-0.194 -0.033,-0.326 0.024,-0.398 0.087,-0.106 0.312,-0.106 0.51,-0.106 l 0.548,0 -1.201,-5.689 c -0.053,-0.405 -0.035,-0.628 0.061,-0.737 0.07,-0.078 0.205,-0.115 0.426,-0.115 l 1.318,0 c 0.186,0 0.353,0.006 0.48,0.092 0.112,0.074 0.196,0.223 0.208,0.372 0.007,0.076 -0.004,0.185 -0.088,0.264 -0.027,0.026 -0.057,0.05 -0.087,0.073 -0.076,0.058 -0.16,0.125 -0.216,0.23 -0.089,0.166 -0.067,0.359 -0.05,0.514 l 0.006,0.035 0.132,0.706 0.922,4.255 0.908,0 c 0.37,0 0.612,0.084 0.682,0.495 0.042,0.195 0.036,0.326 -0.024,0.396 C 3.792,0 3.565,0 3.367,0 L 2.529,0 2.877,1.573 C 3.052,2.393 3.026,2.49 2.946,2.631 2.897,2.721 2.805,2.76 2.642,2.76 L 2.593,2.759 C 2.583,2.757 2.371,2.74 1.648,2.423 1.513,2.364 1.347,2.291 1.244,2.175 1.153,2.07 1.118,1.926 1.088,1.773 1.045,1.543 0.998,1.312 0.951,1.08 0.896,0.811 0.843,0.54 0.79,0.27 L 0.738,0 0,0 Z" />
        </g>
        <g
           style="fill:#004b8d;fill-opacity:1"
           transform="translate(116.7178,654.9699)"
           id="g5994">
          <path
             inkscape:connector-curvature="0"
             id="path5996"
             style="fill:#004b8d;fill-opacity:1;fill-rule:nonzero;stroke:none"
             d="m 0,0 c -0.238,0 -0.382,-0.051 -0.438,-0.158 -0.038,-0.07 -0.156,-0.287 0.255,-0.624 0.04,-0.031 0.08,-0.061 0.12,-0.092 L 0.09,-0.993 c 0.121,-0.094 0.267,-0.21 0.306,-0.402 0.032,-0.157 0.017,-0.229 -0.018,-0.399 l -0.03,-0.141 -1.693,-8.108 c -0.036,-0.166 -0.084,-0.358 -0.174,-0.531 -0.085,-0.166 -0.22,-0.287 -0.341,-0.384 l -0.122,-0.096 c -0.042,-0.03 -0.082,-0.061 -0.122,-0.093 -0.411,-0.338 -0.294,-0.553 -0.256,-0.623 0.057,-0.107 0.202,-0.158 0.438,-0.158 l 2.475,0 c 0.067,0 0.136,0.004 0.204,0.014 0.091,0.013 0.183,0.047 0.267,0.096 0.117,0.072 0.21,0.229 0.212,0.354 0.002,0.123 -0.062,0.252 -0.193,0.397 -0.114,0.124 -0.248,0.296 -0.278,0.525 -0.023,0.187 0.029,0.416 0.071,0.6 l 0.026,0.118 0.73,3.425 2.714,0 c 0.13,0 0.245,-0.011 0.35,-0.034 0.149,-0.035 0.276,-0.096 0.385,-0.19 0.04,-0.033 0.077,-0.07 0.116,-0.109 0.111,-0.107 0.215,-0.21 0.341,-0.21 0.186,0.02 0.296,0.167 0.343,0.288 0.179,0.465 0.289,1.141 0.349,1.626 0.02,0.147 0.008,0.261 -0.029,0.356 C 6.115,-4.551 5.984,-4.535 5.899,-4.56 5.795,-4.592 5.707,-4.667 5.61,-4.746 5.532,-4.811 5.454,-4.877 5.359,-4.927 5.142,-5.043 4.882,-5.102 4.59,-5.102 l -2.767,0 0.886,3.856 3.059,-0.001 c 0.274,0 0.526,-0.013 0.758,-0.038 0.256,-0.028 0.482,-0.082 0.71,-0.167 0.39,-0.145 0.65,-0.365 0.842,-0.713 l 0.076,-0.143 c 0.056,-0.111 0.157,-0.316 0.325,-0.321 0.096,0 0.195,0.063 0.237,0.146 0.131,0.288 0.279,1.018 0.344,1.556 l 0.018,0.153 C 9.105,-0.55 9.059,-0.374 8.947,-0.248 8.731,-0.006 8.323,0 8.275,0 L 2.474,0 0,0 Z" />
        </g>
        <g
           style="fill:#004b8d;fill-opacity:1"
           transform="translate(159.4417,643.8694)"
           id="g5998">
          <path
             inkscape:connector-curvature="0"
             id="path6000"
             style="fill:#004b8d;fill-opacity:1;fill-rule:nonzero;stroke:none"
             d="m 0,0 c -0.225,0 -0.415,0.089 -0.547,0.255 -0.192,0.24 -0.245,0.636 -0.146,1.059 0.301,1.359 1.489,1.98 2.465,1.98 l 0.344,0 L 1.995,2.641 1.999,2.614 1.978,2.505 C 1.842,1.894 1.736,1.409 1.358,0.858 1.123,0.535 0.637,0 0,0 M 1.61,0.237 1.588,0.063 C 1.536,-0.372 1.554,-0.594 1.648,-0.703 1.719,-0.781 1.853,-0.819 2.075,-0.819 l 1.233,0 c 0.183,0 0.351,0.008 0.479,0.094 0.111,0.073 0.194,0.222 0.206,0.37 C 3.999,-0.278 3.99,-0.171 3.906,-0.09 3.878,-0.064 3.848,-0.041 3.819,-0.019 3.743,0.041 3.659,0.109 3.604,0.212 3.511,0.379 3.535,0.573 3.552,0.728 3.574,0.908 3.605,1.06 3.634,1.214 L 3.651,1.311 4.222,3.869 C 4.468,5.05 4.316,5.749 3.698,6.277 3.126,6.771 2.188,6.846 1.681,6.846 0.939,6.846 -1.041,6.62 -1.291,5.592 -1.322,5.41 -1.293,5.259 -1.203,5.154 c 0.095,-0.114 0.267,-0.179 0.47,-0.179 0.376,0 0.646,0.232 0.931,0.481 0.308,0.267 0.627,0.545 1.098,0.545 0.368,0 0.648,-0.118 0.834,-0.35 C 2.377,5.341 2.431,4.844 2.288,4.214 L 2.269,4.124 2.175,4.115 1.681,4.113 C 1.294,4.113 -2.095,4.032 -2.662,1.308 -2.864,0.337 -2.76,-0.975 -0.923,-1.02 0.917,-1.065 1.61,0.237 1.61,0.237" />
        </g>
      </g>
      <g
         style="fill:#004b8d;fill-opacity:1"
         transform="matrix(1.25,0,0,-1.25,4.6428571,979.50506)"
         id="g6002">
        <g
           style="fill:#004b8d;fill-opacity:1"
           clip-path="url(#clipPath6006)"
           id="g6004">
          <g
             style="fill:#004b8d;fill-opacity:1"
             transform="translate(59.4177,662.5897)"
             id="g6010">
            <path
               inkscape:connector-curvature="0"
               id="path6012"
               style="fill:#004b8d;fill-opacity:1;fill-rule:nonzero;stroke:none"
               d="m 0,0 -0.052,0.002 -0.006,-0.001 -2.507,0 0.072,0.177 c 0.345,0.85 0.965,1.863 1.964,1.863 0.737,0 1.16,-0.528 1.19,-1.49 L 0.657,0.506 C 0.652,0.431 0.633,0.352 0.597,0.273 0.528,0.118 0.368,0.017 0.167,0.005 L 0.13,0.001 C 0.13,0 0.117,0 0.106,0 L 0.061,0.001 0,0 Z m -2.09,-4.905 c 1.582,0 3.209,1.036 4.048,2.575 0.031,0.055 0.1,0.213 0.067,0.327 C 2.013,-1.959 1.985,-1.926 1.938,-1.9 1.762,-1.804 1.581,-1.988 1.536,-2.056 0.294,-3.687 -0.831,-4.251 -1.976,-3.83 c -1.564,0.575 -0.873,2.896 -0.843,2.995 l 0.029,0.091 5.303,0 c 0.054,0.302 0.078,0.594 0.071,0.87 -0.042,1.669 -1.175,2.835 -2.757,2.835 -1.073,0 -2.119,-0.406 -2.946,-1.146 -0.83,-0.688 -1.471,-1.715 -1.762,-2.821 -0.233,-1.204 -0.037,-2.234 0.568,-2.97 0.444,-0.619 1.19,-0.929 2.222,-0.929 l 0.001,0 z" />
          </g>
          <g
             style="fill:#004b8d;fill-opacity:1"
             transform="translate(49.7863,670.3129)"
             id="g6014">
            <path
               inkscape:connector-curvature="0"
               id="path6016"
               style="fill:#004b8d;fill-opacity:1;fill-rule:nonzero;stroke:none"
               d="m 0,0 c -0.104,0.023 -0.207,-0.041 -0.273,-0.117 -0.081,-0.095 -0.136,-0.212 -0.189,-0.324 -0.105,-0.218 -0.177,-0.347 -0.369,-0.499 -0.182,-0.145 -0.412,-0.182 -0.638,-0.182 -0.663,0 -1.369,0.067 -2.826,0.221 -1.92,0.221 -2.737,0.309 -4.393,0.309 -1.544,0 -2.693,-0.375 -3.62,-1.082 -0.927,-0.706 -1.478,-1.677 -1.478,-2.869 0,-0.317 0.047,-0.645 0.15,-0.946 0.091,-0.268 0.224,-0.524 0.408,-0.74 0.101,-0.12 0.217,-0.239 0.339,-0.337 0.145,-0.116 0.299,-0.228 0.476,-0.29 0.171,-0.061 0.363,-0.082 0.544,-0.067 0.155,0.013 0.321,0.038 0.459,0.113 0.071,0.039 0.147,0.098 0.196,0.163 0.093,0.121 0.146,0.305 0.121,0.455 -0.027,0.158 -0.12,0.298 -0.217,0.422 -0.054,0.07 -0.112,0.136 -0.171,0.201 -0.104,0.113 -0.214,0.228 -0.305,0.351 -0.095,0.129 -0.181,0.268 -0.252,0.41 -0.128,0.254 -0.212,0.529 -0.246,0.81 -0.015,0.119 -0.024,0.241 -0.024,0.36 0,1.236 0.729,1.898 2.649,1.898 0.948,0 1.727,-0.021 2.42,-0.084 -0.265,-1.457 -0.882,-4.353 -0.912,-4.497 -0.295,-1.41 -0.59,-2.817 -0.884,-4.227 -0.063,-0.305 -0.159,-0.591 -0.39,-0.81 -0.213,-0.201 -0.531,-0.345 -0.643,-0.629 -0.165,-0.418 0.354,-0.447 0.636,-0.447 l 2.293,0 c 0.298,0 0.755,0.15 0.68,0.538 -0.036,0.181 -0.182,0.301 -0.287,0.441 -0.136,0.179 -0.198,0.38 -0.179,0.605 0.022,0.258 0.099,0.51 0.152,0.763 0.14,0.668 0.279,1.335 0.418,2.003 0.339,1.621 0.863,4.441 1.211,6.12 l 0.275,-0.019 c 1.744,-0.154 2.605,-0.198 3.267,-0.198 0.247,0 0.503,0.023 0.739,0.099 0.322,0.105 0.581,0.291 0.761,0.579 0.148,0.237 0.23,0.511 0.279,0.785 C 0.216,-0.502 0.287,-0.063 0,0" />
          </g>
        </g>
      </g>
      <g
         style="fill:#004b8d;fill-opacity:1"
         transform="matrix(1.25,0,0,-1.25,4.6428571,979.50506)"
         id="g6018">
        <g
           style="fill:#004b8d;fill-opacity:1"
           clip-path="url(#clipPath6022)"
           id="g6020">
          <g
             style="fill:#004b8d;fill-opacity:1"
             transform="translate(55.2437,668.0327)"
             id="g6026">
            <path
               inkscape:connector-curvature="0"
               id="path6028"
               style="fill:#004b8d;fill-opacity:1;fill-rule:nonzero;stroke:none"
               d="M 0,0 C -0.191,0.392 -0.763,0.619 -1.241,0.737 -1.878,0.894 -2.5,0.898 -3.147,0.792 -4.446,0.578 -5.689,-0.253 -6.502,-1.275 -7.58,-2.632 -7.923,-4.432 -8.297,-6.087 c -0.152,-0.678 -0.305,-1.354 -0.457,-2.032 -0.05,-0.219 -0.099,-0.439 -0.149,-0.659 -0.02,-0.089 -0.043,-0.177 -0.084,-0.259 -0.124,-0.249 -0.383,-0.366 -0.525,-0.597 -0.211,-0.341 0.108,-0.521 0.42,-0.521 l 0.751,0 1.007,0 c 0.325,0 0.729,-0.037 0.859,0.338 0.104,0.302 -0.11,0.394 -0.285,0.584 -0.212,0.228 -0.144,0.567 -0.097,0.844 0.052,0.319 0.13,0.635 0.2,0.951 0.103,0.471 0.21,0.941 0.317,1.412 0.139,0.622 0.218,1.339 0.652,1.838 0.354,0.401 0.986,0.707 1.528,0.564 0.591,-0.156 0.558,-0.854 0.49,-1.335 -0.164,-1.17 -0.493,-2.326 -0.752,-3.477 -0.031,-0.134 -0.056,-0.269 -0.091,-0.402 -0.059,-0.267 -0.234,-0.428 -0.428,-0.603 -0.132,-0.119 -0.283,-0.299 -0.221,-0.49 0.083,-0.259 0.411,-0.224 0.633,-0.224 l 0.991,0 0.786,0 c 0.184,0 0.401,-0.003 0.546,0.129 0.22,0.2 0.207,0.493 -0.013,0.672 -0.439,0.337 -0.256,0.902 -0.159,1.369 0.12,0.55 0.24,1.1 0.361,1.65 0.101,0.46 0.212,0.926 0.296,1.376 0.105,0.567 0.186,1.248 -0.108,1.774 -0.289,0.518 -0.908,0.699 -1.469,0.686 -1.022,-0.024 -1.804,-0.592 -2.536,-1.245 0.297,1.306 0.832,2.709 2.03,3.445 0.713,0.439 1.553,0.508 2.346,0.261 0.362,-0.113 0.63,-0.31 0.999,-0.392 C -0.17,-0.495 0.096,-0.29 0,0" />
          </g>
        </g>
      </g>
    </g>
  </g>
</svg>
