<?xml version="1.0" encoding="utf-8"?>
<!-- Generator: Adobe Illustrator 16.0.0, SVG Export Plug-In . SVG Version: 6.00 Build 0)  -->
<!DOCTYPE svg PUBLIC "-//W3C//DTD SVG 1.1//EN" "http://www.w3.org/Graphics/SVG/1.1/DTD/svg11.dtd">
<svg version="1.1" id="Layer_1" xmlns="http://www.w3.org/2000/svg" xmlns:xlink="http://www.w3.org/1999/xlink" x="0px" y="0px"
	 width="153.334px" height="52.158px" viewBox="0 0 153.334 52.158" enable-background="new 0 0 153.334 52.158"
	 xml:space="preserve">
<g>
	<rect fill="none" width="153.334" height="52.158"/>
	<g>
		<path fill="#005495" d="M76.119,12.808v5.391h-9.561v25.881h-6.042V18.198h-9.56v-5.391H76.119z M78.688,44.079h6.044V28.442
			V12.808h-6.044v15.635V44.079z M115.97,44.079h-6.219l-3.215-7.695H95.942l-3.178,7.695h-6.08l13.322-31.69h2.643L115.97,44.079z
			 M145.255,44.079h-6.219l-3.215-7.695h-10.596l-3.178,7.695h-6.078l13.322-31.69h2.641L145.255,44.079z M104.464,31.275
			l-3.195-7.788l-3.219,7.788H104.464z M133.749,31.275l-3.195-7.788l-3.219,7.788H133.749z"/>
		<g>
			<path fill="#FFFFFF" d="M29.07,46.108c2.68,0,5.107-1.109,6.855-2.889l7.403-7.402c1.707-1.729,2.769-4.101,2.78-6.712V6.048
				H23.086c-2.679,0-5.107,1.109-6.855,2.889l-7.402,7.402c-1.708,1.729-2.769,4.101-2.78,6.712v23.058H29.07z"/>
			<linearGradient id="SVGID_1_" gradientUnits="userSpaceOnUse" x1="26.0718" y1="26.0854" x2="44.0774" y2="8.0798">
				<stop  offset="0.1" style="stop-color:#9DDCF9"/>
				<stop  offset="0.9" style="stop-color:#009EDB"/>
			</linearGradient>
			<path fill="url(#SVGID_1_)" d="M25.771,8.079c-4.178,0-7.565,3.379-7.584,7.552v2.568h15.776V33.97h2.531
				c4.189,0,7.584-3.396,7.584-7.582V8.079H25.771z"/>
			<linearGradient id="SVGID_2_" gradientUnits="userSpaceOnUse" x1="8.0791" y1="39.4512" x2="41.2759" y2="39.4512">
				<stop  offset="0" style="stop-color:#14B1E7"/>
				<stop  offset="0.1118" style="stop-color:#14ADE2"/>
				<stop  offset="0.2581" style="stop-color:#13A3D8"/>
				<stop  offset="0.4237" style="stop-color:#0E92C9"/>
				<stop  offset="0.6033" style="stop-color:#087CB6"/>
				<stop  offset="0.7923" style="stop-color:#0064A1"/>
				<stop  offset="0.9" style="stop-color:#005495"/>
			</linearGradient>
			<path fill="url(#SVGID_2_)" d="M41.099,34.823C39.732,35.573,38.162,36,36.494,36H16.157l-8.078,8.079H29.07
				c2.043,0,3.963-0.811,5.408-2.282l6.798-6.798L41.099,34.823z"/>
			<linearGradient id="SVGID_3_" gradientUnits="userSpaceOnUse" x1="12.7065" y1="44.0791" x2="12.7065" y2="10.8823">
				<stop  offset="0" style="stop-color:#0082BD"/>
				<stop  offset="0.2182" style="stop-color:#0078B4"/>
				<stop  offset="0.6558" style="stop-color:#00609E"/>
				<stop  offset="0.85" style="stop-color:#005495"/>
			</linearGradient>
			<path fill="url(#SVGID_3_)" d="M17.334,11.058c-0.75,1.368-1.177,2.938-1.177,4.605V36l-8.078,8.079V23.088
				c0-2.042,0.81-3.963,2.281-5.408l6.798-6.798L17.334,11.058z"/>
		</g>
	</g>
</g>
</svg>
