<?xml version="1.0" encoding="utf-8"?>
<!-- Generator: Adobe Illustrator 25.0.0, SVG Export Plug-In . SVG Version: 6.00 Build 0)  -->
<svg version="1.1" id="Livello_1" xmlns="http://www.w3.org/2000/svg" xmlns:xlink="http://www.w3.org/1999/xlink" x="0px" y="0px"
	 viewBox="0 0 1038.1 500" enable-background="new 0 0 1038.1 500" xml:space="preserve">
<g id="LOGO_TIM">
	<g id="Group_2">
		<g id="Group_1" transform="translate(.593)">
			<path id="Path_3" fill="#063B88" d="M593.3,0c5.4,0,6.5,0.7,6.5,19.8v17.6c0,18.4-1.4,20.5-6.5,20.5h-61.2v206.4
				c0,4.7-5.8,5.8-26.3,5.8h-10.8c-20.9,0-24.5-1.1-24.5-5.8V58.1h-61.2c-5,0-6.5-1.4-6.5-20.5V19.9c0-19.8,1.1-19.8,6.5-19.8
				L593.3,0z M703.2,5.8c0-4-5.8-5.8-25.6-5.8h-11.5c-20.9,0-24.5,1.8-24.5,5.8v258.6c0,4.7,3.6,5.8,24.5,5.8h11.5
				c19.8,0,25.6-1.1,25.6-5.8L703.2,5.8z M1002.2,0h-18c-23.1,0-24.5,2.5-26.3,6.5l-35.7,85.7c-11.9,28.5-24.1,59.1-28.8,74.9
				c-8-26-17.6-51.5-28.8-76.4L828.9,6.5c-2.2-5-11.2-6.5-30.6-6.5h-20.2c-19.8,0-23.8,1.8-23.8,5.8v258.7c0,4.7,4,5.8,24.5,5.8H790
				c20.2,0,26-1.1,26-5.8V111h1.4c1.2,4.7,2.8,9.3,4.7,13.7l41.1,96.2c1.8,4.3,4,6.1,23.1,6.1h12.2c19.5,0,20.9-1.4,22.7-6.1
				l37.5-92.6c3.6-8.6,6.1-17.3,6.1-17.3h1.4v153.4c0,4.7,4,5.8,25.2,5.8h10.8c19.8,0,25.6-1.1,25.6-5.8V5.8
				C1027.8,1.8,1022.1,0,1002.2,0z"/>
			<path id="Path_4" fill="#E40D2C" d="M314.9,57.9H22.6c-8.6,0-15.6-7-15.6-15.6c0,0,0,0,0,0V15.6C7.1,7,14,0,22.6,0l0,0h292.3
				c8.6,0,15.6,7,15.6,15.6c0,0,0,0,0,0v26.8C330.5,51,323.5,58,314.9,57.9L314.9,57.9L314.9,57.9z M136.5,106.3H22.6
				c-8.6,0-15.6,7-15.6,15.6c0,0,0,0,0,0v26.7c0,8.6,7,15.6,15.6,15.6l0,0h113.8V106.3z M326,110.9c-2.9-3-6.9-4.6-11-4.6H201.1V164
				h113.8c8.6,0,15.6-7,15.6-15.6c0,0,0,0,0,0v-26.7C330.5,117.7,328.9,113.8,326,110.9L326,110.9z M326,217c-2.9-3-6.9-4.6-11-4.6
				H201.1v57.8h113.8c8.6,0,15.6-7,15.6-15.6c0,0,0,0,0,0v-26.7C330.5,223.9,328.9,219.9,326,217L326,217z M136.5,212.4H22.6
				c-8.6,0-15.6,7-15.6,15.6c0,0,0,0,0,0v26.7c0,8.6,7,15.6,15.6,15.6l0,0h113.8V212.4z"/>
		</g>
		<rect y="328.3" fill="#063B88" width="1038.1" height="10.1"/>
	</g>
	<g id="Group_3" transform="translate(.171 30.231)">
		<path id="Path_5" fill="#063B88" d="M2,416.8c0-32.3,17.4-54.7,49.3-54.7c10.7-0.3,21.3,2.6,30.5,8.1c0.9,0.6,0.7,1.3-0.3,3.5
			l-0.7,1.6c-1,2.2-1.5,2.6-2.6,2c-8.3-4.4-17.5-6.7-26.9-6.7c-24.4,0-38.7,16.7-38.7,45.4c0,29.4,14.1,45.2,39.8,45.2
			c7.8-0.1,15.5-1.4,22.8-3.9V422H49c-1,0-1.3-0.7-1.3-3.8v-0.6c0-3.2,0.3-3.9,1.3-3.9h36.1v49c-10.5,4.5-21.8,6.9-33.3,7
			C18.3,469.7,2,448,2,416.8L2,416.8z"/>
		<path id="Path_6" fill="#063B88" d="M193.9,468.3h-1.3c-4.2,0-5.2-0.1-6.1-1.6L168.9,437c-6.7-11.5-9.1-13.1-21.7-13.1H139v43
			c0,1.2-1,1.3-4.7,1.3H133c-3.5,0-4.2-0.3-4.2-1.3V363.6h25.6c26,0,41.7,7.4,41.7,28.7c0.2,15.5-11.2,28.6-26.5,30.7
			c3.9,3.4,7.1,7.6,9.4,12.2l18.9,31.3C198.9,467.7,197.4,468.3,193.9,468.3L193.9,468.3z M156.3,416.1c18.5,0,29.1-7,29.1-23.3
			c0-15.9-10.2-21.2-30.2-21.2H139v44.5H156.3z"/>
		<path id="Path_7" fill="#063B88" d="M236.8,429.6v-64.7c0-1,0.6-1.3,4.1-1.3h1.3c3.6,0,4.7,0.2,4.7,1.3v63.4
			c0,21.8,9.2,33,31.3,33c22.1,0,31-11.5,31-33v-63.4c0-1,0.7-1.3,4.2-1.3h1c3.8,0,4.8,0.2,4.8,1.3v64.6c0,27.5-14.5,40.2-41,40.2
			C249.7,469.7,236.8,456.5,236.8,429.6z"/>
		<path id="Path_8" fill="#063B88" d="M364.2,467V363.6h23.7c25.6,0,42.9,7.7,42.9,31c0,21.7-15,33.2-38.4,33.2
			c-6-0.1-12.1-0.5-18-1.3V467c0,1.2-1,1.3-4.6,1.3h-1.3C364.9,468.3,364.2,468,364.2,467L364.2,467z M420.4,395.3
			c0-18.6-13.2-23.6-32.9-23.6h-13.1v46.7c5.3,0.7,10.7,1.1,16.1,1.2C410.2,419.5,420.4,411.5,420.4,395.3z"/>
		<path id="Path_9" fill="#063B88" d="M469.2,467V363.6h23.7c25.6,0,42.9,7.7,42.9,31c0,21.7-15,33.2-38.4,33.2
			c-6-0.1-12.1-0.5-18-1.3V467c0,1.2-1,1.3-4.7,1.3h-1.3C469.9,468.3,469.2,468,469.2,467L469.2,467z M525.3,395.3
			c0-18.6-13.2-23.6-32.9-23.6h-13.1v46.7c5.4,0.7,10.7,1.1,16.1,1.2C515.1,419.5,525.3,411.5,525.3,395.3z"/>
		<path id="Path_10" fill="#063B88" d="M569.1,417.4c0-33.9,18.9-55.3,49-55.3c28.8,0,46,19.3,46,52.2c0,33.9-18.9,55.4-49,55.4
			C586.4,469.7,569.1,450.2,569.1,417.4L569.1,417.4z M653.3,414.9c0-28.2-13-44.2-35.8-44.2c-23.6,0-37.8,17.2-37.8,46.1
			c0,28.4,13.1,44.4,35.8,44.4C639.1,461.1,653.3,443.7,653.3,414.9z"/>
		<path id="Path_11" fill="#063B88" d="M788.5,467v-95.1H756c-1,0-1.3-1-1.3-3.9v-0.6c0-2.8,0.3-3.8,1.3-3.8h75c1,0,1.3,1,1.3,3.9
			v0.6c0,2.8-0.3,3.8-1.3,3.8h-32.4v95.1c0,1.2-1,1.3-4.8,1.3h-1.2C789.3,468.3,788.5,468,788.5,467L788.5,467z"/>
		<path id="Path_12" fill="#063B88" d="M869.9,467V364.9c0-1,0.7-1.3,4.2-1.3h1.3c3.6,0,4.6,0.2,4.6,1.3V467c0,1.2-1,1.3-4.6,1.3
			h-1.3C870.6,468.3,869.9,468,869.9,467z"/>
		<path id="Path_13" fill="#063B88" d="M926.7,467V365c0-1.2,0.4-1.5,5.7-1.5h0.4c4.2,0,4.9,0.3,5.5,1.5l23.9,48.4
			c5.1,10.5,8.9,18.8,12.2,26.3c3.6-8.6,6.8-16.2,11.7-26.3l22.8-48.4c0.6-1.2,1.2-1.5,6-1.5h0.9c4.6,0,5.2,0.3,5.2,1.5V467
			c0,1.2-1,1.3-4.7,1.3h-0.9c-3.5,0-4.1-0.3-4.1-1.3v-52.8c0-8.9,0-26.6,0.3-35.2c-3.9,9.3-8.1,19.2-12.4,27.8l-20.6,42
			c-0.4,1-0.9,1.3-4.4,1.3h-0.4c-3.5,0-4.1-0.3-4.5-1.3l-20.9-42c-6.3-12.5-9.2-19.6-12.5-27.6c0.3,9.5,0.4,25.3,0.4,35.3v52.5
			c0,1.2-1,1.3-4.7,1.3h-0.9C927.2,468.3,926.7,468,926.7,467L926.7,467z"/>
	</g>
</g>
</svg>
