<?xml version="1.0" encoding="utf-8"?>
<!-- Generator: Adobe Illustrator 16.0.0, SVG Export Plug-In . SVG Version: 6.00 Build 0)  -->
<!DOCTYPE svg PUBLIC "-//W3C//DTD SVG 1.1//EN" "http://www.w3.org/Graphics/SVG/1.1/DTD/svg11.dtd">
<svg version="1.1" id="Layer_1" xmlns="http://www.w3.org/2000/svg" xmlns:xlink="http://www.w3.org/1999/xlink" x="0px" y="0px"
	 width="120.003px" height="80px" viewBox="0 0 120.003 80" enable-background="new 0 0 120.003 80" xml:space="preserve">
<g>
	<g>
		<defs>
			<polygon id="SVGID_1_" points="39.907,70.228 58.774,70.228 44.648,66.127 			"/>
		</defs>
		<clipPath id="SVGID_2_">
			<use xlink:href="#SVGID_1_"  overflow="visible"/>
		</clipPath>
		
			<linearGradient id="SVGID_3_" gradientUnits="userSpaceOnUse" x1="-243.6709" y1="455.1836" x2="-243.3768" y2="455.1836" gradientTransform="matrix(0 209.0853 209.0853 0 -95122.6875 50956.8984)">
			<stop  offset="0" style="stop-color:#D7D7E2"/>
			<stop  offset="1" style="stop-color:#63616F"/>
		</linearGradient>
		<rect x="39.907" y="66.127" clip-path="url(#SVGID_2_)" fill="url(#SVGID_3_)" width="18.868" height="4.101"/>
	</g>
	<polygon fill="none" points="39.907,70.228 58.774,70.228 44.648,66.127 	"/>
	<g>
		<defs>
			<polygon id="SVGID_4_" points="51.779,58.421 45.07,65.543 47.989,66.4 			"/>
		</defs>
		<clipPath id="SVGID_5_">
			<use xlink:href="#SVGID_4_"  overflow="visible"/>
		</clipPath>
		
			<linearGradient id="SVGID_6_" gradientUnits="userSpaceOnUse" x1="-243.6758" y1="455.1934" x2="-243.3765" y2="455.1934" gradientTransform="matrix(0 209.0853 209.0853 0 -95125.6875 50956.8984)">
			<stop  offset="0" style="stop-color:#D7D7E2"/>
			<stop  offset="1" style="stop-color:#63616F"/>
		</linearGradient>
		<rect x="45.07" y="58.421" clip-path="url(#SVGID_5_)" fill="url(#SVGID_6_)" width="6.708" height="7.979"/>
	</g>
	<polygon fill="none" points="51.779,58.421 45.07,65.543 47.989,66.4 	"/>
	<g>
		<defs>
			<polygon id="SVGID_7_" points="44.373,64.82 51.242,58.126 43.655,61.604 			"/>
		</defs>
		<clipPath id="SVGID_8_">
			<use xlink:href="#SVGID_7_"  overflow="visible"/>
		</clipPath>
		
			<linearGradient id="SVGID_9_" gradientUnits="userSpaceOnUse" x1="-243.6743" y1="455.2051" x2="-243.377" y2="455.2051" gradientTransform="matrix(0 209.0853 209.0853 0 -95129.0625 50956.8984)">
			<stop  offset="0" style="stop-color:#D7D7E2"/>
			<stop  offset="1" style="stop-color:#63616F"/>
		</linearGradient>
		<rect x="43.655" y="58.126" clip-path="url(#SVGID_8_)" fill="url(#SVGID_9_)" width="7.587" height="6.694"/>
	</g>
	<polygon fill="none" points="44.373,64.82 51.242,58.126 43.655,61.602 	"/>
	<g>
		<defs>
			<path id="SVGID_10_" d="M39.655,69.881l4.196-4.531c-0.582-1.067-4.196-36.497-4.196-36.497V69.881z"/>
		</defs>
		<clipPath id="SVGID_11_">
			<use xlink:href="#SVGID_10_"  overflow="visible"/>
		</clipPath>
		
			<linearGradient id="SVGID_12_" gradientUnits="userSpaceOnUse" x1="-243.6729" y1="455.2695" x2="-243.3766" y2="455.2695" gradientTransform="matrix(0 209.0853 209.0853 0 -95148.3125 50956.8984)">
			<stop  offset="0" style="stop-color:#D7D7E2"/>
			<stop  offset="1" style="stop-color:#63616F"/>
		</linearGradient>
		<rect x="39.655" y="28.853" clip-path="url(#SVGID_11_)" fill="url(#SVGID_12_)" width="4.196" height="41.028"/>
	</g>
	<g>
		<defs>
			<polygon id="SVGID_13_" points="19.738,70.228 38.606,70.228 33.866,66.127 			"/>
		</defs>
		<clipPath id="SVGID_14_">
			<use xlink:href="#SVGID_13_"  overflow="visible"/>
		</clipPath>
		
			<linearGradient id="SVGID_15_" gradientUnits="userSpaceOnUse" x1="-243.6709" y1="455.4121" x2="-243.3768" y2="455.4121" gradientTransform="matrix(0 209.0853 209.0853 0 -95190.6875 50956.8984)">
			<stop  offset="0" style="stop-color:#D7D7E2"/>
			<stop  offset="1" style="stop-color:#63616F"/>
		</linearGradient>
		<rect x="19.738" y="66.127" clip-path="url(#SVGID_14_)" fill="url(#SVGID_15_)" width="18.868" height="4.101"/>
	</g>
	<g>
		<defs>
			<polygon id="SVGID_16_" points="30.524,66.4 33.441,65.543 26.736,58.421 			"/>
		</defs>
		<clipPath id="SVGID_17_">
			<use xlink:href="#SVGID_16_"  overflow="visible"/>
		</clipPath>
		
			<linearGradient id="SVGID_18_" gradientUnits="userSpaceOnUse" x1="-243.6758" y1="455.4023" x2="-243.3765" y2="455.4023" gradientTransform="matrix(0 209.0853 209.0853 0 -95187.6875 50956.8984)">
			<stop  offset="0" style="stop-color:#D7D7E2"/>
			<stop  offset="1" style="stop-color:#63616F"/>
		</linearGradient>
		<rect x="26.736" y="58.421" clip-path="url(#SVGID_17_)" fill="url(#SVGID_18_)" width="6.706" height="7.979"/>
	</g>
	<g>
		<defs>
			<polygon id="SVGID_19_" points="34.141,64.82 34.859,61.604 27.272,58.126 			"/>
		</defs>
		<clipPath id="SVGID_20_">
			<use xlink:href="#SVGID_19_"  overflow="visible"/>
		</clipPath>
		
			<linearGradient id="SVGID_21_" gradientUnits="userSpaceOnUse" x1="-243.6743" y1="455.3906" x2="-243.377" y2="455.3906" gradientTransform="matrix(0 209.0853 209.0853 0 -95184.3125 50956.8984)">
			<stop  offset="0" style="stop-color:#D7D7E2"/>
			<stop  offset="1" style="stop-color:#63616F"/>
		</linearGradient>
		<rect x="27.272" y="58.126" clip-path="url(#SVGID_20_)" fill="url(#SVGID_21_)" width="7.587" height="6.694"/>
	</g>
	<g>
		<defs>
			<path id="SVGID_22_" d="M34.663,65.35l4.197,4.531V28.853C38.86,28.853,35.245,64.282,34.663,65.35"/>
		</defs>
		<clipPath id="SVGID_23_">
			<use xlink:href="#SVGID_22_"  overflow="visible"/>
		</clipPath>
		
			<linearGradient id="SVGID_24_" gradientUnits="userSpaceOnUse" x1="-243.6729" y1="455.3252" x2="-243.3766" y2="455.3252" gradientTransform="matrix(0 209.0853 209.0853 0 -95165.0625 50956.8984)">
			<stop  offset="0" style="stop-color:#D7D7E2"/>
			<stop  offset="1" style="stop-color:#63616F"/>
		</linearGradient>
		<rect x="34.663" y="28.853" clip-path="url(#SVGID_23_)" fill="url(#SVGID_24_)" width="4.197" height="41.028"/>
	</g>
	<g>
		<defs>
			<path id="SVGID_25_" d="M38.521,9.337C27.142,28.917,15.667,48.463,4.267,68.03C3.931,68.604,3.414,69.517,3,70.048
				c0.328,0.164,0.678,0.159,1.016,0.152c0.074,0,0.146,0,0.218,0c4.788,0.041,9.578,0.027,14.368,0.027
				c-0.57-0.207-1.237-0.74-1.503-1.017c-5.033-5.163-4.867-7.493-1.223-13.591c6.521-10.912,13.412-21.606,20.253-32.324
				c0.878-1.379,2.003-2.077,3.126-2.085c1.061,0.009,2.221,0.707,3.102,2.085c6.84,10.718,13.704,21.412,20.226,32.324
				c3.645,6.098,3.811,8.428-1.222,13.591c-0.269,0.276-0.932,0.81-1.502,1.017c4.787,0,9.582,0.014,14.371-0.027
				c0.07,0,0.143,0,0.217,0c0.34,0.007,0.689,0.012,1.018-0.152c-0.412-0.531-0.922-1.443-1.258-2.018
				c-11.4-19.567-22.862-39.113-34.241-58.693c-0.238-0.411-0.557-0.925-0.71-1.375C39.085,8.412,38.758,8.926,38.521,9.337"/>
		</defs>
		<clipPath id="SVGID_26_">
			<use xlink:href="#SVGID_25_"  overflow="visible"/>
		</clipPath>
		
			<linearGradient id="SVGID_27_" gradientUnits="userSpaceOnUse" x1="-243.6733" y1="455.2988" x2="-243.3772" y2="455.2988" gradientTransform="matrix(0 209.0853 209.0853 0 -95156.8125 50956.8984)">
			<stop  offset="0" style="stop-color:#D7D7E2"/>
			<stop  offset="1" style="stop-color:#63616F"/>
		</linearGradient>
		<rect x="3" y="7.962" clip-path="url(#SVGID_26_)" fill="url(#SVGID_27_)" width="72.464" height="62.279"/>
	</g>
	<g>
		<defs>
			<polygon id="SVGID_28_" points="75.464,24.051 75.464,30.912 81.771,30.912 81.771,69.48 88.444,69.48 88.444,30.912 
				94.747,30.912 94.747,24.051 			"/>
		</defs>
		<clipPath id="SVGID_29_">
			<use xlink:href="#SVGID_28_"  overflow="visible"/>
		</clipPath>
		
			<linearGradient id="SVGID_30_" gradientUnits="userSpaceOnUse" x1="-243.7808" y1="454.6846" x2="-243.4847" y2="454.6846" gradientTransform="matrix(0 146.9482 146.9482 0 -66729.9375 35848.4023)">
			<stop  offset="0" style="stop-color:#D7D7E2"/>
			<stop  offset="1" style="stop-color:#63616F"/>
		</linearGradient>
		<rect x="75.464" y="24.051" clip-path="url(#SVGID_29_)" fill="url(#SVGID_30_)" width="19.283" height="45.429"/>
	</g>
	<g>
		<defs>
			<rect id="SVGID_31_" x="97.345" y="24.051" width="6.676" height="45.43"/>
		</defs>
		<clipPath id="SVGID_32_">
			<use xlink:href="#SVGID_31_"  overflow="visible"/>
		</clipPath>
		
			<linearGradient id="SVGID_33_" gradientUnits="userSpaceOnUse" x1="-243.7808" y1="454.4316" x2="-243.4847" y2="454.4316" gradientTransform="matrix(0 146.9482 146.9482 0 -66677.3125 35848.4023)">
			<stop  offset="0" style="stop-color:#D7D7E2"/>
			<stop  offset="1" style="stop-color:#63616F"/>
		</linearGradient>
		<rect x="97.345" y="24.051" clip-path="url(#SVGID_32_)" fill="url(#SVGID_33_)" width="6.676" height="45.43"/>
	</g>
	<g>
		<defs>
			<rect id="SVGID_34_" x="108.966" y="24.051" width="6.674" height="45.43"/>
		</defs>
		<clipPath id="SVGID_35_">
			<use xlink:href="#SVGID_34_"  overflow="visible"/>
		</clipPath>
		
			<linearGradient id="SVGID_36_" gradientUnits="userSpaceOnUse" x1="-243.7808" y1="454.2441" x2="-243.4847" y2="454.2441" gradientTransform="matrix(0 146.9482 146.9482 0 -66638.0625 35848.4023)">
			<stop  offset="0" style="stop-color:#D7D7E2"/>
			<stop  offset="1" style="stop-color:#63616F"/>
		</linearGradient>
		<rect x="108.966" y="24.051" clip-path="url(#SVGID_35_)" fill="url(#SVGID_36_)" width="6.674" height="45.43"/>
	</g>
</g>
</svg>
