<svg width="654" height="269" viewBox="0 0 654 269" fill="none" xmlns="http://www.w3.org/2000/svg">
<path d="M159.37 97.5V64.62C159.37 63.82 158.73 63.18 157.93 63.18H146.42C145.62 63.18 144.98 63.82 144.98 64.62V97.5C144.98 98.3 145.62 98.94 146.42 98.94H157.93C158.72 98.94 159.37 98.29 159.37 97.5Z" fill="#706F6F"/>
<path d="M146.42 27.6H157.93C158.72 27.6 159.37 26.96 159.37 26.16V8.01002C159.37 6.99002 158.33 6.28002 157.39 6.67002C153.35 8.34002 149.43 10.36 145.65 12.72C145.23 12.98 144.97 13.45 144.97 13.95V26.15C144.98 26.96 145.62 27.6 146.42 27.6Z" fill="#706F6F"/>
<path d="M254.45 124.28C272.06 97.7 272.06 62.9 254.45 36.33C253.82 35.38 252.34 35.84 252.34 36.97V123.64C252.34 124.78 253.83 125.23 254.45 124.28Z" fill="#706F6F"/>
<path d="M218.05 98.94H229.56C230.35 98.94 231 98.3 231 97.5V14.01C231 13.51 230.74 13.05 230.32 12.78C226.55 10.41 222.62 8.38 218.58 6.71C217.64 6.32 216.61 7.03 216.61 8.05V97.5C216.61 98.3 217.25 98.94 218.05 98.94Z" fill="#706F6F"/>
<path d="M193.77 0.810006C189.86 0.530006 185.95 0.530006 182.04 0.810006C181.29 0.870006 180.71 1.50001 180.71 2.25001V133.14C180.71 133.94 181.36 134.58 182.15 134.58H193.66C194.46 134.58 195.1 133.93 195.1 133.14V2.24C195.1 1.5 194.52 0.860006 193.77 0.810006Z" fill="#706F6F"/>
<path d="M37.33 110.97V133.29C37.33 134.09 37.97 134.73 38.77 134.73H50.28C51.08 134.73 51.72 134.09 51.72 133.29V110.97C51.72 110.17 51.08 109.53 50.28 109.53H38.77C37.98 109.53 37.33 110.18 37.33 110.97Z" fill="#706F6F"/>
<path d="M108.96 100.3V133.3C108.96 134.1 109.6 134.74 110.4 134.74H121.91C122.7 134.74 123.35 134.1 123.35 133.3V100.3C123.35 99.5 122.71 98.86 121.91 98.86H110.4C109.61 98.86 108.96 99.5 108.96 100.3Z" fill="#706F6F"/>
<path d="M123.35 61.64V28.76C123.35 27.96 122.71 27.32 121.91 27.32H110.4C109.6 27.32 108.96 27.96 108.96 28.76V61.64C108.96 62.44 109.6 63.08 110.4 63.08H121.91C122.71 63.07 123.35 62.43 123.35 61.64Z" fill="#706F6F"/>
<path d="M108.96 171.97V204.85C108.96 205.65 109.6 206.29 110.4 206.29H121.91C122.71 206.29 123.35 205.65 123.35 204.85V171.97C123.35 171.17 122.71 170.53 121.91 170.53H110.4C109.6 170.53 108.96 171.17 108.96 171.97Z" fill="#706F6F"/>
<path d="M121.91 241.87H110.4C109.61 241.87 108.96 242.51 108.96 243.31V261.46C108.96 262.48 110 263.19 110.94 262.8C114.98 261.13 118.9 259.11 122.68 256.75C123.1 256.49 123.36 256.02 123.36 255.52V243.32C123.35 242.51 122.71 241.87 121.91 241.87Z" fill="#706F6F"/>
<path d="M13.87 145.19C-3.73999 171.77 -3.73999 206.57 13.87 233.15C14.5 234.1 15.98 233.64 15.98 232.51V145.84C15.99 144.69 14.5 144.24 13.87 145.19Z" fill="#706F6F"/>
<path d="M50.28 170.53H38.77C37.98 170.53 37.33 171.17 37.33 171.97V255.46C37.33 255.96 37.58 256.42 38.01 256.69C41.78 259.06 45.71 261.09 49.75 262.76C50.69 263.15 51.73 262.44 51.73 261.42V171.97C51.72 171.17 51.08 170.53 50.28 170.53Z" fill="#706F6F"/>
<path d="M74.56 268.66C78.47 268.94 82.38 268.94 86.29 268.66C87.04 268.6 87.62 267.97 87.62 267.21V136.32C87.62 135.52 86.97 134.88 86.18 134.88H74.67C73.87 134.88 73.23 135.53 73.23 136.32V267.22C73.23 267.97 73.81 268.61 74.56 268.66Z" fill="#706F6F"/>
<path d="M231 158.5V136.18C231 135.38 230.36 134.74 229.56 134.74H218.05C217.25 134.74 216.61 135.38 216.61 136.18V158.5C216.61 159.3 217.25 159.94 218.05 159.94H229.56C230.35 159.94 231 159.29 231 158.5Z" fill="#706F6F"/>
<path d="M159.37 169.17V136.17C159.37 135.37 158.73 134.73 157.93 134.73H146.42C145.63 134.73 144.98 135.37 144.98 136.17V169.17C144.98 169.97 145.62 170.61 146.42 170.61H157.93C158.72 170.61 159.37 169.97 159.37 169.17Z" fill="#706F6F"/>
<path d="M144.98 207.83V240.71C144.98 241.51 145.62 242.15 146.42 242.15H157.93C158.73 242.15 159.37 241.51 159.37 240.71V207.83C159.37 207.03 158.73 206.39 157.93 206.39H146.42C145.62 206.4 144.98 207.04 144.98 207.83Z" fill="#706F6F"/>
<path d="M157.93 37.9H135.6C134.8 37.9 134.16 38.54 134.16 39.34V50.85C134.16 51.65 134.8 52.29 135.6 52.29H157.92C158.72 52.29 159.36 51.65 159.36 50.85V39.34C159.37 38.55 158.72 37.9 157.93 37.9Z" fill="#706F6F"/>
<path d="M168.6 109.53H135.6C134.8 109.53 134.16 110.17 134.16 110.97V122.48C134.16 123.27 134.8 123.92 135.6 123.92H168.6C169.4 123.92 170.04 123.28 170.04 122.48V110.97C170.04 110.17 169.4 109.53 168.6 109.53Z" fill="#706F6F"/>
<path d="M207.26 123.92H240.14C240.94 123.92 241.58 123.28 241.58 122.48V110.97C241.58 110.17 240.94 109.53 240.14 109.53H207.26C206.46 109.53 205.82 110.17 205.82 110.97V122.48C205.83 123.28 206.47 123.92 207.26 123.92Z" fill="#706F6F"/>
<path d="M96.93 109.53H64.05C63.25 109.53 62.61 110.17 62.61 110.97V122.48C62.61 123.28 63.25 123.92 64.05 123.92H96.93C97.73 123.92 98.37 123.28 98.37 122.48V110.97C98.37 110.17 97.73 109.53 96.93 109.53Z" fill="#706F6F"/>
<path d="M27.03 122.48V110.97C27.03 110.18 26.39 109.53 25.59 109.53H7.44001C6.42001 109.53 5.71001 110.57 6.10001 111.51C7.77001 115.55 9.79 119.47 12.15 123.25C12.41 123.67 12.88 123.93 13.38 123.93H25.58C26.39 123.92 27.03 123.28 27.03 122.48Z" fill="#706F6F"/>
<path d="M123.71 14.44C97.14 -3.16999 62.33 -3.16999 35.76 14.44C34.81 15.07 35.27 16.55 36.4 16.55H123.07C124.21 16.56 124.66 15.07 123.71 14.44Z" fill="#706F6F"/>
<path d="M98.37 50.85V39.34C98.37 38.55 97.73 37.9 96.93 37.9H13.44C12.94 37.9 12.48 38.15 12.21 38.58C9.84 42.35 7.81002 46.28 6.14002 50.32C5.75002 51.26 6.46002 52.29 7.48002 52.29H96.93C97.73 52.29 98.37 51.65 98.37 50.85Z" fill="#706F6F"/>
<path d="M0.239999 75.13C-0.0400012 79.04 -0.0400012 82.95 0.239999 86.86C0.299999 87.61 0.930011 88.19 1.69001 88.19H132.58C133.38 88.19 134.02 87.54 134.02 86.75V75.24C134.02 74.44 133.37 73.8 132.58 73.8H1.68C0.930001 73.8 0.289999 74.38 0.239999 75.13Z" fill="#706F6F"/>
<path d="M110.4 231.57H132.72C133.52 231.57 134.16 230.93 134.16 230.13V218.62C134.16 217.82 133.52 217.18 132.72 217.18H110.4C109.6 217.18 108.96 217.82 108.96 218.62V230.13C108.96 230.92 109.61 231.57 110.4 231.57Z" fill="#706F6F"/>
<path d="M99.73 159.94H132.73C133.53 159.94 134.17 159.3 134.17 158.5V146.99C134.17 146.2 133.53 145.55 132.73 145.55H99.73C98.93 145.55 98.29 146.19 98.29 146.99V158.5C98.29 159.29 98.93 159.94 99.73 159.94Z" fill="#706F6F"/>
<path d="M61.07 145.55H28.19C27.39 145.55 26.75 146.19 26.75 146.99V158.5C26.75 159.3 27.39 159.94 28.19 159.94H61.07C61.87 159.94 62.51 159.3 62.51 158.5V146.99C62.5 146.19 61.86 145.55 61.07 145.55Z" fill="#706F6F"/>
<path d="M171.4 159.94H204.28C205.08 159.94 205.72 159.3 205.72 158.5V146.99C205.72 146.19 205.08 145.55 204.28 145.55H171.4C170.6 145.55 169.96 146.19 169.96 146.99V158.5C169.96 159.29 170.6 159.94 171.4 159.94Z" fill="#706F6F"/>
<path d="M241.3 146.99V158.5C241.3 159.29 241.94 159.94 242.74 159.94H260.89C261.91 159.94 262.62 158.9 262.23 157.96C260.56 153.92 258.54 150 256.18 146.22C255.92 145.8 255.45 145.54 254.95 145.54H242.75C241.94 145.55 241.3 146.19 241.3 146.99Z" fill="#706F6F"/>
<path d="M144.62 255.02C171.2 272.63 206 272.63 232.57 255.02C233.52 254.39 233.06 252.91 231.93 252.91H145.26C144.12 252.91 143.67 254.4 144.62 255.02Z" fill="#706F6F"/>
<path d="M169.96 218.62V230.13C169.96 230.92 170.6 231.57 171.4 231.57H254.89C255.39 231.57 255.85 231.32 256.12 230.89C258.49 227.12 260.52 223.19 262.19 219.15C262.58 218.21 261.87 217.17 260.85 217.17H171.4C170.6 217.18 169.96 217.82 169.96 218.62Z" fill="#706F6F"/>
<path d="M268.09 194.34C268.37 190.43 268.37 186.52 268.09 182.61C268.03 181.86 267.4 181.28 266.65 181.28H135.75C134.95 181.28 134.31 181.93 134.31 182.72V194.23C134.31 195.03 134.96 195.67 135.75 195.67H266.65C267.4 195.67 268.04 195.09 268.09 194.34Z" fill="#706F6F"/>
<path d="M330.21 22.73H322.34C321.78 22.73 321.37 22.27 321.37 21.75V17.53C321.37 17.02 321.78 16.55 322.34 16.55H344.8C345.37 16.55 345.78 17.01 345.78 17.53V21.75C345.78 22.26 345.37 22.73 344.8 22.73H336.94V51.56C336.94 52.07 336.48 52.54 335.96 52.54H331.18C330.66 52.54 330.2 52.08 330.2 51.56V22.73H330.21Z" fill="#706F6F"/>
<path d="M369.11 16.04C379.39 16.04 387.61 24.32 387.61 34.6C387.61 44.88 379.38 53.05 369.11 53.05C358.83 53.05 350.66 44.88 350.66 34.6C350.66 24.32 358.83 16.04 369.11 16.04ZM369.11 46.37C375.59 46.37 380.93 41.08 380.93 34.6C380.93 28.12 375.58 22.73 369.11 22.73C362.64 22.73 357.34 28.13 357.34 34.6C357.34 41.07 362.63 46.37 369.11 46.37Z" fill="#706F6F"/>
<path d="M396.79 16.97C396.79 16.46 397.25 16.04 397.77 16.04H399.05L420.43 38.76H420.48V17.53C420.48 17.02 420.89 16.55 421.46 16.55H426.19C426.71 16.55 427.17 17.01 427.17 17.53V52.12C427.17 52.63 426.71 53.05 426.19 53.05H424.96L403.47 29.46H403.42V51.56C403.42 52.07 403.01 52.54 402.44 52.54H397.76C397.25 52.54 396.78 52.08 396.78 51.56V16.97H396.79Z" fill="#706F6F"/>
<path d="M445.86 35.21L434.14 18.04C433.73 17.37 434.14 16.55 434.96 16.55H440.2C440.61 16.55 440.87 16.81 441.02 17.01L449.25 28.83L457.47 17.01C457.62 16.81 457.88 16.55 458.29 16.55H463.58C464.4 16.55 464.81 17.37 464.4 18.04L452.53 35.16V51.56C452.53 52.07 452.07 52.54 451.55 52.54H446.82C446.26 52.54 445.85 52.08 445.85 51.56V35.21H445.86Z" fill="#706F6F"/>
<path d="M485.21 17.53C485.21 17.02 485.62 16.55 486.19 16.55H497.96C504.07 16.55 508.81 20.66 508.81 26.06C508.81 30.02 505.57 33.1 503.16 34.23C505.88 35.1 509.84 37.88 509.84 42.61C509.84 48.37 504.9 52.53 498.64 52.53H486.2C485.64 52.53 485.22 52.07 485.22 51.55V17.53H485.21ZM497.34 31.67C499.96 31.67 501.76 29.61 501.76 27.04C501.76 24.47 499.96 22.67 497.34 22.67H491.84V31.66H497.34V31.67ZM498.06 46.47C500.63 46.47 502.69 44.46 502.69 41.79C502.69 39.22 500.12 37.32 497.45 37.32H491.85V46.47H498.06V46.47Z" fill="#706F6F"/>
<path d="M519.37 17.53C519.37 17.02 519.78 16.55 520.35 16.55H525.08C525.6 16.55 526.06 17.01 526.06 17.53V46.37H539.17C539.74 46.37 540.15 46.83 540.15 47.35V51.56C540.15 52.07 539.74 52.54 539.17 52.54H520.36C519.8 52.54 519.38 52.08 519.38 51.56V17.53H519.37Z" fill="#706F6F"/>
<path d="M544.75 51.2L560.74 16.61C560.89 16.3 561.15 16.04 561.61 16.04H562.13C562.64 16.04 562.85 16.3 563 16.61L578.83 51.2C579.14 51.87 578.73 52.54 577.96 52.54H573.49C572.72 52.54 572.36 52.23 572 51.51L569.48 45.96H554.1L551.58 51.51C551.38 52.02 550.91 52.54 550.09 52.54H545.62C544.85 52.54 544.44 51.87 544.75 51.2ZM566.95 40.25L561.81 28.94H561.65L556.61 40.25H566.95Z" fill="#706F6F"/>
<path d="M585.95 17.53C585.95 17.02 586.41 16.55 586.93 16.55H591.71C592.22 16.55 592.68 17.01 592.68 17.53V51.56C592.68 52.07 592.22 52.54 591.71 52.54H586.93C586.42 52.54 585.95 52.08 585.95 51.56V17.53Z" fill="#706F6F"/>
<path d="M604.5 17.53C604.5 17.02 604.91 16.55 605.48 16.55H620.18C626.35 16.55 631.38 21.48 631.38 27.6C631.38 32.33 628.24 36.18 623.77 37.98L630.81 51.04C631.17 51.71 630.81 52.53 629.94 52.53H624.55C624.09 52.53 623.83 52.27 623.73 52.07L616.89 38.45H611.18V51.56C611.18 52.07 610.72 52.54 610.2 52.54H605.47C604.91 52.54 604.49 52.08 604.49 51.56V17.53H604.5ZM619.61 32.95C622.34 32.95 624.7 30.59 624.7 27.71C624.7 24.99 622.34 22.72 619.61 22.72H611.23V32.95H619.61Z" fill="#706F6F"/>
<path d="M325.38 84.32C325.38 83.81 325.84 83.34 326.36 83.34H331.14C331.65 83.34 332.11 83.8 332.11 84.32V118.35C332.11 118.86 331.65 119.33 331.14 119.33H326.36C325.85 119.33 325.38 118.87 325.38 118.35V84.32Z" fill="#706F6F"/>
<path d="M343.93 83.76C343.93 83.25 344.39 82.83 344.91 82.83H346.19L367.57 105.55H367.62V84.32C367.62 83.81 368.03 83.34 368.6 83.34H373.33C373.85 83.34 374.31 83.8 374.31 84.32V118.91C374.31 119.42 373.85 119.84 373.33 119.84H372.1L350.61 96.25H350.56V118.35C350.56 118.86 350.15 119.33 349.58 119.33H344.9C344.39 119.33 343.92 118.87 343.92 118.35V83.76H343.93Z" fill="#706F6F"/>
<path d="M384 114.29L385.85 111.1C386.26 110.38 387.13 110.38 387.6 110.74C387.86 110.9 392.02 113.93 395.36 113.93C398.03 113.93 400.04 112.18 400.04 109.97C400.04 107.35 397.83 105.55 393.51 103.8C388.68 101.85 383.85 98.76 383.85 92.7C383.85 88.13 387.24 82.83 395.42 82.83C400.66 82.83 404.67 85.5 405.7 86.28C406.22 86.59 406.37 87.46 406.01 87.98L404.06 90.91C403.65 91.53 402.88 91.94 402.26 91.53C401.85 91.27 397.94 88.7 395.11 88.7C392.18 88.7 390.59 90.65 390.59 92.3C390.59 94.72 392.49 96.36 396.66 98.06C401.64 100.07 407.4 103.05 407.4 109.68C407.4 114.97 402.83 119.86 395.58 119.86C389.1 119.86 385.3 116.83 384.27 115.85C383.79 115.37 383.54 115.11 384 114.29Z" fill="#706F6F"/>
<path d="M421.25 89.51H413.38C412.82 89.51 412.41 89.05 412.41 88.53V84.31C412.41 83.8 412.82 83.33 413.38 83.33H435.84C436.41 83.33 436.82 83.79 436.82 84.31V88.53C436.82 89.04 436.41 89.51 435.84 89.51H427.98V118.34C427.98 118.85 427.52 119.32 427 119.32H422.22C421.7 119.32 421.24 118.86 421.24 118.34V89.51H421.25Z" fill="#706F6F"/>
<path d="M444.62 84.32C444.62 83.81 445.08 83.34 445.6 83.34H450.38C450.89 83.34 451.35 83.8 451.35 84.32V118.35C451.35 118.86 450.89 119.33 450.38 119.33H445.6C445.09 119.33 444.62 118.87 444.62 118.35V84.32Z" fill="#706F6F"/>
<path d="M468 89.51H460.13C459.57 89.51 459.16 89.05 459.16 88.53V84.31C459.16 83.8 459.57 83.33 460.13 83.33H482.59C483.16 83.33 483.57 83.79 483.57 84.31V88.53C483.57 89.04 483.16 89.51 482.59 89.51H474.73V118.34C474.73 118.85 474.27 119.32 473.75 119.32H468.97C468.45 119.32 467.99 118.86 467.99 118.34V89.51H468Z" fill="#706F6F"/>
<path d="M490.86 84.32C490.86 83.81 491.32 83.34 491.84 83.34H496.72C497.29 83.34 497.7 83.8 497.7 84.32V105.34C497.7 109.71 500.68 113.15 505.15 113.15C509.62 113.15 512.65 109.7 512.65 105.39V84.31C512.65 83.8 513.06 83.33 513.63 83.33H518.51C519.02 83.33 519.49 83.79 519.49 84.31V105.69C519.49 113.5 513.27 119.83 505.15 119.83C497.08 119.83 490.86 113.51 490.86 105.69V84.32V84.32Z" fill="#706F6F"/>
<path d="M535.61 89.51H527.74C527.18 89.51 526.77 89.05 526.77 88.53V84.31C526.77 83.8 527.18 83.33 527.74 83.33H550.2C550.77 83.33 551.18 83.79 551.18 84.31V88.53C551.18 89.04 550.77 89.51 550.2 89.51H542.34V118.34C542.34 118.85 541.88 119.32 541.36 119.32H536.58C536.06 119.32 535.6 118.86 535.6 118.34V89.51H535.61Z" fill="#706F6F"/>
<path d="M558.98 84.32C558.98 83.81 559.39 83.34 559.96 83.34H580.88C581.45 83.34 581.86 83.8 581.86 84.32V88.54C581.86 89.05 581.45 89.52 580.88 89.52H565.67V97.95H578.37C578.88 97.95 579.35 98.41 579.35 98.93V103.2C579.35 103.77 578.89 104.18 578.37 104.18H565.67V113.18H580.88C581.45 113.18 581.86 113.64 581.86 114.16V118.37C581.86 118.88 581.45 119.35 580.88 119.35H559.96C559.4 119.35 558.98 118.89 558.98 118.37V84.32Z" fill="#706F6F"/>
<path d="M325.38 151.11C325.38 150.6 325.79 150.13 326.36 150.13H347.28C347.85 150.13 348.26 150.59 348.26 151.11V155.33C348.26 155.84 347.85 156.31 347.28 156.31H332.07V165.97H344.77C345.28 165.97 345.75 166.43 345.75 166.95V171.17C345.75 171.68 345.29 172.15 344.77 172.15H332.07V185.15C332.07 185.66 331.61 186.13 331.09 186.13H326.36C325.8 186.13 325.38 185.67 325.38 185.15V151.11V151.11Z" fill="#706F6F"/>
<path d="M372.7 149.62C382.98 149.62 391.2 157.9 391.2 168.18C391.2 178.46 382.97 186.63 372.7 186.63C362.42 186.63 354.25 178.46 354.25 168.18C354.25 157.9 362.42 149.62 372.7 149.62ZM372.7 179.95C379.18 179.95 384.52 174.66 384.52 168.18C384.52 161.7 379.17 156.31 372.7 156.31C366.23 156.31 360.93 161.71 360.93 168.18C360.93 174.65 366.23 179.95 372.7 179.95Z" fill="#706F6F"/>
<path d="M400.39 151.11C400.39 150.6 400.8 150.13 401.37 150.13H416.07C422.24 150.13 427.27 155.06 427.27 161.18C427.27 165.91 424.13 169.76 419.66 171.56L426.7 184.62C427.06 185.29 426.7 186.11 425.83 186.11H420.44C419.98 186.11 419.72 185.85 419.62 185.65L412.78 172.03H407.07V185.14C407.07 185.65 406.61 186.12 406.09 186.12H401.36C400.8 186.12 400.38 185.66 400.38 185.14V151.11H400.39ZM415.5 166.53C418.23 166.53 420.59 164.17 420.59 161.29C420.59 158.57 418.23 156.3 415.5 156.3H407.12V166.53H415.5Z" fill="#706F6F"/>
<path d="M466.77 149.62C471.4 149.62 475.82 151.42 479.31 154.4C479.72 154.81 479.77 155.43 479.36 155.84L476.17 159.18C475.76 159.59 475.3 159.59 474.83 159.18C472.62 157.23 469.9 156.2 467.07 156.2C460.64 156.2 455.56 161.7 455.56 168.13C455.56 174.5 460.65 179.9 467.12 179.9C470 179.9 472.21 179.03 473.24 178.61V174.24H469.13C468.56 174.24 468.15 173.83 468.15 173.32V169.26C468.15 168.69 468.56 168.28 469.13 168.28H479C479.51 168.28 479.93 168.74 479.93 169.26V182.42C479.93 182.83 479.73 183.09 479.52 183.24C479.52 183.24 474.23 186.58 466.77 186.58C456.54 186.58 448.32 178.46 448.32 168.18C448.32 157.9 456.54 149.62 466.77 149.62Z" fill="#706F6F"/>
<path d="M489.93 151.11C489.93 150.6 490.34 150.13 490.91 150.13H495.64C496.16 150.13 496.62 150.59 496.62 151.11V179.95H509.73C510.3 179.95 510.71 180.41 510.71 180.93V185.14C510.71 185.65 510.3 186.12 509.73 186.12H490.92C490.36 186.12 489.94 185.66 489.94 185.14V151.11H489.93Z" fill="#706F6F"/>
<path d="M533.87 149.62C544.15 149.62 552.37 157.9 552.37 168.18C552.37 178.46 544.14 186.63 533.87 186.63C523.59 186.63 515.42 178.46 515.42 168.18C515.41 157.9 523.59 149.62 533.87 149.62ZM533.87 179.95C540.35 179.95 545.69 174.66 545.69 168.18C545.69 161.7 540.34 156.31 533.87 156.31C527.4 156.31 522.1 161.71 522.1 168.18C522.1 174.65 527.39 179.95 533.87 179.95Z" fill="#706F6F"/>
<path d="M561.55 151.11C561.55 150.6 561.96 150.13 562.53 150.13H574.3C580.41 150.13 585.15 154.24 585.15 159.64C585.15 163.6 581.91 166.68 579.5 167.81C582.22 168.68 586.18 171.46 586.18 176.19C586.18 181.95 581.24 186.11 574.98 186.11H562.54C561.98 186.11 561.56 185.65 561.56 185.13V151.11H561.55ZM573.68 165.25C576.3 165.25 578.1 163.19 578.1 160.62C578.1 158.05 576.3 156.25 573.68 156.25H568.18V165.24H573.68V165.25ZM574.4 180.05C576.97 180.05 579.03 178.04 579.03 175.37C579.03 172.8 576.46 170.9 573.79 170.9H568.19V180.05H574.4Z" fill="#706F6F"/>
<path d="M591.04 184.78L607.03 150.19C607.18 149.88 607.44 149.62 607.9 149.62H608.42C608.93 149.62 609.14 149.88 609.29 150.19L625.12 184.78C625.43 185.45 625.02 186.12 624.25 186.12H619.78C619.01 186.12 618.65 185.81 618.29 185.09L615.77 179.54H600.4L597.88 185.09C597.68 185.6 597.21 186.12 596.39 186.12H591.92C591.14 186.12 590.73 185.45 591.04 184.78ZM613.24 173.83L608.1 162.52H607.94L602.9 173.83H613.24Z" fill="#706F6F"/>
<path d="M632.24 151.11C632.24 150.6 632.65 150.13 633.22 150.13H637.95C638.47 150.13 638.93 150.59 638.93 151.11V179.95H652.04C652.61 179.95 653.02 180.41 653.02 180.93V185.14C653.02 185.65 652.61 186.12 652.04 186.12H633.23C632.67 186.12 632.25 185.66 632.25 185.14V151.11H632.24Z" fill="#706F6F"/>
<path d="M341.32 216.41C346.51 216.41 350.26 218.05 353.76 221.19C354.22 221.6 354.22 222.22 353.81 222.63L350.67 225.87C350.31 226.28 349.8 226.28 349.39 225.87C347.23 223.97 344.35 222.84 341.48 222.84C334.9 222.84 330.02 228.34 330.02 234.82C330.02 241.25 334.96 246.69 341.54 246.69C344.62 246.69 347.24 245.51 349.4 243.76C349.81 243.4 350.38 243.45 350.68 243.76L353.87 247.05C354.28 247.41 354.18 248.08 353.82 248.44C350.33 251.83 345.91 253.43 341.33 253.43C331.05 253.43 322.77 245.26 322.77 234.98C322.76 224.69 331.03 216.41 341.32 216.41Z" fill="#706F6F"/>
<path d="M362.99 217.9C362.99 217.39 363.45 216.92 363.97 216.92H368.75C369.31 216.92 369.72 217.38 369.72 217.9V231.52H386.48V217.9C386.48 217.39 386.89 216.92 387.46 216.92H392.19C392.7 216.92 393.17 217.38 393.17 217.9V251.93C393.17 252.44 392.71 252.91 392.19 252.91H387.46C386.89 252.91 386.48 252.45 386.48 251.93V237.74H369.72V251.93C369.72 252.44 369.31 252.91 368.75 252.91H363.97C363.46 252.91 362.99 252.45 362.99 251.93V217.9Z" fill="#706F6F"/>
<path d="M400.28 251.57L416.27 216.98C416.42 216.67 416.68 216.41 417.14 216.41H417.66C418.17 216.41 418.38 216.67 418.53 216.98L434.36 251.57C434.67 252.24 434.26 252.91 433.49 252.91H429.02C428.25 252.91 427.89 252.6 427.53 251.88L425.01 246.33H409.64L407.12 251.88C406.92 252.39 406.45 252.91 405.63 252.91H401.16C400.38 252.91 399.97 252.24 400.28 251.57ZM422.49 240.62L417.35 229.31H417.19L412.15 240.62H422.49Z" fill="#706F6F"/>
<path d="M441.49 217.34C441.49 216.83 441.95 216.41 442.47 216.41H443.75L465.13 239.13H465.18V217.9C465.18 217.39 465.59 216.92 466.16 216.92H470.89C471.41 216.92 471.87 217.38 471.87 217.9V252.49C471.87 253 471.41 253.42 470.89 253.42H469.66L448.17 229.83H448.12V251.93C448.12 252.44 447.71 252.91 447.14 252.91H442.46C441.95 252.91 441.48 252.45 441.48 251.93V217.34H441.49Z" fill="#706F6F"/>
<path d="M499.55 216.41C504.18 216.41 508.6 218.21 512.09 221.19C512.5 221.6 512.55 222.22 512.14 222.63L508.95 225.97C508.54 226.38 508.08 226.38 507.61 225.97C505.4 224.02 502.68 222.99 499.85 222.99C493.42 222.99 488.34 228.49 488.34 234.92C488.34 241.29 493.43 246.69 499.9 246.69C502.78 246.69 504.99 245.82 506.02 245.4V241.03H501.91C501.34 241.03 500.93 240.62 500.93 240.11V236.05C500.93 235.48 501.34 235.07 501.91 235.07H511.78C512.29 235.07 512.71 235.53 512.71 236.05V249.21C512.71 249.62 512.51 249.88 512.3 250.03C512.3 250.03 507.01 253.37 499.55 253.37C489.32 253.37 481.1 245.25 481.1 234.97C481.1 224.69 489.32 216.41 499.55 216.41Z" fill="#706F6F"/>
<path d="M522.71 217.9C522.71 217.39 523.12 216.92 523.69 216.92H544.61C545.18 216.92 545.59 217.38 545.59 217.9V222.12C545.59 222.63 545.18 223.1 544.61 223.1H529.4V231.53H542.1C542.61 231.53 543.08 231.99 543.08 232.51V236.78C543.08 237.35 542.62 237.76 542.1 237.76H529.4V246.76H544.61C545.18 246.76 545.59 247.22 545.59 247.74V251.95C545.59 252.46 545.18 252.93 544.61 252.93H523.69C523.13 252.93 522.71 252.47 522.71 251.95V217.9Z" fill="#706F6F"/>
</svg>
