<?xml version="1.0" encoding="utf-8"?>
<!-- Generator: Adobe Illustrator 25.0.0, SVG Export Plug-In . SVG Version: 6.00 Build 0)  -->
<svg version="1.1" id="Layer_1" xmlns="http://www.w3.org/2000/svg" xmlns:xlink="http://www.w3.org/1999/xlink" x="0px" y="0px"
	 viewBox="0 0 300 75" style="enable-background:new 0 0 300 75;" xml:space="preserve">
<style type="text/css">
	.st0{fill:#00AEC7;}
	.st1{fill:#1B3D6F;}
</style>
<g>
	<path class="st0" d="M289.8,52.8c0,0-5,5.1-11.7,5.1c-7.6,0-12.4-5.8-12.4-12.5c0-6.8,4.8-12.4,12.1-12.4c6.3,0,10.4,4.3,10.4,4.3
		l4.4-6.8c0,0-4.9-5.9-15.3-5.9c-13.2,0-21.7,9.5-21.7,20.9c0,11.6,8.5,20.9,21.7,20.9c10.7,0,16.4-6.5,16.4-6.5L289.8,52.8z"/>
	<path class="st0" d="M233.1,63.4l-0.5,1.9c0,0,0,0,0,0h7.6V49.6c0-1.4,0.1-2.6,0.3-3.9c-1.8,3.2-3.4,6.5-4.8,10
		C234.7,58.2,233.8,60.8,233.1,63.4"/>
	<path class="st1" d="M239.7,33.6l0,1c0-0.5,0-1.4,0-2.3v-6.9h-9.5v28c0-0.1,0.1-0.1,0.1-0.2c2.7-5.2,5.9-10.2,10-14.5
		c2-2.2,4.3-4.1,6.8-5.7c2.2-1.3,4.6-2.3,7.1-2.7v-5.3c0,0-0.9-0.2-1.8-0.2C246.3,25,241.5,27.9,239.7,33.6"/>
	<polygon class="st1" points="6.6,9.8 6.6,18.5 24.9,18.5 24.9,65.4 35,65.4 35,18.5 53.2,18.5 53.2,9.8 	"/>
	<path class="st1" d="M104,43.8c0,7.1-4,13.5-11.2,13.5c-4.9,0-6.2-3.3-6.2-8.1V25.5h-9.9v25.7c0,10.9,5.3,15.2,13.9,15.2
		c6.8,0,11.9-2.8,13.8-6.9v6h9.5V25.5H104V43.8z"/>
	<path class="st1" d="M129.2,36.6c0-2.5,2.5-3.6,5.1-3.6c6.1,0,9.8,3.4,9.8,3.4l3.7-7.4c0,0-4.4-4.5-13.4-4.5
		c-8.6,0-15.3,4.3-15.3,11.7c0,12.8,19.4,12.1,19.4,18c0,2.3-2.4,3.6-5.2,3.6c-6.5,0-10.9-4.4-10.9-4.4l-4.5,7c0,0,5.6,5.9,15.5,5.9
		c9.5,0,15.3-5.3,15.3-12C148.6,41.5,129.2,42.2,129.2,36.6"/>
	<path class="st1" d="M162.1,49.5V34h9.1v-7.9h-9.1V14.6h-9.9V34v16.7c0,13.4,11,15,16.5,15c1.9,0,3.1-0.2,3.1-0.2l3.1-8.7
		c0,0-3.8,0.2-4.9,0.2C167.3,57,162.1,56.1,162.1,49.5"/>
	<path class="st1" d="M194.3,42.9l4.9-14.9c1.1-3.1,2.3-8.6,2.3-8.6h0.2c0,0,1.2,5.5,2.2,8.6l4.9,14.9H194.3z M206.8,9.8h-10.6
		l-19.6,55.6h10.4l4.7-14.2h19.5l4.7,14.2h9.3h1.1l-0.5-1.5L206.8,9.8z"/>
	<path class="st1" d="M58.7,33.6l0,1.1c0-0.5,0-1.4,0-2.3v-6.9h-9.5v39.9h9.9V49.6c0-2.3,0.2-4.5,0.9-6.5c1.9-5.9,6.6-8.4,10.9-8.4
		c1.3,0,2.3,0.2,2.3,0.2v-9.8c0,0-0.9-0.2-1.8-0.2C65.3,25,60.5,27.9,58.7,33.6"/>
</g>
</svg>
