<svg width="656" height="198" viewBox="0 0 656 198" fill="none" xmlns="http://www.w3.org/2000/svg">
<path d="M182.022 3H3V130.752H182.022V3Z" fill="#95E0FC"/>
<path d="M66.352 91.752C77.08 91.752 83.632 85.416 83.632 73.896V42.72C83.632 42.288 83.344 42 82.912 42H77.944C77.512 42 77.224 42.288 77.224 42.72V73.824C77.224 81.744 72.832 85.776 66.352 85.776C59.8 85.776 55.408 81.744 55.408 73.824V42.72C55.408 42.288 55.12 42 54.688 42H49.72C49.288 42 49 42.288 49 42.72V73.896C49 85.416 55.552 91.752 66.352 91.752Z" fill="black"/>
<path d="M95.7297 90.24C95.5857 90.672 95.8017 90.96 96.2337 90.96H101.274C101.706 90.96 101.994 90.744 102.21 90.24L105.954 79.584H125.754L129.498 90.24C129.642 90.744 129.93 90.96 130.434 90.96H135.474C135.906 90.96 136.122 90.672 135.978 90.24L119.202 42.72C119.058 42.288 118.77 42 118.266 42H113.586C113.082 42 112.866 42.288 112.722 42.72L95.7297 90.24ZM108.042 73.68L115.818 51.432H115.962L123.666 73.68H108.042Z" fill="black"/>
<path fill-rule="evenodd" clip-rule="evenodd" d="M0 0H185.022V133.752H0V0ZM6 6V127.752H179.022V6H6Z" fill="black"/>
<path d="M652.022 3H182.022V131H652.022V3Z" fill="white"/>
<path d="M228.022 90.5042C228.022 90.9315 228.31 91.2164 228.741 91.2164H245.195C253.458 91.2164 258.919 87.7264 261.146 80.8888C262.008 78.2535 262.439 75.6181 262.439 66.9999C262.439 58.3817 262.008 55.7463 261.146 53.111C258.919 46.2734 253.458 42.7834 245.195 42.7834H228.741C228.31 42.7834 228.022 43.0683 228.022 43.4956V90.5042ZM234.417 84.8774V49.1224C234.417 48.8375 234.561 48.6951 234.848 48.6951H243.83C249.721 48.6951 253.386 50.6181 254.967 55.319C255.613 57.0996 255.973 59.45 255.973 66.9999C255.973 74.5498 255.613 76.9002 254.967 78.6808C253.386 83.3817 249.721 85.3047 243.83 85.3047H234.848C234.561 85.3047 234.417 85.1623 234.417 84.8774Z" fill="black"/>
<path d="M295.102 91.2164C295.533 91.2164 295.821 90.9315 295.821 90.5042V71.4159L310.263 43.5669C310.407 43.1395 310.263 42.7834 309.688 42.7834H304.731C304.228 42.7834 303.94 42.997 303.725 43.4956L292.875 64.2221H292.731L281.81 43.4956C281.522 42.997 281.235 42.7834 280.732 42.7834H275.63C275.127 42.7834 274.912 43.1395 275.056 43.5669L289.498 71.4159V90.5042C289.498 90.9315 289.785 91.2164 290.216 91.2164H295.102Z" fill="black"/>
<path d="M326.241 90.5042C326.241 90.9315 326.528 91.2164 326.959 91.2164H331.486C331.917 91.2164 332.204 90.9315 332.204 90.5042V54.3218H332.42L354.622 90.5042C354.91 91.0741 355.341 91.2164 355.844 91.2164H360.442C360.874 91.2164 361.161 90.9315 361.161 90.5042V43.4956C361.161 43.0683 360.874 42.7834 360.442 42.7834H355.916C355.485 42.7834 355.197 43.0683 355.197 43.4956V79.8204H354.91L332.779 43.4956C332.492 42.9258 332.133 42.7834 331.558 42.7834H326.959C326.528 42.7834 326.241 43.0683 326.241 43.4956V90.5042Z" fill="black"/>
<path d="M377.565 90.5042C377.421 90.9315 377.636 91.2164 378.068 91.2164H383.097C383.528 91.2164 383.816 91.0028 384.031 90.5042L387.768 79.9629H407.527L411.263 90.5042C411.407 91.0028 411.694 91.2164 412.197 91.2164H417.227C417.658 91.2164 417.874 90.9315 417.73 90.5042L400.988 43.4956C400.845 43.0683 400.557 42.7834 400.054 42.7834H395.384C394.881 42.7834 394.665 43.0683 394.522 43.4956L377.565 90.5042ZM389.851 74.1224L397.611 52.1139H397.755L405.443 74.1224H389.851Z" fill="black"/>
<path d="M434.143 90.5042C434.143 90.9315 434.43 91.2164 434.861 91.2164H439.388C439.819 91.2164 440.106 90.9315 440.106 90.5042V56.8147H440.322L452.465 83.4529C452.752 84.0939 453.112 84.3076 453.83 84.3076H456.704C457.351 84.3076 457.71 84.0939 457.998 83.4529L470.141 56.8147H470.356V90.5042C470.356 90.9315 470.643 91.2164 471.075 91.2164H475.601C476.032 91.2164 476.32 90.9315 476.32 90.5042V43.4956C476.32 43.0683 476.032 42.7834 475.601 42.7834H470.931C470.356 42.7834 469.997 42.997 469.781 43.4956L455.483 76.1167H455.267L440.681 43.4956C440.466 42.997 440.106 42.7834 439.531 42.7834H434.861C434.43 42.7834 434.143 43.0683 434.143 43.4956V90.5042Z" fill="black"/>
<path d="M497.005 90.5042C497.005 90.9315 497.292 91.2164 497.723 91.2164H502.681C503.112 91.2164 503.4 90.9315 503.4 90.5042V43.4956C503.4 43.0683 503.112 42.7834 502.681 42.7834H497.723C497.292 42.7834 497.005 43.0683 497.005 43.4956V90.5042Z" fill="black"/>
<path d="M523.65 80.604C526.093 88.2251 531.913 92 539.889 92C547.146 92 552.75 88.4388 555.553 82.2422C555.696 81.886 555.624 81.5299 555.265 81.3162L550.954 79.2507C550.523 79.037 550.092 79.2507 549.948 79.6068C548.008 83.3818 544.99 86.0883 539.889 86.0883C534.572 86.0883 531.338 83.5242 529.758 78.9658C529.111 76.9715 528.824 74.6211 528.824 67C528.824 59.3789 529.111 57.0285 529.758 55.0342C531.338 50.4758 534.572 47.9117 539.889 47.9117C544.99 47.9117 548.008 50.6182 549.948 54.3932C550.092 54.7493 550.523 54.963 550.954 54.7493L555.265 52.6838C555.624 52.4701 555.696 52.114 555.553 51.7578C552.75 45.5613 547.146 42 539.889 42C531.913 42 526.093 45.7749 523.65 53.396C522.716 56.1738 522.357 58.9516 522.357 67C522.357 75.0484 522.716 77.8262 523.65 80.604Z" fill="black"/>
<path d="M588.203 92C599.987 92 606.022 85.8746 606.022 77.3989C606.022 69.4929 601.208 65.1481 591.652 63.8661L589.281 63.51C581.736 62.5128 579.006 59.8063 579.006 55.7464C579.006 51.1168 582.311 47.9117 588.275 47.9117C592.442 47.9117 596.107 49.1225 600.058 51.5442C600.418 51.7578 600.777 51.7578 601.064 51.4017L603.507 47.4843C603.795 47.1282 603.723 46.7721 603.364 46.4872C599.771 43.8519 594.238 42 588.49 42C578.79 42 572.539 47.5556 572.539 56.1738C572.539 63.7949 577.425 68.2821 586.909 69.5641L589.352 69.9202C597.184 70.9174 599.555 73.6952 599.555 77.8262C599.555 82.7407 595.532 86.0883 588.778 86.0883C583.173 86.0883 578.287 83.5954 575.126 81.1026C574.766 80.8177 574.407 80.8177 574.12 81.1738L570.958 84.8775C570.671 85.2336 570.743 85.661 571.03 85.9459C574.623 89.2222 581.305 92 588.203 92Z" fill="black"/>
<path fill-rule="evenodd" clip-rule="evenodd" d="M179.022 0H655.022V134H179.022V0ZM185.022 6V128H649.022V6H185.022Z" fill="black"/>
<path d="M652.022 131H182.022V195H652.022V131Z" fill="black"/>
<path d="M244.022 171.718C244.177 171.718 244.307 171.615 244.333 171.462L248.636 154.538C248.662 154.385 248.61 154.282 248.429 154.282H246.018C245.862 154.282 245.733 154.359 245.707 154.538L242.985 166.282H242.933L239.563 154.538C239.512 154.385 239.434 154.282 239.252 154.282H237.438C237.282 154.282 237.179 154.385 237.127 154.538L233.835 166.282H233.783L230.983 154.538C230.957 154.385 230.854 154.282 230.672 154.282H228.236C228.054 154.282 228.002 154.385 228.028 154.538L232.357 171.462C232.409 171.615 232.513 171.718 232.668 171.718H234.612C234.768 171.718 234.872 171.615 234.923 171.462L238.319 159.538H238.371L241.741 171.462C241.793 171.615 241.896 171.718 242.052 171.718H244.022Z" fill="white"/>
<path d="M252.89 171.462C252.838 171.615 252.89 171.718 253.071 171.718H255.586C255.767 171.718 255.871 171.641 255.923 171.462L257.089 168.077H263.725L264.892 171.462C264.943 171.641 265.047 171.718 265.229 171.718H267.769C267.95 171.718 268.002 171.615 267.95 171.462L261.988 154.538C261.937 154.385 261.833 154.282 261.651 154.282H259.267C259.085 154.282 258.981 154.385 258.93 154.538L252.89 171.462ZM258.022 165.385L260.381 158.615H260.459L262.792 165.385H258.022Z" fill="white"/>
<path d="M287.656 171.718C287.837 171.718 287.941 171.564 287.837 171.385L284.13 164.282C286.152 163.538 287.474 161.769 287.474 159.487C287.474 156.41 285.089 154.282 281.849 154.282H275.032C274.876 154.282 274.773 154.385 274.773 154.538V171.462C274.773 171.615 274.876 171.718 275.032 171.718H277.572C277.728 171.718 277.831 171.615 277.831 171.462V164.821C277.831 164.718 277.883 164.667 277.987 164.667H281.02L284.389 171.462C284.467 171.641 284.571 171.718 284.778 171.718H287.656ZM281.745 161.949H277.987C277.883 161.949 277.831 161.897 277.831 161.795V157.154C277.831 157.051 277.883 157 277.987 157H281.745C283.353 157 284.441 157.974 284.441 159.487C284.441 160.974 283.353 161.949 281.745 161.949Z" fill="white"/>
<path d="M295.228 171.462C295.228 171.615 295.332 171.718 295.487 171.718H298.028C298.183 171.718 298.287 171.615 298.287 171.462V164.615C298.287 164.513 298.339 164.462 298.443 164.462H305.26C305.415 164.462 305.519 164.359 305.519 164.205V162C305.519 161.846 305.415 161.744 305.26 161.744H298.443C298.339 161.744 298.287 161.692 298.287 161.59V157.154C298.287 157.051 298.339 157 298.443 157H306.53C306.686 157 306.789 156.897 306.789 156.744V154.538C306.789 154.385 306.686 154.282 306.53 154.282H295.487C295.332 154.282 295.228 154.385 295.228 154.538V171.462Z" fill="white"/>
<path d="M310.966 171.462C310.914 171.615 310.966 171.718 311.148 171.718H313.662C313.844 171.718 313.947 171.641 313.999 171.462L315.166 168.077H321.801L322.968 171.462C323.02 171.641 323.123 171.718 323.305 171.718H325.845C326.027 171.718 326.078 171.615 326.027 171.462L320.065 154.538C320.013 154.385 319.909 154.282 319.728 154.282H317.343C317.161 154.282 317.058 154.385 317.006 154.538L310.966 171.462ZM316.099 165.385L318.458 158.615H318.535L320.868 165.385H316.099Z" fill="white"/>
<path d="M345.732 171.718C345.913 171.718 346.017 171.564 345.913 171.385L342.207 164.282C344.228 163.538 345.55 161.769 345.55 159.487C345.55 156.41 343.166 154.282 339.925 154.282H333.108C332.953 154.282 332.849 154.385 332.849 154.538V171.462C332.849 171.615 332.953 171.718 333.108 171.718H335.648C335.804 171.718 335.908 171.615 335.908 171.462V164.821C335.908 164.718 335.959 164.667 336.063 164.667H339.096L342.466 171.462C342.544 171.641 342.647 171.718 342.855 171.718H345.732ZM339.822 161.949H336.063C335.959 161.949 335.908 161.897 335.908 161.795V157.154C335.908 157.051 335.959 157 336.063 157H339.822C341.429 157 342.518 157.974 342.518 159.487C342.518 160.974 341.429 161.949 339.822 161.949Z" fill="white"/>
<path d="M353.305 171.462C353.305 171.615 353.408 171.718 353.564 171.718H364.606C364.762 171.718 364.866 171.615 364.866 171.462V169.256C364.866 169.103 364.762 169 364.606 169H356.519C356.415 169 356.363 168.949 356.363 168.846V164.436C356.363 164.333 356.415 164.282 356.519 164.282H363.336C363.492 164.282 363.595 164.179 363.595 164.026V161.821C363.595 161.667 363.492 161.564 363.336 161.564H356.519C356.415 161.564 356.363 161.513 356.363 161.41V157.154C356.363 157.051 356.415 157 356.519 157H364.606C364.762 157 364.866 156.897 364.866 156.744V154.538C364.866 154.385 364.762 154.282 364.606 154.282H353.564C353.408 154.282 353.305 154.385 353.305 154.538V171.462Z" fill="white"/>
<path d="M389.203 171.718C389.359 171.718 389.462 171.615 389.462 171.462V157.154C389.462 157.051 389.514 157 389.618 157H394.232C394.388 157 394.491 156.897 394.491 156.744V154.538C394.491 154.385 394.388 154.282 394.232 154.282H381.634C381.479 154.282 381.375 154.385 381.375 154.538V156.744C381.375 156.897 381.479 157 381.634 157H386.248C386.352 157 386.404 157.051 386.404 157.154V171.462C386.404 171.615 386.507 171.718 386.663 171.718H389.203Z" fill="white"/>
<path d="M401.407 171.462C401.407 171.615 401.511 171.718 401.666 171.718H412.709C412.865 171.718 412.968 171.615 412.968 171.462V169.256C412.968 169.103 412.865 169 412.709 169H404.621C404.518 169 404.466 168.949 404.466 168.846V164.436C404.466 164.333 404.518 164.282 404.621 164.282H411.439C411.594 164.282 411.698 164.179 411.698 164.026V161.821C411.698 161.667 411.594 161.564 411.439 161.564H404.621C404.518 161.564 404.466 161.513 404.466 161.41V157.154C404.466 157.051 404.518 157 404.621 157H412.709C412.865 157 412.968 156.897 412.968 156.744V154.538C412.968 154.385 412.865 154.282 412.709 154.282H401.666C401.511 154.282 401.407 154.385 401.407 154.538V171.462Z" fill="white"/>
<path d="M420.545 167.718C421.453 170.564 423.682 172 426.663 172C429.488 172 431.614 170.564 432.625 168.256C432.677 168.128 432.625 168 432.495 167.949L430.292 166.897C430.136 166.821 430.007 166.897 429.955 167.026C429.385 168.256 428.4 169.282 426.663 169.282C424.978 169.282 423.993 168.385 423.5 166.974C423.267 166.256 423.189 165.564 423.189 163C423.189 160.436 423.267 159.744 423.5 159.026C423.993 157.615 424.978 156.718 426.663 156.718C428.4 156.718 429.385 157.744 429.955 158.974C430.007 159.103 430.136 159.179 430.292 159.103L432.495 158.051C432.625 158 432.677 157.872 432.625 157.744C431.614 155.436 429.488 154 426.663 154C423.682 154 421.453 155.436 420.545 158.282C420.182 159.359 420.079 160.231 420.079 163C420.079 165.769 420.182 166.641 420.545 167.718Z" fill="white"/>
<path d="M439.914 171.462C439.914 171.615 440.017 171.718 440.173 171.718H442.713C442.869 171.718 442.973 171.615 442.973 171.462V164.436C442.973 164.333 443.024 164.282 443.128 164.282H449.842C449.945 164.282 449.997 164.333 449.997 164.436V171.462C449.997 171.615 450.101 171.718 450.256 171.718H452.797C452.952 171.718 453.056 171.615 453.056 171.462V154.538C453.056 154.385 452.952 154.282 452.797 154.282H450.256C450.101 154.282 449.997 154.385 449.997 154.538V161.41C449.997 161.513 449.945 161.564 449.842 161.564H443.128C443.024 161.564 442.973 161.513 442.973 161.41V154.538C442.973 154.385 442.869 154.282 442.713 154.282H440.173C440.017 154.282 439.914 154.385 439.914 154.538V171.462Z" fill="white"/>
<path d="M461.357 171.462C461.357 171.615 461.46 171.718 461.616 171.718H463.871C464.027 171.718 464.13 171.615 464.13 171.462V159.462H464.234L471.44 171.462C471.544 171.641 471.674 171.718 471.881 171.718H474.24C474.395 171.718 474.499 171.615 474.499 171.462V154.538C474.499 154.385 474.395 154.282 474.24 154.282H471.985C471.829 154.282 471.725 154.385 471.725 154.538V166.564H471.622L464.441 154.538C464.338 154.359 464.208 154.282 464.001 154.282H461.616C461.46 154.282 461.357 154.385 461.357 154.538V171.462Z" fill="white"/>
<path d="M488.969 172C492.028 172 494.309 170.564 495.216 167.795C495.579 166.718 495.683 165.744 495.683 163C495.683 160.256 495.579 159.282 495.216 158.205C494.309 155.436 492.028 154 488.969 154C485.936 154 483.655 155.436 482.748 158.205C482.385 159.282 482.281 160.256 482.281 163C482.281 165.744 482.385 166.718 482.748 167.795C483.655 170.564 485.936 172 488.969 172ZM488.969 169.282C487.232 169.282 486.195 168.41 485.703 167C485.496 166.359 485.392 165.462 485.392 163C485.392 160.513 485.496 159.641 485.703 159C486.195 157.59 487.232 156.718 488.969 156.718C490.732 156.718 491.769 157.59 492.261 159C492.468 159.641 492.572 160.513 492.572 163C492.572 165.462 492.468 166.359 492.261 167C491.769 168.41 490.732 169.282 488.969 169.282Z" fill="white"/>
<path d="M503.458 171.462C503.458 171.615 503.562 171.718 503.717 171.718H514.76C514.915 171.718 515.019 171.615 515.019 171.462V169.256C515.019 169.103 514.915 169 514.76 169H506.672C506.569 169 506.517 168.949 506.517 168.846V154.538C506.517 154.385 506.413 154.282 506.258 154.282H503.717C503.562 154.282 503.458 154.385 503.458 154.538V171.462Z" fill="white"/>
<path d="M528.159 172C531.218 172 533.499 170.564 534.406 167.795C534.769 166.718 534.873 165.744 534.873 163C534.873 160.256 534.769 159.282 534.406 158.205C533.499 155.436 531.218 154 528.159 154C525.126 154 522.845 155.436 521.938 158.205C521.575 159.282 521.471 160.256 521.471 163C521.471 165.744 521.575 166.718 521.938 167.795C522.845 170.564 525.126 172 528.159 172ZM528.159 169.282C526.422 169.282 525.386 168.41 524.893 167C524.686 166.359 524.582 165.462 524.582 163C524.582 160.513 524.686 159.641 524.893 159C525.386 157.59 526.422 156.718 528.159 156.718C529.922 156.718 530.959 157.59 531.451 159C531.659 159.641 531.762 160.513 531.762 163C531.762 165.462 531.659 166.359 531.451 167C530.959 168.41 529.922 169.282 528.159 169.282Z" fill="white"/>
<path d="M542.596 167.795C543.503 170.564 545.785 172 548.895 172C551.928 172 554.261 170.436 555.116 167.718C555.401 166.846 555.531 165.333 555.531 163.897V162.385C555.531 162.231 555.427 162.128 555.272 162.128H549.439C549.284 162.128 549.18 162.231 549.18 162.385V164.436C549.18 164.59 549.284 164.692 549.439 164.692H552.343C552.446 164.692 552.498 164.744 552.498 164.846C552.498 165.846 552.395 166.564 552.213 167.103C551.746 168.513 550.424 169.282 548.869 169.282C547.081 169.282 546.044 168.41 545.551 167C545.344 166.359 545.24 165.462 545.24 163C545.24 160.513 545.344 159.641 545.551 159C546.044 157.59 547.081 156.718 548.869 156.718C550.58 156.718 551.643 157.487 552.42 158.872C552.472 158.974 552.602 159.051 552.757 159L554.935 158.051C555.064 157.974 555.09 157.821 555.039 157.692C554.313 155.744 552.187 154 548.895 154C545.785 154 543.503 155.436 542.596 158.205C542.233 159.282 542.13 160.256 542.13 163C542.13 165.744 542.233 166.718 542.596 167.795Z" fill="white"/>
<path d="M563.306 171.462C563.306 171.615 563.41 171.718 563.566 171.718H566.106C566.261 171.718 566.365 171.615 566.365 171.462V154.538C566.365 154.385 566.261 154.282 566.106 154.282H563.566C563.41 154.282 563.306 154.385 563.306 154.538V171.462Z" fill="white"/>
<path d="M574.649 171.462C574.649 171.615 574.753 171.718 574.908 171.718H585.951C586.106 171.718 586.21 171.615 586.21 171.462V169.256C586.21 169.103 586.106 169 585.951 169H577.863C577.76 169 577.708 168.949 577.708 168.846V164.436C577.708 164.333 577.76 164.282 577.863 164.282H584.681C584.836 164.282 584.94 164.179 584.94 164.026V161.821C584.94 161.667 584.836 161.564 584.681 161.564H577.863C577.76 161.564 577.708 161.513 577.708 161.41V157.154C577.708 157.051 577.76 157 577.863 157H585.951C586.106 157 586.21 156.897 586.21 156.744V154.538C586.21 154.385 586.106 154.282 585.951 154.282H574.908C574.753 154.282 574.649 154.385 574.649 154.538V171.462Z" fill="white"/>
<path d="M599.386 172C603.767 172 606.022 169.692 606.022 166.59C606.022 163.59 604.156 162 600.76 161.538L599.827 161.41C597.442 161.077 596.587 160.256 596.587 159.051C596.587 157.692 597.572 156.718 599.36 156.718C600.838 156.718 602.16 157.154 603.585 158.077C603.715 158.154 603.845 158.128 603.948 158L605.193 156.103C605.296 155.949 605.27 155.846 605.141 155.744C603.741 154.692 601.641 154 599.438 154C595.809 154 593.476 156.103 593.476 159.256C593.476 162.154 595.394 163.769 598.79 164.231L599.723 164.359C602.16 164.692 602.937 165.513 602.937 166.769C602.937 168.231 601.719 169.282 599.619 169.282C597.649 169.282 595.965 168.333 594.824 167.436C594.72 167.333 594.565 167.333 594.461 167.462L592.854 169.308C592.75 169.436 592.802 169.59 592.906 169.692C594.28 170.974 596.794 172 599.386 172Z" fill="white"/>
<path fill-rule="evenodd" clip-rule="evenodd" d="M179.022 128H655.022V198H179.022V128ZM185.022 134V192H649.022V134H185.022Z" fill="black"/>
</svg>
