<?xml version="1.0" encoding="utf-8"?>
<!-- Generator: Adobe Illustrator 21.0.2, SVG Export Plug-In . SVG Version: 6.00 Build 0)  -->
<svg version="1.1" id="Layer_1" xmlns="http://www.w3.org/2000/svg" xmlns:xlink="http://www.w3.org/1999/xlink" x="0px" y="0px"
	 width="288px" height="62px" viewBox="0 0 288 62" style="enable-background:new 0 0 288 62;" xml:space="preserve">
<style type="text/css">
	.st0{fill:#FFFFFF;}
	.st1{fill:#FF8000;}
	.st2{fill:#00B39B;}
	.st3{fill-rule:evenodd;clip-rule:evenodd;}
	.st4{fill-rule:evenodd;clip-rule:evenodd;fill:#FFFFFF;}
	.st5{fill-rule:evenodd;clip-rule:evenodd;fill:#1A4D60;}
	.st6{fill-rule:evenodd;clip-rule:evenodd;fill:#FF8000;}
	.st7{fill-rule:evenodd;clip-rule:evenodd;fill:#00B39B;}
</style>
<g id="_x3C_unacast_logo_x3E__1_">
	<polygon class="st1" points="285.5,56.3 279.6,59.6 273.8,56.3 273.8,49.5 279.6,46.1 285.5,49.5 	"/>
	<path d="M259.3,57.3c-8.8,0-12.6-6.2-12.6-12.4V2.4h10.8v12.8h8.6v8.2h-8.6v20.8c0,2.5,1.2,3.9,3.7,3.9h4.9v9.2H259.3z M222.7,57.8
		c-6.8,0-12.9-0.7-18.5-6.2l7.1-7.1c3.5,3.6,8.2,4.1,11.6,4.1c3.7,0,7.7-1.2,7.7-4.5c0-2.2-1.1-3.7-4.6-4l-7-0.7
		c-7.7-0.7-12.5-4.2-12.5-12.1c0-9.1,7.9-13.8,16.7-13.8c6.8,0,12.4,1.2,16.6,5.1l-6.7,6.7c-2.5-2.2-6.2-2.9-10.1-2.9
		c-4.3,0-6.2,2-6.2,4.2c0,2.2,1.2,3.4,4.5,3.7l6.8,0.7c8.6,0.8,12.9,5.3,12.9,12.7C241.1,53.2,232.9,57.8,222.7,57.8z M189,57.3
		v-3.7c-2.9,2.9-5.7,4.2-10.7,4.2c-4.9,0-8.6-1.3-11.1-3.8c-2.3-2.4-3.6-5.9-3.6-9.7c0-6.9,5.6-10.9,14.9-12.8
		c9.3-1.9,10.1-2.2,10.1-2.2v-0.2c0-4.1-2.4-6.4-7.7-6.4c-3.5,0-6,1.7-6.7,3.5l-8.8-2.8c1.6-6.5,9.1-9.8,16.3-9.8
		c11.1,0,17.7,5.2,17.7,15.3v28.5H189z M188.7,36.7c0,0-4.6,1.1-8.3,2c-3.7,0.9-6.6,2.3-6.6,5.6c0,3,1.6,4.8,6.1,4.8
		c2.7,0,5.2-0.6,7.1-2.3c1.2-1.1,1.7-4.6,1.7-7.4V36.7z M159.8,25.5c-1.6-5-6.9-12.2-17.4-12.2c-11.8,0-20.9,9.4-20.9,22.3
		c0,13.3,9.1,22.3,20.6,22.3c7.2,0,15.8-4.5,18-13.4l-8.6-3.4c-0.9,2.8-2.9,7.4-9.2,7.4c-6.6,0-10.5-5.5-10.5-13.1
		c0-8.4,4.6-13,10.3-13c5.7,0,7.9,3.8,8.6,6.6L159.8,25.5z"/>
	<path d="M110.5,56.6v-4.2c-3.6,3.6-6.9,4.7-12.8,4.7c-6.3,0-9.7-1-12.4-3.8c-2-2-3.1-5.1-3.1-8.2c0-7.7,5.3-11.1,14.3-13
		s13.9-3.2,13.9-3.2v-0.6c0-6.7-3.2-10.3-11.9-10.3c-5.9,0-8.2,1.7-10.6,4.8l-3.6-1.7c2.9-4.9,7.3-7.1,14.2-7.1
		c11.2,0,16.3,5,16.3,13.8v28.8H110.5z M110.5,32.6c0,0-6.1,1.3-12.8,2.9c-6.7,1.6-11,3.8-11,9.5c0,5.6,3.3,8.2,11,8.2
		c3.8,0,7.4-0.3,10.5-3.2c1.6-1.5,2.4-4.2,2.4-8V32.6z M72,56.6V30.5c0-8.1-4-12.6-11.6-12.6c-7.6,0-11.9,4.5-11.9,12.6v26.1H44
		V14.6h4.4v5c3.1-3.7,7.2-5.5,12.4-5.5c4.6,0,8.4,1.3,11.2,4c2.9,2.8,4.4,6.7,4.4,11.7v26.9H72z M19.1,57.1c4.6,0,8.4-1.3,11.2-4
		c2.9-2.8,4.4-6.7,4.4-11.7V14.6h-4.4v26.1c0,8.1-4,12.6-11.6,12.6S6.9,48.8,6.9,40.7V14.6H2.5v26.9c0,5,1.5,8.9,4.4,11.7
		c2.8,2.7,6.5,4,11.2,4H19.1z"/>
</g>
</svg>
