<?xml version="1.0" encoding="UTF-8" standalone="no"?>
<!DOCTYPE svg PUBLIC "-//W3C//DTD SVG 1.1//EN" "http://www.w3.org/Graphics/SVG/1.1/DTD/svg11.dtd">
<svg xmlns="http://www.w3.org/2000/svg" version="1.1" viewBox="0.00 0.00 2223.00 477.00" width="2223.00" height="477.00">
<path fill="#1b1b1b" d="
  M 2076.02 421.04
  C 2068.14 432.61 2059.60 442.31 2050.39 450.15
  C 2026.28 470.69 1998.06 479.22 1965.75 475.75
  C 1932.58 472.18 1906.32 456.95 1886.96 430.06
  C 1870.23 406.82 1861.65 377.05 1859.09 348.39
  C 1857.54 331.07 1857.57 313.97 1859.17 297.09
  C 1862.69 259.72 1875.08 223.25 1899.29 195.02
  C 1915.39 176.25 1934.78 162.55 1957.47 153.92
  C 1976.06 146.86 1995.66 143.31 2016.29 143.26
  C 2025.40 143.24 2034.00 144.06 2042.08 145.71
  C 2053.16 147.98 2064.43 152.16 2073.20 158.60
  C 2074.24 159.36 2075.20 160.01 2076.07 160.54
  C 2076.36 160.71 2076.50 160.63 2076.50 160.30
  L 2076.50 63.57
  C 2076.50 63.32 2076.36 63.09 2076.14 62.97
  L 2043.87 46.57
  C 2043.64 46.45 2043.49 46.22 2043.49 45.96
  L 2043.49 28.53
  C 2043.49 28.25 2043.69 28.01 2043.96 27.95
  C 2121.54 10.89 2161.47 2.09 2163.75 1.56
  C 2167.47 0.69 2170.67 0.31 2173.36 0.44
  C 2175.75 0.55 2180.45 0.56 2187.44 0.49
  C 2187.61 0.48 2187.75 0.62 2187.75 0.80
  C 2187.75 224.52 2187.75 360.84 2187.76 409.75
  C 2187.76 412.90 2188.25 416.32 2189.23 420.03
  C 2191.23 427.61 2197.26 430.36 2204.57 430.98
  C 2205.80 431.09 2211.62 431.37 2222.05 431.83
  C 2222.35 431.84 2222.50 432.00 2222.50 432.31
  L 2222.50 454.97
  C 2222.50 455.31 2222.34 455.51 2222.01 455.56
  C 2190.32 460.76 2150.44 467.35 2102.38 475.34
  C 2097.84 476.09 2093.38 476.48 2088.99 476.51
  C 2085.20 476.54 2080.58 476.52 2075.13 476.47
  C 2074.86 476.47 2074.64 476.24 2074.65 475.97
  L 2076.39 421.16
  C 2076.40 420.71 2076.28 420.67 2076.02 421.04
  Z
  M 2029.24 177.19
  C 2013.91 178.61 2001.48 185.63 1991.94 198.26
  C 1980.60 213.29 1974.82 232.12 1971.96 251.02
  C 1969.54 267.01 1968.69 283.88 1969.40 301.63
  C 1969.99 316.43 1971.82 330.59 1974.90 344.10
  C 1982.18 376.04 2000.84 410.88 2037.73 413.59
  C 2051.30 414.59 2064.05 411.96 2075.96 405.69
  C 2076.29 405.52 2076.50 405.17 2076.50 404.80
  C 2076.51 323.91 2076.50 269.46 2076.48 241.45
  C 2076.47 235.54 2076.33 230.63 2076.05 226.72
  C 2074.71 208.04 2069.76 186.15 2049.91 179.48
  C 2043.37 177.28 2036.48 176.52 2029.24 177.19
  Z"
/>
<path fill="#1b1b1b" d="
  M 0.00 74.52
  L 0.00 49.03
  L 204.22 49.00
  C 204.58 49.00 204.76 49.18 204.76 49.54
  L 204.76 73.97
  C 204.76 74.28 204.61 74.44 204.30 74.47
  C 198.18 75.04 192.15 75.86 186.22 76.92
  C 182.09 77.65 178.22 78.72 174.61 80.12
  C 167.49 82.89 163.31 88.20 162.06 96.06
  C 161.51 99.48 161.23 102.46 161.21 105.01
  C 161.00 130.84 160.93 202.50 161.01 320.01
  C 161.01 323.54 161.38 329.39 162.13 337.57
  C 163.21 349.35 165.64 360.57 169.42 371.22
  C 176.61 391.47 189.44 407.95 208.61 416.96
  C 226.28 425.26 246.48 427.02 266.00 425.15
  C 275.87 424.20 285.07 422.08 293.61 418.80
  C 313.06 411.33 327.65 398.19 337.37 379.39
  C 345.68 363.31 349.45 345.24 350.91 326.90
  C 351.28 322.24 351.47 315.57 351.47 306.90
  C 351.48 260.12 351.49 195.24 351.49 112.25
  C 351.49 110.14 351.23 106.64 350.72 101.75
  C 349.53 90.48 343.49 83.20 332.60 79.93
  C 328.26 78.62 324.35 77.70 320.87 77.15
  C 312.98 75.90 304.77 75.01 296.24 74.49
  C 295.91 74.47 295.75 74.30 295.75 73.97
  L 295.75 49.25
  C 295.75 49.11 295.86 49.00 295.99 49.00
  L 433.99 49.00
  C 434.55 49.00 435.00 49.45 435.00 50.01
  L 435.00 73.96
  C 435.00 74.27 434.84 74.45 434.53 74.48
  C 425.11 75.45 416.27 76.54 407.48 79.48
  C 399.15 82.26 394.33 88.02 393.01 96.75
  C 392.74 98.55 392.50 100.45 392.31 102.45
  C 392.11 104.43 392.01 106.33 392.01 108.14
  C 392.00 169.63 391.99 241.08 392.00 322.50
  C 392.00 325.17 391.81 329.78 391.44 336.31
  C 390.55 351.80 387.65 366.64 382.74 380.81
  C 372.29 410.92 353.46 434.32 326.25 451.02
  C 301.13 466.43 270.94 474.10 241.25 475.94
  C 227.86 476.77 214.02 476.67 199.74 475.64
  C 172.55 473.68 146.02 468.42 122.50 457.81
  C 87.11 441.83 63.44 415.76 51.49 379.59
  C 47.68 368.06 45.18 355.24 43.99 341.11
  C 43.53 335.75 43.30 329.03 43.29 320.95
  C 43.25 273.61 43.25 203.95 43.28 111.96
  C 43.28 110.79 43.22 109.16 43.11 107.09
  C 42.56 96.70 42.29 86.04 31.76 80.97
  C 29.44 79.85 27.06 78.99 24.63 78.40
  C 16.54 76.41 8.33 75.11 0.00 74.52
  Z"
/>
<path fill="#1b1b1b" d="
  M 1130.23 275.93
  C 1130.23 275.69 1130.03 275.49 1129.79 275.49
  L 978.50 275.49
  C 978.17 275.49 978.00 275.66 978.00 275.99
  C 978.00 359.44 978.05 403.77 978.16 409.00
  C 978.20 411.03 978.22 412.61 978.23 413.75
  C 978.26 418.39 978.90 422.86 980.15 427.15
  C 982.84 436.36 991.10 439.99 999.74 441.82
  C 1006.32 443.21 1013.21 444.23 1020.41 444.87
  C 1020.97 444.92 1021.25 445.23 1021.25 445.79
  L 1021.25 470.25
  C 1021.25 470.39 1021.14 470.50 1021.00 470.50
  L 817.00 470.50
  C 816.72 470.50 816.50 470.28 816.50 470.00
  L 816.50 445.93
  C 816.50 445.35 816.95 444.87 817.53 444.82
  C 826.50 444.15 834.96 442.76 842.92 440.65
  C 851.99 438.24 857.40 432.74 859.15 424.14
  C 859.85 420.70 860.22 415.94 860.23 411.53
  C 860.31 285.36 860.30 183.17 860.20 104.96
  C 860.19 99.21 859.07 93.80 856.82 88.75
  C 854.53 83.59 848.06 80.17 842.38 78.64
  C 834.01 76.39 825.43 75.46 817.06 74.43
  C 816.69 74.38 816.50 74.17 816.50 73.80
  L 816.50 49.25
  C 816.50 49.11 816.61 49.00 816.74 49.00
  L 1020.76 49.00
  C 1021.09 49.00 1021.25 49.16 1021.25 49.49
  L 1021.25 73.97
  C 1021.25 74.28 1021.10 74.45 1020.79 74.48
  C 1014.41 75.11 1008.54 75.92 1003.17 76.89
  C 998.86 77.68 994.96 78.77 991.46 80.17
  C 982.96 83.57 979.77 90.19 978.78 98.76
  C 978.28 103.07 978.03 107.65 978.02 112.51
  C 977.99 150.38 977.99 191.80 978.03 236.79
  C 978.03 237.46 978.57 238.00 979.23 238.00
  L 1129.98 238.00
  C 1130.13 238.00 1130.25 237.88 1130.25 237.73
  C 1130.27 181.20 1130.26 136.81 1130.23 104.56
  C 1130.22 100.88 1129.52 96.73 1128.13 92.10
  C 1126.66 87.24 1123.79 83.72 1119.51 81.54
  C 1116.12 79.81 1112.82 78.58 1109.61 77.87
  C 1103.03 76.41 1095.49 75.28 1086.98 74.49
  C 1086.66 74.46 1086.50 74.28 1086.50 73.95
  L 1086.50 49.24
  C 1086.50 49.11 1086.61 49.00 1086.74 49.00
  L 1290.75 49.00
  C 1291.08 49.00 1291.25 49.17 1291.25 49.50
  L 1291.25 73.97
  C 1291.25 74.28 1291.10 74.45 1290.80 74.48
  C 1280.88 75.52 1270.35 76.62 1261.44 80.17
  C 1254.58 82.91 1250.91 87.79 1249.40 95.25
  C 1248.51 99.64 1248.06 104.08 1248.06 108.58
  C 1247.93 269.77 1247.96 369.50 1248.15 407.75
  C 1248.17 412.03 1248.29 415.61 1248.51 418.50
  C 1248.76 421.73 1249.34 424.73 1250.24 427.51
  C 1253.18 436.54 1261.07 439.96 1269.73 441.81
  C 1276.23 443.20 1283.13 444.23 1290.42 444.88
  C 1290.97 444.93 1291.25 445.24 1291.25 445.79
  L 1291.25 470.26
  C 1291.25 470.39 1291.14 470.50 1291.01 470.50
  L 1087.25 470.50
  C 1086.84 470.50 1086.50 470.16 1086.50 469.74
  L 1086.50 445.80
  C 1086.50 445.23 1086.78 444.92 1087.35 444.87
  C 1095.88 444.14 1103.62 442.95 1110.57 441.30
  C 1115.41 440.16 1121.15 437.86 1124.41 434.09
  C 1127.08 431.00 1128.72 427.24 1129.32 422.81
  C 1129.91 418.43 1130.20 415.18 1130.21 413.05
  C 1130.30 364.78 1130.31 319.07 1130.23 275.93
  Z"
/>
<path fill="#1b1b1b" d="
  M 575.80 199.40
  C 584.44 188.37 593.79 178.77 603.86 170.59
  C 634.67 145.54 670.00 136.23 709.85 142.68
  C 722.66 144.75 736.57 150.41 746.68 158.54
  C 756.80 166.67 764.36 177.06 769.36 189.71
  C 774.49 202.69 776.89 216.68 777.49 231.12
  C 777.66 234.97 777.74 237.75 777.74 239.48
  C 777.76 324.83 777.77 387.00 777.76 426.01
  C 777.76 427.42 778.01 429.28 778.50 431.58
  C 780.52 440.98 788.27 443.95 797.00 445.28
  C 801.29 445.94 805.87 446.43 810.73 446.76
  C 811.08 446.78 811.25 446.96 811.25 447.31
  L 811.25 469.99
  C 811.25 470.33 811.08 470.50 810.75 470.50
  L 634.99 470.50
  C 634.86 470.50 634.75 470.39 634.75 470.25
  L 634.75 447.26
  C 634.75 446.89 634.93 446.70 635.30 446.68
  C 643.79 446.25 650.49 445.24 655.38 443.63
  C 665.07 440.44 666.48 432.09 666.49 423.04
  C 666.52 334.14 666.51 274.64 666.45 244.53
  C 666.44 239.58 665.57 234.16 663.83 228.25
  C 659.49 213.58 646.78 207.48 632.47 206.61
  C 618.28 205.74 604.32 207.81 590.57 212.82
  C 585.46 214.68 580.42 216.83 575.45 219.27
  C 575.17 219.40 575.00 219.68 575.00 219.98
  C 575.00 316.87 575.00 385.96 575.00 427.25
  C 575.00 429.44 575.48 431.82 576.44 434.40
  C 578.11 438.91 581.26 441.92 585.89 443.45
  C 591.10 445.16 598.05 446.26 606.75 446.74
  C 607.08 446.75 607.25 446.93 607.25 447.26
  L 607.25 470.26
  C 607.25 470.39 607.14 470.49 607.01 470.49
  L 431.00 470.49
  C 430.73 470.49 430.51 470.27 430.51 470.00
  L 430.51 447.28
  C 430.51 446.97 430.67 446.80 430.98 446.78
  C 435.51 446.48 440.02 446.00 444.52 445.33
  C 452.73 444.12 460.66 441.38 463.03 433.04
  C 463.78 430.43 464.16 427.59 464.19 424.52
  C 464.24 417.44 464.27 347.13 464.28 213.58
  C 464.28 213.22 464.09 212.89 463.79 212.70
  L 431.70 192.87
  C 431.41 192.68 431.26 192.42 431.26 192.07
  L 431.26 176.03
  C 431.26 175.72 431.47 175.44 431.77 175.36
  C 512.04 153.07 552.51 141.84 553.18 141.66
  C 555.65 140.97 558.05 140.65 560.40 140.69
  C 564.55 140.76 570.01 140.78 576.78 140.76
  C 577.08 140.75 577.32 141.01 577.31 141.31
  C 576.62 157.56 576.02 172.51 575.52 186.16
  C 575.52 186.24 575.41 187.93 575.18 191.22
  C 574.93 194.89 575.00 197.59 575.40 199.31
  C 575.47 199.62 575.61 199.65 575.80 199.40
  Z"
/>
<path fill="#1b1b1b" d="
  M 1399.81 288.01
  C 1399.44 306.83 1402.21 324.57 1408.12 341.23
  C 1412.62 353.90 1420.17 366.85 1429.76 376.73
  C 1447.39 394.88 1469.65 403.63 1496.52 403.00
  C 1520.10 402.44 1541.96 396.02 1560.36 381.60
  C 1568.29 375.39 1575.43 368.04 1581.77 359.57
  C 1581.95 359.33 1582.29 359.26 1582.54 359.42
  L 1593.32 366.08
  C 1593.63 366.27 1593.74 366.55 1593.65 366.90
  C 1587.95 390.26 1577.83 412.71 1562.31 431.07
  C 1547.41 448.68 1528.92 461.18 1506.84 468.59
  C 1494.25 472.82 1480.94 475.33 1466.91 476.13
  C 1454.70 476.83 1442.75 476.42 1431.06 474.91
  C 1412.25 472.48 1394.73 467.14 1378.48 458.89
  C 1343.91 441.34 1319.44 411.01 1307.74 373.79
  C 1302.69 357.73 1299.93 340.78 1299.45 322.95
  C 1299.28 316.40 1299.38 309.72 1299.75 302.93
  C 1302.72 249.56 1326.21 198.80 1370.82 168.09
  C 1391.08 154.14 1413.59 145.49 1438.34 142.14
  C 1448.96 140.70 1460.05 140.34 1471.60 141.06
  C 1478.50 141.49 1485.11 142.27 1491.43 143.39
  C 1504.49 145.70 1516.70 149.69 1528.05 155.38
  C 1550.96 166.85 1568.90 186.18 1579.09 209.60
  C 1587.06 227.95 1591.11 247.59 1591.22 268.54
  C 1591.27 277.42 1591.26 283.58 1591.20 287.03
  C 1591.19 287.34 1591.04 287.49 1590.73 287.49
  L 1400.34 287.49
  C 1399.99 287.49 1399.82 287.66 1399.81 288.01
  Z
  M 1495.79 259.75
  C 1496.02 259.75 1496.21 259.56 1496.22 259.33
  C 1496.51 242.77 1495.32 227.01 1492.65 212.05
  C 1491.97 208.25 1491.04 204.35 1489.85 200.35
  C 1485.18 184.59 1476.37 169.33 1458.73 166.67
  C 1448.90 165.19 1439.97 167.07 1431.95 172.30
  C 1421.50 179.10 1414.45 191.76 1410.18 203.97
  C 1404.20 221.04 1401.41 240.55 1400.47 259.23
  C 1400.46 259.58 1400.62 259.75 1400.97 259.75
  L 1495.79 259.75
  Z"
/>
<path fill="#1b1b1b" d="
  M 1745.71 230.83
  C 1745.80 230.12 1745.92 229.53 1746.08 229.07
  C 1749.97 217.82 1754.63 206.32 1760.04 194.57
  C 1765.17 183.42 1771.06 173.56 1777.69 164.97
  C 1787.24 152.60 1799.88 144.23 1815.50 141.73
  C 1823.50 140.44 1831.26 140.42 1838.77 141.67
  C 1846.12 142.88 1852.49 145.82 1857.87 150.47
  C 1858.12 150.69 1858.25 150.96 1858.25 151.29
  L 1858.25 234.03
  C 1858.25 234.34 1857.99 234.60 1857.68 234.59
  C 1841.12 234.26 1825.82 234.48 1811.78 235.26
  C 1798.06 236.02 1785.49 238.11 1774.06 241.54
  C 1763.85 244.61 1754.29 249.34 1745.36 255.73
  C 1745.13 255.89 1745.00 256.15 1745.00 256.42
  C 1744.99 359.73 1745.00 414.00 1745.01 419.24
  C 1745.02 421.69 1745.69 424.70 1747.02 428.28
  C 1748.97 433.51 1752.53 437.27 1757.70 439.56
  C 1761.85 441.39 1766.25 442.74 1770.90 443.59
  C 1778.25 444.94 1785.47 445.98 1792.56 446.72
  C 1792.81 446.74 1793.00 446.95 1793.00 447.20
  L 1793.00 470.25
  C 1793.00 470.39 1792.89 470.50 1792.75 470.50
  L 1601.25 470.50
  C 1600.75 470.50 1600.50 470.25 1600.50 469.75
  L 1600.50 447.30
  C 1600.50 446.95 1600.68 446.76 1601.03 446.74
  C 1610.06 446.22 1617.20 445.13 1622.43 443.47
  C 1631.87 440.47 1634.25 432.56 1634.25 423.19
  C 1634.26 338.24 1634.26 268.35 1634.25 213.51
  C 1634.25 213.14 1634.10 212.87 1633.79 212.68
  L 1601.70 192.84
  C 1601.40 192.66 1601.25 192.39 1601.25 192.04
  L 1601.25 176.03
  C 1601.25 175.69 1601.41 175.48 1601.74 175.39
  C 1661.37 158.86 1701.42 147.76 1721.89 142.08
  C 1725.30 141.14 1728.17 140.68 1730.52 140.69
  C 1736.30 140.72 1741.70 140.76 1746.72 140.80
  C 1747.09 140.81 1747.28 141.00 1747.27 141.37
  C 1746.92 155.07 1746.17 184.03 1745.01 228.24
  C 1744.97 229.85 1745.10 230.76 1745.40 230.97
  C 1745.58 231.10 1745.68 231.06 1745.71 230.83
  Z"
/>
</svg>
