<?xml version="1.0" encoding="UTF-8" standalone="no"?>
<svg xmlns="http://www.w3.org/2000/svg" version="1.0" width="225" height="225">
<circle cy="112.5" cx="112.5" r="106.7" fill="#fff"/>
<path d="M11,78.75H214A106.7,106.7 0 0 0 11,78.75z" fill="#002868"/>
<path d="M11,146.25H214A106.7,106.7 0 0 1 11,146.25z" fill="#bf0a30"/>
<circle cy="112.5" cx="112.5" r="106.7" fill="none" stroke="#4b5320" stroke-width="11.25"/>
</svg>
