<?xml version="1.0" encoding="utf-8"?>
<!-- Generator: Adobe Illustrator 13.0.0, SVG Export Plug-In . SVG Version: 6.00 Build 14948)  -->
<!DOCTYPE svg PUBLIC "-//W3C//DTD SVG 1.1 Tiny//EN" "http://www.w3.org/Graphics/SVG/1.1/DTD/svg11-tiny.dtd">
<svg version="1.1" baseProfile="tiny" id="Layer_1" xmlns="http://www.w3.org/2000/svg" xmlns:xlink="http://www.w3.org/1999/xlink"
	 x="0px" y="0px" width="136px" height="174px" viewBox="0 0 136 174" xml:space="preserve">
<g>
	<polygon fill="#FFFFFF" points="126,87.25 10.5,87.25 16,5.5 121,5.5 	"/>
	<polygon fill="#CC0033" points="126,87.25 131,169 5,169 10.5,87.25 	"/>
	<polygon points="24.5,14 113.5,14 121,161 96.5,161 91,99.5 46,99.5 40,161 16,161 	"/>
	<polygon fill="#FFFFFF" points="46,75 48.5,39.5 89,39.5 91,75 	"/>
	<polygon fill="none" stroke="#003300" stroke-width="5" points="131,169 5,169 16,5.5 121,5.5 	"/>
</g>
</svg>
