<?xml version="1.0" encoding="UTF-8"?>
<!-- Created with Inkscape by Vulphere (http://www.inkscape.org/) -->
<svg width="29.934mm" height="11.295mm" version="1.1" viewBox="0 0 29.934 11.295" xmlns="http://www.w3.org/2000/svg">
 <g transform="translate(-78.776 -81.087)">
  <g transform="matrix(.35278 0 0 -.35278 93.827 83.616)" style="fill:#0c0c0c">
   <path d="m0 0c0.071 0.107 0.286 0.036 0.437 0.032 0.204-5e-3 0.155-0.306 0.436-0.246s0.285-0.267 0.686-0.255c0.403 0.012-0.08-0.141-0.08-0.141s-0.249 0.12-0.41 0.04c-0.085-0.043 0.031 0.024-0.111 0.141-0.221 0.18-0.191-0.034-0.561 0.28-0.262 0.223-0.514-0.026-0.397 0.149" style="fill-rule:evenodd;fill:#0c0c0c"/>
  </g>
  <g transform="matrix(.35278 0 0 -.35278 92.762 83.762)" style="fill:#0c0c0c">
   <path d="m0 0c-0.238 0.384-0.06 0.863 0.21 1.328 0.198 0.343 0.726 0.494 1.187 0.314 0.517 0.408 0.64-0.03 1.097 0.168 0.601 0.26 0.266-0.692 0.847-0.932 0.24 0.641-0.548 1.124-0.053 1.426 0.353 0.215 0.62 0.349 0.764 0.637 0.206 0.412 0.287 0.713 0.446 0.766 0.366 0.125 0.287 0.474 0.287 0.474s0.391-0.114 0.693 0.17c-0.231 0.125-0.57 0.233-0.48 0.482 0.104 0.293 0.891-0.304 1.122 0.178-0.467 0.204-0.944 0.646-1.229 0.748-0.196-0.214-0.319-0.128-0.57 0.072-0.428 0.338-0.464 0.017-0.731 0.249-0.213-0.428 0.109-0.394 0.206-0.501 0.275-0.301-0.277 0.269-0.224-0.497 0.014-0.198-0.279-0.235-0.498 0.196-0.114 0.225-1.021 0.178-1.159 0.392 0.125 0.25 1.194 1.14 2.834 0.926-2.382 0.936-5.601-0.086-5.633-0.441-0.321-0.202-0.211-0.432-0.371-0.485-0.278-0.092-0.58-0.94-0.58-0.94s0.173-0.114-0.366-0.718c-0.444-0.497-0.575-1.249-0.575-1.249s0.293-0.536 0.238-1.155c-0.042-0.471-0.062-0.122 0.143-0.463 0.119-0.2 0.25-0.898 0.329-0.626 0.151 0.519-0.276 1-0.205 1.517 0.016-0.065 0.164 0.205 0.158-0.039-0.015-0.638 0.786-1.868 0.786-1.868s-0.299-0.304 0.014-0.304l-0.08-0.188s0.232 0.013 0.382-0.109c0.15-0.123 0.279-0.274 0.416-0.274h2.304s0.164 0.699 0.298 0.818c0.134 0.118-0.268 0-0.386 0.118-0.119 0.12-0.194-0.103-0.253-0.222-0.06-0.119-0.134-0.328-0.313-0.387-0.178-0.06-0.608-0.089-0.698-0.089-0.089 0-0.357 0.508-0.357 0.508" style="fill:#0c0c0c"/>
  </g>
  <g transform="matrix(.35278 0 0 -.35278 96.57 86.402)" style="fill:#0c0c0c">
   <path d="m0 0c-0.09 0.119 0.015 0.298 0.015 0.298h-6.497l0.724-0.632c0.159-0.064 0.36-0.224 0.451-0.467 0.217-0.575-0.105-0.109-0.105-0.978 0-0.799-0.226-0.67-0.226-0.67s-0.048-0.945-0.537-1.525c-0.31-0.312-0.069-0.571-0.069-0.571s-0.105-0.059-0.257-0.744c-0.05-0.222 0.234-0.564 0.48-0.479 0.185 0.065-0.448 0.126 0.239 0.415 0.264 0.112 0.048 0.322 0.048 0.322s0.444 0.035 0.694 0.706c0.443-0.064 0.279 0.207 1.19 0.403 0.24 0.052 0.292 0.125 0.262 0.351-0.03 0.227 0.296-0.033 1.199 0.888 0.712 0.726 0.455 0.89 0.947 1.153 0.52 0.278 0.567-0.023 0.742 0.202 0.396 0.517 0.257 0.483 0.423 0.813l0.116 0.182s0.25 0.214 0.161 0.333" style="fill:#0c0c0c"/>
  </g>
  <g transform="matrix(.35278 0 0 -.35278 94.968 83.956)" style="fill:#0c0c0c">
   <path d="m0 0c-7e-3 -0.073-0.087-0.087-0.145-0.087l-0.028 0.144c0.072 8e-3 0.115-0.028 0.173-0.057" style="fill:#0c0c0c"/>
  </g>
  <g transform="matrix(.35278 0 0 -.35278 94.784 83.916)" style="fill:#0c0c0c">
   <path d="m0 0c-0.232-0.05-0.477 0-0.693-0.173-0.015 0.05-0.073 0.137-0.144 0.115h-0.088c0.202 0.167-0.115 0.34 0.232 0.347 0.266-7e-3 0.461-0.195 0.693-0.289" style="fill:#0c0c0c"/>
  </g>
  <g transform="matrix(.35278 0 0 -.35278 86.733 84.389)" style="fill:#0c0c0c">
   <path d="m0 0h-1.81l0.27-0.322v-2.377c0-0.534-0.354-0.759-0.882-0.759s-0.883 0.225-0.883 0.759v2.377l0.271 0.322h-1.81l0.27-0.322v-2.415c0-1.186 0.664-1.643 2.152-1.643s2.151 0.457 2.151 1.643v2.415l0.271 0.322" style="fill:#0c0c0c"/>
  </g>
  <g transform="matrix(.35278 0 0 -.35278 88.949 84.389)" style="fill:#0c0c0c">
   <path d="m0 0h-1.527l0.27-0.322v-2.164l-2.189 2.486h-1.373l0.271-0.322v-3.652l-0.271-0.322h1.527l-0.27 0.322v2.203l2.325-2.525h0.967v3.974z" style="fill:#0c0c0c"/>
  </g>
  <g transform="matrix(.35278 0 0 -.35278 90.19 85.905)" style="fill:#0c0c0c">
   <path d="m0 0-0.27 0.322v3.652l0.27 0.322h-1.823l0.271-0.322v-3.652l-0.271-0.322z" style="fill:#0c0c0c"/>
  </g>
  <g transform="matrix(.35278 0 0 -.35278 92.311 84.389)" style="fill:#0c0c0c">
   <path d="m0 0h-1.533l0.271-0.322-1.083-2.364-1.043 2.364 0.27 0.322h-1.803l2.003-4.296h0.895z" style="fill:#0c0c0c"/>
  </g>
  <g transform="matrix(.35278 0 0 -.35278 94.117 85.905)" style="fill:#0c0c0c">
   <path d="m0 0v1.166l-0.323-0.27h-2.196v0.824h1.392l0.315-0.271v1.398l-0.315-0.27h-1.392v0.824h2.196l0.323-0.271v1.166h-4.046l0.271-0.322v-3.652l-0.271-0.322z" style="fill:#0c0c0c"/>
  </g>
  <g transform="matrix(.35278 0 0 -.35278 96.289 85.905)" style="fill:#0c0c0c">
   <path d="m0 0-1.166 1.694c0.573 0.232 0.973 0.676 0.973 1.301 0 0.715-0.438 1.301-1.662 1.301h-2.68l0.27-0.322v-3.652l-0.27-0.322h1.797l-0.27 0.322v1.218h0.541l0.824-1.218-0.27-0.322zm-1.482 2.905c0-0.309-0.296-0.561-0.708-0.561h-0.818v1.057h0.972c0.284 0 0.554-0.142 0.554-0.496" style="fill-rule:evenodd;fill:#0c0c0c"/>
  </g>
  <g transform="matrix(.35278 0 0 -.35278 98.209 85.462)" style="fill:#0c0c0c">
   <path d="m0 0c0 0.683-0.548 1.063-1.341 1.321-0.515 0.161-1.242 0.276-1.242 0.618 0 0.168 0.199 0.283 0.547 0.283 0.464 0 1.224-0.193 1.816-0.476v1.436l-0.341-0.328c-0.361 0.148-0.986 0.302-1.417 0.302-1.462 0-1.932-0.644-1.932-1.23 0-0.799 0.528-1.147 1.359-1.436 0.618-0.213 1.191-0.232 1.191-0.586 0-0.304-0.353-0.342-0.535-0.342-0.456 0-1.268 0.161-1.989 0.631v-1.591l0.341 0.374c0.335-0.129 1.088-0.348 1.706-0.348 1.27 0 1.837 0.561 1.837 1.372" style="fill:#0c0c0c"/>
  </g>
  <g transform="matrix(.35278 0 0 -.35278 100.48 85.905)" style="fill:#0c0c0c">
   <path d="m0 0-2.113 4.296h-1.449l0.154-0.322-1.913-3.974h1.578l-0.27 0.322 0.212 0.451h2.048l0.208-0.451-0.271-0.322zm-2.067 1.546h-1.424l0.709 1.539z" style="fill-rule:evenodd;fill:#0c0c0c"/>
  </g>
  <g transform="matrix(.35278 0 0 -.35278 102.27 85.905)" style="fill:#0c0c0c">
   <path d="m0 0v1.166l-0.323-0.27h-2.068v3.078l0.271 0.322h-1.797l0.271-0.322v-3.652l-0.271-0.322z" style="fill:#0c0c0c"/>
  </g>
  <g transform="matrix(.35278 0 0 -.35278 101.98 84.717)" style="fill:#0c0c0c">
   <path d="m0 0c0-0.429 0.347-0.777 0.776-0.777 0.43 0 0.778 0.348 0.778 0.777s-0.348 0.777-0.778 0.777c-0.429 0-0.776-0.348-0.776-0.777m-0.081 0c0 0.473 0.384 0.857 0.857 0.857 0.474 0 0.858-0.384 0.858-0.857s-0.384-0.857-0.858-0.857c-0.473 0-0.857 0.384-0.857 0.857" style="fill:#0c0c0c"/>
  </g>
  <g transform="matrix(.35278 0 0 -.35278 102.37 84.599)" style="fill:#0c0c0c">
   <path d="m0 0c-0.085 0.072-0.187 0.105-0.297 0.105-0.253 0-0.44-0.195-0.44-0.443 0-0.25 0.184-0.447 0.438-0.447 0.114 0 0.223 0.042 0.31 0.118v0.112c-0.079-0.093-0.193-0.152-0.315-0.152-0.201 0-0.349 0.175-0.349 0.369s0.15 0.366 0.352 0.366c0.12 0 0.22-0.05 0.301-0.139v0.111" style="fill-rule:evenodd;fill:#0c0c0c"/>
  </g>
  <g transform="matrix(.35278 0 0 -.35278 79.863 91.405)" style="fill:#0c0c0c">
   <path d="m0 0v-1.626c0-0.798-0.447-1.106-1.448-1.106-1.002 0-1.449 0.308-1.449 1.106v1.626l-0.182 0.217h1.219l-0.182-0.217v-1.6c0-0.36 0.238-0.512 0.594-0.512 0.355 0 0.594 0.152 0.594 0.512v1.6l-0.182 0.217h1.218l-0.182-0.217" style="fill:#0c0c0c"/>
  </g>
  <g transform="matrix(.35278 0 0 -.35278 81.512 91.405)" style="fill:#0c0c0c">
   <path d="m0 0v-2.676h-0.651l-1.565 1.7v-1.483l0.182-0.217h-1.028l0.183 0.217v2.459l-0.183 0.217h0.924l1.474-1.674v1.457l-0.182 0.217h1.028z" style="fill:#0c0c0c"/>
  </g>
  <g transform="matrix(.35278 0 0 -.35278 82.134 92.348)" style="fill:#0c0c0c">
   <path d="m0 0 0.182 0.217v2.459l-0.182 0.216h1.227l-0.182-0.216v-2.459l0.182-0.217z" style="fill:#0c0c0c"/>
  </g>
  <g transform="matrix(.35278 0 0 -.35278 83.676 92.348)" style="fill:#0c0c0c">
   <path d="m0 0h-0.603l-1.348 2.892h1.214l-0.182-0.216 0.702-1.592 0.729 1.592-0.182 0.216h1.032z" style="fill:#0c0c0c"/>
  </g>
  <g transform="matrix(.35278 0 0 -.35278 84.57 92.348)" style="fill:#0c0c0c">
   <path d="m0 0 0.182 0.217v2.459l-0.182 0.216h2.723v-0.785l-0.216 0.182h-1.479v-0.554h0.936l0.213 0.182v-0.942l-0.213 0.183h-0.936v-0.555h1.479l0.216 0.182v-0.785z" style="fill:#0c0c0c"/>
  </g>
  <g transform="matrix(.35278 0 0 -.35278 86.696 92.348)" style="fill:#0c0c0c">
   <path d="m0 0 0.182 0.217-0.555 0.819h-0.364v-0.819l0.182-0.217h-1.21l0.182 0.217v2.459l-0.182 0.216h1.804c0.824 0 1.119-0.394 1.119-0.876 0-0.42-0.269-0.719-0.655-0.875l0.785-1.141zm-0.082 2.289h-0.655v-0.711h0.551c0.277 0 0.476 0.169 0.476 0.378 0 0.238-0.182 0.333-0.372 0.333" style="fill:#0c0c0c"/>
  </g>
  <g transform="matrix(.35278 0 0 -.35278 88.163 92.376)" style="fill:#0c0c0c">
   <path d="m0 0c-0.416 0-0.924 0.147-1.149 0.234l-0.23-0.251v1.07c0.486-0.316 1.032-0.424 1.34-0.424 0.121 0 0.36 0.026 0.36 0.23 0 0.238-0.386 0.251-0.802 0.394-0.56 0.195-0.915 0.43-0.915 0.967 0 0.395 0.316 0.829 1.301 0.829 0.29 0 0.711-0.105 0.954-0.204l0.23 0.221v-0.967c-0.399 0.191-0.911 0.321-1.223 0.321-0.235 0-0.369-0.079-0.369-0.191 0-0.23 0.49-0.308 0.837-0.416 0.534-0.174 0.902-0.43 0.902-0.889 0-0.547-0.382-0.924-1.236-0.924" style="fill:#0c0c0c"/>
  </g>
  <g transform="matrix(.35278 0 0 -.35278 89.852 92.348)" style="fill:#0c0c0c">
   <path d="m0 0 0.182 0.217-0.139 0.303h-1.379l-0.143-0.303 0.182-0.217h-1.062l1.288 2.676-0.104 0.216h0.976l1.422-2.892zm-0.65 2.077-0.477-1.036h0.958z" style="fill:#0c0c0c"/>
  </g>
  <g transform="matrix(.35278 0 0 -.35278 90.72 92.348)" style="fill:#0c0c0c">
   <path d="m0 0 0.182 0.217v2.459l-0.182 0.216h1.21l-0.182-0.216v-2.073h1.392l0.217 0.182v-0.785z" style="fill:#0c0c0c"/>
  </g>
  <g transform="matrix(.35278 0 0 -.35278 93.943 92.348)" style="fill:#0c0c0c">
   <path d="m0 0 0.182 0.217v1.388l-0.767-1.605h-0.404l-0.867 1.63v-1.413l0.182-0.217h-1.002l0.183 0.217v2.459l-0.183 0.216h1.019l0.941-1.769 0.859 1.769h1.041l-0.182-0.216v-2.459l0.182-0.217z" style="fill:#0c0c0c"/>
  </g>
  <g transform="matrix(.35278 0 0 -.35278 95.952 91.405)" style="fill:#0c0c0c">
   <path d="m0 0v-1.626c0-0.798-0.447-1.106-1.448-1.106-1.002 0-1.449 0.308-1.449 1.106v1.626l-0.182 0.217h1.219l-0.182-0.217v-1.6c0-0.36 0.238-0.512 0.594-0.512 0.355 0 0.594 0.152 0.594 0.512v1.6l-0.182 0.217h1.218l-0.182-0.217" style="fill:#0c0c0c"/>
  </g>
  <g transform="matrix(.35278 0 0 -.35278 96.998 92.376)" style="fill:#0c0c0c">
   <path d="m0 0c-0.416 0-0.924 0.147-1.149 0.234l-0.23-0.251v1.07c0.486-0.316 1.032-0.424 1.34-0.424 0.121 0 0.36 0.026 0.36 0.23 0 0.238-0.386 0.251-0.803 0.394-0.559 0.195-0.915 0.43-0.915 0.967 0 0.395 0.317 0.829 1.302 0.829 0.29 0 0.711-0.105 0.954-0.204l0.229 0.221v-0.967c-0.399 0.191-0.91 0.321-1.222 0.321-0.235 0-0.369-0.079-0.369-0.191 0-0.23 0.49-0.308 0.837-0.416 0.533-0.174 0.902-0.43 0.902-0.889 0-0.547-0.382-0.924-1.236-0.924" style="fill:#0c0c0c"/>
  </g>
  <g transform="matrix(.35278 0 0 -.35278 97.977 92.348)" style="fill:#0c0c0c">
   <path d="m0 0 0.182 0.217v2.459l-0.182 0.216h1.227l-0.182-0.216v-2.459l0.182-0.217z" style="fill:#0c0c0c"/>
  </g>
  <g transform="matrix(.35278 0 0 -.35278 99.505 92.368)" style="fill:#0c0c0c">
   <path d="m0 0c-0.88 0-1.674 0.434-1.674 1.505 0 0.845 0.607 1.5 1.709 1.5 0.334 0 0.694-0.078 0.898-0.156l0.199 0.191v-0.963c-0.312 0.191-0.642 0.304-1.049 0.304-0.612 0-0.851-0.408-0.851-0.876 0-0.525 0.348-0.881 0.877-0.881 0.533 0 0.854 0.208 1.027 0.317v-0.677c-0.208-0.121-0.707-0.264-1.136-0.264" style="fill:#0c0c0c"/>
  </g>
  <g transform="matrix(.35278 0 0 -.35278 101.99 91.842)" style="fill:#0c0c0c">
   <path d="m0 0h1.032v-1.158c-0.256-0.161-0.824-0.334-1.314-0.334-0.88 0-1.709 0.434-1.709 1.505 0 1.084 0.902 1.5 1.709 1.5 0.468 0 0.772-0.117 0.954-0.182l0.23 0.217v-0.993c-0.312 0.174-0.685 0.334-1.141 0.334-0.529 0-0.845-0.352-0.845-0.876 0-0.525 0.316-0.881 0.845-0.881 0.135 0 0.287 0.022 0.425 0.048v0.599l-0.186 0.221" style="fill:#0c0c0c"/>
  </g>
  <g transform="matrix(.35278 0 0 -.35278 103.47 92.348)" style="fill:#0c0c0c">
   <path d="m0 0 0.182 0.217-0.555 0.819h-0.364v-0.819l0.182-0.217h-1.21l0.182 0.217v2.459l-0.182 0.216h1.804c0.824 0 1.119-0.394 1.119-0.876 0-0.42-0.269-0.719-0.655-0.875l0.785-1.141zm-0.082 2.289h-0.655v-0.711h0.551c0.277 0 0.477 0.169 0.477 0.378 0 0.238-0.182 0.333-0.373 0.333" style="fill:#0c0c0c"/>
  </g>
  <g transform="matrix(.35278 0 0 -.35278 104.99 92.374)" style="fill:#0c0c0c">
   <path d="m0 0c-0.815 0-1.674 0.425-1.674 1.522s0.859 1.518 1.674 1.518 1.665-0.421 1.665-1.518-0.85-1.522-1.665-1.522m0 2.415c-0.542 0-0.763-0.359-0.763-0.893 0-0.533 0.221-0.898 0.763-0.898s0.759 0.365 0.759 0.898c0 0.534-0.217 0.893-0.759 0.893" style="fill:#0c0c0c"/>
  </g>
  <g transform="matrix(.35278 0 0 -.35278 107.11 91.405)" style="fill:#0c0c0c">
   <path d="m0 0v-1.626c0-0.798-0.447-1.106-1.448-1.106-1.002 0-1.449 0.308-1.449 1.106v1.626l-0.182 0.217h1.219l-0.182-0.217v-1.6c0-0.36 0.238-0.512 0.594-0.512 0.355 0 0.594 0.152 0.594 0.512v1.6l-0.182 0.217h1.218l-0.182-0.217" style="fill:#0c0c0c"/>
  </g>
  <g transform="matrix(.35278 0 0 -.35278 108.22 92.052)" style="fill:#0c0c0c">
   <path d="m0 0h-0.503v-0.624l0.182-0.217h-1.21l0.182 0.217v2.459l-0.182 0.216h1.557c0.572 0 1.366-0.16 1.366-0.958 0-0.911-0.698-1.093-1.392-1.093m-0.017 1.448h-0.486v-0.875h0.408c0.39 0 0.607 0.099 0.607 0.468 0 0.321-0.222 0.407-0.529 0.407" style="fill:#0c0c0c"/>
  </g>
  <path d="m97.624 86.493c-0.5267 1.6415-2.0084 2.9182-3.8862 2.9182-1.9914 0-3.3299-1.2598-3.8679-2.8829 0.55986 1.512 2.0814 2.5964 3.871 2.5964 1.803 0 3.3345-1.1014 3.883-2.6317m-7.7625-2.5044c0.52917-1.6372 1.7826-2.9016 3.8763-2.9016 1.9463 0 3.3761 1.2816 3.895 2.9372-0.54116-1.543-2.0793-2.6561-3.8918-2.6561-1.7992 0-3.3274 1.0957-3.8795 2.6204" style="fill-rule:evenodd;fill:#0c0c0c"/>
 </g>
</svg>
