<?xml version="1.0" encoding="utf-8"?>
<svg xmlns="http://www.w3.org/2000/svg" x="0px" y="0px" width="300px" height="47.2px">
<path fill="#003764" d="M57.5,0.1v46.3H36.6l0,0c-4.2-1.4-0.9-7.8,0.3-11V26l-2.2,0.3c-4.2,4.8-8.4,9.5-13.3,13.5v6.6v0l-20.6,0V0.1
	h19.9l8.4,9.6l8.4-9.6H57.5z M86.3,12.9h-4.7v10.2c0,2.3-0.6,4.3-3.1,4.3c-2.4,0-3.1-2-3.1-4.3V12.9h-4.7v11c0,4.9,3.2,7,7.8,7
	c4.6,0,7.8-2.2,7.8-7V12.9z M89.7,30.7h4.6L94.3,17h0.1l4.3,13.6h4.3l4.5-13.6h0.1l-0.1,13.6h4.6V12.9h-7.2L101,24.7h-0.1l-3.8-11.8
	h-7.4V30.7z M121.1,27.9c-1.1,0-1.9-0.5-1.9-1.4c0-1.3,1.2-1.8,2.8-1.8c0.7,0,1.3,0.1,1.9,0.1C123.9,26.3,122.8,27.9,121.1,27.9
	 M128.4,30.7c-0.2-1-0.3-2.1-0.3-3.1v-4.9c0-4-2.9-5.5-6.3-5.5c-2,0-3.7,0.3-5.3,0.9l0.1,3.1c1.3-0.7,2.7-1,4.2-1c1.7,0,3,0.5,3,2.3
	c-0.6-0.1-1.4-0.2-2.1-0.2c-2.4,0-6.8,0.5-6.8,4.5c0,2.9,2.3,4.2,5,4.2c1.9,0,3.2-0.7,4.2-2.4h0.1c0,0.7,0.1,1.4,0.1,2.1H128.4z
	 M131.1,30.3c1.3,0.4,2.7,0.6,4.8,0.6c3,0,6.2-0.9,6.2-4.4c0-5-6.8-3.4-6.8-5.5c0-0.7,1.1-0.9,2.1-0.9c1.1,0,2.6,0.3,3.6,0.9
	l0.4-3.2c-1.5-0.6-3.1-0.8-4.7-0.8c-2.6,0-5.6,1.2-5.6,4.3c0,4.8,6.5,3.2,6.5,5.4c0,0.9-0.9,1.1-1.9,1.1c-1.6,0-3.2-0.5-4.3-0.9
	L131.1,30.3z M144.3,30.3c1.3,0.4,2.7,0.6,4.8,0.6c3,0,6.2-0.9,6.2-4.4c0-5-6.8-3.4-6.8-5.5c0-0.7,1.1-0.9,2.1-0.9
	c1.1,0,2.6,0.3,3.6,0.9l0.4-3.2c-1.5-0.6-3.1-0.8-4.7-0.8c-2.6,0-5.6,1.2-5.6,4.3c0,4.8,6.5,3.2,6.5,5.4c0,0.9-0.9,1.1-1.9,1.1
	c-1.7,0-3.2-0.5-4.3-0.9L144.3,30.3z M181,30.1h2.6c4,0,7.2,1.8,7.2,7.2c0,5.4-3.3,7.5-8.3,7.5H181V30.1z M179.2,46.3h3.1
	c5.9,0,10.2-2.5,10.2-8.9c0-5.2-2.5-8.8-8.9-8.8h-4.4V46.3z M203.4,40.5c0,1.4-0.1,4.7-3.8,4.7c-1.5,0-2.7-0.6-2.7-2.3
	c0-2.8,3.3-3.1,6.1-3.1h0.5V40.5z M203.6,46.3h1.6c-0.1-0.9-0.1-1.7-0.1-2.7v-5.7c0-3.4-1.3-4.8-4.5-4.8c-1.1,0-2.8,0.4-3.8,0.9v1.6
	c1.2-0.8,2.5-1.1,3.8-1.1c2.2,0,2.9,1.1,2.9,3.3v0.7h-0.3c-3.4,0-8,0.2-8,4.5c0,1.2,0.6,3.7,4.3,3.7c1.6,0,3.4-0.8,4.1-2.4h0.1V46.3
	z M209.5,46.3h1.6v-6.4c0-2.3,0.7-5.2,3.2-5.2c0.4,0,0.8,0.1,1.2,0.2v-1.7c-0.3-0.1-0.7-0.2-1.1-0.2c-1.7,0-2.7,1.3-3.3,2.8H211
	v-2.5h-1.6c0.1,0.9,0.1,1.5,0.1,2.9V46.3z M225.4,33.3h-2.9v-3.7l-1.6,0.6v3.1h-2.5v1.4h2.5v7.6c0,2.4,0.1,4.3,2.9,4.3
	c0.8,0,1.6-0.2,2-0.4l-0.1-1.3c-0.5,0.2-0.9,0.3-1.5,0.3c-1.3,0-1.7-1-1.7-2.1v-8.4h2.9V33.3z M246.2,46.3v-8.9
	c0-2.5-1.5-4.3-4.1-4.3c-2,0-3.6,1.2-4.1,2.7h0c-0.4-2.3-2.3-2.7-3.4-2.7c-2.8,0-3.5,1.6-4,2.5l-0.1,0v-2.2h-1.6
	c0.1,1,0.1,2.1,0.1,3v9.9h1.6v-7.2c0-3.2,1.7-4.7,3.5-4.7c2.1,0,2.7,1.4,2.7,3.3v8.6h1.6v-7.2c0-3.2,1.7-4.7,3.5-4.7
	c2.1,0,2.7,1.4,2.7,3.3v8.6H246.2z M255.8,45.2c-2.8,0-4.3-2.4-4.3-5.4c0-3,1.5-5.4,4.3-5.4c2.8,0,4.3,2.4,4.3,5.4
	C260.1,42.8,258.6,45.2,255.8,45.2 M255.8,33c-4.2,0-6,3.3-6,6.8s1.9,6.8,6,6.8c4.2,0,6-3.3,6-6.8S260,33,255.8,33 M275.6,33.3H274
	v7.2c0,2.2-0.9,4.7-3.8,4.7c-2.2,0-3.1-1.6-3.1-4v-7.9h-1.6v8.3c0,2.8,1.2,5,4.4,5c2.7,0,3.7-1.4,4.2-2.6h0.1v2.3h1.6
	c-0.1-1-0.1-2.1-0.1-3.1V33.3z M285.9,33.3h-2.9v-3.7l-1.6,0.6v3.1h-2.5v1.4h2.5v7.6c0,2.4,0.1,4.3,2.9,4.3c0.8,0,1.6-0.2,2-0.4
	l-0.1-1.3c-0.5,0.2-0.9,0.3-1.5,0.3c-1.3,0-1.7-1-1.7-2.1v-8.4h2.9V33.3z M289.4,46.3h1.6v-6.9c0-2.3,1-5,3.8-5
	c2.6,0,3.1,1.9,3.1,4.2v7.7h1.6v-7.8c0-3.2-0.9-5.5-4.4-5.5c-1.9,0-3.4,1.1-4,2.5H291v-8.3h-1.6V46.3z M166.2,47.1h1.3V12.9h-1.3
	V47.1z"/>
<path fill="#FEC24D" d="M47.8,38c0-0.7-0.1-1.3-0.5-1.9c-0.3-0.6-0.8-1.1-1.4-1.6c0,6-4.5,11.2-7.9,11.2c-0.4,0-0.8,0-1.1-0.1
	c-0.7-0.2-1.2-0.5-1.5-1c-0.1-0.2-0.3-0.5-0.3-0.9c0,0,0,0,0-0.1c0-0.1,0-0.3,0-0.4c0-0.7,0.2-1.5,0.4-2.4c0.3-0.9,0.6-1.8,1-2.8
	c0.1-0.3,0.2-0.6,0.4-0.9c1.5-3.3,3.4-6.9,5.4-10.3c1.5-2.5,3.1-5,4.6-7.2c1.8-2.7,3.5-4.9,4.9-6.5c0,0,0,0,0,0
	c-2.3,0.2-4.9,0-7,0.3c-1,1.2-2.3,2.9-4,5c-1.3,1.6-2.7,3.4-4.3,5.4c0,0,0,0,0,0c-0.2,0.3-0.6,0.7-0.9,1.1c-1.5,1.7-3.7,4.2-5.1,5.7
	c-0.8,0.9-1.3,1.5-1.3,1.5c-2.2,2.2-5.1,5.3-7.7,7.4c-0.4,0.4-0.9,0.7-1.3,1c0,0,0,0-0.1,0c-0.1,0-0.1,0.1-0.2,0.1
	c-0.9,0.7-1.8,1.2-2.6,1.8c-0.1,0.1-0.2,0.1-0.3,0.2c0,0-0.1,0.1-0.1,0.1c-2.2,1.3-4.3,2.1-6.2,2.1c-0.9,0-1.5-0.1-1.7-0.6
	c-0.1-0.2-0.2-0.5-0.2-0.8c0-2.8,6.5-9.6,12.6-16.3c0.6-0.6,1.1-1.2,1.7-1.8c2.4-2.6,4.5-5.1,6.1-7.3c1.5-2.1,2.5-3.9,2.5-5.1
	c0-0.5-0.1-1-0.4-1.5c-0.3-0.6-0.9-1.3-1.8-1.8c-0.3-0.2-0.7-0.4-1.1-0.5c-0.4-0.2-0.8-0.3-1.2-0.4c-0.5-0.1-1-0.2-1.7-0.3
	C24.9,8,24.2,8,23.5,8c-8.6,0-14.7,3.9-18.4,8c-1.9,2.1-3.2,4.3-3.9,5.9c-0.1,0.3-0.2,0.5-0.3,0.7c-0.2,0.7-0.4,1.3-0.4,1.7
	c0,0.7,0.3,1.5,0.5,2.1c0,0,0,0.1,0.1,0.1c1,2.6,5.6,4,8.5,2.3c0,0,0,0,0,0c-2.5-0.6-4.2-1.6-5.1-3.1c-0.4-0.7-0.6-1.5-0.6-2.5
	c0-8.4,13.1-14,17.8-14c1.8,0,3.6,0.3,4.2,1.5c0.1,0.3,0.2,0.6,0.2,0.9c0,5.4-22.4,22-22.4,30.5c0,0.2,0,0.4,0,0.6
	C4,44.3,5,45.6,6.5,46.3c0,0,0,0,0,0c0.6,0.3,1.3,0.4,2,0.4c1.1,0,2.2-0.2,3.3-0.4c0,0,0,0,0.1,0c3.2-0.9,6.5-2.8,9.6-5.2
	c0,0,0,0,0,0c6-4.6,11.4-11,14.4-14.7c-3.9,5.7-7.2,12.1-7.2,14.5c0,4.8,6.4,6.2,8.3,6.2c1.4,0,2.8-0.3,4.1-0.7c0,0,0,0,0,0
	C44.9,44.9,47.8,41.6,47.8,38"/>
</svg>
