<?xml version="1.0" encoding="utf-8"?>
<!-- Generator: Adobe Illustrator 21.1.0, SVG Export Plug-In . SVG Version: 6.00 Build 0)  -->
<svg version="1.1" id="Layer_1" xmlns="http://www.w3.org/2000/svg" xmlns:xlink="http://www.w3.org/1999/xlink" x="0px" y="0px"
	 viewBox="0 0 153.5 113.5" enable-background="new 0 0 153.5 113.5" xml:space="preserve">
<g>
	<path fill="#000000" d="M73.5,111.2c-30.7,0-55.6-24.9-55.6-55.6C17.9,24.9,42.9,0,73.5,0c27,0,50,19.3,54.7,45.8l-1.5,0.3
		c-4.6-25.8-27-44.6-53.3-44.6c-29.8,0-54.1,24.3-54.1,54.1c0,29.8,24.3,54.1,54.1,54.1c26.7,0,49.2-19.1,53.4-45.5l1.5,0.2
		C124.1,91.5,101,111.2,73.5,111.2z"/>
</g>
<g>
	<g>
		<path fill="#000000" d="M0,34.6h7.1v26.8c0,4,0.9,7,2.8,9c1.8,2,4.6,3,8.2,3c3.6,0,6.4-1,8.2-3c1.8-2,2.8-5,2.8-9V34.6h7.2v27.5
			c0,6-1.5,10.4-4.5,13.4c-3,3-7.6,4.4-13.6,4.4c-6.1,0-10.6-1.5-13.6-4.4c-3-3-4.5-7.4-4.5-13.4V34.6z"/>
	</g>
	<g>
		<path fill="#000000" d="M43.6,69.9l5.7-2.7c0.5,2,1.5,3.5,3,4.5c1.4,1,3.3,1.6,5.5,1.6c2.1,0,3.8-0.6,5.1-1.8
			c1.3-1.2,1.9-2.8,1.9-4.8c0-2.6-2.1-4.9-6.4-6.9c-0.6-0.3-1.1-0.5-1.4-0.7c-4.9-2.4-8.1-4.5-9.7-6.4c-1.6-1.9-2.4-4.3-2.4-7
			c0-3.6,1.2-6.5,3.7-8.7c2.4-2.2,5.6-3.3,9.6-3.3c3.3,0,6,0.6,8.2,1.9c2.2,1.3,3.7,3.1,4.6,5.4l-5.6,2.9c-0.9-1.4-1.9-2.4-2.9-3.1
			c-1.1-0.6-2.3-1-3.6-1c-1.9,0-3.5,0.5-4.6,1.5c-1.1,1-1.7,2.4-1.7,4c0,2.7,2.5,5.1,7.5,7.4c0.4,0.2,0.7,0.3,0.9,0.4
			c4.4,2,7.4,4,9,5.9c1.6,1.9,2.4,4.3,2.4,7.2c0,4.2-1.3,7.5-3.9,10c-2.6,2.5-6.2,3.7-10.7,3.7c-3.8,0-6.8-0.9-9.2-2.6
			C45.9,75.6,44.3,73.1,43.6,69.9z"/>
	</g>
	<g>
		<path fill="#000000" d="M86.7,58.9v19.8H80V34.6h10c2.9,0,5.2,0.2,6.8,0.6c1.6,0.4,3,1,4.1,1.9c1.4,1.1,2.4,2.4,3.2,4.1
			c0.7,1.7,1.1,3.5,1.1,5.5c0,3.5-0.9,6.3-2.6,8.3c-1.7,2-4.2,3.2-7.6,3.6l15.2,20.1h-8.1L87.5,58.9H86.7z M87.2,53.3h1.3
			c3.8,0,6.3-0.4,7.6-1.3c1.2-0.9,1.9-2.4,1.9-4.7c0-2.4-0.7-4.1-2-5.1c-1.3-1-3.8-1.5-7.4-1.5h-1.3V53.3z"/>
	</g>
	<g>
		<path fill="#000000" d="M143.7,78.7l-5-11.3h-17.5l-5.1,11.3h-7.5l21.4-45.9l21.3,45.9H143.7z M123.9,61.4h12.3l-4.5-10.1
			c-0.3-0.6-0.5-1.4-0.8-2.2c-0.3-0.8-0.6-1.8-0.8-2.8c-0.2,1-0.5,1.9-0.8,2.7c-0.3,0.8-0.5,1.6-0.8,2.3L123.9,61.4z"/>
	</g>
</g>
<g>
</g>
<g>
</g>
</svg>
