<?xml version="1.0" encoding="utf-8"?>
<!-- Generator: Adobe Illustrator 21.1.0, SVG Export Plug-In . SVG Version: 6.00 Build 0)  -->
<svg version="1.1" id="Ebene_3" xmlns="http://www.w3.org/2000/svg" xmlns:xlink="http://www.w3.org/1999/xlink" x="0px" y="0px"
	 viewBox="0 0 297 172" style="enable-background:new 0 0 297 172;" xml:space="preserve">
<style type="text/css">
	.st0{fill:#004F9F;}
</style>
<g>
	<path class="st0" d="M151.7,130.8h-31.4v-17.6h28.9c7.5,0,12.8-2.2,12.8-9.7c0-7.3-5.2-9.4-12.8-9.4h-4.6
		c-16.9-0.7-27.7-9.6-27.7-27.3c0-17.8,11.4-27,29.2-27h30.8v17.6h-28.8c-7.5,0-12.5,2.2-12.5,9.5c0,7.3,4.9,9.7,12.5,9.7h5.1
		c16.9,0.7,27.7,9,27.7,27.1C180.9,120.9,169.5,130.8,151.7,130.8z"/>
	<path class="st0" d="M103.8,99.6V39.7H81.5v59.4c0,8.4-4.8,13.3-12.2,13.3c-7.4,0-12-4.8-12-13.3V39.7H35v59.9
		c0,19.9,15.4,32.6,34.3,32.6C88.1,132.2,103.8,119.5,103.8,99.6z"/>
	<path class="st0" d="M262,99.7V39.8h-22.3v59.4c0,8.4-4.8,13.3-12.2,13.3c-7.4,0-12-4.8-12-13.3V39.8h-22.3v59.9
		c0,19.9,15.4,32.6,34.3,32.6C246.3,132.3,262,119.6,262,99.7z"/>
</g>
</svg>
