<svg xmlns="http://www.w3.org/2000/svg" width="70" height="70" viewBox="0 0 70 70">
    <path fill="#E40046" fill-rule="evenodd" d="M67.472 62.237V63H2.528v-.763h64.944zm-3.11-7.632c.894 0 1.609.288 2.252.898.572.575.858 1.329.858 2.299v.287h-4.718c.071.395.25.718.536.97.321.215.679.359 1.144.359.536 0 1-.18 1.394-.575l1.215.575c-.322.43-.68.754-1.108.97-.43.215-.93.323-1.501.323-.894 0-1.645-.288-2.217-.862-.571-.575-.857-1.293-.857-2.155 0-.898.286-1.652.857-2.227.572-.574 1.287-.862 2.145-.862zm-28.237-2.29v2.935c.3-.223.602-.408.903-.557.302-.149.603-.186.904-.186.603 0 1.093.186 1.507.595.339.334.527.854.527 1.56v3.974l-1.506.075v-2.638c0-.706-.076-1.188-.113-1.411-.076-.26-.189-.409-.34-.557-.188-.149-.376-.186-.602-.186-.301 0-.565.074-.79.297-.227.223-.377.483-.453.817 0 .149-.037.595-.037 1.226v2.377h-1.507v-8.32h1.507zm-4.662 0v2.28h.863v1.33h-.863v4.786h-1.474v-4.787h-.72v-1.33h.72v-2.278h1.474zm-3.721 0v8.396h-1.529v-8.395h1.529zm17.103 2.29c.59 0 1.105.109 1.583.325.48.217.884.578 1.179.976l-1.252.686c-.258-.253-.479-.397-.7-.506-.184-.108-.442-.144-.773-.144-.552 0-.994.144-1.362.506-.369.289-.516.722-.516 1.228s.184.903.516 1.228c.294.325.773.47 1.288.47.663 0 1.179-.253 1.547-.687l1.178.795c-.626.831-1.51 1.229-2.688 1.229-1.068 0-1.878-.326-2.467-.904-.589-.614-.884-1.336-.884-2.131 0-.578.11-1.084.405-1.553.295-.47.7-.867 1.216-1.12.515-.253 1.104-.398 1.73-.398zm-24.254 0c.33 0 .658.073.988.217.33.108.622.325.878.578v-.65h1.464v5.816h-1.464v-.614c-.292.253-.585.433-.878.578-.293.144-.622.18-.952.18-.768 0-1.427-.288-1.976-.866-.55-.579-.842-1.301-.842-2.168 0-.867.256-1.626.805-2.204.55-.578 1.208-.867 1.977-.867zm38.672 0c.178 0 .355.037.568.148l-.462 1.295c-.142-.11-.284-.148-.39-.148-.214 0-.391.148-.569.481-.142.26-.213.851-.213 1.665v2.665h-1.422v-5.958h1.244v.74c.142-.296.32-.518.533-.666.213-.148.462-.222.71-.222zm-8.11 0c.329 0 .658.073.988.217.33.108.622.325.878.578v-.65h1.464v5.816H53.02v-.614c-.293.253-.586.433-.878.578-.293.144-.623.18-.952.18-.769 0-1.427-.288-1.976-.866-.55-.579-.842-1.301-.842-2.168 0-.867.256-1.626.805-2.204.549-.578 1.208-.867 1.976-.867zm-37.964 0c.899 0 1.654.288 2.229.862.575.575.863 1.329.863 2.299l-.036.323H11.57c.072.395.251.718.54.97.323.215.682.359 1.15.359.539 0 1.006-.18 1.402-.575l1.222.575c-.323.43-.683.754-1.114.97-.432.215-.935.323-1.51.323-.9 0-1.654-.288-2.23-.862-.575-.575-.862-1.293-.862-2.155 0-.898.287-1.652.862-2.227.576-.574 1.295-.862 2.158-.862zm-9.23-2.29v3.158h2.487v-3.157h1.43v8.395h-1.43v-3.697H3.959v3.697h-1.43v-8.395h1.43zm47.45 3.627c-.44 0-.806.18-1.135.506-.293.325-.44.758-.44 1.228s.147.903.477 1.228c.292.361.695.506 1.134.506.476 0 .842-.18 1.171-.506.293-.325.44-.722.44-1.264 0-.506-.147-.903-.476-1.228-.293-.326-.696-.47-1.171-.47zm-30.562 0c-.44 0-.805.18-1.135.506-.293.325-.439.758-.439 1.228s.146.903.476 1.228c.293.361.695.506 1.134.506.476 0 .842-.18 1.172-.506.293-.325.439-.722.439-1.264 0-.506-.146-.903-.476-1.228-.293-.326-.695-.47-1.171-.47zm43.587-.116c-.394 0-.751.108-1.073.324-.214.18-.393.395-.536.754h3.181c-.107-.288-.286-.539-.572-.754-.321-.216-.607-.324-1-.324zM13.26 55.79c-.396 0-.755.108-1.079.324-.216.18-.395.395-.54.754h3.2c-.107-.288-.287-.539-.575-.754-.323-.216-.61-.324-1.006-.324zm-6.764-34l7.036 20.09 7.183-20.09h5.497L16.1 50.025h-5.13L1 21.79h5.497zm26.593 9.157v19.08h-4.584v-19.08h4.584zm7.64 0v19.08h-4.584v-19.08h4.584zm8.554-9.158l7.073 20.09 7.146-20.09H69L58.885 50.026h-5.167L43.787 21.79h5.497zm-18.486 1.527c.82 0 1.565.292 2.161.877.597.585.895 1.316.895 2.194 0 .84-.336 1.572-.895 2.157-.559.585-1.304.877-2.124.877-.857 0-1.603-.329-2.199-.914-.596-.585-.894-1.316-.894-2.193 0-.805.298-1.536.894-2.12.596-.586 1.305-.878 2.162-.878zm7.565 0c.82 0 1.565.292 2.161.877.597.585.895 1.316.895 2.194 0 .84-.336 1.572-.895 2.157-.559.585-1.304.877-2.124.877-.857 0-1.603-.329-2.199-.914-.596-.585-.894-1.316-.894-2.193 0-.805.298-1.536.894-2.12.596-.586 1.305-.878 2.162-.878zm-22.846 1.49C15.92 9.029 31.273 1.828 43.255 6.315c6.302 2.352 13.154 8.07 13.52 18.527h-3.15c-.404-8.214-5.277-14.112-11.25-16.718-10.296-4.487-25.832.977-26.418 16.682z"/>
</svg>
