<?xml version="1.0" encoding="UTF-8" standalone="no"?>
<!-- Created with Inkscape (http://www.inkscape.org/) -->

<svg
   xmlns:dc="http://purl.org/dc/elements/1.1/"
   xmlns:cc="http://creativecommons.org/ns#"
   xmlns:rdf="http://www.w3.org/1999/02/22-rdf-syntax-ns#"
   xmlns:svg="http://www.w3.org/2000/svg"
   xmlns="http://www.w3.org/2000/svg"
   xmlns:sodipodi="http://sodipodi.sourceforge.net/DTD/sodipodi-0.dtd"
   xmlns:inkscape="http://www.inkscape.org/namespaces/inkscape"
   width="238"
   height="302"
   viewBox="0 0 238 302"
   id="svg3527"
   version="1.1"
   inkscape:version="0.91 r13725"
   sodipodi:docname="wakw cty nc.svg">
  <defs
     id="defs3529" />
  <sodipodi:namedview
     id="base"
     pagecolor="#ffffff"
     bordercolor="#666666"
     borderopacity="1.0"
     inkscape:pageopacity="0.0"
     inkscape:pageshadow="2"
     inkscape:zoom="0.35"
     inkscape:cx="22.142857"
     inkscape:cy="520"
     inkscape:document-units="px"
     inkscape:current-layer="layer1"
     showgrid="false"
     units="px"
     inkscape:window-width="1280"
     inkscape:window-height="744"
     inkscape:window-x="-4"
     inkscape:window-y="-4"
     inkscape:window-maximized="1" />
  <metadata
     id="metadata3532">
    <rdf:RDF>
      <cc:Work
         rdf:about="">
        <dc:format>image/svg+xml</dc:format>
        <dc:type
           rdf:resource="http://purl.org/dc/dcmitype/StillImage" />
        <dc:title></dc:title>
      </cc:Work>
    </rdf:RDF>
  </metadata>
  <g
     inkscape:label="Layer 1"
     inkscape:groupmode="layer"
     id="layer1"
     transform="translate(0,-750.36216)">
    <g
       transform="matrix(0.78650978,0,0,-0.78650978,-122.45536,1226.5195)"
       inkscape:label="ink_ext_XXXXXX"
       id="g3403">
      <g
         transform="scale(0.1,0.1)"
         id="g3405">
        <path
           inkscape:connector-curvature="0"
           id="path3407"
           style="fill:#2b2158;fill-opacity:1;fill-rule:nonzero;stroke:none"
           d="m 4561.7,5609.22 0,432.12 -2992.13,0 0,-964.11 c 1700.25,-5.24 1894.71,517.12 2992.13,531.99" />
        <path
           inkscape:connector-curvature="0"
           id="path3409"
           style="fill:#996549;fill-opacity:1;fill-rule:nonzero;stroke:none"
           d="m 4561.7,4503.07 0,636.03 C 3531.54,5298.13 2426.37,5081.22 1569.57,4819.48 l 0,-100.17 c 1128.96,308.97 2040.23,418.85 2992.13,-216.24" />
        <path
           inkscape:connector-curvature="0"
           id="path3411"
           style="fill:#996549;fill-opacity:1;fill-rule:nonzero;stroke:none"
           d="m 3842.19,4562.5 c -650.56,321.39 -1404.44,308.57 -2272.62,87.7 l 0,-482.58 c 934.14,454.64 1689.6,512.88 2272.62,394.88" />
        <path
           inkscape:connector-curvature="0"
           id="path3413"
           style="fill:#ffffff;fill-opacity:1;fill-rule:nonzero;stroke:none"
           d="m 2149.53,5396.11 46.76,143.69 -122.33,88.79 151.12,0 46.62,143.68 46.75,-143.68 151.14,0 -122.26,-88.79 46.69,-143.69 -122.32,88.83 -122.17,-88.83" />
        <path
           inkscape:connector-curvature="0"
           id="path3415"
           style="fill:#2b2158;fill-opacity:1;fill-rule:nonzero;stroke:none"
           d="m 1712.89,2789.94 c -57.73,50.69 -73.04,116.66 -73.04,173.79 0,40.06 12.36,109.55 68.9,161.37 42.4,38.9 98.36,62.46 186.13,62.46 36.51,0 58.31,-2.36 85.43,-5.92 22.38,-2.93 41.22,-8.22 58.89,-10.02 6.47,-0.58 8.84,-3.51 8.84,-7.03 0,-4.75 -1.79,-11.78 -2.96,-32.4 -1.17,-19.46 -0.58,-51.86 -1.78,-63.64 -0.58,-8.8 -1.76,-13.53 -7.03,-13.53 -4.74,0 -5.92,4.73 -5.92,12.95 -0.59,18.28 -8.24,38.89 -22.97,54.2 -19.43,20.62 -65.38,36.5 -119.56,36.5 -51.24,0 -84.82,-12.95 -110.75,-36.5 -42.98,-39.46 -54.18,-95.41 -54.18,-152.58 0,-140.16 106.61,-209.67 185.53,-209.67 52.44,0 84.25,5.88 107.81,32.99 10.02,11.19 17.66,28.26 20.04,38.87 1.75,9.43 2.93,11.77 7.64,11.77 4.13,0 5.3,-4.1 5.3,-8.84 0,-7.05 -7.08,-58.3 -12.94,-78.34 -2.97,-9.98 -5.33,-12.95 -15.35,-17.05 -23.55,-9.44 -68.32,-13.56 -106,-13.56 -80.7,0 -148.43,17.66 -202.03,64.18" />
        <path
           inkscape:connector-curvature="0"
           id="path3417"
           style="fill:#2b2158;fill-opacity:1;fill-rule:nonzero;stroke:none"
           d="m 2373.18,2755.2 c -113.11,0 -180.85,97.2 -180.85,219.72 0,146.66 77.17,184.34 144.9,184.34 96.59,0 172.57,-81.86 172.57,-213.81 0,-170.22 -95.42,-190.25 -136.62,-190.25 z m -24.76,-29.44 c 149.6,0 243.88,106.6 243.88,241.49 0,134.88 -91.33,220.31 -237.99,220.31 -176.71,0 -243.27,-130.2 -243.27,-230.92 0,-104.24 68.32,-230.88 237.38,-230.88" />
        <path
           inkscape:connector-curvature="0"
           id="path3419"
           style="fill:#2b2158;fill-opacity:1;fill-rule:nonzero;stroke:none"
           d="m 2695.93,3008.5 c 0,89.53 0,105.99 -1.17,124.86 -1.17,20.04 -5.9,29.45 -25.33,33.57 -4.71,1.18 -14.73,1.76 -22.97,1.76 -6.46,0 -10,1.17 -10,5.31 0,4.13 4.12,5.3 12.97,5.3 31.19,0 68.3,-1.76 85.94,-1.76 14.18,0 51.27,1.76 72.48,1.76 8.85,0 12.95,-1.17 12.95,-5.3 0,-4.14 -3.52,-5.31 -9.44,-5.31 -6.44,0 -10.02,-0.58 -17.05,-1.76 -15.93,-2.93 -20.62,-12.95 -21.79,-33.57 -1.18,-18.87 -1.18,-35.33 -1.18,-124.86 l 0,-82.46 c 0,-85.41 17.05,-121.35 45.94,-144.91 26.52,-21.79 53.6,-24.14 73.63,-24.14 25.92,0 57.72,8.22 81.29,31.78 32.39,32.4 34.16,85.43 34.16,146.07 l 0,73.66 c 0,89.53 0,105.99 -1.17,124.86 -1.19,20.04 -5.88,29.45 -25.33,33.57 -4.69,1.18 -14.71,1.76 -21.21,1.76 -6.49,0 -10.02,1.17 -10.02,5.31 0,4.13 4.16,5.3 12.38,5.3 30.04,0 67.15,-1.76 67.74,-1.76 7.07,0 44.18,1.76 67.15,1.76 8.24,0 12.36,-1.17 12.36,-5.3 0,-4.14 -3.53,-5.31 -10.6,-5.31 -6.47,0 -9.98,-0.58 -17.07,-1.76 -15.89,-2.93 -20.63,-12.95 -21.8,-33.57 -1.18,-18.87 -1.18,-35.33 -1.18,-124.86 l 0,-63.05 c 0,-65.39 -6.48,-134.88 -55.95,-177.27 -41.84,-35.95 -84.24,-42.42 -122.52,-42.42 -31.23,0 -87.82,1.76 -130.76,40.63 -30.06,27.11 -52.45,70.7 -52.45,156.09 l 0,86.02" />
        <path
           inkscape:connector-curvature="0"
           id="path3421"
           style="fill:#2b2158;fill-opacity:1;fill-rule:nonzero;stroke:none"
           d="m 3241.39,2814.12 c 1.17,-45.94 8.82,-61.27 20.62,-65.39 10,-3.55 21.19,-4.14 30.63,-4.14 6.46,0 10.02,-1.17 10.02,-4.69 0,-4.7 -5.32,-5.92 -13.58,-5.92 -38.26,0 -61.83,1.8 -73.03,1.8 -5.31,0 -32.98,-1.8 -63.61,-1.8 -7.64,0 -12.95,0.63 -12.95,5.92 0,3.52 3.52,4.69 9.42,4.69 7.67,0 18.28,0.59 26.5,2.97 15.33,4.71 17.68,21.8 18.26,73.03 l 5.29,348.69 c 0,11.77 1.76,20.04 7.68,20.04 6.49,0 11.78,-7.68 21.8,-18.28 7.07,-7.62 96.6,-103.66 182.58,-189.05 40.05,-40.06 119.59,-124.9 129.59,-134.29 l 2.94,0 -5.91,264.45 c -0.59,35.92 -5.86,47.11 -20,53.03 -8.83,3.51 -22.97,3.51 -31.21,3.51 -7.09,0 -9.44,1.76 -9.44,5.31 0,4.71 6.49,5.3 15.3,5.3 30.64,0 58.92,-1.76 71.3,-1.76 6.45,0 28.83,1.76 57.72,1.76 7.65,0 13.53,-0.59 13.53,-5.3 0,-3.55 -3.51,-5.31 -10.6,-5.31 -5.88,0 -10.61,0 -17.66,-1.76 -16.5,-4.7 -21.21,-17.07 -21.79,-50.05 l -6.49,-371.7 c 0,-12.95 -2.34,-18.25 -7.67,-18.25 -6.45,0 -13.54,6.47 -20,12.97 -37.13,35.33 -112.5,112.5 -173.77,173.15 -64.22,63.63 -129.57,137.26 -140.18,148.45 l -1.8,0 6.51,-247.38" />
        <path
           inkscape:connector-curvature="0"
           id="path3423"
           style="fill:#2b2158;fill-opacity:1;fill-rule:nonzero;stroke:none"
           d="m 3829.79,3146.31 -87.74,-2.35 c -34.16,-1.17 -48.32,-4.12 -57.13,-17.1 -5.9,-8.81 -8.83,-15.88 -10.02,-20.59 -1.17,-4.73 -2.97,-7.07 -6.48,-7.07 -4.1,0 -5.29,2.93 -5.29,9.43 0,9.42 11.19,62.99 12.38,67.74 1.76,7.65 3.51,11.19 7.03,11.19 4.75,0 10.6,-5.92 25.35,-7.09 17.07,-1.76 39.45,-2.93 58.91,-2.93 l 233.26,0 c 37.67,0 51.8,5.9 56.54,5.9 4.1,0 4.69,-3.56 4.69,-12.4 0,-12.37 -1.76,-52.99 -1.76,-68.33 -0.58,-5.85 -1.76,-9.43 -5.33,-9.43 -4.69,0 -5.86,2.99 -6.45,11.82 l -0.58,6.46 c -1.17,15.3 -17.11,31.82 -69.49,32.99 l -74.24,1.76 0,-241.49 c 0,-54.18 0,-100.72 2.93,-126.07 1.76,-16.46 5.33,-29.43 22.97,-31.78 8.26,-1.17 21.21,-2.38 30.05,-2.38 6.51,0 9.44,-1.76 9.44,-4.69 0,-4.12 -4.75,-5.92 -11.19,-5.92 -38.91,0 -76,1.8 -92.46,1.8 -13.6,0 -50.69,-1.8 -74.24,-1.8 -7.68,0 -11.78,1.8 -11.78,5.92 0,2.93 2.34,4.69 9.43,4.69 8.83,0 15.88,1.21 21.21,2.38 11.78,2.35 15.3,15.32 17.06,32.41 2.93,24.72 2.93,71.26 2.93,125.44 l 0,241.49" />
        <path
           inkscape:connector-curvature="0"
           id="path3425"
           style="fill:#2b2158;fill-opacity:1;fill-rule:nonzero;stroke:none"
           d="m 4297.4,2886.56 c 0,31.82 -5.86,44.77 -13.53,61.86 -4.1,9.39 -83.03,139 -103.66,169.63 -14.72,21.79 -29.47,36.52 -40.66,43 -7.64,4.13 -17.66,7.64 -24.73,7.64 -4.7,0 -8.84,1.17 -8.84,5.31 0,3.54 4.14,5.3 11.19,5.3 10.6,0 54.78,-1.76 74.24,-1.76 12.36,0 36.5,1.76 63.02,1.76 5.88,0 8.81,-1.76 8.81,-5.3 0,-3.55 -4.1,-4.14 -12.95,-6.48 -5.27,-1.17 -8.26,-5.88 -8.26,-10.61 0,-4.68 2.99,-11.77 7.09,-20.03 8.26,-17.64 90.7,-159.61 100.14,-176.1 5.86,14.14 80.1,143.69 88.36,161.97 5.86,12.95 8.24,22.97 8.24,30.65 0,5.86 -2.38,12.36 -12.4,14.71 -5.28,1.17 -10.57,2.34 -10.57,5.89 0,4.13 2.95,5.3 9.98,5.3 19.45,0 38.32,-1.76 55.37,-1.76 12.95,0 51.86,1.76 63.05,1.76 6.5,0 10.6,-1.17 10.6,-4.69 0,-4.16 -4.74,-5.92 -11.19,-5.92 -5.91,0 -17.11,-2.34 -25.9,-7.05 -12.42,-5.9 -18.86,-12.99 -31.81,-28.87 -19.45,-23.55 -101.9,-161.97 -112.5,-187.32 -8.85,-21.21 -8.85,-39.45 -8.85,-58.89 l 0,-48.3 c 0,-9.41 0,-34.16 1.76,-58.88 1.17,-17.09 6.5,-30.06 24.14,-32.41 8.26,-1.17 21.21,-2.38 29.47,-2.38 6.45,0 9.44,-1.76 9.44,-4.69 0,-4.12 -4.75,-5.92 -12.37,-5.92 -37.15,0 -74.24,1.8 -90.13,1.8 -14.75,0 -51.84,-1.8 -73.64,-1.8 -8.26,0 -12.95,1.22 -12.95,5.92 0,2.93 2.93,4.69 9.44,4.69 8.2,0 15.29,1.21 20.6,2.38 11.78,2.35 17.07,15.32 18.24,32.41 1.76,24.72 1.76,49.47 1.76,58.88 l 0,48.3" />
        <path
           inkscape:connector-curvature="0"
           id="path3427"
           style="fill:#2b2158;fill-opacity:1;fill-rule:nonzero;stroke:none"
           d="m 1673.13,4007.38 c -12.02,37.01 -23.02,61.02 -37.02,71.02 -11,7.01 -31.02,9 -40.03,9 -9.98,0 -16.01,0.98 -16.01,9.01 0,7.01 8.02,9 22.04,9 52,0 107.02,-3.01 116.04,-3.01 8.99,0 53.02,3.01 111.03,3.01 14.01,0 21.01,-3.01 21.01,-9 0,-8.03 -8,-9.01 -18,-9.01 -7.99,0 -17.99,0 -25,-3.98 -9,-4.03 -11.01,-11.04 -11.01,-22.03 0,-12.99 9.99,-47 22,-92.03 17.01,-66.02 110.04,-369.16 128.05,-425.16 l 3,0 194.09,521.17 c 11,28.03 17.01,36.04 25,36.04 11,0 16.01,-15.02 29.02,-47.03 l 208.09,-503.19 3,0 c 18,66.99 98.05,331.13 133.07,448.17 6.99,23 9.98,44.02 9.98,58.04 0,16 -9,30 -48.01,30 -10,0 -17.01,3.03 -17.01,9.01 0,7.01 8.01,9 23.01,9 53.03,0 95.04,-3.01 104.02,-3.01 7.01,0 50.06,3.01 83.07,3.01 10.99,0 18.01,-1.99 18.01,-7.99 0,-6.99 -5,-10.02 -14.01,-10.02 -10.02,0 -24.02,-1.01 -35.02,-5 -24.02,-9 -35.02,-49.04 -56.03,-106.05 -46.02,-126.04 -151.06,-444.16 -200.08,-594.24 -11.02,-35.02 -16.01,-47.03 -29.02,-47.03 -10,0 -16,12.01 -31,49.02 l -208.09,501.23 -1.99,0 c -19.01,-51.01 -152.06,-405.19 -195.11,-497.22 -18.99,-41.02 -23.98,-53.03 -35.99,-53.03 -10.02,0 -15.01,11.03 -23.02,37.01 l -212.08,635.29" />
        <path
           inkscape:connector-curvature="0"
           id="path3429"
           style="fill:#2b2158;fill-opacity:1;fill-rule:nonzero;stroke:none"
           d="m 2807.57,3660.21 c -4,0 -5.02,3.01 -4,7.02 l 92.09,246.09 c 0.98,4.02 2.97,8.98 5.98,8.98 3.02,0 4,-4.96 5.02,-8.98 l 90.04,-247.07 c 0.97,-3.03 0,-6.04 -5.02,-6.04 l -184.11,0 z m 203.13,-50 c 5,0 7.99,-2.01 9.98,-7.01 l 80.06,-212.09 c 5.02,-12.01 -1.99,-21.01 -9,-23 -10.02,-1.02 -14.01,-3.01 -14.01,-9.01 0,-7.01 12.02,-7.01 30.02,-8.03 80.02,-1.99 153.03,-1.99 189.09,-1.99 36.97,0 46.01,1.99 46.01,10.02 0,7.01 -5.02,7.99 -13.03,7.99 -12.01,0 -27.01,1.02 -42.03,4.02 -20.97,4.98 -50.02,18.99 -88,109.03 -64.03,152.05 -224.11,560.23 -248.13,615.25 -9.98,23.01 -16.02,32.01 -25.02,32.01 -9.96,0 -16,-10.99 -28.01,-40 l -251.11,-628.28 c -20,-50 -39.01,-84.02 -85.02,-90 -8.01,-1.01 -22.02,-2.03 -31.02,-2.03 -8.03,0 -12.01,-1.99 -12.01,-7.99 0,-8.03 6.01,-10.02 19.02,-10.02 51.99,0 107.03,3.01 118.03,3.01 31.02,0 74.04,-3.01 106.05,-3.01 11,0 16.98,1.99 16.98,10.02 0,6 -2.97,7.99 -14.98,7.99 l -15.02,0 c -31,0 -39.98,13.03 -39.98,31.04 0,12.01 5,35.99 14.96,60.99 l 54.04,143.07 c 1.99,6.01 4,8.02 9,8.02 l 223.13,0" />
        <path
           inkscape:connector-curvature="0"
           id="path3431"
           style="fill:#2b2158;fill-opacity:1;fill-rule:nonzero;stroke:none"
           d="m 3519.92,3771.27 5,0 c 34.01,37.01 180.04,186.07 209.08,220.12 28.01,32.99 50,57.99 50,75 0,10.99 -3.98,18 -14,20 -9,1.99 -12.99,4.04 -12.99,10.02 0,7.01 5,9 16,9 21.01,0 76.03,-3.01 103.03,-3.01 31.03,0 86.05,3.01 117.05,3.01 10.02,0 17.01,-1.99 17.01,-9 0,-7.02 -5,-9.01 -14.98,-9.01 -14.01,0 -39.05,-3.98 -58.03,-10.99 -31.04,-12.02 -65.04,-33.03 -108.05,-75.04 -31.03,-30.02 -182.07,-180.1 -216.11,-216.1 36.03,-47.03 232.13,-258.1 271.13,-295.11 44.03,-42.03 89.03,-87.03 143.07,-108.05 30.02,-12.01 50,-15.02 62.03,-15.02 6.99,0 12.99,-1.99 12.99,-7.99 0,-7.01 -5.02,-10.02 -24.02,-10.02 l -87.04,0 c -30.02,0 -48.02,0 -69.02,1.99 -54,5.02 -81.05,27.06 -124.06,65.04 -44.01,39.03 -241.08,270.12 -262.09,299.12 l -11,15.02 -5,0 0,-91.05 c 0,-92.03 0,-171.04 2.97,-214.08 2.03,-28.03 11.04,-50.02 36.04,-54.01 14,-1.99 35.99,-4.02 49.02,-4.02 7.99,0 13.01,-2.99 13.01,-7.99 0,-7.01 -8.03,-10.02 -19.03,-10.02 -56.03,0 -119.04,3.01 -144.04,3.01 -23.01,0 -86.05,-3.01 -126.07,-3.01 -12.99,0 -20,3.01 -20,10.02 0,5 3.98,7.99 15.99,7.99 15.04,0 27.01,2.03 36.02,4.02 20.02,3.99 25.04,25.98 29.02,55.02 5.02,42.03 5.02,121.04 5.02,213.07 l 0,176.09 c 0,152.05 0,180.08 -2.01,212.09 -2.03,34.01 -10,50 -43.03,57.01 -7.99,2 -25.02,3.01 -39.02,3.01 -11,0 -16.97,1.99 -16.97,9.01 0,7.01 6.95,9 21.99,9 53.01,0 116.05,-3.01 140.04,-3.01 24.02,0 87.03,3.01 121.07,3.01 14.01,0 21.02,-1.99 21.02,-9 0,-7.02 -6.04,-9.01 -14.01,-9.01 -10.02,0 -16.01,-1.01 -28.02,-3.01 -27,-5 -35.02,-21.99 -37.02,-57.01 -1.99,-32.01 -1.99,-60.04 -1.99,-212.09 l 0,-44.02" />
        <path
           inkscape:connector-curvature="0"
           id="path3433"
           style="fill:#2b2158;fill-opacity:1;fill-rule:nonzero;stroke:none"
           d="m 4166.15,3815.29 c 0,152.05 0,180.08 -1.99,212.09 -1.99,34.01 -10.02,50 -43.01,57.01 -8.01,2 -25.04,3.01 -39,3.01 -11.04,0 -17.03,1.99 -17.03,9.01 0,7.01 7.01,9 21.99,9 53.03,0 116.07,-3.01 144.08,-3.01 32.01,0 231.11,0 250.1,1.02 19,1.99 35.02,3.98 43.05,5.97 5,1.02 10.99,4.05 15.99,4.05 5,0 5.98,-4.05 5.98,-9.05 0,-6.97 -5,-18.98 -7.97,-65 -1.02,-10.01 -3.01,-54.04 -5.02,-66.05 -1.02,-4.96 -3.01,-11 -10.02,-11 -6.99,0 -8.98,5 -8.98,14.01 0,7.01 -1.02,24.02 -6,36.01 -7.01,18.03 -17.01,30 -67.03,36.04 -17.01,1.99 -122.05,3.98 -142.09,3.98 -4.96,0 -6.99,-3 -6.99,-10.02 l 0,-253.08 c 0,-7.01 1.01,-11 6.99,-11 22.03,0 137.09,0 160.1,1.99 24.02,2 39,5 48,15.02 7.02,7.99 11,12.99 16,12.99 4,0 7.01,-1.99 7.01,-8.01 0,-5.99 -5,-21.99 -7.99,-73.02 -2.03,-20 -4.02,-60.02 -4.02,-67.04 0,-7.98 0,-19.02 -9,-19.02 -7,0 -9.01,4.04 -9.01,9.04 -0.97,9.98 -0.97,23.01 -3.98,36 -5,20 -19.02,35.02 -56.04,39.02 -19.02,2 -118.06,3.01 -142.05,3.01 -5,0 -6.01,-4.02 -6.01,-10.02 l 0,-79.04 c 0,-34 -0.98,-126.04 0,-155.04 2.03,-69.02 18.02,-84.04 120.04,-84.04 26.03,0 68.06,0 94.08,12.01 25.97,12.01 37.99,33.03 45,74.02 1.99,11 3.98,15 10.99,15 8.03,0 8.03,-7.99 8.03,-18.01 0,-23 -8.03,-91.01 -13.05,-111.05 -6.99,-25.98 -15.99,-25.98 -53.98,-25.98 -151.09,0 -218.12,5.98 -277.13,5.98 -23.01,0 -86.05,-3.01 -126.03,-3.01 -13.05,0 -20.04,3.01 -20.04,10.02 0,5 4.02,7.99 15.99,7.99 15.04,0 27.05,2.03 36.04,4.02 20,3.99 25.02,25.98 29,55.02 5,42.03 5,121.04 5,213.07 l 0,176.09" />
        <path
           inkscape:connector-curvature="0"
           id="path3435"
           style="fill:#996549;fill-opacity:1;fill-rule:nonzero;stroke:none"
           d="m 1682.16,2265.27 c 0.52,-19.89 3.83,-26.52 8.93,-28.31 4.34,-1.52 9.18,-1.77 13.26,-1.77 2.8,0 4.33,-0.52 4.33,-2.05 0,-2.03 -2.29,-2.54 -5.86,-2.54 -16.57,0 -26.77,0.76 -31.62,0.76 -2.29,0 -14.28,-0.76 -27.54,-0.76 -3.32,0 -5.61,0.25 -5.61,2.54 0,1.53 1.53,2.05 4.08,2.05 3.32,0 7.91,0.25 11.48,1.26 6.62,2.05 7.64,9.44 7.9,31.62 l 2.29,150.96 c 0,5.11 0.77,8.67 3.32,8.67 2.8,0 5.1,-3.31 9.43,-7.9 3.06,-3.32 41.83,-44.88 79.06,-81.85 17.34,-17.34 51.76,-54.06 56.09,-58.15 l 1.28,0 -2.55,114.5 c -0.26,15.56 -2.55,20.4 -8.67,22.96 -3.83,1.52 -9.95,1.52 -13.52,1.52 -3.05,0 -4.08,0.77 -4.08,2.29 0,2.04 2.81,2.3 6.63,2.3 13.26,0 25.5,-0.76 30.85,-0.76 2.81,0 12.5,0.76 25,0.76 3.31,0 5.86,-0.26 5.86,-2.3 0,-1.52 -1.53,-2.29 -4.59,-2.29 -2.55,0 -4.59,0 -7.64,-0.76 -7.14,-2.04 -9.18,-7.39 -9.44,-21.68 l -2.81,-160.9 c 0,-5.62 -1.02,-7.91 -3.31,-7.91 -2.81,0 -5.87,2.81 -8.67,5.61 -16.07,15.3 -48.7,48.71 -75.22,74.97 -27.8,27.54 -56.11,59.42 -60.7,64.27 l -0.76,0 2.8,-107.11" />
        <path
           inkscape:connector-curvature="0"
           id="path3437"
           style="fill:#996549;fill-opacity:1;fill-rule:nonzero;stroke:none"
           d="m 1997.6,2239.77 c -48.96,0 -78.29,42.08 -78.29,95.11 0,63.5 33.4,79.82 62.73,79.82 41.82,0 74.72,-35.44 74.72,-92.56 0,-73.7 -41.31,-82.37 -59.16,-82.37 z m -10.71,-12.75 c 64.77,0 105.57,46.16 105.57,104.55 0,58.4 -39.53,95.37 -103.02,95.37 -76.51,0 -105.32,-56.35 -105.32,-99.96 0,-45.13 29.58,-99.96 102.77,-99.96" />
        <path
           inkscape:connector-curvature="0"
           id="path3439"
           style="fill:#996549;fill-opacity:1;fill-rule:nonzero;stroke:none"
           d="m 2180.94,2406.8 c 0,2.04 0.51,3.06 2.29,3.57 2.55,0.76 7.14,1.02 13.52,1.02 15.04,0 39.01,-10.46 39.01,-46.67 0,-20.91 -7.39,-32.64 -15.04,-38.24 -4.59,-3.33 -7.91,-4.34 -18.11,-4.34 -6.37,0 -14.02,0.76 -19.38,2.55 -1.78,0.76 -2.29,1.79 -2.29,4.59 l 0,77.52 z m -30.09,-102.26 c 0,-23.45 0,-43.6 -1.28,-54.31 -1.02,-7.4 -2.29,-13 -7.39,-14.03 -2.3,-0.51 -5.36,-1.01 -9.18,-1.01 -3.06,0 -4.08,-0.78 -4.08,-2.05 0,-1.78 1.78,-2.54 5.1,-2.54 10.2,0 26.26,0.76 31.11,0.76 3.82,0 22.69,-0.76 37.48,-0.76 3.32,0 5.1,0.76 5.1,2.54 0,1.27 -1.01,2.05 -3.06,2.05 -3.06,0 -8.67,0.5 -12.49,1.01 -7.65,1.03 -9.18,6.63 -9.95,14.03 -1.27,10.71 -1.27,30.86 -1.27,54.57 l 0,3.57 c 0,1.52 0.76,2.04 2.04,2.04 l 22.18,-0.52 c 1.79,0 3.32,-0.25 4.59,-1.78 3.32,-3.82 15.05,-21.17 25.25,-35.19 14.28,-19.63 23.97,-31.62 34.93,-37.48 6.63,-3.58 13.01,-4.84 27.29,-4.84 l 24.22,0 c 3.06,0 4.85,0.51 4.85,2.54 0,1.27 -1.02,2.05 -3.06,2.05 -2.04,0 -4.34,0.25 -7.14,0.76 -3.83,0.76 -14.28,2.55 -28.56,17.34 -15.05,15.81 -32.64,38.51 -55.34,67.06 25.76,20.91 33.67,38.26 33.67,57.12 0,17.09 -10.21,30.09 -17.35,34.93 -13.77,9.45 -30.85,10.97 -46.92,10.97 -7.9,0 -27.28,-0.76 -35.95,-0.76 -5.36,0 -21.42,0.76 -34.94,0.76 -3.82,0 -5.61,-0.51 -5.61,-2.3 0,-1.78 1.53,-2.29 4.34,-2.29 3.57,0 7.91,-0.26 9.95,-0.76 8.41,-1.79 10.45,-5.87 10.96,-14.54 0.51,-8.16 0.51,-15.3 0.51,-54.05 l 0,-44.89" />
        <path
           inkscape:connector-curvature="0"
           id="path3441"
           style="fill:#996549;fill-opacity:1;fill-rule:nonzero;stroke:none"
           d="m 2393.61,2409.09 -38,-1.02 c -14.79,-0.51 -20.91,-1.78 -24.73,-7.39 -2.56,-3.82 -3.83,-6.89 -4.34,-8.93 -0.51,-2.04 -1.27,-3.06 -2.81,-3.06 -1.78,0 -2.29,1.28 -2.29,4.08 0,4.09 4.85,27.29 5.36,29.33 0.76,3.31 1.52,4.84 3.06,4.84 2.03,0 4.59,-2.55 10.96,-3.06 7.4,-0.77 17.09,-1.27 25.5,-1.27 l 100.98,0 c 16.32,0 22.44,2.55 24.48,2.55 1.78,0 2.04,-1.53 2.04,-5.36 0,-5.36 -0.76,-22.94 -0.76,-29.57 -0.26,-2.55 -0.77,-4.09 -2.3,-4.09 -2.04,0 -2.55,1.27 -2.81,5.1 l -0.25,2.8 c -0.51,6.64 -7.4,13.77 -30.09,14.29 l -32.13,0.76 0,-104.55 c 0,-23.45 0,-43.6 1.27,-54.57 0.77,-7.14 2.3,-12.74 9.95,-13.77 3.57,-0.51 9.18,-1.01 13.01,-1.01 2.8,0 4.08,-0.78 4.08,-2.05 0,-1.78 -2.05,-2.54 -4.85,-2.54 -16.83,0 -32.89,0.76 -40.03,0.76 -5.87,0 -21.93,-0.76 -32.13,-0.76 -3.32,0 -5.1,0.76 -5.1,2.54 0,1.27 1.02,2.05 4.08,2.05 3.82,0 6.88,0.5 9.18,1.01 5.1,1.03 6.63,6.63 7.39,14.03 1.28,10.71 1.28,30.86 1.28,54.31 l 0,104.55" />
        <path
           inkscape:connector-curvature="0"
           id="path3443"
           style="fill:#996549;fill-opacity:1;fill-rule:nonzero;stroke:none"
           d="m 2687.87,2342.29 c 0.77,0 1.53,0.5 1.53,1.77 l 0,5.37 c 0,38.75 0,45.89 -0.51,54.05 -0.51,8.67 -2.55,12.75 -10.96,14.54 -2.04,0.5 -6.38,0.76 -9.95,0.76 -2.8,0 -4.33,0.51 -4.33,2.29 0,1.79 1.78,2.3 5.35,2.3 13.77,0 29.84,-0.76 36.72,-0.76 6.12,0 22.19,0.76 32.13,0.76 3.57,0 5.36,-0.51 5.36,-2.3 0,-1.78 -1.53,-2.29 -4.59,-2.29 -2.04,0 -4.34,-0.26 -7.4,-0.76 -6.88,-1.28 -8.92,-5.62 -9.43,-14.54 -0.51,-8.16 -0.51,-15.3 -0.51,-54.05 l 0,-44.89 c 0,-23.45 0,-43.6 1.27,-54.57 0.77,-7.14 2.3,-12.74 9.95,-13.77 3.57,-0.51 9.18,-1.01 13,-1.01 2.8,0 4.08,-0.78 4.08,-2.05 0,-1.78 -2.04,-2.54 -5.1,-2.54 -16.57,0 -32.64,0.76 -39.78,0.76 -5.86,0 -21.93,-0.76 -31.87,-0.76 -3.57,0 -5.36,0.76 -5.36,2.54 0,1.27 1.02,2.05 4.08,2.05 3.83,0 6.89,0.5 9.18,1.01 5.11,1.03 6.38,6.63 7.4,14.03 1.27,10.71 1.27,30.86 1.27,54.31 l 0,22.44 c 0,1.02 -0.76,1.54 -1.53,1.54 l -97.41,0 c -0.76,0 -1.52,-0.26 -1.52,-1.54 l 0,-22.44 c 0,-23.45 0,-43.6 1.27,-54.57 0.76,-7.14 2.29,-12.74 9.94,-13.77 3.58,-0.51 9.18,-1.01 13.01,-1.01 2.8,0 4.07,-0.78 4.07,-2.05 0,-1.78 -2.03,-2.54 -5.09,-2.54 -16.58,0 -32.64,0.76 -39.78,0.76 -5.86,0 -21.93,-0.76 -32.13,-0.76 -3.32,0 -5.1,0.76 -5.1,2.54 0,1.27 1.02,2.05 4.08,2.05 3.82,0 6.88,0.5 9.18,1.01 5.09,1.03 6.38,6.63 7.39,14.03 1.28,10.71 1.28,30.86 1.28,54.31 l 0,44.89 c 0,38.75 0,45.89 -0.51,54.05 -0.51,8.67 -2.55,12.75 -10.96,14.54 -2.04,0.5 -6.38,0.76 -9.95,0.76 -2.81,0 -4.34,0.51 -4.34,2.29 0,1.79 1.79,2.3 5.36,2.3 13.77,0 29.84,-0.76 36.72,-0.76 6.12,0 22.18,0.76 32.13,0.76 3.57,0 5.35,-0.51 5.35,-2.3 0,-1.78 -1.53,-2.29 -4.59,-2.29 -2.04,0 -4.33,-0.26 -7.39,-0.76 -6.89,-1.28 -8.93,-5.62 -9.44,-14.54 -0.5,-8.16 -0.5,-15.3 -0.5,-54.05 l 0,-5.37 c 0,-1.27 0.76,-1.77 1.52,-1.77 l 97.41,0" />
        <path
           inkscape:connector-curvature="0"
           id="path3445"
           style="fill:#996549;fill-opacity:1;fill-rule:nonzero;stroke:none"
           d="m 2927.05,2254.81 c -24.98,21.94 -31.62,50.49 -31.62,75.23 0,17.34 5.36,47.43 29.84,69.87 18.36,16.83 42.59,27.03 80.58,27.03 15.81,0 25.24,-1.02 36.98,-2.55 9.69,-1.28 17.85,-3.57 25.49,-4.33 2.81,-0.26 3.83,-1.54 3.83,-3.07 0,-2.03 -0.76,-5.1 -1.27,-14.02 -0.52,-8.41 -0.25,-22.44 -0.77,-27.54 -0.25,-3.83 -0.76,-5.86 -3.06,-5.86 -2.04,0 -2.55,2.03 -2.55,5.61 -0.25,7.91 -3.57,16.82 -9.95,23.45 -8.41,8.93 -28.3,15.81 -51.76,15.81 -22.18,0 -36.72,-5.6 -47.93,-15.81 -18.63,-17.08 -23.47,-41.31 -23.47,-66.04 0,-60.69 46.15,-90.77 80.32,-90.77 22.7,0 36.47,2.54 46.67,14.27 4.33,4.85 7.65,12.24 8.67,16.83 0.77,4.08 1.27,5.1 3.31,5.1 1.79,0 2.3,-1.78 2.3,-3.82 0,-3.07 -3.06,-25.25 -5.61,-33.92 -1.27,-4.33 -2.29,-5.61 -6.63,-7.39 -10.2,-4.08 -29.58,-5.87 -45.9,-5.87 -34.93,0 -64.25,7.65 -87.47,27.79" />
        <path
           inkscape:connector-curvature="0"
           id="path3447"
           style="fill:#996549;fill-opacity:1;fill-rule:nonzero;stroke:none"
           d="m 3175.63,2309.89 c -1.03,0 -1.28,0.77 -1.03,1.79 l 23.47,62.73 c 0.25,1.02 0.76,2.3 1.52,2.3 0.77,0 1.02,-1.28 1.28,-2.3 l 22.95,-62.98 c 0.25,-0.77 0,-1.54 -1.28,-1.54 l -46.91,0 z m 51.76,-12.74 c 1.27,0 2.04,-0.51 2.55,-1.79 l 20.4,-54.06 c 1.27,-3.06 -0.52,-5.35 -2.29,-5.86 -2.56,-0.25 -3.58,-0.77 -3.58,-2.3 0,-1.78 3.06,-1.78 7.65,-2.03 20.4,-0.51 39.02,-0.51 48.2,-0.51 9.44,0 11.73,0.51 11.73,2.54 0,1.79 -1.28,2.05 -3.32,2.05 -3.05,0 -6.88,0.25 -10.7,1.01 -5.36,1.28 -12.76,4.85 -22.44,27.79 -16.32,38.76 -57.12,142.81 -63.25,156.83 -2.54,5.87 -4.08,8.16 -6.37,8.16 -2.55,0 -4.08,-2.81 -7.14,-10.2 l -64.01,-160.14 c -5.09,-12.75 -9.94,-21.41 -21.68,-22.95 -2.03,-0.25 -5.6,-0.5 -7.89,-0.5 -2.05,0 -3.06,-0.52 -3.06,-2.05 0,-2.03 1.52,-2.54 4.84,-2.54 13.26,0 27.29,0.76 30.09,0.76 7.9,0 18.86,-0.76 27.03,-0.76 2.8,0 4.33,0.51 4.33,2.54 0,1.53 -0.77,2.05 -3.82,2.05 l -3.83,0 c -7.9,0 -10.19,3.31 -10.19,7.9 0,3.06 1.26,9.18 3.82,15.55 l 13.77,36.47 c 0.51,1.53 1.02,2.04 2.3,2.04 l 56.86,0" />
        <path
           inkscape:connector-curvature="0"
           id="path3449"
           style="fill:#996549;fill-opacity:1;fill-rule:nonzero;stroke:none"
           d="m 3394.41,2406.8 c 0,2.04 0.51,3.06 2.3,3.57 2.55,0.76 7.14,1.02 13.52,1.02 15.04,0 39.01,-10.46 39.01,-46.67 0,-20.91 -7.39,-32.64 -15.05,-38.24 -4.59,-3.33 -7.9,-4.34 -18.1,-4.34 -6.37,0 -14.03,0.76 -19.38,2.55 -1.79,0.76 -2.3,1.79 -2.3,4.59 l 0,77.52 z m -30.09,-102.26 c 0,-23.45 0,-43.6 -1.27,-54.31 -1.02,-7.4 -2.3,-13 -7.4,-14.03 -2.29,-0.51 -5.35,-1.01 -9.17,-1.01 -3.06,0 -4.09,-0.78 -4.09,-2.05 0,-1.78 1.79,-2.54 5.1,-2.54 10.21,0 26.27,0.76 31.12,0.76 3.82,0 22.69,-0.76 37.48,-0.76 3.31,0 5.1,0.76 5.1,2.54 0,1.27 -1.02,2.05 -3.06,2.05 -3.06,0 -8.68,0.5 -12.49,1.01 -7.66,1.03 -9.18,6.63 -9.96,14.03 -1.27,10.71 -1.27,30.86 -1.27,54.57 l 0,3.57 c 0,1.52 0.77,2.04 2.05,2.04 l 22.17,-0.52 c 1.79,0 3.32,-0.25 4.6,-1.78 3.31,-3.82 15.04,-21.17 25.25,-35.19 14.27,-19.63 23.96,-31.62 34.93,-37.48 6.63,-3.58 13.01,-4.84 27.28,-4.84 l 24.23,0 c 3.06,0 4.85,0.51 4.85,2.54 0,1.27 -1.03,2.05 -3.07,2.05 -2.04,0 -4.34,0.25 -7.14,0.76 -3.83,0.76 -14.28,2.55 -28.55,17.34 -15.05,15.81 -32.65,38.51 -55.35,67.06 25.77,20.91 33.66,38.26 33.66,57.12 0,17.09 -10.19,30.09 -17.33,34.93 -13.78,9.45 -30.86,10.97 -46.92,10.97 -7.91,0 -27.29,-0.76 -35.96,-0.76 -5.35,0 -21.41,0.76 -34.93,0.76 -3.83,0 -5.62,-0.51 -5.62,-2.3 0,-1.78 1.54,-2.29 4.34,-2.29 3.58,0 7.91,-0.26 9.95,-0.76 8.41,-1.79 10.45,-5.87 10.96,-14.54 0.51,-8.16 0.51,-15.3 0.51,-54.05 l 0,-44.89" />
        <path
           inkscape:connector-curvature="0"
           id="path3451"
           style="fill:#996549;fill-opacity:1;fill-rule:nonzero;stroke:none"
           d="m 3662.93,2239.77 c -48.97,0 -78.29,42.08 -78.29,95.11 0,63.5 33.41,79.82 62.74,79.82 41.81,0 74.7,-35.44 74.7,-92.56 0,-73.7 -41.31,-82.37 -59.15,-82.37 z m -10.71,-12.75 c 64.76,0 105.56,46.16 105.56,104.55 0,58.4 -39.52,95.37 -103.01,95.37 -76.51,0 -105.32,-56.35 -105.32,-99.96 0,-45.13 29.58,-99.96 102.77,-99.96" />
        <path
           inkscape:connector-curvature="0"
           id="path3453"
           style="fill:#996549;fill-opacity:1;fill-rule:nonzero;stroke:none"
           d="m 3855.7,2304.54 c 0,-32.64 0,-50.23 5.35,-54.82 4.34,-3.83 10.97,-5.61 30.86,-5.61 13.52,0 23.46,0.25 29.84,7.14 3.05,3.31 6.12,10.45 6.63,15.29 0.25,2.3 0.76,3.83 2.8,3.83 1.79,0 2.04,-1.27 2.04,-4.33 0,-2.81 -1.78,-21.93 -3.83,-29.33 -1.52,-5.6 -2.8,-6.89 -16.06,-6.89 -36.72,0 -53.54,1.54 -74.2,1.54 -5.87,0 -21.93,-0.76 -32.13,-0.76 -3.32,0 -5.11,0.76 -5.11,2.54 0,1.27 1.03,2.05 4.09,2.05 3.82,0 6.88,0.5 9.18,1.01 5.09,1.03 6.37,6.63 7.39,14.03 1.28,10.71 1.28,30.86 1.28,54.31 l 0,44.89 c 0,38.75 0,45.89 -0.51,54.05 -0.52,8.67 -2.55,12.75 -10.96,14.54 -2.05,0.5 -5.1,0.76 -8.42,0.76 -2.81,0 -4.34,0.51 -4.34,2.29 0,1.79 1.79,2.3 5.61,2.3 11.99,0 28.05,-0.76 34.93,-0.76 6.13,0 24.74,0.76 34.68,0.76 3.58,0 5.37,-0.51 5.37,-2.3 0,-1.78 -1.54,-2.29 -4.59,-2.29 -2.82,0 -6.89,-0.26 -9.96,-0.76 -6.88,-1.28 -8.92,-5.62 -9.43,-14.54 -0.51,-8.16 -0.51,-15.3 -0.51,-54.05 l 0,-44.89" />
        <path
           inkscape:connector-curvature="0"
           id="path3455"
           style="fill:#996549;fill-opacity:1;fill-rule:nonzero;stroke:none"
           d="m 4003.61,2349.43 c 0,38.75 0,45.89 -0.51,54.05 -0.52,8.67 -3.07,13 -8.67,14.29 -2.81,0.75 -6.13,1.01 -9.18,1.01 -2.55,0 -4.09,0.51 -4.09,2.55 0,1.53 2.04,2.04 6.13,2.04 9.68,0 25.75,-0.76 33.14,-0.76 6.38,0 21.43,0.76 31.11,0.76 3.32,0 5.35,-0.51 5.35,-2.04 0,-2.04 -1.53,-2.55 -4.08,-2.55 -2.54,0 -4.59,-0.26 -7.64,-0.76 -6.89,-1.28 -8.93,-5.62 -9.44,-14.54 -0.5,-8.16 -0.5,-15.3 -0.5,-54.05 l 0,-44.89 c 0,-24.74 0,-44.88 1.01,-55.84 0.76,-6.88 2.55,-11.47 10.21,-12.5 3.56,-0.51 9.18,-1.01 12.99,-1.01 2.81,0 4.08,-0.78 4.08,-2.05 0,-1.78 -2.04,-2.54 -4.84,-2.54 -16.82,0 -32.9,0.76 -39.79,0.76 -5.85,0 -21.92,-0.76 -32.12,-0.76 -3.31,0 -5.1,0.76 -5.1,2.54 0,1.27 1.03,2.05 4.08,2.05 3.83,0 6.89,0.5 9.18,1.01 5.1,1.03 6.63,5.35 7.39,12.75 1.29,10.71 1.29,30.85 1.29,55.59 l 0,44.89" />
        <path
           inkscape:connector-curvature="0"
           id="path3457"
           style="fill:#996549;fill-opacity:1;fill-rule:nonzero;stroke:none"
           d="m 4158.64,2265.27 c 0.51,-19.89 3.82,-26.52 8.93,-28.31 4.33,-1.52 9.18,-1.77 13.25,-1.77 2.81,0 4.34,-0.52 4.34,-2.05 0,-2.03 -2.3,-2.54 -5.86,-2.54 -16.59,0 -26.78,0.76 -31.62,0.76 -2.3,0 -14.28,-0.76 -27.54,-0.76 -3.32,0 -5.62,0.25 -5.62,2.54 0,1.53 1.53,2.05 4.09,2.05 3.32,0 7.91,0.25 11.47,1.26 6.63,2.05 7.65,9.44 7.91,31.62 l 2.29,150.96 c 0,5.11 0.77,8.67 3.31,8.67 2.8,0 5.1,-3.31 9.44,-7.9 3.06,-3.32 41.83,-44.88 79.05,-81.85 17.35,-17.34 51.77,-54.06 56.1,-58.15 l 1.27,0 -2.55,114.5 c -0.25,15.56 -2.54,20.4 -8.67,22.96 -3.82,1.52 -9.94,1.52 -13.51,1.52 -3.06,0 -4.08,0.77 -4.08,2.29 0,2.04 2.81,2.3 6.63,2.3 13.26,0 25.5,-0.76 30.86,-0.76 2.8,0 12.48,0.76 24.98,0.76 3.32,0 5.87,-0.26 5.87,-2.3 0,-1.52 -1.53,-2.29 -4.59,-2.29 -2.55,0 -4.59,0 -7.65,-0.76 -7.14,-2.04 -9.18,-7.39 -9.44,-21.68 l -2.8,-160.9 c 0,-5.62 -1.02,-7.91 -3.32,-7.91 -2.8,0 -5.86,2.81 -8.67,5.61 -16.06,15.3 -48.7,48.71 -75.22,74.97 -27.8,27.54 -56.1,59.42 -60.69,64.27 l -0.76,0 2.8,-107.11" />
        <path
           inkscape:connector-curvature="0"
           id="path3459"
           style="fill:#996549;fill-opacity:1;fill-rule:nonzero;stroke:none"
           d="m 4416.45,2309.89 c -1.03,0 -1.28,0.77 -1.03,1.79 l 23.47,62.73 c 0.25,1.02 0.76,2.3 1.52,2.3 0.77,0 1.03,-1.28 1.28,-2.3 l 22.95,-62.98 c 0.25,-0.77 0,-1.54 -1.28,-1.54 l -46.91,0 z m 51.75,-12.74 c 1.28,0 2.05,-0.51 2.56,-1.79 l 20.39,-54.06 c 1.28,-3.06 -0.51,-5.35 -2.28,-5.86 -2.56,-0.25 -3.58,-0.77 -3.58,-2.3 0,-1.78 3.06,-1.78 7.65,-2.03 20.4,-0.51 39.01,-0.51 48.19,-0.51 9.44,0 11.74,0.51 11.74,2.54 0,1.79 -1.28,2.05 -3.32,2.05 -3.05,0 -6.88,0.25 -10.71,1.01 -5.36,1.28 -12.75,4.85 -22.43,27.79 -16.33,38.76 -57.13,142.81 -63.25,156.83 -2.55,5.87 -4.08,8.16 -6.37,8.16 -2.55,0 -4.08,-2.81 -7.14,-10.2 l -64.01,-160.14 c -5.09,-12.75 -9.95,-21.41 -21.68,-22.95 -2.03,-0.25 -5.6,-0.5 -7.9,-0.5 -2.04,0 -3.05,-0.52 -3.05,-2.05 0,-2.03 1.52,-2.54 4.84,-2.54 13.26,0 27.29,0.76 30.09,0.76 7.9,0 18.87,-0.76 27.03,-0.76 2.8,0 4.34,0.51 4.34,2.54 0,1.53 -0.77,2.05 -3.83,2.05 l -3.83,0 c -7.9,0 -10.19,3.31 -10.19,7.9 0,3.06 1.27,9.18 3.81,15.55 l 13.77,36.47 c 0.52,1.53 1.03,2.04 2.31,2.04 l 56.85,0" />
      </g>
    </g>
  </g>
</svg>
