<svg xmlns="http://www.w3.org/2000/svg" viewBox="0 0 388.864 46.224" height="46.224" width="388.864" xml:space="preserve" id="svg2" version="1.1">
    <g transform="matrix(1.33333 0 0 -1.33333 0 46.224)" id="g10">
        <g transform="scale(.1)" id="g12">
            <path id="path18" style="fill:#2465a3;fill-opacity:1;fill-rule:evenodd;stroke:none" d="M920.898 278.762c-12.058-31.211-23.652-61.242-35.246-91.25-22.632-58.559-45.308-117.082-67.8-175.676-1.524-3.992-3.332-5.535-7.723-5.469-16.731.274-33.481.324-50.207-.02-4.934-.097-7.188 1.407-9.004 6.016-36.621 92.657-73.43 185.254-110.195 277.864-5.301 13.367-10.633 26.726-15.938 40.105-2.226 5.617-2.195 5.676 3.633 5.684 13.855.031 27.727-.157 41.57.117 4.145.078 5.95-1.434 7.422-5.156 16.406-41.473 32.973-82.891 49.492-124.317A485515.64 485515.64 0 0 1 781.34 70.363c.594-1.484 1.265-2.941 2.359-5.492a20773.07 20773.07 0 0 1 13.449 34.262c30.262 77.371 60.555 154.734 90.711 232.168 1.426 3.652 3.301 4.851 7.114 4.804 17.285-.175 34.558-.207 51.843.02 4.102.059 5.899-1.32 7.364-5.129 33.066-86.316 66.28-172.566 99.48-258.848.95-2.48 1.95-4.949 3.33-8.476 1.92 4.512 3.49 8.074 4.93 11.691 34.1 84.774 68.21 169.532 102.14 254.356 1.87 4.695 4.03 6.609 9.27 6.445 13.13-.422 26.28-.137 39.41-.137 6.71 0 6.76-.031 4.27-6.32-19.86-49.969-39.75-99.93-59.62-149.902-22.04-55.496-44.13-110.977-65.96-166.543-2-5.098-4.29-7.117-10.01-6.953-16.37.476-32.76.324-49.13.078-4.39-.078-6.61 1.144-8.26 5.437-33.417 86.957-67.01 173.84-100.585 260.746-.632 1.649-1.343 3.27-2.547 6.192"/>
            <path id="path20" style="fill:#2465a2;fill-opacity:1;fill-rule:evenodd;stroke:none" d="M1754.9 3.242c-26.8 0-53.62-.332-80.43.11-21.31.34-42.35 3.152-62.17 11.718-26.48 11.446-40.04 32.168-43.07 60.426-1.32 12.219-.64 24.453-.97 36.672-.08 3.508 1.13 4.719 4.66 4.68 13.68-.157 27.35-.176 41.04.007 3.77.051 4.88-1.238 4.94-4.968.18-11.321-1.05-22.676.94-33.938 1.91-10.77 8.07-18.242 17.87-22.812 8.91-4.18 18.5-5.711 28.22-6.524 12.74-1.062 25.51-.976 38.28-.965 38.87.04 77.74-.199 116.62.125 13.99.118 28.05.489 41.78 3.965 20.65 5.215 29.9 16.114 31.96 37.414.8 8.086 1.13 16.114.11 24.207-2.56 20.383-11.38 29.395-31.87 32.442-10.33 1.523-20.74 2.14-31.17 2.16-43.73.105-87.47-.195-131.18.496-25.7.41-51.4 1.926-76.4 9.004-33.6 9.492-51.02 30.07-54.69 64.902-1.64 15.793-1.87 31.543.61 47.317 5.25 33.308 25.02 53.105 56.83 61.922 19.55 5.429 39.57 7.089 59.77 7.695 38.67 1.183 77.36.734 116.05.41 28.77-.234 57.58-1.551 85.16-11.316 20.39-7.227 36.42-19.309 44.16-40.469 5.97-16.438 5.82-33.527 5.58-50.637-.03-2.578-1.71-2.773-3.65-2.773-14.22.011-28.44.051-42.67-.039-3.09-.028-4.09 1.308-4.11 4.199-.03 7.394-.78 14.719-2.48 21.926-5.11 21.668-17.83 32.246-40 34.402-16.21 1.582-32.36.215-48.51.039-29.88-.301-59.75.059-89.63-.449-17.58-.313-35.23-.613-52.6-4.219-21.37-4.453-31.83-14.473-34.65-33.777-1.09-7.5-.74-15.102-.48-22.649.07-2.343.19-4.687.5-6.992 2.01-14.48 10.9-22.539 24.55-26.062 15.65-4.036 31.66-4.438 47.66-4.453 46.09-.051 92.17.281 138.22-.129 24.9-.235 49.65-2.696 72.85-12.813 27.09-11.805 41.31-32.91 42.45-62.195.66-17.031 1.71-34.223-1.31-51.172-5.98-33.215-27.05-52.012-58.67-60.383-19.81-5.223-40.06-6.629-60.43-6.64-23.21-.02-46.43-.008-69.67-.008v.144"/>
            <path id="path22" style="fill:#2465a3;fill-opacity:1;fill-rule:evenodd;stroke:none" d="M2590.37 47.656c29.49 0 59-.008 88.51.02 8.11.012 16.19.644 24.14 2.09 20 3.632 35.18 13.379 41.78 33.644 2.77 8.613 3.87 17.508 3.87 26.57-.04 32.219.08 64.426-.08 96.622-.04 12.929.84 25.89-.9 38.781-2.71 20.222-11.35 36.035-31.58 43.633-10.92 4.101-22.29 5.613-33.69 5.566-64.57-.266-129.14 1.523-193.67-.852-34.3-1.25-53.44-19.558-55.57-53.503-1.33-21.575-.59-43.157-.55-64.739.04-25-.84-50.008.63-75 1.6-27.039 16.01-44.16 42.32-50.058 8.83-1.98 17.77-2.735 26.8-2.742 29.31-.06 58.65-.032 87.99-.032zm-.63-44.375c-37.6 0-75.25-.937-112.79.364-22.81.78-44.94 6.96-63.13 22.011-14.68 12.137-23.14 28.38-27.97 46.68-3.98 15.156-5.7 30.535-5.66 46.172.14 40.301-.76 80.644.57 120.906.76 23.527 6.56 46.613 21.66 65.715 12.52 15.828 29.45 25.105 49.14 29.609 15.13 3.457 30.49 4.981 45.92 5.028 62.26.226 124.51.332 186.75-.039 21.35-.125 42.48-2.586 62.52-10.985 22.21-9.297 36.78-25.676 45.08-47.871 5.67-15.195 7.87-31.074 8.75-47.277 2.03-38.289.98-76.59.65-114.883-.16-19.883-2.48-39.727-9.79-58.555-11.37-29.383-33.57-45.605-63.52-52.656-13.16-3.113-26.44-4.453-39.92-4.426-32.77.082-65.5.024-98.26.024v.183"/>
            <path id="path24" style="fill:#2565a2;fill-opacity:1;fill-rule:evenodd;stroke:none" d="M1230.27 171.281c0 52.735.08 105.457-.1 158.192-.02 5.136 1.27 6.679 6.55 6.679 103.66-.164 207.32-.156 310.99-.027 4.84.008 6.6-1.145 6.43-6.262-.41-10.781-.39-21.601-.02-32.383.17-5.164-1.35-6.746-6.62-6.738-48.05.196-96.1.117-144.16.117-37.79 0-75.6-.117-113.38.129-5.56.039-6.93-1.562-6.88-6.984.27-26.453.24-52.91.02-79.363-.04-4.786 1.3-6.028 6.05-6.02 82.42.149 164.84.109 247.27.109 6.91 0 6.91-.019 6.93-7.039v-31.32c-.02-6.863-.02-6.875-7.14-6.875h-244.04c-1.63 0-3.25-.105-4.87.02-2.99.234-4.14-1.004-4.13-4.051.07-31.32.07-62.63.01-93.945-.01-3.11 1.31-4.094 4.23-4.036 5.74.11 11.52.02 17.27.02h242.95c8.34 0 8.34 0 8.34-8.582 0-10.266-.21-20.527.1-30.781.12-4.493-1.29-5.782-5.78-5.754-37.07.168-74.14.09-111.22.09-66.95 0-133.89 0-200.85.015-8.67 0-7.93-1.031-7.93 7.68-.03 52.363-.02 104.734-.02 157.109"/>
            <path id="path26" style="fill:#2465a2;fill-opacity:1;fill-rule:evenodd;stroke:none" d="M2170.23 3.242c-32.23 0-64.45-.262-96.66.11-17.19.203-33.99 3.378-49.96 10.015-28.61 11.918-43.6 34.68-50.28 63.871-2.96 13.004-4.57 26.219-4.57 39.559-.01 38.164-.09 76.32.2 114.465.12 13.515 2.34 26.843 5.9 39.929 9.26 34.317 31.39 55.215 65.78 63.594 14.96 3.633 30.18 4.934 45.47 4.992 55.8.223 111.58.254 167.38-.011 19.28-.086 38.44-1.953 56.64-9.266 30.04-12.082 46.94-36.426 47.52-68.789.18-11.328-.12-22.668.12-34.008.06-3.789-1.17-5-4.94-4.949-12.41.187-24.83.215-37.23-.02-4.2-.078-5.59 1.106-5.57 5.45.1 9.699.59 19.406-.84 29.101-2.98 20.176-14.31 32.063-34.39 35.332-8.54 1.399-17.15 2.063-25.78 2.071-53.46.031-106.92.058-160.37-.028-9.16-.012-18.3-.89-27.27-3.137-22.01-5.546-35.19-20.261-38.63-42.734-.96-6.258-1.25-12.527-1.25-18.816 0-41.575-.1-83.149.25-124.719.14-16.27 4.26-31.434 17-42.852 10.54-9.472 23.65-12.468 37.28-13.789 10.04-.976 20.1-.996 30.2-.976 46.05.058 92.14-.059 138.22.097 10.41.04 20.84.618 31.19 2.063 25.72 3.613 36.44 15.555 37.58 42.234.35 8.797.25 17.637.11 26.457-.03 3.289.67 4.891 4.44 4.84 13.85-.172 27.71-.105 41.58-.039 2.68.012 4.49-.359 4.49-3.711-.06-18.523.37-37.066-3.14-55.387-5.86-30.48-25.1-47.902-54.4-55.39-15.93-4.082-32.18-5.703-48.61-5.703h-87.46v.144"/>
            <g id="g863">
                <path d="M318.328 252.004c.078 14.09-10.601 25.605-23.687 25.527-12.825-.09-23.496-11.504-23.555-25.195-.063-14.008 10.789-25.656 23.758-25.527 12.969.125 23.418 11.328 23.484 25.195zm-69.93 26.641c-.253 3.261-1.55 7.011-4.492 10.253-7.937 8.79-15.968 17.528-23.601 26.582-5.215 6.192-11.809 8.692-19.492 8.465-20.286-.574-40.559-1.367-60.833-2.109-7.16-.262-11.417-4.305-11.601-10.809-.176-6.953 3.769-11.191 11.16-11.808 18.441-1.524 36.867-3.086 55.316-4.434 4.122-.312 7.098-1.863 9.532-5.117 5.496-7.324 11.121-14.551 16.718-21.805 4.723-6.133 10.465-8.058 16.93-5.715 6.328 2.297 10.442 8.45 10.363 16.497zm20.645-74.348c-5.051-.344-9.602-3.047-12.188-8.641-2.917-6.301-2.539-12.668 2.208-17.629 13.398-14.043 27.031-27.918 40.988-41.433 7.097-6.875 14.429-6.059 21.121 1.277a19231.235 19231.235 0 0 1 42.058 46.328c5.215 5.762 5.454 12.688.793 17.364-4.367 4.375-10.363 3.847-16.203-1.465-11.433-10.399-22.925-20.762-34.265-31.27-2.727-2.527-4.461-2.508-6.946.449-8.171 9.797-16.66 19.344-24.961 29.043-3.062 3.594-6.726 5.879-12.605 5.977zm-55.84 53.828c-10.242 0-20.508.109-30.762-.027-15.105-.188-27.07-11.946-28-27.336-.964-16.133 9.504-30.117 24.797-31.172 22.063-1.516 44.239-1.192 66.321-.215 16.968.762 27.554 14.297 26.609 31.641-.867 15.722-13.352 27.082-29.824 27.109-9.715.02-19.434 0-29.141 0zm-6.836-132.52c-4.402-.566-7.363-.976-10.32-1.308-15.168-1.707-30.363-3.223-45.488-5.176-7.805-1.004-12.051-8.719-9.473-16.133 1.91-5.496 5.809-8.125 12.527-8.066 27.5.234 55 .683 82.5.734 8.535.02 14.668 3.223 17.942 11.055 3.281 7.867 1.883 15.195-3.957 21.434-3.426 3.679-7.188 7.05-10.762 10.585-17.141 16.946-34.219 33.934-51.406 50.809-11.387 11.184-29.309 6.82-34.344-8.258-3.457-10.273.059-20.929 9.148-26.972 14.051-9.36 28.204-18.555 43.633-28.704zm-94.543 11.739c.766-3.621-.75-6.434-2.984-9.285-22.559-28.918-45-57.91-67.512-86.875-2.473-3.188-4.707-6.477-4.246-10.715.547-5.02 2.906-8.828 7.977-10.477 5.527-1.789 9.257 1.114 12.734 4.824 25.039 26.778 50.02 53.602 75.227 80.215 4.293 4.539 6.929 9.422 7.734 15.543 1.094 8.379 2.437 16.703 3.621 25.063 2.988 20.984 6.063 41.961 8.867 62.976 1.887 14.192-7.187 26.114-20.027 26.856-12.988.761-23.344-10.086-23.039-24.258.515-24.609 1.094-49.219 1.648-73.867zM398.549 346.68c3.736-.012 9.582-4.001 9.586-7.77l.334-330.423c-.014-3.658-3.133-8.476-6.88-8.487H7.558C3.819-.002 0 3.836 0 7.559v331.574c0 3.767 2.509 7.525 6.258 7.547h392.437" style="fill:#2465a3;fill-opacity:1;fill-rule:evenodd;stroke:none" id="path14"/>
                <path d="M111.824 137.344c-.554 24.648-1.133 49.258-1.648 73.867-.305 14.172 10.051 25.019 23.039 24.258 12.84-.742 21.914-12.664 20.027-26.856-2.804-21.015-5.879-41.992-8.867-62.976-1.184-8.36-2.527-16.684-3.621-25.063-.805-6.121-3.441-11.004-7.734-15.543-25.207-26.613-50.188-53.437-75.227-80.215-3.477-3.71-7.207-6.613-12.734-4.824-5.07 1.649-7.43 5.457-7.977 10.477-.46 4.238 1.774 7.527 4.246 10.715C63.84 70.148 86.281 99.14 108.84 128.059c2.234 2.851 3.75 5.664 2.984 9.285" style="fill:#fff;fill-opacity:1;fill-rule:evenodd;stroke:none" id="path28"/>
                <path d="M206.367 125.605c-15.429 10.149-29.582 19.344-43.633 28.704-9.089 6.043-12.605 16.699-9.148 26.972 5.035 15.078 22.957 19.442 34.344 8.258 17.187-16.875 34.265-33.863 51.406-50.809 3.574-3.535 7.336-6.906 10.762-10.585 5.84-6.239 7.238-13.567 3.957-21.434-3.274-7.832-9.407-11.035-17.942-11.055-27.5-.05-55-.5-82.5-.734-6.718-.059-10.617 2.57-12.527 8.066-2.578 7.414 1.668 15.129 9.473 16.133 15.125 1.953 30.32 3.469 45.488 5.176 2.957.332 5.918.742 10.32 1.308" style="fill:#fff;fill-opacity:1;fill-rule:evenodd;stroke:none" id="path30"/>
                <path d="M213.203 258.125c9.707 0 19.426.02 29.141 0 16.472-.027 28.957-11.387 29.824-27.109.945-17.344-9.641-30.879-26.609-31.641-22.082-.977-44.258-1.301-66.321.215-15.293 1.055-25.761 15.039-24.797 31.172.93 15.39 12.895 27.148 28 27.336 10.254.136 20.52.027 30.762.027" style="fill:#fff;fill-opacity:1;fill-rule:evenodd;stroke:none" id="path32"/>
                <path d="M269.043 204.297c5.879-.098 9.543-2.383 12.605-5.977 8.301-9.699 16.79-19.246 24.961-29.043 2.485-2.957 4.219-2.976 6.946-.449 11.34 10.508 22.832 20.871 34.265 31.27 5.84 5.312 11.836 5.84 16.203 1.465 4.661-4.676 4.422-11.602-.793-17.364a19231.235 19231.235 0 0 0-42.058-46.328c-6.692-7.336-14.024-8.152-21.121-1.277-13.957 13.515-27.59 27.39-40.988 41.433-4.747 4.961-5.125 11.328-2.208 17.629 2.586 5.594 7.137 8.297 12.188 8.641" style="fill:#fff;fill-opacity:1;fill-rule:evenodd;stroke:none" id="path34"/>
                <path d="M248.398 278.645c.079-8.047-4.035-14.2-10.363-16.497-6.465-2.343-12.207-.418-16.93 5.715-5.597 7.254-11.222 14.481-16.718 21.805-2.434 3.254-5.41 4.805-9.532 5.117-18.449 1.348-36.875 2.91-55.316 4.434-7.391.617-11.336 4.855-11.16 11.808.184 6.504 4.441 10.547 11.601 10.809 20.274.742 40.547 1.535 60.833 2.109 7.683.227 14.277-2.273 19.492-8.465 7.633-9.054 15.664-17.792 23.601-26.582 2.942-3.242 4.239-6.992 4.492-10.253" style="fill:#fff;fill-opacity:1;fill-rule:evenodd;stroke:none" id="path36"/>
                <path d="M318.328 252.004c-.066-13.867-10.515-25.07-23.484-25.195-12.969-.129-23.821 11.519-23.758 25.527.059 13.691 10.73 25.105 23.555 25.195 13.086.078 23.765-11.437 23.687-25.527" style="fill:#fff;fill-opacity:1;fill-rule:evenodd;stroke:none" id="path38"/>
            </g>
        </g>
    </g>
    <g style="fill:#fff;fill-opacity:1" id="g851-8" transform="translate(47.206 39.961) scale(.01227)">
        <g id="text834-8" style="font-style:normal;font-variant:normal;font-weight:400;font-stretch:normal;font-size:10.63333321px;line-height:1.25;font-family:'Linux Libertine O';-inkscape-font-specification:'Linux Libertine O';letter-spacing:0;word-spacing:0;fill:#fff;fill-opacity:1;stroke:none" transform="translate(-11447.004 -29.64) scale(30.41616)" aria-label="R">
            <path id="path853-6" style="font-style:normal;font-variant:normal;font-weight:700;font-stretch:normal;font-family:Candara;-inkscape-font-specification:'Candara Bold';fill:#fff;fill-opacity:1" d="M385.556 10.6h-1.537q-.602-1.837-.924-2.268-.322-.431-1.038-.431-.302 0-.577.005 0 1.334.047 2.695h-1.443q.067-1.568.067-3.536 0-1.89-.067-3.224h.898q.156 0 .649-.016.498-.016.919-.016 2.383 0 2.383 1.63 0 1.293-1.36 1.802v.078q.524.146.919.82.394.67 1.064 2.462zm-1.947-4.776q0-1.033-1.33-1.033-.487 0-.861.072.057.805.057 2.098.286.01.483.01 1.651 0 1.651-1.147z"/>
        </g>
        <path style="fill:#fff;fill-opacity:1" d="M190.367 0C85.23 0 0 85.23 0 190.367c0 105.137 85.23 190.367 190.367 190.367 105.137 0 190.367-85.23 190.367-190.367C380.734 85.23 295.504 0 190.367 0zm108.635 298.36c-28.996 28.996-67.57 44.959-108.634 44.959-41.064 0-79.645-15.969-108.635-44.959-28.865-28.876-44.769-67.227-44.769-107.993 0-40.771 15.904-79.128 44.769-107.993 28.99-28.996 67.57-44.959 108.634-44.959 41.054 0 79.639 15.969 108.629 44.959 28.871 28.865 44.763 67.221 44.763 107.993.006 40.766-15.892 79.122-44.757 107.993z" id="path2-3"/>
    </g>
    <g id="g4" transform="translate(376.346 .972) scale(.03288)" style="fill:#24649f;fill-opacity:1">
        <g id="text834" style="font-style:normal;font-variant:normal;font-weight:400;font-stretch:normal;font-size:10.63333321px;line-height:1.25;font-family:'Linux Libertine O';-inkscape-font-specification:'Linux Libertine O';letter-spacing:0;word-spacing:0;fill:#24649f;fill-opacity:1;stroke:none" transform="translate(-11447.004 -29.64) scale(30.41616)" aria-label="R">
            <path id="path853" style="font-style:normal;font-variant:normal;font-weight:700;font-stretch:normal;font-family:Candara;-inkscape-font-specification:'Candara Bold';fill:#24649f;fill-opacity:1" d="M385.556 10.6h-1.537q-.602-1.837-.924-2.268-.322-.431-1.038-.431-.302 0-.577.005 0 1.334.047 2.695h-1.443q.067-1.568.067-3.536 0-1.89-.067-3.224h.898q.156 0 .649-.016.498-.016.919-.016 2.383 0 2.383 1.63 0 1.293-1.36 1.802v.078q.524.146.919.82.394.67 1.064 2.462zm-1.947-4.776q0-1.033-1.33-1.033-.487 0-.861.072.057.805.057 2.098.286.01.483.01 1.651 0 1.651-1.147z"/>
        </g>
        <path style="fill:#24649f;fill-opacity:1" d="M190.367 0C85.23 0 0 85.23 0 190.367c0 105.137 85.23 190.367 190.367 190.367 105.137 0 190.367-85.23 190.367-190.367C380.734 85.23 295.504 0 190.367 0zm108.635 298.36c-28.996 28.996-67.57 44.959-108.634 44.959-41.064 0-79.645-15.969-108.635-44.959-28.865-28.876-44.769-67.227-44.769-107.993 0-40.771 15.904-79.128 44.769-107.993 28.99-28.996 67.57-44.959 108.634-44.959 41.054 0 79.639 15.969 108.629 44.959 28.871 28.865 44.763 67.221 44.763 107.993.006 40.766-15.892 79.122-44.757 107.993z" id="path2"/>
    </g>
</svg>

