<?xml version="1.0" encoding="utf-8"?>
<!-- Generator: Adobe Illustrator 22.0.1, SVG Export Plug-In . SVG Version: 6.00 Build 0)  -->
<svg version="1.1" xmlns="http://www.w3.org/2000/svg" xmlns:xlink="http://www.w3.org/1999/xlink" x="0px" y="0px"
	 viewBox="0 0 988 256.3" style="enable-background:new 0 0 988 256.3;" xml:space="preserve">
<style type="text/css">
	.st0{display:none;}
	.st1{display:inline;}
	.st2{fill:#00AEEF;}
	.st3{fill:#404041;}
	.st4{fill:url(#SVGID_1_);}
	.st5{fill:#A30D11;}
	.st6{fill:url(#SVGID_2_);}
	.st7{fill:#231F20;}
	.st8{fill:url(#SVGID_3_);}
	.st9{fill:url(#SVGID_4_);}
	.st10{fill:url(#SVGID_5_);}
	.st11{fill:url(#SVGID_6_);}
	.st12{fill:url(#SVGID_7_);}
	.st13{fill:url(#SVGID_8_);}
	.st14{fill:url(#SVGID_9_);}
	.st15{fill:url(#SVGID_10_);}
	.st16{fill:url(#SVGID_11_);}
	.st17{fill:url(#SVGID_12_);}
	.st18{fill:url(#SVGID_13_);}
	.st19{fill:url(#SVGID_14_);}
	.st20{fill:url(#SVGID_15_);}
	.st21{fill:url(#SVGID_16_);}
	.st22{fill:url(#SVGID_17_);}
	.st23{fill:url(#SVGID_18_);}
	.st24{fill:url(#SVGID_19_);}
	.st25{fill:url(#SVGID_20_);}
	.st26{fill:url(#SVGID_21_);}
	.st27{fill:url(#SVGID_22_);}
	.st28{fill:url(#SVGID_23_);}
	.st29{fill:url(#SVGID_24_);}
	.st30{fill:url(#SVGID_25_);}
	.st31{fill:url(#SVGID_26_);}
	.st32{fill:url(#SVGID_27_);}
	.st33{fill:url(#SVGID_28_);}
	.st34{fill:url(#SVGID_29_);}
	.st35{fill:url(#SVGID_30_);}
	.st36{fill:#728FAE;}
</style>
<g id="Layer_1">
	<g class="st0">
		<g class="st1">
			<path class="st2" d="M184.2,196.3c-2.6-2.9-4.6-3.8-6.4-2.1c-3.9,3.7,2.1,16.5,7.1,23.4c3.3,4.6,6.2,6.3,8,4.1
				c1.3-1.6,1.7-5.1,1.5-9c0.7,0.7,1.3,1.3,1.7,1.9c1.9,3,0.9,9.4-1.6,12.7c-3,3.9-7,1.7-12.3-5.2c-6.3-8.3-13.1-24.2-5.3-32.3
				c2-2.1,5.2-2.5,7,0.4C185.1,192,184.9,194.1,184.2,196.3z"/>
			<path class="st2" d="M205.8,204.2c0.9,0.8,1.5,2.1,1.6,3.3c0.1,1.1-0.1,2.4-0.4,3.5c-0.6,1.8-1.4,3.3-2.5,4.4
				c-2.4,2.3-5,1.6-7.7-2.4c-2.7-4.1-4.5-9-4.8-13.4c-0.3-4.5,0.8-8,3.1-9.6c2.2-1.5,4.1-0.7,5.5,2c1.4,2.7,1.1,7.8-0.9,12.3
				c-0.5,1.1-1.2,3.5-0.6,4.6c0.6,1,1.1,1.8,1.7,2.1c1.3,0.9,2.5,0.9,3.2,0C205.2,209.4,205.7,207.1,205.8,204.2z M197.6,205.9
				c-0.5-1.8-0.1-3,0.3-4.5c0.7-2.6,0.4-4.3-0.2-5.9c-0.5-1.6-1.5-2.6-2.4-1.9c-1.4,1-0.9,4.7,1.5,10.3
				C196.8,203.9,197.1,204.6,197.6,205.9z"/>
			<path class="st2" d="M213.3,200.7c0.4-2,0.8-3.7,1.1-3.8c0.2-0.1,0.3,0.8,0.5,3.2c0.2,3.6-1,7.2-2.1,8c-1.2,0.9-2.6,0.3-3.9-2.2
				c-0.5-0.9-0.9-1.9-1.6-3.6c-0.1-0.4-0.3-0.7-0.5-1.1c-0.3,1.7-0.4,2.3-0.5,2.4c-0.1,0.1,0-1.2,0.1-2.7c0,0.1,0-0.1,0-0.5
				c-2.5-7-4.6-14.3-6.4-21.3c-0.2-0.7-0.1-1.6,0.1-2.3c0.3-0.7,0.7-1.1,1.2-1.3c0.9-0.3,1.9-0.4,3.1,0c0.2,0.1,0.4,0.3,0.5,0.5
				c0,0,0.3,0.5,0.8,1.4c0.2,0.4,0.4,0.9,0.6,1.4c0.6,1.8,1,4,1.3,6.3c0.5,3.6,0.5,7.1,0.6,8.4c0,0.1,0.1,0.2,0.1,0.3
				c0.1,0.4,0.3,0.8,0.4,1.3c0.5,1.4,1.7,5,2.2,6c0.4,0.8,0.8,1.3,1.1,1.5C212.7,202.4,213.1,201.6,213.3,200.7z M207.6,191.3
				c-0.1-1.6-0.2-3.9-0.6-6.2c-0.3-2.2-0.7-4.4-1.3-6c-0.2-0.6-0.5-1.1-0.7-1.5c-0.2-0.4-0.6-0.4-0.6,0.1c0,0.2,0,0.5,0.1,0.8
				c0.3,2.1,0.8,4.1,1.3,6.1C206.3,186.8,206.9,189.1,207.6,191.3z"/>
			<path class="st2" d="M225.9,192.4c0.7,0.8,1.1,2.1,1,3.2c-0.1,1-0.5,2.1-1.1,3c-0.9,1.5-1.9,2.6-3.3,3.4
				c-2.8,1.6-5.2,0.6-7.3-3.5c-2-4.1-2.9-8.7-2.4-12.6c0.5-4,2.3-6.9,4.9-7.9c2.5-0.9,4.2,0.1,5.1,2.8c0.9,2.7-0.3,7-3.1,10.6
				c-0.7,0.8-1.9,2.9-1.4,3.9c0.4,1,0.8,1.8,1.3,2.2c1.1,1,2.3,1.2,3.1,0.5C224.3,196.8,225.2,194.9,225.9,192.4z M217.4,192.4
				c-0.2-1.7,0.4-2.6,1.1-3.9c1.2-2.2,1.2-3.7,0.9-5.2s-1.1-2.5-2.1-2.1c-1.6,0.6-1.7,3.9-0.4,9.3
				C216.9,190.5,217.1,191.2,217.4,192.4z"/>
			<path class="st2" d="M224.4,170.6c-0.2-0.6-0.5-1.2-0.9-1.7c0.9-1.2,2-1.8,3-2c0.9-0.2,1.8,0.1,2.2,1.4c0.4,1.5,0.9,7,1.6,14.1
				c0.8-6.1,2.9-8.9,5.1-9.3c2.6-0.5,3.8,2.2,4.4,4.8c1.5,6.7-0.2,16.4-4.6,18.1c-1,0.4-2,0.4-3.1-0.1c-0.2,0.9-0.7,1.4-1.4,1.7
				c-0.6,0.3-1.4,0.3-2.3,0c0-1.3-0.1-2.9-0.4-5.1c-0.8-4.7-1.8-11-2.7-16.9C225,173.2,224.8,171.8,224.4,170.6z M235.7,179.5
				c-0.3-1.1-0.8-2.2-1.6-2c-1.5,0.3-2.8,9.4-2.6,13.9c0.6,1.5,1.9,1.8,2.9,1.4c1.8-0.7,2.4-6.5,1.5-12
				C235.9,180.5,235.9,180,235.7,179.5z"/>
			<path class="st2" d="M252.4,171.2c1,0,1.4,0.6,1.5,1.6c0.2,1.6-0.6,3.4-1.6,5.1c-0.4-0.5-0.8-0.8-1.3-0.8
				c-2.4,0.2-3.5,6-4.2,12.8c-0.1,1.4-0.5,2.2-1.8,2.5c-0.5,0.1-1.2,0.2-2.1,0.2c0.4-7.9,0.2-14.6-0.3-17.1c-0.2-1-0.4-1.8-0.8-2.4
				c1.2-0.9,2.3-1.3,3.1-1.4c1-0.1,1.8,0.5,2,1.7c0.2,1.4,0.1,3.6,0,6.1c1.4-5.1,3.4-8.2,5.3-8.3
				C252.3,171.2,252.4,171.2,252.4,171.2z"/>
			<path class="st2" d="M270.6,183.6c0.1,0,0.1,0.1,0.1,0.3c-0.2,2.3-3.3,5.7-5.2,5.7c-1.5,0-2.4-1-2.4-3.4c0-0.8,0-2,0.1-2.7
				c-2.1,4.1-3.9,6.4-5.6,6.7c-0.1,0-0.2,0-0.3,0c-2.1,0.3-3.1-1.7-3.4-4.6c-0.7-6.7,3.5-14.7,8.7-14.4c1.3,0.1,2.3,0.4,3.2,1.1
				c0.5-0.5,1.3-0.7,2.1-0.7c1,0.1,1.9,0.5,2.8,1.1c-1.3,1.6-3.5,9.4-3.6,11.9c0,0.6,0.2,1.1,0.3,1.4c0.3-0.1,0.9-0.5,1.4-1.1
				C269.7,184,270.3,183.5,270.6,183.6z M264.9,175.8c-0.3-1.4-1.5-2-2.5-2c-2.5-0.1-4.7,6.6-4.4,11c0.1,1.2,0.4,1.8,1,1.7
				c0.6,0,1.3-1.3,2.4-3.2C262.8,180.7,264.2,177.8,264.9,175.8z"/>
			<path class="st2" d="M283.3,176.1c-0.3,1.3-1.7,2-3.1,1.7c-0.6-0.1-1.2-0.3-1.8-0.4c-0.2,0-0.5-0.1-0.7-0.1
				c-0.5,1.4-1.2,2.9-1.8,4.5c-0.4,0.9-0.8,2.2-0.9,3.2c-0.1,0.9,0.2,1.5,0.9,1.6c0.3,0,1-0.5,1.6-1c1.1-0.9,1.7-1.3,2-1.2
				c0.1,0,0.1,0.1,0.1,0.3c-0.4,2.1-3.9,5-5.8,4.9c-2.2-0.1-2.9-1.7-2.7-4.2c0.1-0.6,0.2-1.3,0.3-1.9c0.5-1.8,0.6-2.4,1.5-4.9
				c0.9-2.5,2.1-5.6,2.3-7.4c0.1-0.6,0.1-1.1-0.2-1.8c1.5-0.5,2.7-0.5,3.8-0.3c1.1,0.2,1.6,0.9,1.4,1.8c0-0.1-0.4,1.3-1.5,4.1
				c0.7,0.1,1,0.2,1.6,0.3c1,0.2,1.9,0.4,3.1,0.5C283.3,176,283.3,176,283.3,176.1z"/>
			<path class="st2" d="M286.5,187.4c1.6-1,2.4-1.2,2.2-0.6c-0.1,0.3-0.4,0.7-0.9,1.3c-1.4,1.5-4,2.8-5.4,2.6c-1.4-0.2-2-1.2-1.7-3
				c0.1-0.6,0.5-2.5,1.6-4.5c0.9-1.6,1.6-3.2,2.1-4.2c0.3-0.5,0.4-1.1,0.5-1.5c0.1-0.5,0.1-1-0.1-1.5c1.2-0.1,2.4,0,3.3,0.3
				c0.5,0.2,1.2,0.4,1.5,0.9c0.3,0.5,0.2,1-0.1,1.5c-0.2,0.4-0.5,0.8-0.8,1.2c-0.9,1.4-2,3-2.4,3.7c-0.5,0.9-1.2,2.4-1.4,3.2
				c-0.2,0.5-0.1,1,0,1.2C285.2,188,285.8,187.7,286.5,187.4z M293.8,170.4c-1.7-0.6-3.4-0.9-4.9-0.9c0,0.2,0.1,0.3,0.1,0.4
				c-0.3,1.1-1.3,2.5-1.5,3.3c-0.1,0.4,0.1,1.1,1.5,1.3c2,0.2,1.9,0.2,4-1c1.2-0.8,1.7-1.1,2.1-1.5c0.1-0.1,0.1-0.2,0.2-0.3
				C295.3,171.3,294.8,170.8,293.8,170.4z"/>
			<path class="st2" d="M297.3,186.3c-2.4,1.4-3.2,2.2-5.8,4.8c-0.8,0.8-1.4,1.1-2.7,0.8c-0.5-0.1-1.2-0.4-2-0.7
				c1.1-1.3,2.2-2.7,3.2-4c2.4-3,3.8-5.2,4.4-6.6c0.3-0.6,0.4-1.3,0.3-1.8c1.6,0,2.8,0.2,3.6,0.5c0.8,0.3,1.5,1,1.1,1.8
				c-0.5,1-1.8,2.3-3.2,4c3.1-2.2,8-3.4,10.6-2.1c1.4,0.7,1.9,1.8,1.2,2.7c-0.7,0.9-2.2,2.3-3.8,3.7c-1.1,0.9-2.3,1.8-2.8,2.6
				c-0.3,0.4-0.4,0.8-0.4,1c0.3,0,1,0,1.8-0.2c1.3-0.3,2.1-0.5,2.4-0.3c0.1,0.1,0.1,0.1,0,0.2c-1.2,1.5-5.5,2.6-7.3,2
				c-1.3-0.5-1.9-1.5-1.1-2.9c0.4-0.8,1.2-1.5,2-2.4c2.2-2.3,3.6-3.7,3.8-4.1c0.2-0.4,0.1-0.6-0.1-0.7
				C301.8,184.2,299.5,185,297.3,186.3z"/>
			<path class="st2" d="M312.4,204.8c-0.1-0.1-0.2-0.5-0.6-1c0,0-0.8-1.1-1.2-1.6c-2.8,0.7-5.6,0.5-8.2-0.5c-2.5-1.1-4.4-3-3.6-4.1
				c0.6-0.9,2.4-1.9,6.3,0c1.4,0.6,2.8,1.5,3.8,2.3c1.4-0.7,3.3-1.7,5.8-3.1c-4.5,0.7-7.3,0.6-9-0.3c-1.8-0.9-1.6-2.4-0.4-4
				c2.8-3.7,9.8-5.3,14.9-1.9c1.1,0.7,2,1.6,2.6,2.6c0.9,0.1,1.8,0.5,2.5,1.1c0.7,0.5,1.3,1.2,1.8,2c-1.6,0-3.3,0.4-6.2,1.6
				c-2.5,1-4.8,2.2-6.4,2.9c-1.3,0.6-2.4,1-3.3,1.3c0.4,0.5,0.8,1.2,1,1.7C312.4,204.5,312.4,204.8,312.4,204.8z M308.4,200.2
				c-0.9-0.7-2.3-1.6-3.6-2.2c-0.9-0.4-2.3-1.1-2.7-0.5c0,0.1-0.1,0.1-0.1,0.2c0.1,1.2,0.8,2.2,2,2.7c0.9,0.4,1.8,0.5,2.8,0.3
				C307.2,200.6,307.7,200.4,308.4,200.2z M320,194.3c0.4-0.5-0.4-1.8-1.4-2.5c-2.4-1.6-6.9-0.1-9.2,2.5c-0.5,0.5-0.4,1,0.1,1.3
				C311,196.4,316,195.4,320,194.3z"/>
		</g>
	</g>
</g>
<g id="Layer_2">
	<g class="st0">
		<g class="st1">
			<path d="M234.3,86.9l-1.6,3.7c-0.5,1.3-1.1,2.1-1.7,2.6c-0.6,0.5-1.5,0.7-2.6,0.7h-10l-1.7,4.5c-0.2,0.4-0.3,0.7-0.3,1
				c0,0.5,0.4,0.9,1.2,1.1c8.1,2.4,12.2,7.2,12.2,14.2c0,4.5-1.9,8.4-5.7,11.7c-3.8,3.3-8.2,5-13.3,5c-0.3,0-0.5-0.3-0.5-0.9
				s0.2-0.9,0.5-0.9c3.9,0,7.1-1.2,9.5-3.6c2.5-2.4,3.7-5.5,3.7-9.2c0-3-0.7-5.3-2.2-7c-1.5-1.7-4.1-3.1-7.8-4.2
				c-1-0.3-1.6-0.9-1.6-1.7c0-0.3,0.1-0.7,0.3-1.1l5.6-13.9c0.2-0.5,0.6-0.8,1.1-0.8h9.9c0.8,0,1.4-0.1,1.8-0.4
				c0.4-0.2,0.8-0.7,1.3-1.4c0.2-0.3,0.4-0.5,0.8-0.5c0.3,0,0.5,0.1,0.7,0.3S234.3,86.6,234.3,86.9z"/>
		</g>
	</g>
	<g class="st0">
		<g class="st1">
			<path d="M172.4,136.7v-1c2.8-2.6,5.2-5,7.2-7c2-2,3.8-3.8,5.2-5.3c1.4-1.5,2.6-2.9,3.5-4c0.9-1.2,1.6-2.2,2.1-3.1
				c0.5-0.9,0.8-1.8,1-2.5s0.3-1.5,0.3-2.3c0-1.1-0.2-2.2-0.5-3.2c-0.3-1-0.9-2-1.5-2.8c-0.7-0.8-1.5-1.4-2.5-1.9
				c-1-0.5-2.2-0.7-3.5-0.7c-1.1,0-2.1,0.2-3.1,0.5c-1,0.4-1.9,0.8-2.7,1.5c-0.8,0.6-1.5,1.3-2.1,2.2c-0.6,0.8-0.9,1.7-1.1,2.7h-1.1
				c0.1-1.5,0.5-3,1.2-4.3s1.6-2.5,2.7-3.6c1.1-1,2.3-1.8,3.7-2.4c1.4-0.6,2.9-0.9,4.4-0.9c1.9,0,3.6,0.3,5.1,0.8
				c1.5,0.6,2.7,1.3,3.7,2.2c1,0.9,1.7,2,2.2,3.3c0.5,1.2,0.7,2.6,0.7,3.9c0,1.5-0.3,2.9-1,4.4c-0.6,1.5-1.7,3.1-3.1,5
				c-1.4,1.8-3.3,3.9-5.6,6.2c-2.3,2.3-5.1,5.1-8.4,8.2h20l-2.8,4.2H172.4z"/>
		</g>
	</g>
	<g>
		<path class="st3" d="M185.2,97.2l-8-14.4h7.8l3.8,8.4l4-8.4h7.7l-8.2,14.4v8.4h-7V97.2z"/>
		<path class="st3" d="M200.4,82.8h13.4c4,0,7.4,2.2,7.4,6.5c0,2.4-1.1,4.8-3.4,5.7c1.9,0.7,3.1,2.8,3.4,5.7
			c0.1,1.1,0.1,3.8,0.8,4.9h-7c-0.4-1.1-0.5-2.3-0.6-3.5c-0.2-2.2-0.4-4.4-3.2-4.4h-3.7v7.9h-7V82.8z M207.4,92.7h3.7
			c1.3,0,3.1-0.2,3.1-2.3c0-1.4-0.8-2.3-3.5-2.3h-3.3V92.7z"/>
		<path class="st3" d="M228.8,97.9c0,0.6,0.1,1.1,0.3,1.5c0.5,1.4,2,1.7,3.4,1.7c1.1,0,2.9-0.4,2.9-2.1c0-1.2-1-1.5-4.9-2.6
			c-3.6-1-7.7-2-7.7-6.6c0-5.3,4.5-7.5,9.2-7.5c4.9,0,9.3,1.9,9.5,7.4h-6.6c0.1-0.9-0.3-1.4-0.8-1.8c-0.6-0.4-1.4-0.6-2.1-0.6
			c-1,0-2.5,0.3-2.5,1.5c0.1,1.6,3.4,2,6.6,2.9c3.2,0.9,6.4,2.4,6.4,6.6c0,5.9-5.5,7.8-10.5,7.8c-2.6,0-10-0.9-10-8.2H228.8z"/>
	</g>
	<g>
		<path class="st3" d="M32.8,190.9c6.9,0,11.5,5,11.5,11.9c0,7-4.6,11.9-11.5,11.9c-6.9,0-11.6-5-11.6-11.9
			C21.2,195.9,25.9,190.9,32.8,190.9z M32.8,209.1c1.8,0,4.5-1.2,4.5-6.3s-2.7-6.3-4.5-6.3c-1.8,0-4.5,1.2-4.5,6.3
			S31,209.1,32.8,209.1z"/>
		<path class="st3" d="M46.5,191.4h17.6v5.8H53.5v2.8h9.1v5.4h-9.1v8.7h-7V191.4z"/>
		<path class="st3" d="M75.7,191.4h7v7.9h6.6v-7.9h7v22.8h-7v-9h-6.6v9h-7V191.4z"/>
		<path class="st3" d="M99.1,191.4h11.7c6.2,0,8.4,4.5,8.4,7.8c0,5.5-3.7,8.1-8.9,8.1h-4.1v6.9h-7V191.4z M106.1,201.9h2.7
			c1.8,0,3.7-0.1,3.7-2.4c0-2.1-1.6-2.2-3.3-2.2h-3.1V201.9z"/>
		<path class="st3" d="M135.1,199.9c-0.1-0.8-0.8-3.4-3.7-3.4c-3.3,0-4.3,3.2-4.3,6.3c0,3.1,1.1,6.3,4.3,6.3c2.4,0,3.3-1.7,3.7-3.8
			h6.9c0,4.6-3.7,9.5-10.4,9.5c-7.4,0-11.6-5.2-11.6-11.9c0-7.2,4.5-11.9,11.6-11.9c6.3,0,9.7,3.3,10.3,9H135.1z"/>
	</g>
	<g>
		<g>
			<path class="st3" d="M135.2,143.2c-5.4,10.5-10.1,22.1-14.3,34.7c-6.7-1.2-21.7-1.8-45.1-1.8c-28.1,0-45,0.6-50.8,1.8
				c-1.9,0-2.8-1.1-2.8-3.2c0-0.5,4.3-4.8,12.9-12.9c22.4-21.1,37.4-37,45.2-47.7S92,94.3,92,86.9c0-14.9-8.2-22.3-24.6-22.3
				c-11.7,0-22.7,5.6-33,16.7c-0.5,0.5-1.2,0.7-2.2,0.7c-1.4,0-2.6-0.5-3.6-1.4c-1-0.9-1.5-1.9-1.5-2.9c0-1.2,3.3-5.6,9.8-13.2
				s13.1-13.2,19.6-16.8c6.5-3.6,13.4-5.4,20.5-5.4c12.1,0,22,3.5,29.7,10.5c7.7,7,11.6,16,11.6,27.1c0,7.1-3.3,15.1-9.9,24
				c-6.6,8.9-21,23.1-43.4,42.7c-3.8,3.4-6.6,6-8.5,7.6H103c5.6,0,9.8-0.8,12.7-2.4c2.9-1.6,6.8-5.5,11.6-11.6
				c0.8-1,1.8-1.5,3.1-1.5c1.2,0,2.3,0.4,3.4,1.2C134.8,140.8,135.3,141.9,135.2,143.2z"/>
			<path class="st3" d="M208.1,40.3l-7,16.6c-2.3,5.7-4.9,9.6-7.8,11.9c-2.8,2.2-6.7,3.4-11.6,3.4h-45.1l-7.9,20.5
				c-0.8,1.9-1.2,3.4-1.2,4.5c0,2.3,1.8,4.1,5.3,5.1c36.7,11,55.1,32.4,55.1,64.2c0,20.2-8.6,37.9-25.7,52.9
				C145.1,234.5,125,242,102.1,242c-1.6,0-2.3-1.4-2.3-4.1s0.8-4.1,2.3-4.1c17.7,0,32.1-5.4,43.1-16.3
				c11.1-10.8,16.6-24.8,16.6-41.7c0-13.5-3.4-24-10.1-31.7c-6.7-7.7-18.5-14-35.3-19c-4.7-1.4-7-3.9-7-7.6c0-1.5,0.4-3.1,1.2-5
				L136,49.9c0.9-2.3,2.5-3.5,5-3.5h44.8c3.6,0,6.3-0.5,8.2-1.6c1.9-1.1,3.8-3.2,5.9-6.4c0.8-1.4,2-2.1,3.5-2.1
				c1.2,0,2.2,0.4,3.2,1.2C207.6,38.2,208.1,39.2,208.1,40.3z"/>
		</g>
		<linearGradient id="SVGID_1_" gradientUnits="userSpaceOnUse" x1="52.3605" y1="175.3383" x2="144.2087" y2="49.8516">
			<stop  offset="0" style="stop-color:#EC1C24"/>
			<stop  offset="0.1043" style="stop-color:#EC1C24"/>
			<stop  offset="0.1207" style="stop-color:#E91B23"/>
			<stop  offset="0.3851" style="stop-color:#B61116"/>
			<stop  offset="0.5153" style="stop-color:#A30D11"/>
			<stop  offset="0.5826" style="stop-color:#AC0F13"/>
			<stop  offset="0.6936" style="stop-color:#C5141A"/>
			<stop  offset="0.8282" style="stop-color:#EC1C24"/>
			<stop  offset="1" style="stop-color:#EC1C24"/>
		</linearGradient>
		<polygon class="st4" points="127,46.3 36.1,176.8 71.6,176.1 162.6,46.3 		"/>
	</g>
	<rect x="260.4" y="10.6" class="st3" width="7.1" height="233.4"/>
	<g>
		<g>
			<path class="st5" d="M307.2,215.1v15.1h-5.3V197h5.3v13H323v-13h5.4v33.1H323v-15.1H307.2z"/>
			<path class="st5" d="M337,196.5c0.8,0,1.5,0.3,2,0.8c0.6,0.6,0.9,1.2,0.9,2c0,0.8-0.3,1.5-0.9,2c-0.5,0.5-1.2,0.8-2,0.8
				c-0.8,0-1.5-0.3-2-0.8c-0.6-0.5-0.9-1.2-0.9-2c0-0.8,0.3-1.4,0.9-2C335.5,196.7,336.2,196.5,337,196.5z M334.5,230.2v-24h5.2v24
				H334.5z"/>
			<path class="st5" d="M360.7,227c-0.9,0.9-1.8,1.6-2.8,2.2c-1,0.6-2.1,0.9-3.4,0.9c-3.3,0-5.8-0.9-7.5-2.8
				c-1.7-1.9-2.6-4.4-2.6-7.6v-2.5c0-4,1-7,3.1-8.9c2.1-1.9,5.1-2.9,9.1-2.9c1.5,0,3.1,0.1,4.7,0.4c1.6,0.3,3.2,0.7,4.6,1.3v22
				c0,1.6-0.3,3-0.9,4.3c-0.6,1.3-1.4,2.4-2.4,3.4c-1,1-2.2,1.7-3.6,2.2c-1.4,0.5-2.8,0.8-4.4,0.8c-1.8,0-3.4-0.2-5-0.6
				c-1.6-0.4-3.1-1.1-4.6-2l2.4-4.2c1.2,0.7,2.4,1.2,3.5,1.5c1.1,0.3,2.4,0.4,3.8,0.4c2.1,0,3.6-0.5,4.5-1.6
				c0.9-1.1,1.4-2.6,1.4-4.6V227z M354.5,225.6c1.3,0,2.5-0.4,3.5-1.1c1-0.7,1.9-1.6,2.7-2.7v-10.8c-0.7-0.3-1.4-0.4-2-0.6
				c-0.6-0.1-1.3-0.2-2-0.2c-1.3,0-2.5,0.1-3.4,0.4c-0.9,0.3-1.6,0.7-2.2,1.2c-0.6,0.6-1,1.3-1.2,2.2c-0.2,0.9-0.4,2-0.4,3.4v2.1
				c0,1,0.1,1.8,0.2,2.6c0.1,0.7,0.3,1.4,0.7,1.9c0.4,0.5,0.8,0.9,1.5,1.2C352.6,225.4,353.4,225.6,354.5,225.6z"/>
			<path class="st5" d="M383.6,206.1c1.3,0,2.5,0.2,3.6,0.6c1.1,0.4,2.1,1,3,1.7c0.8,0.7,1.5,1.6,2,2.7c0.5,1,0.7,2.2,0.7,3.5v15.6
				h-5.2v-15c0-1.5-0.4-2.6-1.2-3.3c-0.8-0.7-1.8-1-3.1-1c-1.7,0-3.1,0.4-4.1,1.3c-1,0.8-1.9,2.1-2.6,3.8v14.4h-5.2v-32.2l5.2-1.5
				v12.6c0.9-1.1,1.9-1.9,3-2.3C380.9,206.4,382.2,206.1,383.6,206.1z"/>
			<path class="st5" d="M412.2,230.2V197h16.4c1.6,0,2.9,0.3,4.2,0.8c1.2,0.5,2.2,1.2,3,2.1c0.8,0.9,1.4,2,1.8,3.2
				c0.4,1.3,0.6,2.7,0.6,4.2c0,1.5-0.2,3-0.6,4.3c-0.4,1.3-1,2.5-1.8,3.5c-0.8,1-1.8,1.7-3,2.3c-1.2,0.6-2.6,0.8-4.3,0.8h-11v12
				H412.2z M417.6,202v11.2h9.2c2.1,0,3.6-0.5,4.6-1.4c1-0.9,1.4-2.4,1.4-4.4c0-1.9-0.5-3.3-1.6-4.1c-1-0.8-2.5-1.2-4.5-1.2H417.6z"
				/>
			<path class="st5" d="M445.9,219.8c0,0.9,0.1,1.8,0.4,2.6c0.2,0.8,0.6,1.4,1.2,2c0.6,0.6,1.3,1,2.2,1.3c0.9,0.3,2.1,0.5,3.4,0.5
				c1.2,0,2.1-0.2,2.8-0.5c0.7-0.3,1.4-0.9,2.1-1.6l4.3,1.8c-1,1.7-2.4,3-4.1,3.8c-1.7,0.8-3.5,1.2-5.4,1.2c-4,0-7-1-9.1-3.1
				c-2.1-2.1-3.1-5.1-3.1-9.2V218c0-0.4,0-0.8,0-1.2c0-0.4,0-0.7,0-1.1c0.1-1.5,0.4-2.9,1-4.1c0.6-1.2,1.5-2.3,2.5-3.2
				c1.1-0.9,2.3-1.6,3.6-2.1c1.4-0.5,2.8-0.7,4.3-0.7c1.7,0,3.3,0.3,4.7,0.8c1.4,0.6,2.5,1.3,3.5,2.3c1,1,1.7,2.2,2.2,3.6
				c0.5,1.4,0.7,3,0.7,4.7v2.7H445.9z M445.9,215.3h12.3c0-0.8-0.1-1.5-0.4-2.1c-0.3-0.6-0.7-1.2-1.2-1.6c-0.5-0.4-1.1-0.8-1.9-1
				c-0.7-0.3-1.5-0.4-2.4-0.4c-0.8,0-1.6,0.1-2.3,0.3c-0.8,0.2-1.4,0.5-2,0.9c-0.6,0.4-1.1,1-1.5,1.6
				C446.1,213.7,445.9,214.5,445.9,215.3z"/>
			<path class="st5" d="M473.2,208.6c0.6-1,1.3-1.7,2.1-2.2c0.8-0.5,1.8-0.8,3-0.8c1.2,0,2.6,0.3,4,1l-1.8,4.8
				c-0.8-0.5-1.6-0.7-2.3-0.7c-1,0-1.8,0.3-2.5,0.8c-0.6,0.6-1.1,1.3-1.5,2.1c-0.3,0.8-0.6,1.7-0.7,2.7c-0.1,1-0.2,1.8-0.2,2.6v11.3
				H468v-18.1c0-0.9-0.1-1.6-0.2-2.3c-0.1-0.7-0.4-1.4-0.7-2l4.7-2.1c0.3,0.5,0.5,1,0.7,1.5c0.2,0.5,0.4,1,0.5,1.5H473.2z"/>
			<path class="st5" d="M486.5,203.5c0-0.9,0.1-1.8,0.3-2.6c0.2-0.8,0.6-1.6,1.1-2.2c0.5-0.7,1.2-1.2,2-1.6c0.8-0.4,1.8-0.6,3-0.6
				c0.5,0,1.2,0.1,1.8,0.2c0.7,0.1,1.3,0.2,1.8,0.4v4.1h-1.9c-1,0-1.7,0.3-2.2,0.8c-0.5,0.5-0.7,1.3-0.7,2.2v2h4.6l-1.4,4.3h-3.2
				v19.7h-5.2v-19.7h-3v-4.3h3V203.5z"/>
			<path class="st5" d="M511.4,230.8c-1.9,0-3.6-0.3-5-1c-1.5-0.7-2.7-1.5-3.7-2.7c-1-1.1-1.7-2.5-2.2-4c-0.5-1.5-0.8-3.2-0.8-5
				v-0.9c0-1.7,0.3-3.2,0.9-4.7c0.6-1.4,1.3-2.7,2.4-3.7c1-1,2.2-1.8,3.7-2.4c1.4-0.6,3-0.9,4.8-0.9c1.7,0,3.3,0.3,4.7,0.9
				c1.4,0.6,2.7,1.4,3.8,2.4c1.1,1,1.9,2.2,2.5,3.7c0.6,1.4,0.9,3,0.9,4.6v1c0,1.8-0.3,3.4-0.8,5c-0.5,1.5-1.3,2.9-2.3,4
				c-1,1.1-2.3,2-3.7,2.7C515,230.4,513.3,230.8,511.4,230.8z M518.4,218.2v-1c0-2.1-0.6-3.8-1.7-5.1c-1.1-1.3-2.9-2-5.3-2
				c-2.4,0-4.2,0.7-5.3,2c-1.1,1.3-1.6,3-1.6,5.2v1.1c0,1.1,0.1,2.2,0.3,3.1c0.2,0.9,0.5,1.8,1,2.5c0.5,0.7,1.2,1.2,2.1,1.6
				c0.9,0.4,2,0.6,3.4,0.6c1.4,0,2.5-0.2,3.4-0.6c0.9-0.4,1.6-1,2.1-1.7c0.5-0.7,0.9-1.6,1.1-2.5
				C518.3,220.4,518.4,219.3,518.4,218.2z"/>
			<path class="st5" d="M533.6,208.6c0.6-1,1.3-1.7,2.1-2.2c0.8-0.5,1.8-0.8,3-0.8c1.2,0,2.6,0.3,4,1l-1.8,4.8
				c-0.8-0.5-1.6-0.7-2.3-0.7c-1,0-1.9,0.3-2.5,0.8c-0.6,0.6-1.1,1.3-1.5,2.1c-0.3,0.8-0.6,1.7-0.7,2.7c-0.1,1-0.2,1.8-0.2,2.6v11.3
				h-5.2v-18.1c0-0.9-0.1-1.6-0.2-2.3c-0.1-0.7-0.4-1.4-0.7-2l4.7-2.1c0.3,0.5,0.5,1,0.7,1.5c0.2,0.5,0.4,1,0.5,1.5H533.6z"/>
			<path class="st5" d="M551.5,208.4c0.3-0.4,0.7-0.7,1.1-1.1c0.4-0.3,0.9-0.6,1.5-0.9c0.5-0.3,1.1-0.5,1.6-0.6
				c0.5-0.2,1-0.2,1.5-0.2c1.5,0,2.8,0.2,4,0.7c1.2,0.5,2.2,1.3,3,2.6c1.1-1,2.2-1.8,3.3-2.4c1.1-0.6,2.4-0.9,4-0.9
				c1.3,0,2.6,0.2,3.7,0.6c1.1,0.4,2.1,1,2.9,1.7c0.8,0.7,1.4,1.6,1.9,2.7c0.4,1,0.7,2.2,0.7,3.6v16.1h-5.2v-15.6
				c0-1.4-0.3-2.5-0.9-3.3c-0.6-0.8-1.7-1.2-3.3-1.2c-1,0-1.9,0.2-2.7,0.7c-0.8,0.4-1.5,1-2.2,1.7v17.6h-5.2v-16.1
				c0-1.4-0.4-2.4-1.1-3s-1.7-0.9-3-0.9c-1,0-2.1,0.2-3,0.6c-1,0.4-1.8,1-2.6,1.8v17.6h-5.2v-18.1c0-0.9-0.1-1.6-0.2-2.3
				c-0.1-0.7-0.3-1.3-0.7-2.1l4.6-2.1c0.2,0.4,0.5,0.9,0.7,1.3c0.2,0.4,0.3,0.9,0.5,1.5H551.5z"/>
			<path class="st5" d="M596.9,205.6c1.3,0,2.6,0.2,3.8,0.6c1.2,0.4,2.3,0.9,3.2,1.7c0.9,0.7,1.7,1.7,2.2,2.7
				c0.6,1.1,0.8,2.3,0.8,3.7v10.4c0,1.1,0.1,2,0.3,2.8c0.2,0.8,0.6,1.7,1.1,2.6H603c-0.3-0.3-0.4-0.8-0.6-1.3
				c-0.1-0.5-0.2-1-0.3-1.5c-1.3,1-2.7,1.8-4,2.4c-1.4,0.7-2.9,1-4.5,1c-1.1,0-2.1-0.2-3.1-0.5c-1-0.3-1.9-0.8-2.6-1.5
				c-0.8-0.6-1.4-1.4-1.8-2.3c-0.5-0.9-0.7-1.9-0.7-3c0-1.2,0.2-2.2,0.6-3.2c0.4-1,1-1.8,1.7-2.4c0.7-0.7,1.6-1.2,2.6-1.5
				c1-0.3,2.1-0.5,3.2-0.5h8.4v-0.6c0-1.7-0.4-3-1.3-3.8c-0.8-0.8-2.1-1.2-3.7-1.2c-1.5,0-2.7,0.1-3.8,0.5c-1.1,0.3-2.2,0.8-3.4,1.4
				l-2.2-3.9c1.6-0.9,3.1-1.5,4.6-2C593.5,205.8,595.1,205.6,596.9,205.6z M594.1,226.1c0.6,0,1.2-0.1,1.9-0.4
				c0.7-0.2,1.4-0.5,2.1-0.9c0.7-0.4,1.4-0.7,2-1.1c0.7-0.4,1.2-0.7,1.7-1v-2.5h-8.3c-1,0-1.8,0.3-2.3,0.8c-0.5,0.5-0.8,1.3-0.8,2.3
				c0,1.1,0.3,1.8,1,2.2C592.2,226,593.1,226.1,594.1,226.1z"/>
			<path class="st5" d="M623.7,210.2c-0.5,0-1,0.1-1.6,0.2c-0.6,0.1-1.1,0.3-1.7,0.5c-0.5,0.2-1.1,0.4-1.6,0.7
				c-0.5,0.3-0.9,0.6-1.3,1v17.6h-5.2v-18.1c0-0.9-0.1-1.6-0.2-2.3c-0.1-0.7-0.4-1.3-0.7-2.1l4.7-2.1c0.3,0.4,0.5,0.9,0.7,1.3
				c0.2,0.4,0.3,0.9,0.5,1.5h0.3c0.4-0.4,0.9-0.8,1.5-1.1c0.6-0.3,1.1-0.7,1.7-0.9c0.6-0.3,1.2-0.4,1.8-0.6c0.6-0.1,1.2-0.2,1.7-0.2
				c1.4,0,2.6,0.2,3.7,0.6c1.1,0.4,2.1,0.9,2.9,1.6c0.8,0.7,1.5,1.6,1.9,2.6c0.5,1.1,0.7,2.3,0.7,3.6v16.2h-5.2v-15.1
				C628.5,211.8,626.9,210.2,623.7,210.2z"/>
			<path class="st5" d="M650.6,205.6c1.4,0,2.9,0.3,4.2,0.8c1.4,0.5,2.6,1.3,3.6,2.3l-3.2,3.2c-0.9-0.7-1.6-1.1-2.3-1.3
				c-0.7-0.2-1.5-0.3-2.5-0.3c-2.4,0-4.2,0.6-5.3,1.8c-1.1,1.2-1.7,3-1.7,5.3v0.8c0,1.2,0.1,2.4,0.3,3.3c0.2,1,0.6,1.8,1.1,2.5
				c0.5,0.7,1.2,1.2,2.1,1.6c0.9,0.4,2,0.6,3.3,0.6c1,0,1.9-0.1,2.7-0.3c0.8-0.2,1.6-0.6,2.4-1.2l3,3c-1,1.1-2.3,1.9-3.7,2.4
				c-1.4,0.5-2.9,0.8-4.4,0.8c-2.1,0-3.8-0.3-5.3-0.9c-1.5-0.6-2.7-1.5-3.7-2.6c-1-1.1-1.7-2.4-2.1-4c-0.5-1.5-0.7-3.2-0.7-5.1v-0.9
				c0-3.7,1.1-6.5,3.2-8.6C643.9,206.6,646.8,205.6,650.6,205.6z"/>
			<path class="st5" d="M667.8,219.8c0,0.9,0.1,1.8,0.4,2.6c0.2,0.8,0.6,1.4,1.2,2c0.6,0.6,1.3,1,2.2,1.3c0.9,0.3,2.1,0.5,3.4,0.5
				c1.2,0,2.1-0.2,2.8-0.5c0.7-0.3,1.4-0.9,2.1-1.6l4.3,1.8c-1,1.7-2.4,3-4.1,3.8c-1.7,0.8-3.5,1.2-5.4,1.2c-4,0-7-1-9.1-3.1
				c-2.1-2.1-3.1-5.1-3.1-9.2V218c0-0.4,0-0.8,0-1.2c0-0.4,0-0.7,0-1.1c0.1-1.5,0.4-2.9,1.1-4.1c0.6-1.2,1.5-2.3,2.5-3.2
				c1-0.9,2.3-1.6,3.6-2.1c1.4-0.5,2.8-0.7,4.3-0.7c1.7,0,3.3,0.3,4.7,0.8c1.4,0.6,2.5,1.3,3.5,2.3c1,1,1.7,2.2,2.2,3.6
				c0.5,1.4,0.7,3,0.7,4.7v2.7H667.8z M667.8,215.3H680c0-0.8-0.1-1.5-0.4-2.1c-0.3-0.6-0.7-1.2-1.2-1.6c-0.5-0.4-1.1-0.8-1.9-1
				c-0.7-0.3-1.5-0.4-2.4-0.4c-0.8,0-1.6,0.1-2.3,0.3c-0.8,0.2-1.4,0.5-2,0.9c-0.6,0.4-1.1,1-1.5,1.6
				C668,213.7,667.8,214.5,667.8,215.3z"/>
			<path class="st5" d="M708.7,213.6c0,1.9,0.1,3.6,0.4,5.1c0.3,1.5,0.8,2.8,1.5,3.8c0.7,1,1.7,1.9,3,2.4c1.3,0.6,3,0.8,5,0.8
				c1.5,0,2.7-0.2,3.9-0.5c1.1-0.3,2.2-1,3.2-2.1l3.6,3.3c-1.4,1.5-3,2.6-4.9,3.3c-1.8,0.7-3.7,1-5.8,1c-2.8,0-5.1-0.4-7.1-1.2
				c-2-0.8-3.6-2-4.8-3.5c-1.2-1.5-2.2-3.3-2.7-5.4c-0.6-2.1-0.9-4.4-0.9-6.9V212c0-2.4,0.3-4.6,1-6.5c0.7-1.9,1.7-3.6,3-4.9
				c1.3-1.3,2.9-2.4,4.9-3.1c1.9-0.7,4.1-1,6.6-1c1.9,0,3.8,0.3,5.7,1c1.8,0.6,3.5,1.7,4.9,3.1l-3.6,3.7c-1-1-2.1-1.7-3.1-2.1
				c-1.1-0.4-2.3-0.6-3.8-0.6c-3.4,0-5.9,0.9-7.5,2.7c-1.6,1.8-2.4,4.4-2.4,7.8V213.6z"/>
			<path class="st5" d="M745.1,230.8c-1.9,0-3.6-0.3-5.1-1c-1.5-0.7-2.7-1.5-3.7-2.7c-1-1.1-1.7-2.5-2.2-4c-0.5-1.5-0.8-3.2-0.8-5
				v-0.9c0-1.7,0.3-3.2,0.9-4.7c0.6-1.4,1.3-2.7,2.4-3.7c1-1,2.2-1.8,3.7-2.4c1.4-0.6,3-0.9,4.8-0.9c1.7,0,3.2,0.3,4.7,0.9
				c1.4,0.6,2.7,1.4,3.8,2.4c1.1,1,1.9,2.2,2.5,3.7c0.6,1.4,0.9,3,0.9,4.6v1c0,1.8-0.3,3.4-0.8,5c-0.5,1.5-1.3,2.9-2.3,4
				c-1,1.1-2.3,2-3.7,2.7C748.7,230.4,747,230.8,745.1,230.8z M752.2,218.2v-1c0-2.1-0.6-3.8-1.7-5.1c-1.1-1.3-2.9-2-5.3-2
				c-2.4,0-4.2,0.7-5.2,2c-1.1,1.3-1.6,3-1.6,5.2v1.1c0,1.1,0.1,2.2,0.3,3.1c0.2,0.9,0.5,1.8,1,2.5c0.5,0.7,1.2,1.2,2.1,1.6
				c0.9,0.4,2,0.6,3.4,0.6c1.4,0,2.5-0.2,3.4-0.6c0.9-0.4,1.6-1,2.1-1.7c0.5-0.7,0.9-1.6,1.1-2.5
				C752.1,220.4,752.2,219.3,752.2,218.2z"/>
			<path class="st5" d="M767.8,208.4c0.3-0.4,0.7-0.7,1.1-1.1c0.4-0.3,0.9-0.6,1.5-0.9c0.5-0.3,1-0.5,1.6-0.6c0.5-0.2,1-0.2,1.5-0.2
				c1.5,0,2.8,0.2,4,0.7c1.2,0.5,2.2,1.3,3,2.6c1.1-1,2.2-1.8,3.3-2.4c1.1-0.6,2.4-0.9,4-0.9c1.3,0,2.6,0.2,3.7,0.6
				c1.1,0.4,2.1,1,2.9,1.7c0.8,0.7,1.4,1.6,1.9,2.7c0.4,1,0.7,2.2,0.7,3.6v16.1h-5.2v-15.6c0-1.4-0.3-2.5-0.9-3.3
				c-0.6-0.8-1.7-1.2-3.3-1.2c-1,0-1.9,0.2-2.7,0.7c-0.8,0.4-1.5,1-2.2,1.7v17.6h-5.2v-16.1c0-1.4-0.4-2.4-1.1-3
				c-0.7-0.6-1.7-0.9-3-0.9c-1,0-2.1,0.2-3.1,0.6c-1,0.4-1.8,1-2.6,1.8v17.6h-5.2v-18.1c0-0.9-0.1-1.6-0.2-2.3
				c-0.1-0.7-0.3-1.3-0.7-2.1l4.6-2.1c0.3,0.4,0.5,0.9,0.7,1.3c0.2,0.4,0.3,0.9,0.5,1.5H767.8z"/>
			<path class="st5" d="M814.5,205.6c1.8,0,3.4,0.3,4.7,0.8c1.4,0.6,2.6,1.3,3.5,2.3c1,1,1.7,2.2,2.2,3.6c0.5,1.4,0.7,2.9,0.7,4.6
				v3.1c0,1.8-0.3,3.3-0.8,4.7c-0.5,1.3-1.2,2.5-2.2,3.4c-0.9,0.9-2.1,1.6-3.4,2.1c-1.3,0.5-2.8,0.7-4.4,0.7c-1.2,0-2.5-0.3-3.8-1
				c-1.3-0.6-2.3-1.4-3.2-2.2v11.9h-5.2v-27.4c0-0.9-0.1-1.6-0.2-2.2c-0.1-0.6-0.3-1.3-0.6-2.1l4.6-2.1c0.3,0.4,0.5,0.9,0.7,1.3
				c0.2,0.4,0.3,0.9,0.5,1.5h0.3c0.8-0.9,1.8-1.6,3-2.1C812.1,205.8,813.3,205.6,814.5,205.6z M814.5,210.2c-1.2,0-2.4,0.3-3.6,1
				c-1.1,0.7-2.1,1.5-2.9,2.4v8.8c0.4,0.5,0.9,0.9,1.4,1.4c0.5,0.4,1.1,0.8,1.7,1.2c0.6,0.3,1.2,0.6,1.9,0.9c0.7,0.2,1.3,0.3,2,0.3
				c1.1,0,2-0.2,2.7-0.5c0.7-0.3,1.3-0.8,1.7-1.4c0.4-0.6,0.7-1.3,0.9-2.1c0.2-0.8,0.2-1.7,0.2-2.6v-2.4c0-1-0.1-1.9-0.3-2.8
				c-0.2-0.9-0.5-1.6-1-2.2c-0.5-0.6-1.1-1.1-1.9-1.5C816.6,210.3,815.6,210.2,814.5,210.2z"/>
			<path class="st5" d="M839.6,230.8c-3,0-5.3-0.7-6.8-2.1c-1.6-1.4-2.3-3.6-2.3-6.6v-14.9l5.2-1.5v15.3c0,0.8,0,1.6,0.1,2.2
				c0.1,0.6,0.3,1.2,0.5,1.6c0.3,0.5,0.7,0.8,1.2,1c0.5,0.2,1.2,0.4,2.1,0.4c0.7,0,1.3-0.1,1.9-0.3c0.6-0.2,1.1-0.5,1.7-0.9
				c0.5-0.4,1-0.8,1.5-1.2c0.5-0.4,0.9-0.9,1.3-1.4v-15.3l5.2-1.5v19.1c0,1.2,0.1,2.2,0.3,3c0.1,0.4,0.2,0.8,0.4,1.2
				c0.2,0.4,0.4,0.9,0.6,1.3H847c-0.3-0.4-0.5-0.8-0.6-1.4c-0.2-0.5-0.2-1-0.2-1.5c-0.9,1-1.9,1.8-2.9,2.4
				C842.2,230.4,841,230.8,839.6,230.8z"/>
			<path class="st5" d="M857.9,210.4h-2.7v-4.3h2.7V201l5.2-1.1v6.3h3.8l-1.3,4.3h-2.5v12.8c0,1.9,1,2.9,3,2.9h1.2v4.1
				c-0.4,0.2-0.9,0.3-1.3,0.4c-0.4,0.1-0.9,0.1-1.4,0.1c-0.9,0-1.7-0.1-2.6-0.4c-0.8-0.2-1.5-0.6-2.1-1.1c-0.6-0.5-1.1-1.2-1.5-2
				c-0.4-0.8-0.5-1.8-0.5-2.9V210.4z"/>
			<path class="st5" d="M873.6,196.5c0.8,0,1.5,0.3,2,0.8c0.6,0.6,0.9,1.2,0.9,2c0,0.8-0.3,1.5-0.9,2c-0.5,0.5-1.2,0.8-2,0.8
				c-0.8,0-1.5-0.3-2-0.8c-0.6-0.5-0.9-1.2-0.9-2c0-0.8,0.3-1.4,0.9-2C872.1,196.7,872.8,196.5,873.6,196.5z M871.2,230.2v-24h5.2
				v24H871.2z"/>
			<path class="st5" d="M893.3,210.2c-0.5,0-1.1,0.1-1.6,0.2c-0.6,0.1-1.1,0.3-1.7,0.5c-0.5,0.2-1.1,0.4-1.5,0.7
				c-0.5,0.3-0.9,0.6-1.3,1v17.6H882v-18.1c0-0.9-0.1-1.6-0.2-2.3c-0.1-0.7-0.4-1.3-0.7-2.1l4.7-2.1c0.3,0.4,0.5,0.9,0.7,1.3
				c0.2,0.4,0.4,0.9,0.5,1.5h0.3c0.4-0.4,0.9-0.8,1.5-1.1c0.6-0.3,1.1-0.7,1.7-0.9c0.6-0.3,1.2-0.4,1.8-0.6c0.6-0.1,1.2-0.2,1.7-0.2
				c1.4,0,2.6,0.2,3.8,0.6c1.1,0.4,2.1,0.9,2.9,1.6c0.8,0.7,1.5,1.6,1.9,2.6c0.5,1.1,0.7,2.3,0.7,3.6v16.2h-5.2v-15.1
				C898.1,211.8,896.5,210.2,893.3,210.2z"/>
			<path class="st5" d="M924.3,227c-0.9,0.9-1.8,1.6-2.8,2.2c-1,0.6-2.1,0.9-3.4,0.9c-3.3,0-5.8-0.9-7.5-2.8
				c-1.7-1.9-2.6-4.4-2.6-7.6v-2.5c0-4,1-7,3.1-8.9c2.1-1.9,5.1-2.9,9.1-2.9c1.5,0,3.1,0.1,4.7,0.4c1.6,0.3,3.1,0.7,4.5,1.3v22
				c0,1.6-0.3,3-0.9,4.3c-0.6,1.3-1.4,2.4-2.4,3.4c-1,1-2.2,1.7-3.6,2.2c-1.4,0.5-2.8,0.8-4.4,0.8c-1.7,0-3.4-0.2-5-0.6
				c-1.6-0.4-3.1-1.1-4.6-2l2.4-4.2c1.2,0.7,2.4,1.2,3.5,1.5c1.1,0.3,2.4,0.4,3.8,0.4c2.1,0,3.6-0.5,4.5-1.6
				c0.9-1.1,1.4-2.6,1.4-4.6V227z M918.1,225.6c1.3,0,2.5-0.4,3.5-1.1c1-0.7,1.9-1.6,2.7-2.7v-10.8c-0.7-0.3-1.4-0.4-2-0.6
				c-0.6-0.1-1.3-0.2-2-0.2c-1.3,0-2.5,0.1-3.4,0.4c-0.9,0.3-1.6,0.7-2.2,1.2c-0.6,0.6-1,1.3-1.2,2.2c-0.2,0.9-0.4,2-0.4,3.4v2.1
				c0,1,0.1,1.8,0.2,2.6c0.1,0.7,0.3,1.4,0.7,1.9c0.3,0.5,0.8,0.9,1.5,1.2C916.2,225.4,917,225.6,918.1,225.6z"/>
		</g>
		<g>
			<path class="st3" d="M305.5,42.7c-0.9-1.3-0.3-2.3,1.2-2.3h27.5c1.5,0,3.5,1,4.3,2.3l80.3,117.1c0.9,1.3,0.3,2.3-1.2,2.3h-27.5
				c-1.5,0-3.5-1-4.3-2.3L305.5,42.7z"/>
			<linearGradient id="SVGID_2_" gradientUnits="userSpaceOnUse" x1="392.2206" y1="59.8454" x2="324.6659" y2="149.3891">
				<stop  offset="0.1043" style="stop-color:#EC1C24"/>
				<stop  offset="0.1222" style="stop-color:#E81B23"/>
				<stop  offset="0.3855" style="stop-color:#B61116"/>
				<stop  offset="0.5153" style="stop-color:#A30D11"/>
				<stop  offset="0.583" style="stop-color:#AC0F13"/>
				<stop  offset="0.6958" style="stop-color:#C6141A"/>
				<stop  offset="0.8282" style="stop-color:#EC1C24"/>
			</linearGradient>
			<path class="st6" d="M390.7,40.4c-1.5,0-3.5,1-4.4,2.3l-63.3,90.8c-0.9,1.2-2.8,2.3-4.4,2.3h-14.3c-1.5,0-2.8,1.3-2.8,2.8v21.1
				c0,1.5,1.2,2.8,2.8,2.8h28c1.5,0,3.5-1,4.4-2.3l63.2-90c0.9-1.2,2.8-2.3,4.4-2.3h12.2c1.5,0,2.8-1.3,2.8-2.8V43.2
				c0-1.5-1.2-2.8-2.8-2.8H390.7z"/>
			<path class="st3" d="M441.1,65.1c0,1.5,1.2,2.8,2.8,2.8h85c1.5,0,2.8-1.3,2.8-2.8V43c0-1.5-1.2-2.8-2.8-2.8h-85
				c-1.5,0-2.8,1.2-2.8,2.8V65.1z"/>
			<path class="st3" d="M441.1,110.9c0,1.5,1.2,2.8,2.8,2.8h40.8c1.5,0,2.8-1.2,2.8-2.8V92.7c0-1.5-1.3-2.8-2.8-2.8h-40.8
				c-1.5,0-2.8,1.3-2.8,2.8V110.9z"/>
			<path class="st3" d="M441.1,159.7c0,1.5,1.2,2.8,2.8,2.8h85.6c1.5,0,2.8-1.2,2.8-2.8v-21.2c0-1.5-1.2-2.8-2.8-2.8h-85.6
				c-1.5,0-2.8,1.3-2.8,2.8V159.7z"/>
			<path class="st3" d="M626.4,160.8c0.7,1.3,2.6,2.4,4.1,2.4h25.3c1.5,0,2.8-1.2,2.8-2.8V45.7c0-1.5-1.3-2.8-2.8-2.8h-18.7
				c-1.5,0-2.8,1.2-2.8,2.8v79.7c0,1.5-0.6,1.7-1.4,0.4l-44.8-79.8c-0.7-1.3-2.6-2.4-4.1-2.4h-25.3c-1.5,0-2.8,1.2-2.8,2.8v114
				c0,1.5,1.2,2.8,2.8,2.8h19.9c1.5,0,2.8-1.2,2.8-2.8V82.1c0-1.5,0.6-1.7,1.3-0.3L626.4,160.8z"/>
			<path class="st3" d="M827.2,160.3c0,1.5,1.2,2.8,2.8,2.8h19.9c1.5,0,2.8-1.2,2.8-2.8V82.4c0-1.5,0.6-1.7,1.3-0.3l43.5,77.9
				c0.7,1.3,2.6,2.4,4.1,2.4H927c1.5,0,2.8-1.2,2.8-2.8v-114c0-1.5-1.2-2.8-2.8-2.8h-18.6c-1.5,0-2.8,1.2-2.8,2.8v79.7
				c0,1.5-0.6,1.7-1.4,0.4l-44.8-79.8c-0.8-1.3-2.6-2.4-4.1-2.4H830c-1.5,0-2.8,1.2-2.8,2.8V160.3z"/>
			<path class="st3" d="M743.8,35.6c-36.3,0-60.7,25.9-60.7,64.5c0,38,23.8,62.6,60.7,62.6c36.3,0,60.7-25.2,60.7-62.6
				C804.5,61.6,780.1,35.6,743.8,35.6L743.8,35.6z M743.9,141.3c-16.9,0-32.2-15.6-32.2-32.7V90.3c0-17.4,15.4-33.3,32.2-33.3
				c17.9,0,31.8,14.6,31.8,33.3v18.3C775.8,132.7,758.6,141.3,743.9,141.3L743.9,141.3z"/>
			<g>
				<path class="st3" d="M974.5,149.1c0,7.3-5.8,13-13.2,13c-7.4,0-13.3-5.7-13.3-13c0-7.3,5.9-12.9,13.4-12.9
					C968.6,136.1,974.5,141.8,974.5,149.1z M951.2,149.1c0,5.8,4.3,10.3,10.1,10.3c5.6,0.1,9.9-4.6,9.9-10.3c0-5.7-4.3-10.4-10-10.4
					C955.5,138.7,951.2,143.4,951.2,149.1z M959.2,155.8h-3v-12.9c1.2-0.2,2.9-0.4,5-0.4c2.4,0,3.5,0.4,4.4,1
					c0.8,0.6,1.3,1.5,1.3,2.8c0,1.6-1.2,2.6-2.7,3.1v0.2c1.3,0.4,1.9,1.4,2.3,3.1c0.4,2,0.7,2.7,1,3.2h-3.2c-0.4-0.5-0.6-1.6-1-3.2
					c-0.2-1.3-1-2-2.7-2h-1.4V155.8z M959.3,148.5h1.4c1.7,0,3-0.6,3-1.9c0-1.2-0.9-2-2.7-2c-0.8,0-1.4,0.1-1.6,0.2V148.5z"/>
			</g>
		</g>
	</g>
</g>
<g id="Layer_3">
</g>
<g id="Layer_4">
</g>
<g id="Layer_5">
</g>
</svg>
