<?xml version="1.0" encoding="UTF-8"?>
<svg width="524px" height="211px" viewBox="0 0 524 211" version="1.1" xmlns="http://www.w3.org/2000/svg" xmlns:xlink="http://www.w3.org/1999/xlink">
    <!-- Generator: Sketch 55.1 (78136) - https://sketchapp.com -->
    <title>Zoomdata-logo</title>
    <desc>Created with Sketch.</desc>
    <defs>
        <polygon id="path-1" points="0.101647059 0.066 30.3190588 0.066 30.3190588 21.89 0.101647059 21.89"></polygon>
        <polygon id="path-3" points="0.110085422 0.108643552 409.488415 0.108643552 409.488415 207.543531 0.110085422 207.543531"></polygon>
    </defs>
    <g id="Zoomdata" stroke="none" stroke-width="1" fill="none" fill-rule="evenodd">
        <g id="Zoomdata-+-Logi-Tag-color" transform="translate(2.000000, 1.000000)">
            <path d="M100.8043,192.920883 L106.780025,192.920883 L106.474858,189.50598 C106.289909,187.402944 106.077217,185.268629 105.921859,182.979761 L105.799792,182.979761 C104.727084,185.298068 103.717258,187.310948 102.581667,189.50598 L100.8043,192.920883 Z M104.912033,181 L107.669634,181 L110,201 L107.516125,201 L106.964975,194.74977 L99.8536585,194.74977 L96.637383,201 L94,201 L104.912033,181 L104.912033,181 Z" id="Fill-1" fill="#585A5A"></path>
            <polyline id="Fill-2" fill="#585A5A" points="121.92715 181 124.264266 181 120.726032 198.98896 129 198.98896 128.611084 201 118 201 121.92715 181"></polyline>
            <g id="Group-6" transform="translate(132.000000, 186.000000)">
                <mask id="mask-2" fill="white">
                    <use xlink:href="#path-1"></use>
                </mask>
                <g id="Clip-4"></g>
                <path d="M11.2677647,6.14166667 C11.2677647,3.46866667 10.1138824,1.98 8.02447059,1.98 C5.248,1.98 2.50352941,5.3515 2.50352941,9.48383333 C2.50352941,12.1568333 3.65741176,13.6161667 5.74682353,13.6161667 C8.55529412,13.6161667 11.2677647,10.274 11.2677647,6.14166667 Z M0.101647059,9.636 C0.101647059,4.04433333 4.12423529,0.066 8.27482353,0.066 C11.5501176,0.066 13.7016471,2.31366667 13.7016471,5.9895 C13.7016471,11.5811667 9.64705882,15.5613333 5.49835294,15.5613333 C2.22305882,15.5613333 0.101647059,13.3118333 0.101647059,9.636 L0.101647059,9.636 Z" id="Fill-3" fill="#585A5A" mask="url(#mask-2)"></path>
                <path d="M25.8597647,10.5178333 L27.2,4.1965 C26.2644706,2.64916667 25.2668235,2.01116667 24.1129412,2.01116667 C21.1802353,2.01116667 18.4677647,5.65583333 18.4677647,9.515 C18.4677647,11.913 19.4955294,13.0991667 21.1802353,13.0991667 C22.6145882,13.0991667 24.4254118,12.2173333 25.8597647,10.5178333 Z M14.7237647,19.965 L15.8475294,18.3553333 C17.0014118,19.327 18.4357647,20.1171667 20.1185882,20.1171667 C22.7087059,20.1171667 24.2371765,18.3865 24.8922353,15.7116667 L25.6715294,12.5528333 C24.0809412,14.102 22.3341176,15.0425 20.4009412,15.0425 C17.8428235,15.0425 16.0018824,13.2806667 16.0018824,9.84683333 C16.0018824,4.44033333 19.9322353,0.066 24.0188235,0.066 C25.6094118,0.066 26.9515294,0.947833333 27.6687059,2.2825 L27.7628235,2.2825 L28.3538824,0.430833333 L30.3190588,0.430833333 L27.1378824,15.8931667 C26.3265882,19.8128333 23.8324706,22 20.0263529,22 C17.9990588,22 16.1901176,21.1493333 14.7237647,19.965 L14.7237647,19.965 Z" id="Fill-5" fill="#585A5A" mask="url(#mask-2)"></path>
            </g>
            <path d="M165.595062,181.765154 C165.595062,180.76043 166.453498,180 167.440604,180 C168.268313,180 169,180.516137 169,181.399633 C169,182.402519 168.141564,183.133561 167.154458,183.133561 C166.328669,183.133561 165.595062,182.646812 165.595062,181.765154 Z M165.086145,186.208344 L167.536626,186.208344 L164.417833,201 L162,201 L165.086145,186.208344 L165.086145,186.208344 Z" id="Fill-7" fill="#585A5A"></path>
            <path d="M179.803237,192.920883 L185.781503,192.920883 L185.474451,189.50598 C185.291329,187.402944 185.076763,185.268629 184.923237,182.979761 L184.799306,182.979761 C183.726474,185.298068 182.716532,187.310948 181.582659,189.50598 L179.803237,192.920883 Z M183.911445,181 L186.669364,181 L189,201 L186.517688,201 L185.964624,194.74977 L178.854335,194.74977 L175.635838,201 L173,201 L183.911445,181 L183.911445,181 Z" id="Fill-8" fill="#585A5A"></path>
            <path d="M194.047893,186.36173 L196.047893,186.36173 L195.82567,188.561197 L195.952107,188.561197 C197.699234,187.114275 199.411877,186 201.350575,186 C203.954023,186 205,187.385119 205,189.644571 C205,190.33713 204.936782,190.849733 204.747126,191.664081 L202.777778,201 L200.3659,201 L202.270115,191.964009 C202.429119,191.180562 202.522989,190.760664 202.522989,190.246243 C202.522989,188.772055 201.82567,187.986791 200.239464,187.986791 C199.032567,187.986791 197.54023,188.801139 195.603448,190.638875 L193.413793,201 L191,201 L194.047893,186.36173" id="Fill-9" fill="#585A5A"></path>
            <path d="M217.662816,197.074302 L218.989228,190.265026 C218.146139,188.667298 217.123167,188.008519 216.007528,188.008519 C213.087605,188.008519 210.378456,191.898722 210.378456,196.099385 C210.378456,198.736394 211.4305,199.991481 213.056716,199.991481 C214.5939,199.991481 216.220117,199.050639 217.662816,197.074302 Z M208,196.477993 C208,190.611453 211.853861,186 215.918494,186 C217.482933,186 218.747567,186.910554 219.441661,188.288689 L219.561583,188.288689 L220.132122,186.376716 L222,186.376716 L219.080078,201.621391 L217.183128,201.621391 L217.422972,199.362991 L217.30305,199.362991 C215.887605,200.932324 214.050616,202 212.213628,202 C209.655289,202 208,200.053952 208,196.477993 L208,196.477993 Z" id="Fill-10" fill="#585A5A"></path>
            <path d="M224,199.085681 C224,198.750125 224.057996,198.324721 224.175747,197.807635 L227.757469,179 L230,179 L226.358524,197.930488 C226.300527,198.233039 226.300527,198.385231 226.300527,198.506251 C226.300527,198.871145 226.504394,199.054509 226.796134,199.054509 C226.912127,199.054509 227,199.054509 227.261863,198.962827 L227.29174,200.756126 C226.912127,200.908318 226.504394,201 225.892794,201 C224.641476,201 224,200.29955 224,199.085681" id="Fill-11" fill="#585A5A"></path>
            <path d="M227,206.57876 L227.779316,204.855505 C228.153914,205.036037 228.496512,205.127214 228.901229,205.127214 C230.429742,205.127214 231.834016,203.797846 232.863692,201.773706 L233.424648,200.716047 L230.836341,186 L233.206289,186 L234.392205,194.249739 C234.610564,195.579107 234.766803,197.242185 234.891042,198.629906 L235.015281,198.629906 C235.732477,197.242185 236.513675,195.639284 237.26099,194.249739 L241.630052,186 L244,186 L235.079282,201.925061 C233.486768,204.795328 231.647658,207 228.744989,207 C228.310154,207 227.592958,206.881469 227,206.57876" id="Fill-12" fill="#585A5A"></path>
            <path d="M245.284955,197.752912 C245.284955,197.150659 245.380578,196.669945 245.443689,196.129368 L247.250956,187.891923 L245,187.891923 L245.349979,186.179492 L247.757756,186.028929 L248.89949,182 L250.959201,182 L250.102422,186.028929 L254,186.028929 L253.619422,187.891923 L249.658734,187.891923 L247.853379,196.249093 C247.788355,196.610082 247.757756,196.940233 247.757756,197.330246 C247.757756,198.532939 248.264556,199.135192 249.721844,199.135192 C250.324267,199.135192 250.863578,198.893928 251.337867,198.683502 L251.877178,200.33607 C251.179133,200.637197 250.165533,201 248.960688,201 C246.267956,201 245.284955,199.556044 245.284955,197.752912" id="Fill-13" fill="#585A5A"></path>
            <path d="M257.595996,181.765154 C257.595996,180.76043 258.454196,180 259.441031,180 C260.268513,180 261,180.516137 261,181.399633 C261,182.402519 260.141799,183.133561 259.154964,183.133561 C258.327482,183.133561 257.595996,182.646812 257.595996,181.765154 Z M257.087219,186.208344 L259.537027,186.208344 L256.419089,201 L254,201 L257.087219,186.208344 L257.087219,186.208344 Z" id="Fill-14" fill="#585A5A"></path>
            <path d="M261,195.881685 C261,190.202556 264.929462,186 269.192764,186 C270.944056,186 272.124354,186.815902 273,187.851396 L271.640924,189.356365 C270.883855,188.415523 270.188811,187.976337 269.04135,187.976337 C266.107936,187.976337 263.356947,191.552295 263.356947,195.724562 C263.356947,198.484619 264.506233,199.991481 266.833992,199.991481 C268.132867,199.991481 269.192764,199.362991 270.099422,198.641742 L271.126482,200.209181 C270.06841,201.057265 268.556096,202 266.410763,202 C263.205534,202 261,199.771888 261,195.881685" id="Fill-15" fill="#585A5A"></path>
            <path d="M274,199.113109 L275.4932,197.920492 C276.425512,199.23805 277.793028,200.146711 279.378146,200.146711 C281.118962,200.146711 282.580272,198.988168 282.580272,197.606247 C282.580272,196.508282 281.927466,195.881685 279.815226,194.721249 C277.481632,193.43398 276.363608,192.273545 276.363608,190.548982 C276.363608,187.851396 278.727216,186 281.554166,186 C283.388776,186 284.8801,186.848083 286,188.0407 L284.632484,189.386654 C283.82398,188.540464 282.859778,187.883578 281.492262,187.883578 C279.875254,187.883578 278.633422,188.981543 278.633422,190.265026 C278.633422,191.552295 279.939034,192.211074 281.30655,192.964505 C284.009692,194.469475 284.850086,195.62991 284.850086,197.292002 C284.850086,200.146711 282.456464,202 279.192434,202 C277.172112,202 275.026106,200.712731 274,199.113109" id="Fill-16" fill="#585A5A"></path>
            <path d="M293,192.815423 C293,186.453368 297.080377,180 303.170167,180 C305.420348,180 307.03874,181.267193 308,182.994676 L306.379797,184.261869 C305.599566,182.964859 304.549602,182.068507 303.050688,182.068507 C298.369298,182.068507 295.400434,187.688881 295.400434,192.599255 C295.400434,196.272251 296.870384,198.92963 300.409486,198.92963 C302.000724,198.92963 303.289645,198.217766 304.580377,197.108972 L305.63034,198.651966 C304.189356,199.948975 302.36097,201 299.9895,201 C295.490949,201 293,197.6643 293,192.815423" id="Fill-17" fill="#585A5A"></path>
            <path d="M319.673495,192.273545 C319.673495,189.513488 318.570519,187.976337 316.573287,187.976337 C313.919308,187.976337 311.295917,191.457643 311.295917,195.724562 C311.295917,198.484619 312.398893,199.991481 314.396125,199.991481 C317.080692,199.991481 319.673495,196.540464 319.673495,192.273545 Z M309,195.881685 C309,190.107903 312.84692,186 316.810796,186 C319.943391,186 322,188.320871 322,192.116422 C322,197.890204 318.122491,202 314.158616,202 C311.02782,202 309,199.677236 309,195.881685 L309,195.881685 Z" id="Fill-18" fill="#585A5A"></path>
            <path d="M326.954254,186.36173 L328.892809,186.36173 L328.677414,188.561197 L328.799966,188.561197 C330.369007,187.114275 332.153444,186 333.722485,186 C336.09183,186 336.95341,187.265148 337.168805,188.862942 C339.075793,187.083374 340.923363,186 342.462694,186 C344.954591,186 346,187.385119 346,189.644571 C346,190.33713 345.909014,190.849733 345.754895,191.664081 L343.84605,201 L341.476705,201 L343.353984,191.964009 C343.508103,191.180562 343.599088,190.760664 343.599088,190.246243 C343.599088,188.772055 342.893484,187.986791 341.415429,187.986791 C340.553849,187.986791 338.984808,188.801139 337.200371,190.638875 L335.077988,201 L332.738352,201 L334.584065,191.964009 C334.738184,191.180562 334.831026,190.760664 334.831026,190.246243 C334.831026,188.772055 334.153275,187.986791 332.677076,187.986791 C331.78393,187.986791 330.214889,188.801139 328.462019,190.638875 L326.337779,201 L324,201 L326.954254,186.36173" id="Fill-19" fill="#585A5A"></path>
            <path d="M352.943948,190.505751 L351.489922,197.766695 C352.342874,199.3303 353.419082,199.957253 354.61932,199.957253 C357.685748,199.957253 360.502206,196.074678 360.502206,191.852189 C360.502206,189.285837 359.425999,188.003605 357.685748,188.003605 C356.264162,188.003605 354.397973,188.942146 352.943948,190.505751 Z M350.383184,203.024034 L349.402385,208 L347,208 L351.362075,186.375794 L353.354204,186.375794 L353.165295,188.377511 L353.260704,188.377511 C354.810137,187.093391 356.643888,186 358.573047,186 C361.25975,186 363,187.971502 363,191.506609 C363,197.358798 358.952773,201.960858 354.714729,201.960858 C353.102326,201.960858 351.80477,201.052532 351.014788,199.768412 L350.951819,199.768412 L350.383184,203.024034 L350.383184,203.024034 Z" id="Fill-20" fill="#585A5A"></path>
            <path d="M373.664633,197.074302 L374.989228,190.265026 C374.146139,188.667298 373.123167,188.008519 372.009345,188.008519 C369.087605,188.008519 366.378456,191.898722 366.378456,196.099385 C366.378456,198.736394 367.432317,199.991481 369.058533,199.991481 C370.5939,199.991481 372.2183,199.050639 373.664633,197.074302 Z M364,196.477993 C364,190.611453 367.853861,186 371.918494,186 C373.48475,186 374.749384,186.910554 375.441661,188.288689 L375.561583,188.288689 L376.133939,186.376716 L378,186.376716 L375.080078,201.621391 L373.183128,201.621391 L373.424789,199.362991 L373.30305,199.362991 C371.887605,200.932324 370.052433,202 368.215445,202 C365.655289,202 364,200.053952 364,196.477993 L364,196.477993 Z" id="Fill-21" fill="#585A5A"></path>
            <path d="M382.04831,186.36173 L384.048584,186.36173 L383.826331,188.561197 L383.952785,188.561197 C385.698235,187.114275 387.413029,186 389.350075,186 C391.95388,186 393,187.385119 393,189.644571 C393,190.33713 392.938689,190.849733 392.747092,191.664081 L390.77939,201 L388.367182,201 L390.271657,191.964009 C390.430683,191.180562 390.524565,190.760664 390.524565,190.246243 C390.524565,188.772055 389.827152,187.986791 388.238812,187.986791 C387.03175,187.986791 385.539209,188.801139 383.604078,190.638875 L381.412207,201 L379,201 L382.04831,186.36173" id="Fill-22" fill="#585A5A"></path>
            <g id="Group-26">
                <mask id="mask-4" fill="white">
                    <use xlink:href="#path-3"></use>
                </mask>
                <g id="Clip-24"></g>
                <path d="M392.91689,207.12006 L393.676479,205.387678 C394.04343,205.569165 394.377356,205.660826 394.771829,205.660826 C396.261652,205.660826 397.63038,204.324417 398.633993,202.289555 L399.18075,201.226294 L396.656124,186.432301 L398.967918,186.432301 L400.123815,194.725736 C400.336647,196.062146 400.487097,197.734032 400.610026,199.129104 L400.73112,199.129104 C401.430162,197.734032 402.191586,196.122641 402.919985,194.725736 L407.176621,186.432301 L409.488415,186.432301 L400.791667,202.441711 C399.241297,205.327182 397.448739,207.543531 394.619544,207.543531 C394.19388,207.543531 393.494838,207.424372 392.91689,207.12006" id="Fill-23" fill="#585A5A" mask="url(#mask-4)"></path>
                <path d="M23.7582689,0.108643552 C26.0315329,2.94095086 27.5745636,11.7403522 27.8717942,14.3086775 C27.6185977,15.359106 27.3709055,16.4187006 27.117709,17.4801284 C27.4828257,18.9466953 28.6699135,20.1071163 28.8313721,21.4215269 C29.119429,23.8046981 27.9231674,25.9055552 28.3469963,28.4152178 C29.0185173,32.3419506 30.1799185,35.3575788 31.732123,39.7499466 C32.8531596,42.9287304 32.1651257,46.3128335 32.7595869,49.4311213 C37.3923485,48.8884916 44.4763454,46.8719621 48.270623,44.8535994 L53.1400681,43.8196697 C56.9747104,41.7939742 63.1174769,40.7765434 66.8934069,38.7581808 L71.0179407,37.8855735 C76.2616764,35.0954299 84.6189947,34.16416 90.0737274,31.2640239 L94.9450073,30.2392603 C99.3997974,27.8909201 106.713139,27.0513106 111.329388,24.6094767 C113.576965,24.1346756 125.897359,21.650678 129.053141,19.9971238 C132.94833,17.9549294 138.360863,16.7670102 143.841282,15.5717582 C148.340107,18.1914133 147.965816,16.1473857 152.226122,21.1153811 C152.565552,22.4976204 155.314018,24.506817 156.290109,26.2868626 C160.047691,33.1118982 156.80751,33.2897195 148.263047,34.8754449 C147.745645,35.6728907 142.001021,38.4868659 139.812156,38.3842062 C138.522322,38.3182107 135.570198,37.8434097 133.940933,38.7673468 C128.434828,41.8691358 122.893861,44.8114356 118.52347,48.4906853 C96.4972118,66.9895934 77.465277,86.0879608 64.4678581,108.148793 C61.4386742,113.311109 57.1104824,117.252507 53.4372988,122.11051 C52.250211,123.687069 52.9620967,126.671533 52.0025188,128.442413 C50.7383712,130.781587 47.4798427,132.74862 47.9311929,135.758748 L48.2963096,135.683587 C48.7366512,134.792647 54.9216172,131.164727 57.136169,131.232556 C57.6792571,131.249055 58.4443507,131.859513 59.2571481,131.639528 C69.3207905,128.893382 81.505412,126.400218 92.7212818,124.119707 C95.921098,123.474417 101.663888,123.017948 103.812388,122.204004 C107.391999,120.856595 121.646226,119.51652 122.477371,117.388165 C120.772882,117.269006 118.778501,117.565986 117.116211,116.803371 C118.286786,116.592552 119.508735,116.354235 119.761931,115.811605 C116.140121,116.354235 111.252328,115.259809 107.553458,114.955497 C100.357541,114.361537 93.6037999,114.852837 86.9436318,114.590688 C82.675987,114.412867 78.5184275,115.947263 74.2416089,114.693348 C83.2099013,112.555827 93.2221704,111.903204 102.071204,112.242348 C105.61045,111.919703 109.157035,111.597059 112.694447,111.28358 C117.556553,111.411905 123.411263,111.199252 128.247682,111.428403 C134.839964,111.751048 144.386205,110.216653 150.57851,112.301011 C153.616868,113.556759 156.009391,115.411966 158.902803,118.286437 L160.387121,117.972958 C160.599953,118.218608 160.81095,118.456925 161.014608,118.702575 C160.642153,119.668676 160.880671,120.737437 162.025559,122.363493 L160.541241,122.676971 C161.931987,124.059211 164.638253,125.186634 164.511655,125.714598 C164.146539,127.976778 159.623862,127.637634 156.680912,127.798956 C156.357995,127.434148 156.042417,127.078505 155.721334,126.706364 L156.46808,126.554208 C156.748798,126.061075 158.530347,125.705432 158.792718,125.1958 C151.622487,123.399256 141.848736,124.75583 134.627133,124.722832 C128.680685,124.688001 123.860778,128.528573 118.099641,126.926349 C118.89776,126.671533 119.084906,126.636702 119.262877,126.255395 C116.870354,126.535876 110.811986,126.392885 110.039553,127.773291 C111.472499,127.459813 111.549559,127.239828 112.898105,128.028107 L111.413786,128.341586 C110.489069,128.103269 108.749719,128.502908 107.815828,128.248092 C108.258004,127.883284 108.113059,128.094103 108.232318,127.721962 C104.838017,128.57807 100.308002,130.315952 97.8053935,130.369115 C93.5707743,130.453442 89.6847589,130.647763 86.7142872,132.282985 C85.3730798,133.021768 81.7604432,132.801783 80.410062,133.613894 C76.7699041,135.819244 69.6767333,134.733985 68.7098164,137.819275 L78.7220856,135.700085 L79.0450028,136.055728 L78.9936296,136.495698 C78.0780858,137.150153 75.5736425,137.676284 75.1333008,138.607554 C78.1202852,137.835774 81.1072697,137.065826 84.0924194,136.284879 L84.4061629,136.642355 L84.0337072,136.724849 C83.5419923,138.387569 80.9458111,137.267479 79.171601,138.184083 C73.9443782,140.862401 65.4604617,142.532454 60.2332389,145.645242 C59.1378889,146.296031 58.2150061,147.797429 57.3912002,148.400555 C55.5913035,149.713132 52.6061538,149.399653 51.0025762,150.613238 C49.848514,151.476679 49.0925941,153.001908 47.7440477,153.885515 C44.569918,155.265921 41.4049621,156.655493 38.2400062,158.046898 C33.8035637,161.878304 35.9502294,163.700514 31.1046361,167.735406 C29.5689445,169.016819 26.2865641,169.610778 24.4701546,171.59431 C25.0297555,170.983852 10.6140695,184.52393 7.6619454,190.142715 C5.38868143,194.465421 5.04007759,189.473594 8.94260581,184.657755 C13.8395724,178.631998 16.3843804,163.014894 17.7934738,165.66938 C20.6024868,170.983852 18.4704991,162.717914 19.226419,159.410806 C19.6502479,157.57943 20.6355124,156.792984 21.839113,155.672893 C24.5031803,153.198062 25.471932,147.067812 27.4993385,143.533386 C31.3761801,136.785345 34.7025947,129.461677 38.4950375,122.695304 C41.2104779,117.862966 44.6726644,113.479764 47.3367316,108.766585 C48.4302468,106.816051 50.747545,105.384315 50.5438869,102.916816 C49.8815396,103.281624 50.1622575,103.485111 49.0503947,103.230295 L49.7971408,103.078138 C49.712742,102.086372 50.3053685,101.230264 51.1713738,100.636304 L51.4942911,101.001113 C51.1291744,101.551075 50.8484566,102.102871 50.9163426,102.841654 L51.290633,102.76466 C51.6722625,100.925951 53.8446148,100.586808 54.998677,98.9662513 C56.101366,97.4061907 56.8994853,94.8635304 57.8407157,93.1934773 C58.7654332,92.56652 59.680977,91.9468955 60.6075293,91.3199381 C62.0918477,88.5737916 63.8807359,85.3858419 65.9613503,82.8670132 C66.8768941,82.2400559 67.8016117,81.6204314 68.7263292,80.9861412 C70.7720833,77.4003851 73.8012672,74.2197682 76.49836,70.7366718 C77.872593,68.9474602 78.7129118,66.819105 81.1311215,65.4460318 L80.8082043,65.0812232 C78.3312823,65.9959943 78.0945986,67.9135306 77.0249353,69.3287676 C75.4048448,71.4901206 73.2233187,72.8301961 71.272972,74.8558916 C69.973964,76.2032999 69.5317875,78.6213021 68.1337027,79.8238869 C67.1906376,80.6378315 65.9356637,79.9852093 65.1540572,80.4508443 C64.4751971,80.8578166 64.2898867,82.3665473 63.7706504,82.9018442 C59.2571481,87.5636937 55.3289333,92.1852126 52.2667238,97.3896919 C50.2466563,100.83979 47.0560138,103.230295 45.0286073,106.67306 C39.4546154,116.159915 33.6255923,125.49278 28.4148823,135.157456 C25.0646159,141.379366 16.7329842,154.418979 13.1166781,160.708717 C11.6507072,163.26971 11.9461031,166.981957 8.28943231,168.619013 L7.96651507,168.26337 L8.3408055,168.179042 C7.90046381,164.142317 13.5074813,160.098259 15.3495774,156.792984 C19.4814502,149.416152 27.941515,134.986967 32.1577866,127.476312 C44.1809495,106.163428 57.6113711,84.4105749 75.3186112,65.3855359 C82.2943575,57.9005451 90.6003026,51.203834 97.2953311,43.5153571 L96.9724138,43.1487154 L92.8570538,44.0231559 C92.2038803,45.0827505 88.4462979,45.3870631 86.4427432,45.8123675 C83.6520777,46.4044939 81.6228364,47.1762747 79.9770594,48.0415492 L73.9884124,49.3046299 C69.8308529,51.4824817 64.688029,53.4238497 60.844213,55.535706 L52.6134929,57.2809206 C51.2979721,57.9775399 48.9146227,58.9436408 47.5899281,59.6384269 C44.5956046,61.2058202 39.2509574,61.4349713 37.0198928,62.732883 C39.8949571,73.9319544 37.4015223,82.9605069 37.8510377,93.1256486 C37.9446103,95.2283389 39.351869,104.629033 38.24918,105.519972 C36.0016026,109.105728 19.9309657,95.0156867 16.2834687,90.8029733 C16.6981238,85.834978 16.417406,80.2565242 15.9091783,74.9567181 C15.450489,70.184876 17.3678101,66.098654 16.4265798,61.071996 C11.9644507,60.5366991 9.29120965,59.5027694 5.11713738,57.8675474 C2.74112702,55.4587112 1.78154909,54.0526402 0,51.6346381 C1.79072287,48.1772066 2.69892761,46.0580175 6.83080046,43.2953721 C10.4195852,41.826972 13.9991962,40.3530723 17.587981,38.8681733 C17.4283571,37.1816214 17.2577247,35.4950694 17.0962661,33.8066843 C20.0080255,25.7533989 17.9787842,15.6322541 21.0079681,7.57713545 C21.9161728,5.17929858 20.4905666,1.56787761 23.7582689,0.108643552 L23.7582689,0.108643552 Z M14.7624551,44.2101432 C14.0248828,45.4713907 11.5736474,45.7702037 10.428759,46.8462972 C8.88389359,48.303698 7.559199,50.2798969 6.54090885,51.9664488 C6.75374066,52.2120988 6.97391151,52.4504159 7.18674333,52.6960659 C8.62886236,52.7730606 8.79949476,53.0333762 10.4526109,52.864721 C12.4726784,53.4238497 15.0780334,52.7895595 17.0889271,52.3147585 C16.5623518,49.4567862 17.6577018,47.1597758 16.953155,44.1679794 C16.2229217,44.1753122 15.4926884,44.1918111 14.7624551,44.2101432 L14.7624551,44.2101432 Z M83.4814453,61.071996 C83.3126477,61.9702682 82.411782,62.4450693 82.4723289,63.444168 L82.8356108,63.3598404 C82.9640438,62.4872331 83.6263911,61.8254447 84.5511087,61.282815 L84.2281914,60.9180065 L83.4814453,61.071996 Z M90.3617842,67.3709008 C90.2094994,67.6935455 89.2774428,68.1500145 89.132497,68.4891581 L92.4919371,67.7778731 L92.5433103,67.3360698 L92.2295669,66.9712613 L90.3617842,67.3709008 Z M89.0811238,71.9392567 C88.2499789,70.7440047 88.4701497,70.8209994 88.2242923,69.9722238 L86.7308,70.2875357 C85.9418545,74.1776044 81.580637,76.7715946 78.696399,79.7377261 C75.6837279,82.8340155 73.749894,87.0632277 70.8821687,90.4381648 C72.1976895,91.4555956 72.1720029,90.870802 72.5371196,91.8039052 C72.2986012,92.3868656 71.3225104,92.9899912 70.8913425,93.4482933 L71.212425,93.8039358 L71.9591711,93.6517795 C72.9444356,90.8873009 79.6211165,87.3088777 78.5441141,84.0805973 C77.6102228,84.1905898 77.4230776,84.2327536 76.7277046,84.0292675 L77.4744508,83.8771112 C78.2211969,81.7744209 82.0815257,81.0356378 82.7934114,78.8742849 C81.9384146,78.7807912 82.3714173,78.8834509 81.7255828,78.6707987 C84.4061629,77.9338488 85.4758262,76.441617 87.2151759,75.3563575 L86.8922586,74.991549 C86.0097405,75.3215266 85.1198833,75.6533373 84.2281914,75.9833149 L83.9052742,75.6185064 L84.2795646,75.5415116 C84.7621057,73.9997832 86.9252843,72.7440353 89.0811238,71.9392567 L89.0811238,71.9392567 Z M64.5687697,82.2987185 L65.3155159,82.1465622 L65.6384331,82.5022047 C64.7816016,82.4178771 65.2146042,82.5113707 64.5687697,82.2987185 L64.5687697,82.2987185 Z M64.1449409,82.8248494 L64.891687,82.6635271 L65.2054304,83.0283356 C64.3577727,82.9348419 64.7889406,83.0283356 64.1449409,82.8248494 L64.1449409,82.8248494 Z M63.721112,83.3418143 L64.4678581,83.1804919 L64.4164849,83.6314612 C64.3394251,84.4949025 63.8220236,85.2153535 62.4477906,84.9018748 L63.1853629,84.7497185 C63.2624227,84.2327536 63.660565,83.8606123 63.721112,83.3418143 L63.721112,83.3418143 Z M62.0239617,85.4280057 L62.7707078,85.2666833 L63.0936251,85.6314918 C62.2276198,85.5379982 62.6606224,85.6406579 62.0239617,85.4280057 L62.0239617,85.4280057 Z M64.7210546,93.4647922 C64.49171,94.236573 63.7559724,95.0248527 63.0165653,95.5399844 L63.3468216,95.9066261 L64.0862286,95.7453037 C64.0348554,94.6087144 65.2219433,94.3209006 66.1558346,93.5821176 L65.8329173,93.2264751 L64.7210546,93.4647922 Z M52.589641,97.7545004 C53.4794982,97.7196694 53.3859256,97.6866717 54.0317601,97.8718257 L53.285014,98.0331481 C53.0721821,98.1358078 52.5712935,98.2128025 52.589641,97.7545004 L52.589641,97.7545004 Z M52.114439,98.7114353 L52.8611851,98.5519461 L53.1822676,98.9149214 C52.325436,98.8305938 52.7584387,98.9240875 52.114439,98.7114353 L52.114439,98.7114353 Z M51.6887753,99.2375661 L52.4355214,99.0762438 L52.7584387,99.4410523 C51.9016071,99.3475587 52.3346098,99.4483851 51.6887753,99.2375661 L51.6887753,99.2375661 Z M50.8484566,100.271496 L51.5878637,100.119339 L51.9089462,100.484148 C51.0612884,100.390654 51.4942911,100.484148 50.8484566,100.271496 L50.8484566,100.271496 Z M67.4548426,98.0514802 C68.4382723,98.9662513 67.5979536,98.5757778 68.8382494,98.6197748 C68.9630129,98.2458003 68.8290756,98.4657853 69.2620783,98.093644 L68.939161,97.7380015 L67.4548426,98.0514802 Z M65.4347751,99.763697 C65.0696584,100.949783 63.7467986,102.22203 62.5248504,102.968146 L62.8459329,103.323788 L65.0788322,102.858153 C65.1540572,101.695899 65.7833789,100.636304 66.8768941,99.8901884 L66.5539769,99.5345459 L65.4347751,99.763697 Z M48.6265658,103.756425 L49.3733119,103.595103 L49.6943944,103.959912 C48.8393976,103.875584 49.2705655,103.969078 48.6265658,103.756425 L48.6265658,103.756425 Z M54.8720788,106.308252 C54.4372414,106.977373 53.9968997,107.639161 53.5547232,108.308282 L53.8794752,108.673091 L54.998677,108.436607 C55.0922496,107.639161 55.5674517,106.960874 56.3141978,106.434743 L55.9912806,106.069935 L54.8720788,106.308252 Z M59.0883505,107.571333 C58.7562594,111.267081 54.530814,113.411935 51.5878637,116.040756 C49.6026566,117.820802 50.0778586,120.796099 47.9128453,122.84746 C48.5751926,123.569744 48.3898822,122.873125 48.5660188,123.569744 C48.4559334,124.136206 48.338509,124.2132 47.7183611,124.611007 L48.0412783,124.975815 L49.1604801,124.737498 C49.1182807,123.254432 50.679659,124.16187 51.5364905,122.940954 C51.8502339,122.500983 50.7824053,120.973921 51.086975,120.456956 C51.6630887,119.507354 53.3180396,119.914326 54.1675321,118.948225 C55.5582779,117.336835 53.3694128,115.030658 56.8389383,114.506361 C55.9747678,113.523761 55.829822,114.022394 56.6187675,113.259779 C57.0425964,112.251514 58.706721,112.878471 59.2754957,112.268013 C59.0791767,111.87754 58.8846924,111.487066 58.6883734,111.098426 C59.7250112,109.571363 61.4992212,108.715255 62.3890784,107.300018 L62.0661611,106.935209 L59.0883505,107.571333 Z M52.6134929,110.233151 C52.5125812,110.953602 52.121778,111.325744 51.3493453,111.793212 C51.5621771,112.029696 51.7731742,112.277179 51.986006,112.513663 L52.3602964,112.436668 C52.4520343,111.606225 53.0556693,111.063595 52.9786095,110.156157 L52.6134929,110.233151 Z M50.0778586,113.353272 C51.0025762,113.538427 50.8411176,113.573258 51.1970604,113.116789 L50.0778586,113.353272 Z M46.4028403,126.61287 L46.7257575,126.975846 C46.8193301,127.40115 45.9881852,127.223329 46.6743843,127.417649 C47.4376433,127.637634 47.8889935,127.545974 48.8632495,127.382818 C48.6595915,126.994178 48.4651072,126.61287 48.2614492,126.222397 L46.4028403,126.61287 Z M44.4524936,127.883284 C44.9442084,128.799888 44.7919236,128.774223 44.9955816,129.494674 L45.7423278,129.340685 C45.6817808,128.645899 45.8780998,128.442413 46.2597292,127.934614 L45.936812,127.569805 L44.4524936,127.883284 Z M92.9928258,134.402174 C94.5285174,134.004368 96.9797529,133.232587 98.5007664,133.657891 C96.9650748,134.055697 94.5211784,134.825645 92.9928258,134.402174 L92.9928258,134.402174 Z M121.613201,130.917244 C122.774602,130.867748 125.745074,130.257289 127.067934,130.62943 L126.695478,130.706425 C126.482646,131.164727 125.794612,131.307718 124.79467,131.536869 C123.860778,131.298552 122.11409,131.689025 121.187537,131.436042 C121.637053,131.071234 121.484768,131.293052 121.613201,130.917244 L121.613201,130.917244 Z M148.152961,126.585372 L152.598578,125.644936 C152.81141,125.890586 153.022407,126.128903 153.226065,126.374553 L152.497666,126.535876 C151.82798,127.864952 149.077679,127.765959 146.514523,128.231594 L146.193441,127.864952 L146.556723,127.78979 C146.753042,127.408483 147.965816,126.975846 148.152961,126.585372 L148.152961,126.585372 Z" id="Fill-25" fill="#62A443" mask="url(#mask-4)"></path>
            </g>
            <path d="M145.396167,133.387023 C140.297306,138.487713 133.285457,141.635181 125.503658,141.635181 C117.723688,141.635181 110.711839,138.487713 105.611148,133.387023 C100.512287,128.288161 97.3757921,121.276312 97.3757921,113.503658 C97.3757921,105.721859 100.512287,98.7026943 105.611148,93.6038329 C110.711839,88.5122868 117.723688,85.3648189 125.503658,85.3648189 C133.285457,85.3648189 140.297306,88.5122868 145.396167,93.6038329 C150.495029,98.7026943 153.633352,105.721859 153.633352,113.503658 C153.633352,121.276312 150.495029,128.288161 145.396167,133.387023 M125.503658,78 C105.890964,78 90,93.8909639 90,113.503658 C90,133.107207 105.890964,149 125.503658,149 C145.109036,149 161,133.107207 161,113.503658 C161,93.8909639 145.109036,78 125.503658,78" id="Fill-27" fill="#585A5A"></path>
            <path d="M218.39474,133.387023 C213.29601,138.487713 206.284342,141.635181 198.502743,141.635181 C190.722973,141.635181 183.711305,138.487713 178.610746,133.387023 C173.512016,128.288161 170.373773,121.276312 170.373773,113.503658 C170.373773,105.721859 173.512016,98.7118386 178.610746,93.6038329 C183.711305,88.5122868 190.722973,85.3648189 198.502743,85.3648189 C206.284342,85.3648189 213.29601,88.5122868 218.39474,93.6038329 C223.495299,98.7026943 226.633542,105.721859 226.633542,113.503658 C226.633542,121.276312 223.495299,128.288161 218.39474,133.387023 M198.502743,78 C178.899699,78 163,93.8909639 163,113.503658 C163,133.107207 178.899699,149 198.502743,149 C218.114932,149 234,133.107207 234,113.503658 C234,93.8909639 218.114932,78 198.502743,78" id="Fill-28" fill="#585A5A"></path>
            <path d="M296.406641,78.1694349 C294.867179,77.6884652 293.182415,78.2553877 292.255427,79.5666245 L270.99908,109.725073 L249.735376,79.5666245 C248.817585,78.2553877 247.125464,77.6884652 245.586002,78.1694349 C244.053897,78.6522334 243,80.0823411 243,81.6806968 L243,145.311346 C243,147.34861 244.657175,149 246.707952,149 C248.749532,149 250.408546,147.34861 250.408546,145.311346 L250.408546,93.3684441 L267.964299,118.265486 C268.661379,119.247542 269.783328,119.830923 270.99908,119.830923 C272.207475,119.830923 273.338621,119.247542 274.035701,118.265486 L291.584097,93.3684441 L291.584097,145.311346 C291.584097,147.34861 293.243111,149 295.292048,149 C297.342825,149 299,147.34861 299,145.311346 L299,81.6806968 C299,80.0823411 297.946103,78.6522334 296.406641,78.1694349" id="Fill-29" fill="#585A5A"></path>
            <path d="M470.304096,85.3737733 C472.346376,85.3737733 474,83.7260129 474,81.6868866 C474,79.6495892 472.346376,78 470.304096,78 L413.695904,78 C411.653624,78 410,79.6495892 410,81.6868866 C410,83.7260129 411.653624,85.3737733 413.695904,85.3737733 L438.298596,85.3737733 L438.298596,145.320429 C438.298596,147.359555 439.95222,149 441.9945,149 C444.038614,149 445.692237,147.359555 445.692237,145.320429 L445.692237,85.3737733 L470.304096,85.3737733" id="Fill-30" fill="#585A5A"></path>
            <path d="M397.901756,80.2915751 C397.336902,78.9052911 395.99583,78 394.496235,78 C393.005749,78 391.664677,78.9052911 391.101646,80.2915751 L365.273252,143.927135 C364.506144,145.812701 365.40991,147.961624 367.286682,148.72975 C369.167099,149.492389 371.308077,148.585269 372.073362,146.708848 L380.72838,125.380556 C380.786687,125.387872 380.844995,125.40616 380.905124,125.40616 L398.187827,125.40616 C400.217657,125.40616 401.861199,123.745546 401.861199,121.717328 C401.861199,119.679966 400.217657,118.030324 398.187827,118.030324 L383.711172,118.030324 L394.496235,91.4550026 L416.926395,146.708848 C417.693503,148.585269 419.834481,149.492389 421.713075,148.72975 C423.59167,147.961624 424.493614,145.812701 423.726506,143.927135 L397.901756,80.2915751" id="Fill-31" fill="#585A5A"></path>
            <path d="M517.727572,143.921917 L491.902822,80.2843323 C491.33987,78.8961752 490.008096,78 488.508712,78 C487.007506,78 485.668445,78.8961752 485.103671,80.2843323 L459.273456,143.921917 C458.506456,145.807543 459.408273,147.96385 461.286602,148.726514 C463.164931,149.494664 465.305607,148.589344 466.072607,146.703718 L474.73369,125.363775 C474.850289,125.372919 474.968709,125.398524 475.08713,125.398524 L492.367394,125.398524 C494.396937,125.398524 496.040248,123.74883 496.040248,121.709574 C496.040248,119.672147 494.396937,118.031598 492.367394,118.031598 L477.716062,118.031598 L488.508712,91.448115 L510.928421,146.703718 C511.695421,148.589344 513.834275,149.494664 515.712604,148.726514 C517.590933,147.96385 518.49275,145.807543 517.727572,143.921917" id="Fill-32" fill="#585A5A"></path>
            <path d="M349.352231,133.276405 C344.232243,138.366068 337.213112,141.497607 329.413059,141.497607 L329.380062,141.497607 L317.383928,141.614401 L317.383928,85.4675157 L329.422224,85.3580213 C337.213112,85.3671459 344.239576,88.4986847 349.352231,93.5865229 C354.463054,98.6670614 357.617905,105.663751 357.617905,113.426902 C357.617905,121.191877 354.463054,128.188567 349.352231,133.276405 M329.413059,78 L329.380062,78 L313.653468,78.1514672 C311.627837,78.1678914 310,79.8139566 310,81.8304779 L310,145.318961 C310,146.306235 310.390461,147.244237 311.085225,147.935876 C311.796487,148.627515 312.738726,149.007096 313.721295,148.9999 L329.446055,148.846504 L329.413059,148.846504 C349.064427,148.846504 364.992667,132.997195 365,113.426902 C364.992667,93.856609 349.064427,78.0072996 329.413059,78" id="Fill-33" fill="#585A5A"></path>
            <path d="M513.556777,78.2044175 L514.250916,78.2044175 C515.064103,78.2044175 515.716117,77.9266638 515.716117,77.2585535 C515.716117,76.6598816 515.29304,76.269525 514.368132,76.269525 C513.979853,76.269525 513.708791,76.3126895 513.556777,76.3464703 L513.556777,78.2044175 Z M513.512821,81.8414898 L512.047619,81.8414898 L512.047619,75.3593186 C512.631868,75.2804966 513.445055,75.1678937 514.478022,75.1678937 C515.673993,75.1678937 516.214286,75.3593186 516.639194,75.6802368 C517.027473,75.9561138 517.298535,76.4252923 517.298535,77.0596218 C517.298535,77.8497185 516.714286,78.3620615 515.987179,78.6041576 L515.987179,78.6829796 C516.604396,78.8819114 516.910256,79.3942544 517.104396,80.2612964 C517.298535,81.242818 517.452381,81.6069005 517.571429,81.8414898 L516.020147,81.8414898 C515.833333,81.6069005 515.716117,81.0513931 515.521978,80.2612964 C515.40293,79.5856792 515.021978,79.2741447 514.216117,79.2741447 L513.512821,79.2741447 L513.512821,81.8414898 Z M514.478022,73.3024397 C511.74359,73.3024397 509.626374,75.6370723 509.626374,78.4840479 C509.626374,81.3648044 511.74359,83.6543958 514.554945,83.6543958 C517.298535,83.699437 519.382784,81.3648044 519.382784,78.5178288 C519.382784,75.6370723 517.298535,73.3024397 514.521978,73.3024397 L514.478022,73.3024397 Z M514.554945,72 C518.14652,72 521,74.8469756 521,78.4840479 C521,82.1192435 518.14652,85 514.521978,85 C510.895604,85 508,82.1192435 508,78.4840479 C508,74.8469756 510.895604,72 514.521978,72 L514.554945,72 L514.554945,72 Z" id="Fill-34" fill="#585A5A"></path>
            <path d="M93.2065448,123.678378 C91.1584216,124.103119 89.0865255,124.535343 87,124.976923 C87.3456208,126.984615 88.2252166,128.992308 89.6534167,131 C92.1824832,130.245946 95.133975,130.11684 98.2628489,130.056965 C100.150048,130.013929 103.176516,129.001663 106,128.125988 C105.367276,126.086486 104.079885,124.043243 103.363041,122 C100.808373,122.658628 96.0227141,123.090852 93.2065448,123.678378" id="Fill-35" fill="#62A443"></path>
        </g>
    </g>
</svg>