"contract_number"	"amendment_number"	"award_date"	"expiry_date"	"contract_value"	"gsin_description"	"competitive_tender"	"limited_tender_reason_description"	"solicitation_procedure"	"solicitation_procedure_description"	"trade_agreement_description"	"supplier_standardized_name"	"supplier_operating_name"	"supplier_legal_name"	"supplier_address_city"	"supplier_address_prov_state"	"supplier_address_postal_code"	"supplier_address_country"	"organization_employee_count"	"total_contract_value"	"number_records"	"end_user_entity"	"contracting_entity_office_name"	"contracting_address_street_1"	"contracting_address_street_2"	"contracting_address_city"	"contracting_address_prov_state"	"contracting_address_postal_code"	"contracting_address_country"	"country_percentage"	"date_file_published"
"EP961-192012/001/ZM"	"002"	"2020-04-09 00:00:00"	"2021-04-11 00:00:00"	"451250.0"	"Informatics Professional and Consulting Services - Maintenance Operations, Support"	"No"	"Exclusive Rights"	"TN"	"Traditional Non-Competitive"	"CETA / WTO-AGP / NAFTA / CFTA / FTAs with Peru / Colombia / Panama / Korea"	"ORACLE CANADA ULC"	"Oracle Canada ULC"	"Oracle Canada ULC"	"Ottawa"	"Ontario"	"K1P1A4"	"Canada"	"1500 to 2499 employees"	"959902.0"	"3"	"Public Works and Government Services Canada"	"PAY SYSTEMS SERVICES"	"165 Hotel de Ville"	"3RD Floor room 330"	"Gatineau"	"Quebec"	"K1A0S5"	"Canada"	""	"2021-03-25 23:00:50"
"T8086-172007/001/ZM"	"002"	"2020-11-02 00:00:00"	"2021-11-09 00:00:00"	"531806.0"	"Informatics Professional Services"	"No"	"Exclusive Rights"	"TN"	"Traditional Non-Competitive"	"CETA / WTO-AGP / NAFTA / CFTA / FTAs with Peru / Colombia / Panama / Korea"	"MICROSOFT CANADA INC"	"MICROSOFT CANADA INC."	"MICROSOFT CANADA INC."	"Ottawa"	"Ontario"	"K1P1J9"	"Canada"	"500 to 999 employees"	"2916671.0"	"3"	"Transport Canada"	"AFCGA"	"IASD PDV TWR C 20TH FL."	"330 SPARKS ST"	"OTTAWA"	"Ontario"	"K1A0N5"	"Canada"	""	"2021-03-25 23:01:06"
